{"total_pages":275,"total_records":13717,"next":"https://khalti.com/api/v2/vuservote/?page=2","previous":null,"record_range":[1,50],"current_page":1,"records":[{"idx":"GNMAfTDbjcN8VwHXwS3ai6","contest":"Locus 2020","episode":"Locus 2020","category":null,"contestant":{"voting_id":"08","name":"Project A Smart Approach Towards Lifestyle in Nepal"},"vote_count":1,"created_on":"2020-02-03T18:59:57.817841+05:45"},{"idx":"uP7cc7rAzVjb3c7SVEnxKJ","contest":"Locus 2020","episode":"Locus 2020","category":null,"contestant":{"voting_id":"94","name":"Project Solar Wiper"},"vote_count":1,"created_on":"2020-02-03T18:58:51.373966+05:45"},{"idx":"veTyDKcaSTvjf2gZ96HbcC","contest":"Locus 2020","episode":"Locus 2020","category":null,"contestant":{"voting_id":"19","name":"Project CNC Drawing Machine"},"vote_count":1,"created_on":"2020-02-03T18:58:48.201531+05:45"},{"idx":"UagcCWFLy9ksXEvUe4FhkF","contest":"Locus 2020","episode":"Locus 2020","category":null,"contestant":{"voting_id":"94","name":"Project Solar Wiper"},"vote_count":1,"created_on":"2020-02-03T18:54:59.251738+05:45"},{"idx":"nZLF8qR8Ge25xCntU7P6Q9","contest":"Locus 2020","episode":"Locus 2020","category":null,"contestant":{"voting_id":"13","name":"Project Smart Fire Detector"},"vote_count":1,"created_on":"2020-02-03T18:49:35.914271+05:45"},{"idx":"ySgtUA9hu9PugvzvW3hix4","contest":"Locus 2020","episode":"Locus 2020","category":null,"contestant":{"voting_id":"43","name":"Project Tesla Coil"},"vote_count":1,"created_on":"2020-02-03T18:40:53.655015+05:45"},{"idx":"5mWfVdU3bjwx5jUp8GKnUT","contest":"Locus 2020","episode":"Locus 2020","category":null,"contestant":{"voting_id":"93","name":"Earthquake Instance Information"},"vote_count":1,"created_on":"2020-02-03T18:23:47.326777+05:45"},{"idx":"VCExahqUQWiw6CGFXGCyNB","contest":"Locus 2020","episode":"Locus 2020","category":null,"contestant":{"voting_id":"29","name":"Project Accident Alert System"},"vote_count":1,"created_on":"2020-02-03T18:22:15.485672+05:45"},{"idx":"W3gG6sggFPGMy6uskoU7oJ","contest":"Locus 2020","episode":"Locus 2020","category":null,"contestant":{"voting_id":"08","name":"Project A Smart Approach Towards Lifestyle in Nepal"},"vote_count":1,"created_on":"2020-02-03T18:20:48.820687+05:45"},{"idx":"q2e4jJHsFRBZzhCWfaMRha","contest":"Locus 2020","episode":"Locus 2020","category":null,"contestant":{"voting_id":"34","name":"Project Femicoders"},"vote_count":1,"created_on":"2020-02-03T18:16:54.647983+05:45"},{"idx":"FANzSrVJFCV2B9umxNZGXj","contest":"Model Superstar","episode":"Model Superstar Finale","category":null,"contestant":{"voting_id":"01","name":"Sajina Subba"},"vote_count":1,"created_on":"2020-02-03T18:14:21.262351+05:45"},{"idx":"nLixacPEHPuVKWExmzgsfd","contest":"Locus 2020","episode":"Locus 2020","category":null,"contestant":{"voting_id":"80","name":"Project Hexapod"},"vote_count":1,"created_on":"2020-02-03T17:38:59.301815+05:45"},{"idx":"f8qKVsaoMDZCQ9Dc8KNJDR","contest":"Locus 2020","episode":"Locus 2020","category":null,"contestant":{"voting_id":"24","name":"Project Library App"},"vote_count":1,"created_on":"2020-02-03T17:35:19.866340+05:45"},{"idx":"JUFhEa6RSXKkbZMpuSpeHM","contest":"Locus 2020","episode":"Locus 2020","category":null,"contestant":{"voting_id":"54","name":"Project LCR Meter"},"vote_count":1,"created_on":"2020-02-03T17:33:59.135591+05:45"},{"idx":"hsStjuPaaVs4ioLsxejGjK","contest":"Locus 2020","episode":"Locus 2020","category":null,"contestant":{"voting_id":"23","name":"Project Home Automation"},"vote_count":1,"created_on":"2020-02-03T17:30:56.274965+05:45"},{"idx":"duDyepHkEQCqNN2fegCubW","contest":"Locus 2020","episode":"Locus 2020","category":null,"contestant":{"voting_id":"66","name":"Project Alexa Pi"},"vote_count":1,"created_on":"2020-02-03T17:14:26.689124+05:45"},{"idx":"nJXPdNVjwNZDNYbzAHx4sc","contest":"Locus 2020","episode":"Locus 2020","category":null,"contestant":{"voting_id":"14","name":"Project TeeForges"},"vote_count":1,"created_on":"2020-02-03T17:13:52.934467+05:45"},{"idx":"yripp3vnj6foKZFMjsE6Pg","contest":"Locus 2020","episode":"Locus 2020","category":null,"contestant":{"voting_id":"66","name":"Project Alexa Pi"},"vote_count":1,"created_on":"2020-02-03T17:12:13.413293+05:45"},{"idx":"PPPaVrfqwVjFPFJBHFkPHB","contest":"Locus 2020","episode":"Locus 2020","category":null,"contestant":{"voting_id":"80","name":"Project Hexapod"},"vote_count":1,"created_on":"2020-02-03T17:11:13.171514+05:45"},{"idx":"4ywTzQXimZNegqFyCnwXNW","contest":"Locus 2020","episode":"Locus 2020","category":null,"contestant":{"voting_id":"01","name":"Project Fire Robo"},"vote_count":1,"created_on":"2020-02-03T17:02:58.128588+05:45"},{"idx":"T4eLViZpqWM3Ms8EVjDLc6","contest":"Model Superstar","episode":"Model Superstar Finale","category":null,"contestant":{"voting_id":"01","name":"Sajina Subba"},"vote_count":1,"created_on":"2020-02-03T17:02:46.892124+05:45"},{"idx":"PKmnHKhwvPSdiB4aZnHajK","contest":"Locus 2020","episode":"Locus 2020","category":null,"contestant":{"voting_id":"31","name":"Project 3 in 1 Cartesian 3D Printer"},"vote_count":500,"created_on":"2020-02-03T17:02:31.139716+05:45"},{"idx":"QhK63sSLczhZhKWByEskFA","contest":"Locus 2020","episode":"Locus 2020","category":null,"contestant":{"voting_id":"31","name":"Project 3 in 1 Cartesian 3D Printer"},"vote_count":500,"created_on":"2020-02-03T17:01:19.804676+05:45"},{"idx":"osckCPDwXsRhvLVKosWD8E","contest":"Locus 2020","episode":"Locus 2020","category":null,"contestant":{"voting_id":"31","name":"Project 3 in 1 Cartesian 3D Printer"},"vote_count":500,"created_on":"2020-02-03T17:00:42.560291+05:45"},{"idx":"f7vsGm2uUhyfpSNckkLDqT","contest":"Locus 2020","episode":"Locus 2020","category":null,"contestant":{"voting_id":"43","name":"Project Tesla Coil"},"vote_count":1,"created_on":"2020-02-03T17:00:18.163314+05:45"},{"idx":"JaBmx7SaZmb8YhBvzZebQh","contest":"Locus 2020","episode":"Locus 2020","category":null,"contestant":{"voting_id":"31","name":"Project 3 in 1 Cartesian 3D Printer"},"vote_count":500,"created_on":"2020-02-03T16:59:52.378432+05:45"},{"idx":"uBzm3EMVPcadfFBY8AcNj2","contest":"Locus 2020","episode":"Locus 2020","category":null,"contestant":{"voting_id":"19","name":"Project CNC Drawing Machine"},"vote_count":1,"created_on":"2020-02-03T16:55:56.695197+05:45"},{"idx":"nrPps4HhbzQpkixkRbTJXZ","contest":"Model Superstar","episode":"Model Superstar Finale","category":null,"contestant":{"voting_id":"21","name":"Padam Bahadur Ranamagar"},"vote_count":1,"created_on":"2020-02-03T16:49:06.163098+05:45"},{"idx":"LokMizPALjLPRcD5c2JyGU","contest":"Model Superstar","episode":"Model Superstar Finale","category":null,"contestant":{"voting_id":"21","name":"Padam Bahadur Ranamagar"},"vote_count":1,"created_on":"2020-02-03T16:47:40.123968+05:45"},{"idx":"FHtwGvw86UyZHLveDMgXy6","contest":"Locus 2020","episode":"Locus 2020","category":null,"contestant":{"voting_id":"94","name":"Project Solar Wiper"},"vote_count":1,"created_on":"2020-02-03T16:46:34.010051+05:45"},{"idx":"YwnWBGdRazhEMHrQrvXRKL","contest":"Locus 2020","episode":"Locus 2020","category":null,"contestant":{"voting_id":"34","name":"Project Femicoders"},"vote_count":1,"created_on":"2020-02-03T16:45:45.619373+05:45"},{"idx":"fCPr7uuurDTcmoUe5ik7oX","contest":"Locus 2020","episode":"Locus 2020","category":null,"contestant":{"voting_id":"43","name":"Project Tesla Coil"},"vote_count":1,"created_on":"2020-02-03T16:45:07.147817+05:45"},{"idx":"V6kChdRK7kvKSwfJ4Q8Muc","contest":"Locus 2020","episode":"Locus 2020","category":null,"contestant":{"voting_id":"43","name":"Project Tesla Coil"},"vote_count":1,"created_on":"2020-02-03T16:38:34.330676+05:45"},{"idx":"vL2Tc9jvXsHz79gKohysPQ","contest":"Model Superstar","episode":"Model Superstar Finale","category":null,"contestant":{"voting_id":"04","name":"Sabita Maharjan"},"vote_count":1,"created_on":"2020-02-03T16:38:20.219565+05:45"},{"idx":"prsRAL6k2NuaCNSGTquUBe","contest":"Locus 2020","episode":"Locus 2020","category":null,"contestant":{"voting_id":"23","name":"Project Home Automation"},"vote_count":1,"created_on":"2020-02-03T16:35:25.789679+05:45"},{"idx":"N8nZ3fKvwNkbmEcTqWjx2f","contest":"Locus 2020","episode":"Locus 2020","category":null,"contestant":{"voting_id":"23","name":"Project Home Automation"},"vote_count":1,"created_on":"2020-02-03T16:34:03.109700+05:45"},{"idx":"X3bpj7F6mmd62SJuFnucib","contest":"Locus 2020","episode":"Locus 2020","category":null,"contestant":{"voting_id":"19","name":"Project CNC Drawing Machine"},"vote_count":1,"created_on":"2020-02-03T15:57:23.679306+05:45"},{"idx":"3kme3CkQfQgcW8Sccz7Kwc","contest":"Locus 2020","episode":"Locus 2020","category":null,"contestant":{"voting_id":"19","name":"Project CNC Drawing Machine"},"vote_count":1,"created_on":"2020-02-03T15:54:22.118659+05:45"},{"idx":"S2yTXN2LERDrkEGBgN52nX","contest":"Locus 2020","episode":"Locus 2020","category":null,"contestant":{"voting_id":"31","name":"Project 3 in 1 Cartesian 3D Printer"},"vote_count":1,"created_on":"2020-02-03T15:40:51.413185+05:45"},{"idx":"ENqYGNRDePzdL8vgw8t2gP","contest":"Locus 2020","episode":"Locus 2020","category":null,"contestant":{"voting_id":"31","name":"Project 3 in 1 Cartesian 3D Printer"},"vote_count":1,"created_on":"2020-02-03T15:32:34.834990+05:45"},{"idx":"wLVQ4SHbVqjadksSRgyNdk","contest":"Locus 2020","episode":"Locus 2020","category":null,"contestant":{"voting_id":"60","name":"Project EMG Contolled Prosthetic Arm"},"vote_count":1,"created_on":"2020-02-03T15:31:01.114064+05:45"},{"idx":"9M4sHi8xQofLNTpaaZMHdf","contest":"Locus 2020","episode":"Locus 2020","category":null,"contestant":{"voting_id":"54","name":"Project LCR Meter"},"vote_count":1,"created_on":"2020-02-03T15:30:30.818500+05:45"},{"idx":"krrwfi67pibgUFaAsyRRL8","contest":"Locus 2020","episode":"Locus 2020","category":null,"contestant":{"voting_id":"43","name":"Project Tesla Coil"},"vote_count":1,"created_on":"2020-02-03T15:28:45.054018+05:45"},{"idx":"uc9U8poJHECnhDibv79G2N","contest":"Locus 2020","episode":"Locus 2020","category":null,"contestant":{"voting_id":"43","name":"Project Tesla Coil"},"vote_count":1,"created_on":"2020-02-03T15:11:06.579893+05:45"},{"idx":"JTNHPMRRQS5LZKwLB8hCxP","contest":"Locus 2020","episode":"Locus 2020","category":null,"contestant":{"voting_id":"43","name":"Project Tesla Coil"},"vote_count":1,"created_on":"2020-02-03T15:10:20.577756+05:45"},{"idx":"PfM2d2xawFXQNDY6TkYkMj","contest":"Locus 2020","episode":"Locus 2020","category":null,"contestant":{"voting_id":"54","name":"Project LCR Meter"},"vote_count":1,"created_on":"2020-02-03T15:10:02.635028+05:45"},{"idx":"9e8MvBaVKcuuYoBSXNtEP8","contest":"Model Superstar","episode":"Model Superstar Finale","category":null,"contestant":{"voting_id":"01","name":"Sajina Subba"},"vote_count":1,"created_on":"2020-02-03T15:09:30.326298+05:45"},{"idx":"V232uDd5PMhBr5xGeyYZxD","contest":"Locus 2020","episode":"Locus 2020","category":null,"contestant":{"voting_id":"66","name":"Project Alexa Pi"},"vote_count":1,"created_on":"2020-02-03T15:07:46.439197+05:45"},{"idx":"hQ2c7CWACfWccJcztFnpWh","contest":"Model Superstar","episode":"Model Superstar Finale","category":null,"contestant":{"voting_id":"11","name":"Rachana Karki"},"vote_count":1,"created_on":"2020-02-03T15:06:44.864002+05:45"},{"idx":"65hQ5UE77NNB5Jo7p2MhDT","contest":"Locus 2020","episode":"Locus 2020","category":null,"contestant":{"voting_id":"12","name":"Project Green City"},"vote_count":1,"created_on":"2020-02-03T15:06:22.879613+05:45"}]}