{"total_pages":275,"total_records":13717,"next":"https://khalti.com/api/v2/vuservote/?page=11","previous":"https://khalti.com/api/v2/vuservote/?page=9","record_range":[451,500],"current_page":10,"records":[{"idx":"RFm3fafmhErFA6dFrxe42m","contest":"Locus 2020","episode":"Locus 2020","category":null,"contestant":{"voting_id":"92","name":"Project Bhakari Shopping Nepal"},"vote_count":1,"created_on":"2020-02-02T10:11:49.362959+05:45"},{"idx":"NFAPpVDSfvChm43MmmzC6N","contest":"Locus 2020","episode":"Locus 2020","category":null,"contestant":{"voting_id":"31","name":"Project 3 in 1 Cartesian 3D Printer"},"vote_count":1,"created_on":"2020-02-02T10:11:01.056022+05:45"},{"idx":"G5d2x3pHLJrhbLwwtCiHjJ","contest":"Locus 2020","episode":"Locus 2020","category":null,"contestant":{"voting_id":"12","name":"Project Green City"},"vote_count":1,"created_on":"2020-02-02T10:10:23.875113+05:45"},{"idx":"irG3xe4QnC2fwKwffhWTrg","contest":"Locus 2020","episode":"Locus 2020","category":null,"contestant":{"voting_id":"46","name":"Project Immune"},"vote_count":5,"created_on":"2020-02-02T10:08:52.947935+05:45"},{"idx":"9cxnXeHD8DypnQGD3MNEMP","contest":"Locus 2020","episode":"Locus 2020","category":null,"contestant":{"voting_id":"46","name":"Project Immune"},"vote_count":5,"created_on":"2020-02-02T10:08:17.711970+05:45"},{"idx":"W3PbBdkQChjKoMaT3iTUbR","contest":"Locus 2020","episode":"Locus 2020","category":null,"contestant":{"voting_id":"12","name":"Project Green City"},"vote_count":1,"created_on":"2020-02-02T10:07:35.990299+05:45"},{"idx":"WzminAMZUQMDH9YqVRdAAH","contest":"Locus 2020","episode":"Locus 2020","category":null,"contestant":{"voting_id":"66","name":"Project Alexa Pi"},"vote_count":1,"created_on":"2020-02-02T10:07:07.640330+05:45"},{"idx":"b6WHeLWke4w3WtAdSVPwDi","contest":"Locus 2020","episode":"Locus 2020","category":null,"contestant":{"voting_id":"12","name":"Project Green City"},"vote_count":1,"created_on":"2020-02-02T10:07:06.214468+05:45"},{"idx":"Xv6VZWV39TsMmN4VcxRsDf","contest":"Locus 2020","episode":"Locus 2020","category":null,"contestant":{"voting_id":"31","name":"Project 3 in 1 Cartesian 3D Printer"},"vote_count":1,"created_on":"2020-02-02T10:04:48.443522+05:45"},{"idx":"qgsXCRs6D8waJaZntEhFB6","contest":"Locus 2020","episode":"Locus 2020","category":null,"contestant":{"voting_id":"12","name":"Project Green City"},"vote_count":1,"created_on":"2020-02-02T10:03:03.520841+05:45"},{"idx":"S7wCNRWAhUEwBzZJk48FcN","contest":"Locus 2020","episode":"Locus 2020","category":null,"contestant":{"voting_id":"31","name":"Project 3 in 1 Cartesian 3D Printer"},"vote_count":1,"created_on":"2020-02-02T10:01:47.427178+05:45"},{"idx":"ai5eAvgP82VFcQUEBhuiqR","contest":"Locus 2020","episode":"Locus 2020","category":null,"contestant":{"voting_id":"12","name":"Project Green City"},"vote_count":1,"created_on":"2020-02-02T10:01:25.913477+05:45"},{"idx":"kA2wkiKdbPMFGbmR7Tp9aA","contest":"Locus 2020","episode":"Locus 2020","category":null,"contestant":{"voting_id":"12","name":"Project Green City"},"vote_count":1,"created_on":"2020-02-02T10:01:12.272269+05:45"},{"idx":"QSfSj6TAgfUd5DvDUra2nK","contest":"Locus 2020","episode":"Locus 2020","category":null,"contestant":{"voting_id":"34","name":"Project Femicoders"},"vote_count":1,"created_on":"2020-02-02T10:00:39.537294+05:45"},{"idx":"rihDcmh8NkuwNzmmGufXr3","contest":"Locus 2020","episode":"Locus 2020","category":null,"contestant":{"voting_id":"12","name":"Project Green City"},"vote_count":1,"created_on":"2020-02-02T10:00:20.766094+05:45"},{"idx":"tyN6pXqX9DYgwYphv4rHS4","contest":"Locus 2020","episode":"Locus 2020","category":null,"contestant":{"voting_id":"31","name":"Project 3 in 1 Cartesian 3D Printer"},"vote_count":25,"created_on":"2020-02-02T09:58:35.543883+05:45"},{"idx":"AKBpJxuFU9NChtGVbwiKPX","contest":"Locus 2020","episode":"Locus 2020","category":null,"contestant":{"voting_id":"80","name":"Project Hexapod"},"vote_count":1,"created_on":"2020-02-02T09:57:06.403800+05:45"},{"idx":"xq3Me7zVord3wNwK9FogH6","contest":"Locus 2020","episode":"Locus 2020","category":null,"contestant":{"voting_id":"31","name":"Project 3 in 1 Cartesian 3D Printer"},"vote_count":1,"created_on":"2020-02-02T09:55:49.399378+05:45"},{"idx":"DK6qoTijUHckTUDRFTKy5J","contest":"Locus 2020","episode":"Locus 2020","category":null,"contestant":{"voting_id":"66","name":"Project Alexa Pi"},"vote_count":1,"created_on":"2020-02-02T09:55:03.018172+05:45"},{"idx":"LkEEc9dMMFefL7goq2iJxA","contest":"Locus 2020","episode":"Locus 2020","category":null,"contestant":{"voting_id":"31","name":"Project 3 in 1 Cartesian 3D Printer"},"vote_count":5,"created_on":"2020-02-02T09:54:45.840073+05:45"},{"idx":"W4neGTwtFThQfMZbm6rL2Y","contest":"Locus 2020","episode":"Locus 2020","category":null,"contestant":{"voting_id":"15","name":"Project Residential Drainage Water Purification System"},"vote_count":1,"created_on":"2020-02-02T09:54:44.060831+05:45"},{"idx":"VcoePMXTetLL4hd6Ha2J6H","contest":"Locus 2020","episode":"Locus 2020","category":null,"contestant":{"voting_id":"31","name":"Project 3 in 1 Cartesian 3D Printer"},"vote_count":1,"created_on":"2020-02-02T09:54:32.839258+05:45"},{"idx":"qsCCD9vadeD6SCDuEEGKL8","contest":"Locus 2020","episode":"Locus 2020","category":null,"contestant":{"voting_id":"66","name":"Project Alexa Pi"},"vote_count":1,"created_on":"2020-02-02T09:53:09.731875+05:45"},{"idx":"2dynsEwkHi3bcFnoXroz87","contest":"Locus 2020","episode":"Locus 2020","category":null,"contestant":{"voting_id":"66","name":"Project Alexa Pi"},"vote_count":1,"created_on":"2020-02-02T09:51:30.472176+05:45"},{"idx":"pncnZ2id2Xjw2NkWWwGoxC","contest":"Model Superstar","episode":"Model Superstar Finale","category":null,"contestant":{"voting_id":"02","name":"Srijana Basnet"},"vote_count":1,"created_on":"2020-02-02T09:48:02.609439+05:45"},{"idx":"jWv5F6NtpS3bSdoHvNtowZ","contest":"Locus 2020","episode":"Locus 2020","category":null,"contestant":{"voting_id":"46","name":"Project Immune"},"vote_count":1,"created_on":"2020-02-02T09:46:22.490932+05:45"},{"idx":"osWiQxfCboE2FHoi2HRatM","contest":"Locus 2020","episode":"Locus 2020","category":null,"contestant":{"voting_id":"11","name":"Project Kissan"},"vote_count":1,"created_on":"2020-02-02T09:45:06.568331+05:45"},{"idx":"geWMavdiYqYzBoSW2mLiq2","contest":"Music Eve 2020","episode":"Music Eve 2020 IOE","category":null,"contestant":{"voting_id":"20","name":"Sinam Adhikari"},"vote_count":1,"created_on":"2020-02-02T09:44:40.794308+05:45"},{"idx":"Ej3CeDoGyYSUWoPdTgpX4d","contest":"Locus 2020","episode":"Locus 2020","category":null,"contestant":{"voting_id":"13","name":"Project Smart Fire Detector"},"vote_count":1,"created_on":"2020-02-02T09:41:47.897569+05:45"},{"idx":"C6NiPKz2MmiecJegcqdcLE","contest":"Locus 2020","episode":"Locus 2020","category":null,"contestant":{"voting_id":"11","name":"Project Kissan"},"vote_count":1,"created_on":"2020-02-02T09:39:49.444569+05:45"},{"idx":"BapPuDRwHXLxnNQrbvg72b","contest":"Locus 2020","episode":"Locus 2020","category":null,"contestant":{"voting_id":"26","name":"Project Automatic Rechargaeble Stove"},"vote_count":1,"created_on":"2020-02-02T09:39:25.266131+05:45"},{"idx":"jetySD7oGVmogn63oTFNEV","contest":"Model Superstar","episode":"Model Superstar Finale","category":null,"contestant":{"voting_id":"12","name":"Rabin Ghising"},"vote_count":1,"created_on":"2020-02-02T09:39:15.611789+05:45"},{"idx":"mw7oTVVHRtrR8gAoW3vuQG","contest":"Locus 2020","episode":"Locus 2020","category":null,"contestant":{"voting_id":"27","name":"Project Online Entrance System ( IOE Entrance)"},"vote_count":1,"created_on":"2020-02-02T09:31:58.157396+05:45"},{"idx":"4ZtDkT9CsYmtDkVQ7ejfXL","contest":"Locus 2020","episode":"Locus 2020","category":null,"contestant":{"voting_id":"80","name":"Project Hexapod"},"vote_count":1,"created_on":"2020-02-02T09:31:36.021027+05:45"},{"idx":"6yMHhuow36yLaRL7EJ9Q8j","contest":"Locus 2020","episode":"Locus 2020","category":null,"contestant":{"voting_id":"70","name":"Project ATM Alert"},"vote_count":1,"created_on":"2020-02-02T09:28:44.392056+05:45"},{"idx":"quGm76fToCPcDo43bLiyR2","contest":"Locus 2020","episode":"Locus 2020","category":null,"contestant":{"voting_id":"80","name":"Project Hexapod"},"vote_count":1,"created_on":"2020-02-02T09:27:57.425433+05:45"},{"idx":"7ZMfDqDpSwWohfWHisxtD4","contest":"Model Superstar","episode":"Model Superstar Finale","category":null,"contestant":{"voting_id":"08","name":"Roshan Sunam"},"vote_count":1,"created_on":"2020-02-02T09:25:58.204157+05:45"},{"idx":"pQYRMwhw82K5WkURQWeGB4","contest":"Locus 2020","episode":"Locus 2020","category":null,"contestant":{"voting_id":"04","name":"Project IRB -Robo Arm"},"vote_count":1,"created_on":"2020-02-02T09:25:19.093805+05:45"},{"idx":"xxwrSPHf9eLhU3qPwbd2PE","contest":"Locus 2020","episode":"Locus 2020","category":null,"contestant":{"voting_id":"50","name":"Project Deforestation"},"vote_count":1,"created_on":"2020-02-02T09:19:07.316364+05:45"},{"idx":"ss7jTV7mzG7NcLPWx5Me7g","contest":"Locus 2020","episode":"Locus 2020","category":null,"contestant":{"voting_id":"31","name":"Project 3 in 1 Cartesian 3D Printer"},"vote_count":1,"created_on":"2020-02-02T09:11:19.336755+05:45"},{"idx":"hYhsCSXsWBWmcscTJLXBQH","contest":"Locus 2020","episode":"Locus 2020","category":null,"contestant":{"voting_id":"26","name":"Project Automatic Rechargaeble Stove"},"vote_count":1,"created_on":"2020-02-02T09:06:25.341374+05:45"},{"idx":"LcDgsxJAHJ6pEr8m5YcQCJ","contest":"Locus 2020","episode":"Locus 2020","category":null,"contestant":{"voting_id":"13","name":"Project Smart Fire Detector"},"vote_count":1,"created_on":"2020-02-02T09:05:52.290046+05:45"},{"idx":"kJAAH7gxXa6tzsQy9AJdeg","contest":"Locus 2020","episode":"Locus 2020","category":null,"contestant":{"voting_id":"60","name":"Project EMG Contolled Prosthetic Arm"},"vote_count":1,"created_on":"2020-02-02T09:03:34.488369+05:45"},{"idx":"wYMJprzMuSTxPYKNkDgHAn","contest":"Locus 2020","episode":"Locus 2020","category":null,"contestant":{"voting_id":"16","name":"Project IOT Based Smart Agriculture System"},"vote_count":1,"created_on":"2020-02-02T08:49:38.943495+05:45"},{"idx":"6woQuLxKJeozvNnREyuYFH","contest":"Locus 2020","episode":"Locus 2020","category":null,"contestant":{"voting_id":"46","name":"Project Immune"},"vote_count":1,"created_on":"2020-02-02T08:44:38.323222+05:45"},{"idx":"tNkyiPXSGKWLt4k7Xjh8M7","contest":"Locus 2020","episode":"Locus 2020","category":null,"contestant":{"voting_id":"13","name":"Project Smart Fire Detector"},"vote_count":1,"created_on":"2020-02-02T08:43:12.064193+05:45"},{"idx":"NwWxsRA686YMQakMywkZXG","contest":"Locus 2020","episode":"Locus 2020","category":null,"contestant":{"voting_id":"13","name":"Project Smart Fire Detector"},"vote_count":1,"created_on":"2020-02-02T08:38:52.328452+05:45"},{"idx":"QNtf7Y4hnuLQsfNV23Bc2m","contest":"Locus 2020","episode":"Locus 2020","category":null,"contestant":{"voting_id":"13","name":"Project Smart Fire Detector"},"vote_count":1,"created_on":"2020-02-02T08:37:46.916168+05:45"},{"idx":"S9Vsvrruvhvw3hK9YEPRkZ","contest":"Locus 2020","episode":"Locus 2020","category":null,"contestant":{"voting_id":"13","name":"Project Smart Fire Detector"},"vote_count":1,"created_on":"2020-02-02T08:37:28.928764+05:45"},{"idx":"8GpkeHGp9uLQkF3m9cQYHf","contest":"Locus 2020","episode":"Locus 2020","category":null,"contestant":{"voting_id":"46","name":"Project Immune"},"vote_count":1,"created_on":"2020-02-02T08:35:45.448105+05:45"}]}