{"total_pages":275,"total_records":13717,"next":"https://khalti.com/api/v2/vuservote/?page=103","previous":"https://khalti.com/api/v2/vuservote/?page=101","record_range":[5051,5100],"current_page":102,"records":[{"idx":"dqAB67qtnHUrNnqmBvLLPc","contest":"Mr. & Miss Teen Sherpa 2020 - S2","episode":"Mr.&Miss Teen Sherpa -S2","category":null,"contestant":{"voting_id":"02","name":"Pema Yanji sherpa"},"vote_count":1,"created_on":"2020-01-12T22:53:04.714425+05:45"},{"idx":"VjLA3krBfUAWeVeyjybLLi","contest":"Mr. & Miss Teen Sherpa 2020 - S2","episode":"Mr.&Miss Teen Sherpa -S2","category":null,"contestant":{"voting_id":"02","name":"Pema Yanji sherpa"},"vote_count":1,"created_on":"2020-01-12T22:52:07.106770+05:45"},{"idx":"KMWRFwAJsBAQFhy7bsvhCg","contest":"Mr. & Miss Teen Sherpa 2020 - S2","episode":"Mr.&Miss Teen Sherpa -S2","category":null,"contestant":{"voting_id":"02","name":"Pema Yanji sherpa"},"vote_count":1,"created_on":"2020-01-12T22:51:44.330613+05:45"},{"idx":"nY7jVyHZsAWTudTgQodGNW","contest":"Mr. & Miss Teen Sherpa 2020 - S2","episode":"Mr.&Miss Teen Sherpa -S2","category":null,"contestant":{"voting_id":"02","name":"Pema Yanji sherpa"},"vote_count":1,"created_on":"2020-01-12T22:51:37.790221+05:45"},{"idx":"tbY9eWhn3MovzcdgZWAPV5","contest":"Mr. & Miss Teen Sherpa 2020 - S2","episode":"Mr.&Miss Teen Sherpa -S2","category":null,"contestant":{"voting_id":"02","name":"Pema Yanji sherpa"},"vote_count":1,"created_on":"2020-01-12T22:51:14.295953+05:45"},{"idx":"BpqZzQABTNiANBXYdNfLKd","contest":"Mr. & Miss Teen Sherpa 2020 - S2","episode":"Mr.&Miss Teen Sherpa -S2","category":null,"contestant":{"voting_id":"02","name":"Pema Yanji sherpa"},"vote_count":1,"created_on":"2020-01-12T22:50:56.287485+05:45"},{"idx":"kttxWW4FDPpuZptYmFex4Y","contest":"Mr. & Miss Teen Sherpa 2020 - S2","episode":"Mr.&Miss Teen Sherpa -S2","category":null,"contestant":{"voting_id":"02","name":"Pema Yanji sherpa"},"vote_count":1,"created_on":"2020-01-12T22:50:43.557418+05:45"},{"idx":"sNSzENMmatqSJL6eck2Pm8","contest":"Mr. & Miss Teen Sherpa 2020 - S2","episode":"Mr.&Miss Teen Sherpa -S2","category":null,"contestant":{"voting_id":"02","name":"Pema Yanji sherpa"},"vote_count":1,"created_on":"2020-01-12T22:50:34.979230+05:45"},{"idx":"eHoPwQLpDUYWYfVyWuSe6P","contest":"Mr. & Miss Teen Sherpa 2020 - S2","episode":"Mr.&Miss Teen Sherpa -S2","category":null,"contestant":{"voting_id":"02","name":"Pema Yanji sherpa"},"vote_count":1,"created_on":"2020-01-12T22:50:16.598890+05:45"},{"idx":"FJL5Zdfazyjd7x9tGdfXRa","contest":"Mr. & Miss Teen Sherpa 2020 - S2","episode":"Mr.&Miss Teen Sherpa -S2","category":null,"contestant":{"voting_id":"02","name":"Pema Yanji sherpa"},"vote_count":1,"created_on":"2020-01-12T22:49:56.809939+05:45"},{"idx":"dxpJh6W5H5DM6JQY8mwgzX","contest":"Mr. & Miss Teen Sherpa 2020 - S2","episode":"Mr.&Miss Teen Sherpa -S2","category":null,"contestant":{"voting_id":"02","name":"Pema Yanji sherpa"},"vote_count":1,"created_on":"2020-01-12T22:49:51.390873+05:45"},{"idx":"xMmhaRGFcbTNRi9MYyVsmP","contest":"Mr. & Miss Teen Sherpa 2020 - S2","episode":"Mr.&Miss Teen Sherpa -S2","category":null,"contestant":{"voting_id":"02","name":"Pema Yanji sherpa"},"vote_count":1,"created_on":"2020-01-12T22:49:45.534707+05:45"},{"idx":"7Yw97NCRRcvtKjmCw2DhYH","contest":"Mr. & Miss Teen Sherpa 2020 - S2","episode":"Mr.&Miss Teen Sherpa -S2","category":null,"contestant":{"voting_id":"02","name":"Pema Yanji sherpa"},"vote_count":1,"created_on":"2020-01-12T22:49:31.922308+05:45"},{"idx":"tekYouDeKGGhC4qhPpwPzf","contest":"Mr. & Miss Teen Sherpa 2020 - S2","episode":"Mr.&Miss Teen Sherpa -S2","category":null,"contestant":{"voting_id":"02","name":"Pema Yanji sherpa"},"vote_count":1,"created_on":"2020-01-12T22:49:16.637056+05:45"},{"idx":"YPJKna7NRRxZKWkyfHeVhf","contest":"Mr. & Miss Teen Sherpa 2020 - S2","episode":"Mr.&Miss Teen Sherpa -S2","category":null,"contestant":{"voting_id":"02","name":"Pema Yanji sherpa"},"vote_count":1,"created_on":"2020-01-12T22:49:13.676396+05:45"},{"idx":"hqg3aMaAh8HS2kYZyuPWSH","contest":"Mr. & Miss Teen Sherpa 2020 - S2","episode":"Mr.&Miss Teen Sherpa -S2","category":null,"contestant":{"voting_id":"02","name":"Pema Yanji sherpa"},"vote_count":1,"created_on":"2020-01-12T22:48:51.578923+05:45"},{"idx":"Smyo2ZaURaiQNVVDfbuBJ4","contest":"Mr. & Miss Teen Sherpa 2020 - S2","episode":"Mr.&Miss Teen Sherpa -S2","category":null,"contestant":{"voting_id":"02","name":"Pema Yanji sherpa"},"vote_count":1,"created_on":"2020-01-12T22:48:35.456450+05:45"},{"idx":"cpY3vJuiyyUxiiRuqWvXTd","contest":"Mr. & Miss Teen Sherpa 2020 - S2","episode":"Mr.&Miss Teen Sherpa -S2","category":null,"contestant":{"voting_id":"02","name":"Pema Yanji sherpa"},"vote_count":1,"created_on":"2020-01-12T22:48:35.250621+05:45"},{"idx":"LNGWqfx4kuQ75NjvBWVYRP","contest":"Mr. & Miss Teen Sherpa 2020 - S2","episode":"Mr.&Miss Teen Sherpa -S2","category":null,"contestant":{"voting_id":"02","name":"Pema Yanji sherpa"},"vote_count":1,"created_on":"2020-01-12T22:48:18.281734+05:45"},{"idx":"mJyYrKsexCyf6y2tdNuHdf","contest":"Mr. & Miss Teen Sherpa 2020 - S2","episode":"Mr.&Miss Teen Sherpa -S2","category":null,"contestant":{"voting_id":"02","name":"Pema Yanji sherpa"},"vote_count":1,"created_on":"2020-01-12T22:48:12.564125+05:45"},{"idx":"o4YLjXV2RZhSht3UmqhNfP","contest":"Mr. & Miss Teen Sherpa 2020 - S2","episode":"Mr.&Miss Teen Sherpa -S2","category":null,"contestant":{"voting_id":"02","name":"Pema Yanji sherpa"},"vote_count":1,"created_on":"2020-01-12T22:47:57.241720+05:45"},{"idx":"33MhcnobtMHaUBPvQ9yFrE","contest":"Mr. & Miss Teen Sherpa 2020 - S2","episode":"Mr.&Miss Teen Sherpa -S2","category":null,"contestant":{"voting_id":"02","name":"Pema Yanji sherpa"},"vote_count":1,"created_on":"2020-01-12T22:47:35.770278+05:45"},{"idx":"2R4RthhkDDMjVjvP2mSt7R","contest":"Mr. & Miss Teen Sherpa 2020 - S2","episode":"Mr.&Miss Teen Sherpa -S2","category":null,"contestant":{"voting_id":"02","name":"Pema Yanji sherpa"},"vote_count":1,"created_on":"2020-01-12T22:46:36.678926+05:45"},{"idx":"kSCHTte4Jvm6azuwhxZ6q6","contest":"Mr. & Miss Teen Sherpa 2020 - S2","episode":"Mr.&Miss Teen Sherpa -S2","category":null,"contestant":{"voting_id":"02","name":"Pema Yanji sherpa"},"vote_count":1,"created_on":"2020-01-12T22:45:57.817967+05:45"},{"idx":"epyPZJSz2rvQmks9pDED5M","contest":"Mr. & Miss Teen Sherpa 2020 - S2","episode":"Mr.&Miss Teen Sherpa -S2","category":null,"contestant":{"voting_id":"02","name":"Pema Yanji sherpa"},"vote_count":1,"created_on":"2020-01-12T22:45:34.459422+05:45"},{"idx":"cx88QWNn5AVPSBZ2X8SjQX","contest":"Mr. & Miss Teen Sherpa 2020 - S2","episode":"Mr.&Miss Teen Sherpa -S2","category":null,"contestant":{"voting_id":"02","name":"Pema Yanji sherpa"},"vote_count":1,"created_on":"2020-01-12T22:44:31.062065+05:45"},{"idx":"YkjTFJDBCFbXs8EAsqSXCW","contest":"Mr. & Miss Teen Sherpa 2020 - S2","episode":"Mr.&Miss Teen Sherpa -S2","category":null,"contestant":{"voting_id":"02","name":"Pema Yanji sherpa"},"vote_count":1,"created_on":"2020-01-12T22:44:02.334085+05:45"},{"idx":"KmEH9oo6NSjNdU8g5RkjNA","contest":"Mr. & Miss Teen Sherpa 2020 - S2","episode":"Mr.&Miss Teen Sherpa -S2","category":null,"contestant":{"voting_id":"02","name":"Pema Yanji sherpa"},"vote_count":1,"created_on":"2020-01-12T22:43:27.211294+05:45"},{"idx":"pXXuuSHghEpsoPXfrSPmXm","contest":"Mr. & Miss Teen Sherpa 2020 - S2","episode":"Mr.&Miss Teen Sherpa -S2","category":null,"contestant":{"voting_id":"02","name":"Pema Yanji sherpa"},"vote_count":1,"created_on":"2020-01-12T22:41:20.864758+05:45"},{"idx":"Dab9kKrNGCuhhyCZBKm5PN","contest":"Mr. & Miss Teen Sherpa 2020 - S2","episode":"Mr.&Miss Teen Sherpa -S2","category":null,"contestant":{"voting_id":"02","name":"Pema Yanji sherpa"},"vote_count":1,"created_on":"2020-01-12T22:40:46.149226+05:45"},{"idx":"CcArW8YDHfc2Q58R837vTB","contest":"Mr. & Miss Teen Sherpa 2020 - S2","episode":"Mr.&Miss Teen Sherpa -S2","category":null,"contestant":{"voting_id":"02","name":"Pema Yanji sherpa"},"vote_count":1,"created_on":"2020-01-12T22:40:17.772922+05:45"},{"idx":"8AJ6dYXDHANnU6jomzHHTj","contest":"Mr. & Miss Teen Sherpa 2020 - S2","episode":"Mr.&Miss Teen Sherpa -S2","category":null,"contestant":{"voting_id":"02","name":"Pema Yanji sherpa"},"vote_count":1,"created_on":"2020-01-12T22:40:01.089355+05:45"},{"idx":"FZAXxDDRPkLRRFKvYwrJDm","contest":"Mr. & Miss Teen Sherpa 2020 - S2","episode":"Mr.&Miss Teen Sherpa -S2","category":null,"contestant":{"voting_id":"02","name":"Pema Yanji sherpa"},"vote_count":1,"created_on":"2020-01-12T22:39:40.355925+05:45"},{"idx":"CFqVkbu5naueRPwBrXc44f","contest":"Mr. & Miss Teen Sherpa 2020 - S2","episode":"Mr.&Miss Teen Sherpa -S2","category":null,"contestant":{"voting_id":"02","name":"Pema Yanji sherpa"},"vote_count":1,"created_on":"2020-01-12T22:39:19.289690+05:45"},{"idx":"EX5uajmoyLpexu6yFM4epm","contest":"Mr. & Miss Teen Sherpa 2020 - S2","episode":"Mr.&Miss Teen Sherpa -S2","category":null,"contestant":{"voting_id":"02","name":"Pema Yanji sherpa"},"vote_count":1,"created_on":"2020-01-12T22:39:15.437694+05:45"},{"idx":"Z8u4cSrzb53aHECRSU5i6n","contest":"Mr. & Miss Teen Sherpa 2020 - S2","episode":"Mr.&Miss Teen Sherpa -S2","category":null,"contestant":{"voting_id":"02","name":"Pema Yanji sherpa"},"vote_count":1,"created_on":"2020-01-12T22:38:58.010215+05:45"},{"idx":"FP8aAftnGerM64U4HcTb5V","contest":"Mr. & Miss Teen Sherpa 2020 - S2","episode":"Mr.&Miss Teen Sherpa -S2","category":null,"contestant":{"voting_id":"02","name":"Pema Yanji sherpa"},"vote_count":1,"created_on":"2020-01-12T22:38:39.239179+05:45"},{"idx":"LqbcSmoCMnQH6VV75WSBr3","contest":"Mr. & Miss Teen Sherpa 2020 - S2","episode":"Mr.&Miss Teen Sherpa -S2","category":null,"contestant":{"voting_id":"02","name":"Pema Yanji sherpa"},"vote_count":1,"created_on":"2020-01-12T22:38:12.951066+05:45"},{"idx":"EB45BVhjLggqrkWTD8VQuY","contest":"Mr. & Miss Teen Sherpa 2020 - S2","episode":"Mr.&Miss Teen Sherpa -S2","category":null,"contestant":{"voting_id":"02","name":"Pema Yanji sherpa"},"vote_count":1,"created_on":"2020-01-12T22:37:52.066866+05:45"},{"idx":"ZxiPVUqn3xy2jfCSCVMobS","contest":"Mr. & Miss Teen Sherpa 2020 - S2","episode":"Mr.&Miss Teen Sherpa -S2","category":null,"contestant":{"voting_id":"02","name":"Pema Yanji sherpa"},"vote_count":1,"created_on":"2020-01-12T22:37:34.475192+05:45"},{"idx":"2vWU8smMgn9hbaZGQqyfik","contest":"Mr. & Miss Teen Sherpa 2020 - S2","episode":"Mr.&Miss Teen Sherpa -S2","category":null,"contestant":{"voting_id":"02","name":"Pema Yanji sherpa"},"vote_count":1,"created_on":"2020-01-12T22:37:09.726794+05:45"},{"idx":"9cmTQeNjedMGLgRkvCad49","contest":"Mr. & Miss Teen Sherpa 2020 - S2","episode":"Mr.&Miss Teen Sherpa -S2","category":null,"contestant":{"voting_id":"02","name":"Pema Yanji sherpa"},"vote_count":1,"created_on":"2020-01-12T22:37:07.531103+05:45"},{"idx":"c9FjeGUsL3yGvDxpMPgfFG","contest":"Mr. & Miss Teen Sherpa 2020 - S2","episode":"Mr.&Miss Teen Sherpa -S2","category":null,"contestant":{"voting_id":"02","name":"Pema Yanji sherpa"},"vote_count":1,"created_on":"2020-01-12T22:36:54.508002+05:45"},{"idx":"Vf3UrNMKoKiDGVkXh6vvZc","contest":"Mr. & Miss Teen Sherpa 2020 - S2","episode":"Mr.&Miss Teen Sherpa -S2","category":null,"contestant":{"voting_id":"02","name":"Pema Yanji sherpa"},"vote_count":1,"created_on":"2020-01-12T22:36:35.387439+05:45"},{"idx":"XgcMDFv9pXobbf4BixtMN7","contest":"Mr. & Miss Teen Sherpa 2020 - S2","episode":"Mr.&Miss Teen Sherpa -S2","category":null,"contestant":{"voting_id":"02","name":"Pema Yanji sherpa"},"vote_count":1,"created_on":"2020-01-12T22:36:21.858941+05:45"},{"idx":"tffNMx2nMddfZkNTeCeHm6","contest":"Mr. & Miss Teen Sherpa 2020 - S2","episode":"Mr.&Miss Teen Sherpa -S2","category":null,"contestant":{"voting_id":"02","name":"Pema Yanji sherpa"},"vote_count":1,"created_on":"2020-01-12T22:36:16.165712+05:45"},{"idx":"rAsvqKZUF8NQfzUzRmd3mC","contest":"Mr. & Miss Teen Sherpa 2020 - S2","episode":"Mr.&Miss Teen Sherpa -S2","category":null,"contestant":{"voting_id":"02","name":"Pema Yanji sherpa"},"vote_count":1,"created_on":"2020-01-12T22:36:10.325706+05:45"},{"idx":"zvEGeseTfNLsDGUETmpDUf","contest":"Mr. & Miss Teen Sherpa 2020 - S2","episode":"Mr.&Miss Teen Sherpa -S2","category":null,"contestant":{"voting_id":"02","name":"Pema Yanji sherpa"},"vote_count":1,"created_on":"2020-01-12T22:35:56.038367+05:45"},{"idx":"5FP46uGY6RUZAoieJdB6bE","contest":"Mr. & Miss Teen Sherpa 2020 - S2","episode":"Mr.&Miss Teen Sherpa -S2","category":null,"contestant":{"voting_id":"02","name":"Pema Yanji sherpa"},"vote_count":1,"created_on":"2020-01-12T22:33:17.412337+05:45"},{"idx":"TaSERRtWZo2WQb4Gbyhxza","contest":"Model Superstar","episode":"Model Superstar","category":null,"contestant":{"voting_id":"17","name":"Sajana Panta"},"vote_count":1,"created_on":"2020-01-12T22:18:55.652695+05:45"}]}