{"total_pages":275,"total_records":13717,"next":"https://khalti.com/api/v2/vuservote/?page=12","previous":"https://khalti.com/api/v2/vuservote/?page=10","record_range":[501,550],"current_page":11,"records":[{"idx":"zVnrkidZHmr9uRngXfWrhN","contest":"Locus 2020","episode":"Locus 2020","category":null,"contestant":{"voting_id":"84","name":"Project Margadarshan"},"vote_count":1,"created_on":"2020-02-02T08:28:59.531671+05:45"},{"idx":"dt8jmNcxQbGbiTTJu5KZ3o","contest":"Locus 2020","episode":"Locus 2020","category":null,"contestant":{"voting_id":"46","name":"Project Immune"},"vote_count":1,"created_on":"2020-02-02T08:27:07.569320+05:45"},{"idx":"ADXEBqDSKQsaoespyZXcxK","contest":"Locus 2020","episode":"Locus 2020","category":null,"contestant":{"voting_id":"46","name":"Project Immune"},"vote_count":1,"created_on":"2020-02-02T08:20:07.726909+05:45"},{"idx":"4RN6XSG75Emp5zQQnbtMmK","contest":"Locus 2020","episode":"Locus 2020","category":null,"contestant":{"voting_id":"04","name":"Project IRB -Robo Arm"},"vote_count":1,"created_on":"2020-02-02T08:13:16.323227+05:45"},{"idx":"LqxbDJ5Z6s5wJasa6uLppE","contest":"Locus 2020","episode":"Locus 2020","category":null,"contestant":{"voting_id":"41","name":"Project मनसा- The Nepali Programming Language"},"vote_count":1,"created_on":"2020-02-02T08:10:26.462783+05:45"},{"idx":"hpQinKfMcDtLRhQkZsCEgY","contest":"Locus 2020","episode":"Locus 2020","category":null,"contestant":{"voting_id":"24","name":"Project Library App"},"vote_count":1,"created_on":"2020-02-02T08:09:39.884087+05:45"},{"idx":"o5CupYk4omM4jN5A5effNe","contest":"Locus 2020","episode":"Locus 2020","category":null,"contestant":{"voting_id":"04","name":"Project IRB -Robo Arm"},"vote_count":1,"created_on":"2020-02-02T08:08:55.603547+05:45"},{"idx":"6RL4xeenHwNoS7oguKVCqf","contest":"Model Superstar","episode":"Model Superstar Finale","category":null,"contestant":{"voting_id":"12","name":"Rabin Ghising"},"vote_count":1,"created_on":"2020-02-02T08:07:26.490034+05:45"},{"idx":"doznXXUeJDVPx4UC4tmDfQ","contest":"Locus 2020","episode":"Locus 2020","category":null,"contestant":{"voting_id":"11","name":"Project Kissan"},"vote_count":1,"created_on":"2020-02-02T08:04:53.605410+05:45"},{"idx":"zAWkVYtZKHwPzLbMwC7eYK","contest":"Locus 2020","episode":"Locus 2020","category":null,"contestant":{"voting_id":"31","name":"Project 3 in 1 Cartesian 3D Printer"},"vote_count":1,"created_on":"2020-02-02T08:04:35.096778+05:45"},{"idx":"LDE2wJbUaZ9xjdi8udDHaK","contest":"Locus 2020","episode":"Locus 2020","category":null,"contestant":{"voting_id":"31","name":"Project 3 in 1 Cartesian 3D Printer"},"vote_count":1,"created_on":"2020-02-02T08:00:48.587290+05:45"},{"idx":"uGQGtnt6AJVoNuxcqtQewK","contest":"Locus 2020","episode":"Locus 2020","category":null,"contestant":{"voting_id":"83","name":"Project Ghadi"},"vote_count":1,"created_on":"2020-02-02T07:57:40.514929+05:45"},{"idx":"5KYxkx44JPsSDERTDqV68E","contest":"Locus 2020","episode":"Locus 2020","category":null,"contestant":{"voting_id":"83","name":"Project Ghadi"},"vote_count":1,"created_on":"2020-02-02T07:56:34.350706+05:45"},{"idx":"7ZZGCzDpyKGb3FvpQSu9pE","contest":"Locus 2020","episode":"Locus 2020","category":null,"contestant":{"voting_id":"24","name":"Project Library App"},"vote_count":1,"created_on":"2020-02-02T07:52:33.640846+05:45"},{"idx":"rJmRHRuKwhjW2kezTu54Va","contest":"Locus 2020","episode":"Locus 2020","category":null,"contestant":{"voting_id":"24","name":"Project Library App"},"vote_count":1,"created_on":"2020-02-02T07:51:39.748617+05:45"},{"idx":"rZfiL3h96TEDAKyP3AftTJ","contest":"Locus 2020","episode":"Locus 2020","category":null,"contestant":{"voting_id":"42","name":"Project P.I.M.P."},"vote_count":1,"created_on":"2020-02-02T07:50:38.264328+05:45"},{"idx":"uidZSwc7Bjh4EopcDrsVo9","contest":"Model Superstar","episode":"Model Superstar Finale","category":null,"contestant":{"voting_id":"02","name":"Srijana Basnet"},"vote_count":1,"created_on":"2020-02-02T07:48:46.803111+05:45"},{"idx":"rjMcvsxwXXBwvAh7JsvTQJ","contest":"Locus 2020","episode":"Locus 2020","category":null,"contestant":{"voting_id":"03","name":"Project Street Light Automation"},"vote_count":1,"created_on":"2020-02-02T07:48:11.504823+05:45"},{"idx":"K3RAXoLwiEM87skmjNCAdL","contest":"Locus 2020","episode":"Locus 2020","category":null,"contestant":{"voting_id":"76","name":"Project Wireless Digital Oscilloscope"},"vote_count":1,"created_on":"2020-02-02T07:46:22.237908+05:45"},{"idx":"e8JTKvYyAiygZ4moYd6X2f","contest":"Locus 2020","episode":"Locus 2020","category":null,"contestant":{"voting_id":"13","name":"Project Smart Fire Detector"},"vote_count":1,"created_on":"2020-02-02T07:44:57.948635+05:45"},{"idx":"fufj7NruDpaSNKLgtfmMKK","contest":"Locus 2020","episode":"Locus 2020","category":null,"contestant":{"voting_id":"24","name":"Project Library App"},"vote_count":1,"created_on":"2020-02-02T07:44:42.215689+05:45"},{"idx":"UFBEG28JuAf5qU72DrvtLF","contest":"Locus 2020","episode":"Locus 2020","category":null,"contestant":{"voting_id":"46","name":"Project Immune"},"vote_count":1,"created_on":"2020-02-02T07:43:59.490358+05:45"},{"idx":"5dMa3ZiMeU6uu2G4maJN46","contest":"Locus 2020","episode":"Locus 2020","category":null,"contestant":{"voting_id":"07","name":"Project Automatic Irrigation System"},"vote_count":1,"created_on":"2020-02-02T07:43:59.359125+05:45"},{"idx":"PwAA7rPa3CxqFcUNyaLMP3","contest":"Locus 2020","episode":"Locus 2020","category":null,"contestant":{"voting_id":"07","name":"Project Automatic Irrigation System"},"vote_count":1,"created_on":"2020-02-02T07:08:12.854850+05:45"},{"idx":"WC3aiBx2NLapnrkmA8nmBJ","contest":"Model Superstar","episode":"Model Superstar Finale","category":null,"contestant":{"voting_id":"30","name":"Nikita Shakya"},"vote_count":1,"created_on":"2020-02-02T07:07:46.263918+05:45"},{"idx":"YGbDKR2ZTqNjBec8LEPoH6","contest":"Locus 2020","episode":"Locus 2020","category":null,"contestant":{"voting_id":"16","name":"Project IOT Based Smart Agriculture System"},"vote_count":1,"created_on":"2020-02-02T07:05:16.675386+05:45"},{"idx":"2bJdzDLeSJCSU859eJEdeA","contest":"Locus 2020","episode":"Locus 2020","category":null,"contestant":{"voting_id":"23","name":"Project Home Automation"},"vote_count":1,"created_on":"2020-02-02T07:04:18.273781+05:45"},{"idx":"Rsc3kGrKqS3dSUqrRfUHCD","contest":"Locus 2020","episode":"Locus 2020","category":null,"contestant":{"voting_id":"15","name":"Project Residential Drainage Water Purification System"},"vote_count":1,"created_on":"2020-02-02T06:55:57.121464+05:45"},{"idx":"r3Up3iSRVq8Pxx2Vp7Da7g","contest":"Locus 2020","episode":"Locus 2020","category":null,"contestant":{"voting_id":"24","name":"Project Library App"},"vote_count":1,"created_on":"2020-02-02T06:47:25.632592+05:45"},{"idx":"QfHkWaM6wc2znUsNb5jQJH","contest":"Locus 2020","episode":"Locus 2020","category":null,"contestant":{"voting_id":"46","name":"Project Immune"},"vote_count":1,"created_on":"2020-02-02T06:36:14.509306+05:45"},{"idx":"jHoWZAUafXuYdgM6GWi4jP","contest":"Locus 2020","episode":"Locus 2020","category":null,"contestant":{"voting_id":"46","name":"Project Immune"},"vote_count":1,"created_on":"2020-02-02T06:34:38.714027+05:45"},{"idx":"FUzj7YkpnQRdEYPonpy4PG","contest":"Locus 2020","episode":"Locus 2020","category":null,"contestant":{"voting_id":"16","name":"Project IOT Based Smart Agriculture System"},"vote_count":1,"created_on":"2020-02-02T06:30:00.562218+05:45"},{"idx":"EaCqhciRiXkJ5fojsU7oBh","contest":"Locus 2020","episode":"Locus 2020","category":null,"contestant":{"voting_id":"32","name":"Project Health and Environment Checker"},"vote_count":1,"created_on":"2020-02-02T04:56:45.469459+05:45"},{"idx":"7VCx54edkrPg9KV5RVJ9CF","contest":"Model Superstar","episode":"Model Superstar Finale","category":null,"contestant":{"voting_id":"12","name":"Rabin Ghising"},"vote_count":1,"created_on":"2020-02-02T02:53:45.819446+05:45"},{"idx":"TvdLFu5bYzYDTCKSVYE7ne","contest":"Locus 2020","episode":"Locus 2020","category":null,"contestant":{"voting_id":"92","name":"Project Bhakari Shopping Nepal"},"vote_count":1,"created_on":"2020-02-02T01:52:50.387406+05:45"},{"idx":"pWeGdqpwsQ5ZnnYLg6BM45","contest":"Locus 2020","episode":"Locus 2020","category":null,"contestant":{"voting_id":"46","name":"Project Immune"},"vote_count":1,"created_on":"2020-02-02T01:34:09.315284+05:45"},{"idx":"eBEg9ozFwTCozbkEcVaxmY","contest":"Locus 2020","episode":"Locus 2020","category":null,"contestant":{"voting_id":"26","name":"Project Automatic Rechargaeble Stove"},"vote_count":1,"created_on":"2020-02-02T00:36:40.579028+05:45"},{"idx":"YMSeA9JgnhVc2aAUakZcWR","contest":"Model Superstar","episode":"Model Superstar Finale","category":null,"contestant":{"voting_id":"21","name":"Padam Bahadur Ranamagar"},"vote_count":1,"created_on":"2020-02-02T00:19:40.021175+05:45"},{"idx":"rF8VebqCPmLTiCXpnbnniS","contest":"Model Superstar","episode":"Model Superstar Finale","category":null,"contestant":{"voting_id":"21","name":"Padam Bahadur Ranamagar"},"vote_count":1,"created_on":"2020-02-02T00:19:20.927605+05:45"},{"idx":"BQi8fEVA3EnWtDYwNgYU8J","contest":"Locus 2020","episode":"Locus 2020","category":null,"contestant":{"voting_id":"60","name":"Project EMG Contolled Prosthetic Arm"},"vote_count":1,"created_on":"2020-02-02T00:18:43.206431+05:45"},{"idx":"8cpqgZakq3wUJfZUTbwRRV","contest":"Locus 2020","episode":"Locus 2020","category":null,"contestant":{"voting_id":"32","name":"Project Health and Environment Checker"},"vote_count":1,"created_on":"2020-02-02T00:10:19.262064+05:45"},{"idx":"zwreRo3PB2Kq5mN7GKgrfW","contest":"Locus 2020","episode":"Locus 2020","category":null,"contestant":{"voting_id":"46","name":"Project Immune"},"vote_count":1,"created_on":"2020-02-02T00:05:34.392056+05:45"},{"idx":"itKSPiHfgJd4GwZipKeqhe","contest":"Locus 2020","episode":"Locus 2020","category":null,"contestant":{"voting_id":"46","name":"Project Immune"},"vote_count":1,"created_on":"2020-02-02T00:00:04.839080+05:45"},{"idx":"xfvarCRQv248VorwhKeDeM","contest":"Model Superstar","episode":"Model Superstar Finale","category":null,"contestant":{"voting_id":"02","name":"Srijana Basnet"},"vote_count":1,"created_on":"2020-02-01T23:47:04.270437+05:45"},{"idx":"6U9dTGE5zNuaphHZyZrLqf","contest":"Music Eve 2020","episode":"Music Eve 2020 IOE","category":null,"contestant":{"voting_id":"02","name":"abinash acharya"},"vote_count":1,"created_on":"2020-02-01T23:33:08.112244+05:45"},{"idx":"LATiwUoXB4T5MKT9UoC4Da","contest":"Model Superstar","episode":"Model Superstar Finale","category":null,"contestant":{"voting_id":"02","name":"Srijana Basnet"},"vote_count":1,"created_on":"2020-02-01T23:31:27.530686+05:45"},{"idx":"DnGiDESY4zyoCVbU3apJjj","contest":"Locus 2020","episode":"Locus 2020","category":null,"contestant":{"voting_id":"46","name":"Project Immune"},"vote_count":1,"created_on":"2020-02-01T23:27:12.447810+05:45"},{"idx":"2pC2unbNY7PzSB2sdHX4Df","contest":"Locus 2020","episode":"Locus 2020","category":null,"contestant":{"voting_id":"32","name":"Project Health and Environment Checker"},"vote_count":1,"created_on":"2020-02-01T23:26:22.720601+05:45"},{"idx":"MEuLqDKvhWbFhHoaiLGW8c","contest":"Locus 2020","episode":"Locus 2020","category":null,"contestant":{"voting_id":"29","name":"Project Accident Alert System"},"vote_count":1,"created_on":"2020-02-01T23:25:35.547185+05:45"},{"idx":"aUrpx5EYnfU7RZQwK4AhVd","contest":"Locus 2020","episode":"Locus 2020","category":null,"contestant":{"voting_id":"46","name":"Project Immune"},"vote_count":1,"created_on":"2020-02-01T23:24:10.967418+05:45"}]}