{"total_pages":275,"total_records":13717,"next":"https://khalti.com/api/v2/vuservote/?page=111","previous":"https://khalti.com/api/v2/vuservote/?page=109","record_range":[5451,5500],"current_page":110,"records":[{"idx":"SnEc6Q43NcJmCfatLy4B6U","contest":"Mr. & Miss Teen Sherpa 2020 - S2","episode":"Mr.&Miss Teen Sherpa -S2","category":null,"contestant":{"voting_id":"02","name":"Pema Yanji sherpa"},"vote_count":1,"created_on":"2020-01-12T21:13:30.628129+05:45"},{"idx":"mehUDQw6wwmQyjyiVqCYjR","contest":"Mr. & Miss Teen Sherpa 2020 - S2","episode":"Mr.&Miss Teen Sherpa -S2","category":null,"contestant":{"voting_id":"02","name":"Pema Yanji sherpa"},"vote_count":1,"created_on":"2020-01-12T21:13:30.615824+05:45"},{"idx":"T9wEAaLdPZ7vGsVmUgbeon","contest":"Mr. & Miss Teen Sherpa 2020 - S2","episode":"Mr.&Miss Teen Sherpa -S2","category":null,"contestant":{"voting_id":"02","name":"Pema Yanji sherpa"},"vote_count":1,"created_on":"2020-01-12T21:13:15.077377+05:45"},{"idx":"wPCMqUr62EM44AFVeLRWUT","contest":"Mr. & Miss Teen Sherpa 2020 - S2","episode":"Mr.&Miss Teen Sherpa -S2","category":null,"contestant":{"voting_id":"02","name":"Pema Yanji sherpa"},"vote_count":1,"created_on":"2020-01-12T21:13:14.511332+05:45"},{"idx":"BWEwVyiFYY5RrnvRPFokTc","contest":"Mr. & Miss Teen Sherpa 2020 - S2","episode":"Mr.&Miss Teen Sherpa -S2","category":null,"contestant":{"voting_id":"02","name":"Pema Yanji sherpa"},"vote_count":1,"created_on":"2020-01-12T21:13:02.000747+05:45"},{"idx":"42yRipTRRKdEUSdemJHNzn","contest":"Mr. & Miss Teen Sherpa 2020 - S2","episode":"Mr.&Miss Teen Sherpa -S2","category":null,"contestant":{"voting_id":"02","name":"Pema Yanji sherpa"},"vote_count":1,"created_on":"2020-01-12T21:12:58.068103+05:45"},{"idx":"TZikRagXh9VqkpP39pEXy6","contest":"Mr. & Miss Teen Sherpa 2020 - S2","episode":"Mr.&Miss Teen Sherpa -S2","category":null,"contestant":{"voting_id":"02","name":"Pema Yanji sherpa"},"vote_count":1,"created_on":"2020-01-12T21:12:44.420250+05:45"},{"idx":"95HaR6G6U9pG4yu7YgsmCm","contest":"Mr. & Miss Teen Sherpa 2020 - S2","episode":"Mr.&Miss Teen Sherpa -S2","category":null,"contestant":{"voting_id":"02","name":"Pema Yanji sherpa"},"vote_count":1,"created_on":"2020-01-12T21:12:33.380307+05:45"},{"idx":"Px3AKAZDq24ykMMAikY5Rh","contest":"Mr. & Miss Teen Sherpa 2020 - S2","episode":"Mr.&Miss Teen Sherpa -S2","category":null,"contestant":{"voting_id":"02","name":"Pema Yanji sherpa"},"vote_count":1,"created_on":"2020-01-12T21:12:18.511320+05:45"},{"idx":"aHdyfghzSMhqr3EDxXwuef","contest":"Mr. & Miss Teen Sherpa 2020 - S2","episode":"Mr.&Miss Teen Sherpa -S2","category":null,"contestant":{"voting_id":"02","name":"Pema Yanji sherpa"},"vote_count":1,"created_on":"2020-01-12T21:12:15.195157+05:45"},{"idx":"QXhuyjHupjuihHpRwvDyN8","contest":"Model Superstar","episode":"Model Superstar","category":null,"contestant":{"voting_id":"07","name":"Narman Malla"},"vote_count":1,"created_on":"2020-01-12T21:10:29.645054+05:45"},{"idx":"e3Z6X8usq7cBJmDivJCFEg","contest":"Model Superstar","episode":"Model Superstar","category":null,"contestant":{"voting_id":"02","name":"Srijana Basnet"},"vote_count":1,"created_on":"2020-01-12T21:02:56.651880+05:45"},{"idx":"dGC9WazdZfiDPWefy3ALVV","contest":"Mr. & Miss Teen Sherpa 2020 - S2","episode":"Mr.&Miss Teen Sherpa -S2","category":null,"contestant":{"voting_id":"24","name":"Mingma Tshering Sherpa"},"vote_count":1,"created_on":"2020-01-12T20:55:10.163532+05:45"},{"idx":"52hicKsLjoP44bcfzNzqp9","contest":"Model Superstar","episode":"Model Superstar","category":null,"contestant":{"voting_id":"02","name":"Srijana Basnet"},"vote_count":1,"created_on":"2020-01-12T20:55:06.533993+05:45"},{"idx":"LdVBEVL9dSDCBWWPCbz2CZ","contest":"Mr. & Miss Teen Sherpa 2020 - S2","episode":"Mr.&Miss Teen Sherpa -S2","category":null,"contestant":{"voting_id":"24","name":"Mingma Tshering Sherpa"},"vote_count":1,"created_on":"2020-01-12T20:54:51.563767+05:45"},{"idx":"LhY3Bgf5Tsg5cJ96aSBcj2","contest":"Mr. & Miss Teen Sherpa 2020 - S2","episode":"Mr.&Miss Teen Sherpa -S2","category":null,"contestant":{"voting_id":"24","name":"Mingma Tshering Sherpa"},"vote_count":1,"created_on":"2020-01-12T20:54:31.366544+05:45"},{"idx":"inJuKALPhp7ji4gqLDQiAd","contest":"Mr. & Miss Teen Sherpa 2020 - S2","episode":"Mr.&Miss Teen Sherpa -S2","category":null,"contestant":{"voting_id":"24","name":"Mingma Tshering Sherpa"},"vote_count":1,"created_on":"2020-01-12T20:54:13.056054+05:45"},{"idx":"PGYmcofhocZtjTPELw4sVk","contest":"Mr. & Miss Teen Sherpa 2020 - S2","episode":"Mr.&Miss Teen Sherpa -S2","category":null,"contestant":{"voting_id":"24","name":"Mingma Tshering Sherpa"},"vote_count":1,"created_on":"2020-01-12T20:53:55.267277+05:45"},{"idx":"of5nCvwJdBFwVGLZcEz3Yn","contest":"Mr. & Miss Teen Sherpa 2020 - S2","episode":"Mr.&Miss Teen Sherpa -S2","category":null,"contestant":{"voting_id":"24","name":"Mingma Tshering Sherpa"},"vote_count":1,"created_on":"2020-01-12T20:53:36.353620+05:45"},{"idx":"yWTSQER4BHJUvZVNRriiD9","contest":"Mr. & Miss Teen Sherpa 2020 - S2","episode":"Mr.&Miss Teen Sherpa -S2","category":null,"contestant":{"voting_id":"24","name":"Mingma Tshering Sherpa"},"vote_count":1,"created_on":"2020-01-12T20:52:44.018426+05:45"},{"idx":"vHtLpBjfZbtUQkvjw7vhXN","contest":"Mr. & Miss Teen Sherpa 2020 - S2","episode":"Mr.&Miss Teen Sherpa -S2","category":null,"contestant":{"voting_id":"24","name":"Mingma Tshering Sherpa"},"vote_count":1,"created_on":"2020-01-12T20:52:20.917419+05:45"},{"idx":"gENh4D4Qsrh24yheMHvB6X","contest":"Model Superstar","episode":"Model Superstar","category":null,"contestant":{"voting_id":"07","name":"Narman Malla"},"vote_count":1,"created_on":"2020-01-12T20:48:52.867259+05:45"},{"idx":"LtsEiUjhXSEhwoaeXx7558","contest":"Model Superstar","episode":"Model Superstar","category":null,"contestant":{"voting_id":"07","name":"Narman Malla"},"vote_count":1,"created_on":"2020-01-12T20:48:52.818083+05:45"},{"idx":"2KELwD7wgvyCisutrXEH3Z","contest":"Model Superstar","episode":"Model Superstar","category":null,"contestant":{"voting_id":"07","name":"Narman Malla"},"vote_count":1,"created_on":"2020-01-12T20:48:52.654245+05:45"},{"idx":"fNQJvGYwuoSzZRsRW35FxT","contest":"Model Superstar","episode":"Model Superstar","category":null,"contestant":{"voting_id":"17","name":"Sajana Panta"},"vote_count":100,"created_on":"2020-01-12T20:46:58.639492+05:45"},{"idx":"wF8tRbDAqjGPvT7DM8czTP","contest":"Model Superstar","episode":"Model Superstar","category":null,"contestant":{"voting_id":"17","name":"Sajana Panta"},"vote_count":1,"created_on":"2020-01-12T20:42:59.791356+05:45"},{"idx":"EeiWyHyUUtKdWwjDBkyfaY","contest":"Model Superstar","episode":"Model Superstar","category":null,"contestant":{"voting_id":"07","name":"Narman Malla"},"vote_count":1,"created_on":"2020-01-12T20:39:43.645213+05:45"},{"idx":"6nvPd6jABKwDbKnwm2HJ9V","contest":"Model Superstar","episode":"Model Superstar","category":null,"contestant":{"voting_id":"07","name":"Narman Malla"},"vote_count":1,"created_on":"2020-01-12T20:39:33.159796+05:45"},{"idx":"NLDqCjL3grDd7QjhdFxUxF","contest":"Model Superstar","episode":"Model Superstar","category":null,"contestant":{"voting_id":"07","name":"Narman Malla"},"vote_count":1,"created_on":"2020-01-12T20:39:11.988418+05:45"},{"idx":"DfnHaaxgy3vDx7gLUuAXhM","contest":"Model Superstar","episode":"Model Superstar","category":null,"contestant":{"voting_id":"07","name":"Narman Malla"},"vote_count":1,"created_on":"2020-01-12T20:38:58.562938+05:45"},{"idx":"xf3qDdEAcAMQGnrWRYmNGf","contest":"Model Superstar","episode":"Model Superstar","category":null,"contestant":{"voting_id":"07","name":"Narman Malla"},"vote_count":1,"created_on":"2020-01-12T20:38:47.506931+05:45"},{"idx":"6qMsYiKDMSNPWtrvx7gMn3","contest":"Model Superstar","episode":"Model Superstar","category":null,"contestant":{"voting_id":"07","name":"Narman Malla"},"vote_count":1,"created_on":"2020-01-12T20:37:36.347668+05:45"},{"idx":"Z28gK6v7amyecioKH8rkwj","contest":"Model Superstar","episode":"Model Superstar","category":null,"contestant":{"voting_id":"07","name":"Narman Malla"},"vote_count":1,"created_on":"2020-01-12T20:36:58.446016+05:45"},{"idx":"henZjh4AK3uTyW3DksGH6Z","contest":"Mr. & Miss Teen Sherpa 2020 - S2","episode":"Mr.&Miss Teen Sherpa -S2","category":null,"contestant":{"voting_id":"02","name":"Pema Yanji sherpa"},"vote_count":1,"created_on":"2020-01-12T20:29:04.615192+05:45"},{"idx":"uYomAysz4pVhrzxnFvEkpb","contest":"Mr. & Miss Teen Sherpa 2020 - S2","episode":"Mr.&Miss Teen Sherpa -S2","category":null,"contestant":{"voting_id":"02","name":"Pema Yanji sherpa"},"vote_count":1,"created_on":"2020-01-12T20:28:59.221361+05:45"},{"idx":"fXUTadmTSt2cssp9t9hhS4","contest":"Mr. & Miss Teen Sherpa 2020 - S2","episode":"Mr.&Miss Teen Sherpa -S2","category":null,"contestant":{"voting_id":"02","name":"Pema Yanji sherpa"},"vote_count":1,"created_on":"2020-01-12T20:28:54.092963+05:45"},{"idx":"Axayy235Bz4uiUfmg3SMBf","contest":"Mr. & Miss Teen Sherpa 2020 - S2","episode":"Mr.&Miss Teen Sherpa -S2","category":null,"contestant":{"voting_id":"02","name":"Pema Yanji sherpa"},"vote_count":1,"created_on":"2020-01-12T20:28:49.394313+05:45"},{"idx":"gR3MxwfBYdBKPtzKKGK2Hn","contest":"Mr. & Miss Teen Sherpa 2020 - S2","episode":"Mr.&Miss Teen Sherpa -S2","category":null,"contestant":{"voting_id":"02","name":"Pema Yanji sherpa"},"vote_count":1,"created_on":"2020-01-12T20:28:44.561338+05:45"},{"idx":"Y7rZvGRVzfesr53VPAV3Kj","contest":"Mr. & Miss Teen Sherpa 2020 - S2","episode":"Mr.&Miss Teen Sherpa -S2","category":null,"contestant":{"voting_id":"02","name":"Pema Yanji sherpa"},"vote_count":1,"created_on":"2020-01-12T20:28:38.568305+05:45"},{"idx":"wKnf9tfTxHcAaczKGRfCsN","contest":"Mr. & Miss Teen Sherpa 2020 - S2","episode":"Mr.&Miss Teen Sherpa -S2","category":null,"contestant":{"voting_id":"02","name":"Pema Yanji sherpa"},"vote_count":1,"created_on":"2020-01-12T20:28:32.949770+05:45"},{"idx":"NTkVC7x8pTBV6Eozp7RFt5","contest":"Model Superstar","episode":"Model Superstar","category":null,"contestant":{"voting_id":"31","name":"Aakriti Subedi"},"vote_count":1,"created_on":"2020-01-12T20:28:28.803165+05:45"},{"idx":"PFP3EhFBS7Q3YYvCodARZ9","contest":"Mr. & Miss Teen Sherpa 2020 - S2","episode":"Mr.&Miss Teen Sherpa -S2","category":null,"contestant":{"voting_id":"02","name":"Pema Yanji sherpa"},"vote_count":1,"created_on":"2020-01-12T20:28:28.117456+05:45"},{"idx":"zPKDizxpaerMvedzbtusTG","contest":"Mr. & Miss Teen Sherpa 2020 - S2","episode":"Mr.&Miss Teen Sherpa -S2","category":null,"contestant":{"voting_id":"02","name":"Pema Yanji sherpa"},"vote_count":1,"created_on":"2020-01-12T20:28:22.169629+05:45"},{"idx":"SvVWh3w79p2bvYrDA7uEfS","contest":"Mr. & Miss Teen Sherpa 2020 - S2","episode":"Mr.&Miss Teen Sherpa -S2","category":null,"contestant":{"voting_id":"02","name":"Pema Yanji sherpa"},"vote_count":1,"created_on":"2020-01-12T20:28:15.197142+05:45"},{"idx":"Jt8F8Z7FoTwEswBQwx9YkS","contest":"Mr. & Miss Teen Sherpa 2020 - S2","episode":"Mr.&Miss Teen Sherpa -S2","category":null,"contestant":{"voting_id":"02","name":"Pema Yanji sherpa"},"vote_count":1,"created_on":"2020-01-12T20:28:10.145771+05:45"},{"idx":"AbJrfiptRE4HMorToBndUF","contest":"Mr. & Miss Teen Sherpa 2020 - S2","episode":"Mr.&Miss Teen Sherpa -S2","category":null,"contestant":{"voting_id":"02","name":"Pema Yanji sherpa"},"vote_count":1,"created_on":"2020-01-12T20:27:06.263520+05:45"},{"idx":"xJQjrj7yJdhKZnRHc2jcrR","contest":"Mr. & Miss Teen Sherpa 2020 - S2","episode":"Mr.&Miss Teen Sherpa -S2","category":null,"contestant":{"voting_id":"02","name":"Pema Yanji sherpa"},"vote_count":1,"created_on":"2020-01-12T20:27:00.851336+05:45"},{"idx":"iZ9H4Zp7cx6f5o3CjLYZFQ","contest":"Mr. & Miss Teen Sherpa 2020 - S2","episode":"Mr.&Miss Teen Sherpa -S2","category":null,"contestant":{"voting_id":"02","name":"Pema Yanji sherpa"},"vote_count":1,"created_on":"2020-01-12T20:26:53.390561+05:45"},{"idx":"GCFUm95LYu3R54cB8hmJTa","contest":"Mr. & Miss Teen Sherpa 2020 - S2","episode":"Mr.&Miss Teen Sherpa -S2","category":null,"contestant":{"voting_id":"02","name":"Pema Yanji sherpa"},"vote_count":1,"created_on":"2020-01-12T20:26:44.937085+05:45"},{"idx":"JisbfZcxiFV6SUaUwQuar6","contest":"NEPALBHASA STAR MUSIC VIDEO AWARDS-2019","episode":null,"category":"THE RISING STAR SINGER","contestant":{"voting_id":"21E","name":"Purna Man Maharjan"},"vote_count":100,"created_on":"2020-01-12T20:17:18.772708+05:45"}]}