{"total_pages":275,"total_records":13717,"next":"https://khalti.com/api/v2/vuservote/?page=114","previous":"https://khalti.com/api/v2/vuservote/?page=112","record_range":[5601,5650],"current_page":113,"records":[{"idx":"MnvadCw56zX2vki68HrVte","contest":"Mr. & Miss Teen Sherpa 2020 - S2","episode":"Mr.&Miss Teen Sherpa -S2","category":null,"contestant":{"voting_id":"06","name":"Tenzin Pema Sherpa"},"vote_count":1,"created_on":"2020-01-12T16:37:15.925302+05:45"},{"idx":"ULQvyLtxAummBxnjzXYVkh","contest":"Mr. & Miss Teen Sherpa 2020 - S2","episode":"Mr.&Miss Teen Sherpa -S2","category":null,"contestant":{"voting_id":"06","name":"Tenzin Pema Sherpa"},"vote_count":1,"created_on":"2020-01-12T16:36:27.248982+05:45"},{"idx":"tcCyupgU6a2KfX5P9BgqMK","contest":"Mr. & Miss Teen Sherpa 2020 - S2","episode":"Mr.&Miss Teen Sherpa -S2","category":null,"contestant":{"voting_id":"06","name":"Tenzin Pema Sherpa"},"vote_count":1,"created_on":"2020-01-12T16:36:11.684707+05:45"},{"idx":"4753bqnRBBFBwa5dSxpEsm","contest":"Mr. & Miss Teen Sherpa 2020 - S2","episode":"Mr.&Miss Teen Sherpa -S2","category":null,"contestant":{"voting_id":"06","name":"Tenzin Pema Sherpa"},"vote_count":1,"created_on":"2020-01-12T16:35:55.076748+05:45"},{"idx":"RtEFrBq6SKtR8PNHGQuUkG","contest":"Mr. & Miss Teen Sherpa 2020 - S2","episode":"Mr.&Miss Teen Sherpa -S2","category":null,"contestant":{"voting_id":"06","name":"Tenzin Pema Sherpa"},"vote_count":1,"created_on":"2020-01-12T16:35:01.592648+05:45"},{"idx":"XoJRnKwz5zdA4MPd8pPsoJ","contest":"Mr. & Miss Teen Sherpa 2020 - S2","episode":"Mr.&Miss Teen Sherpa -S2","category":null,"contestant":{"voting_id":"06","name":"Tenzin Pema Sherpa"},"vote_count":1,"created_on":"2020-01-12T16:32:40.964942+05:45"},{"idx":"JQ3TJv85BYSkUPSHFm4kxa","contest":"Mr. & Miss Teen Sherpa 2020 - S2","episode":"Mr.&Miss Teen Sherpa -S2","category":null,"contestant":{"voting_id":"06","name":"Tenzin Pema Sherpa"},"vote_count":1,"created_on":"2020-01-12T16:32:25.040350+05:45"},{"idx":"jdpMmhDPQVMp6PZDuh7LmF","contest":"Mr. & Miss Teen Sherpa 2020 - S2","episode":"Mr.&Miss Teen Sherpa -S2","category":null,"contestant":{"voting_id":"06","name":"Tenzin Pema Sherpa"},"vote_count":1,"created_on":"2020-01-12T16:31:59.569467+05:45"},{"idx":"rVQeZvxuGyqzRZJpshmaQk","contest":"Mr. & Miss Teen Sherpa 2020 - S2","episode":"Mr.&Miss Teen Sherpa -S2","category":null,"contestant":{"voting_id":"06","name":"Tenzin Pema Sherpa"},"vote_count":1,"created_on":"2020-01-12T16:31:33.610136+05:45"},{"idx":"BoBx4mKwNozScyBMQ8LXFh","contest":"Mr. & Miss Teen Sherpa 2020 - S2","episode":"Mr.&Miss Teen Sherpa -S2","category":null,"contestant":{"voting_id":"25","name":"Pemba Dorji Sherpa"},"vote_count":1,"created_on":"2020-01-12T16:31:08.771084+05:45"},{"idx":"7zPfCBcaBNVJZPiPXnRh4N","contest":"Mr. & Miss Teen Sherpa 2020 - S2","episode":"Mr.&Miss Teen Sherpa -S2","category":null,"contestant":{"voting_id":"04","name":"Chhewang Sherpa"},"vote_count":1,"created_on":"2020-01-12T16:19:25.587206+05:45"},{"idx":"2YcPZWgFDDjzCdaphFToV9","contest":"NEPALBHASA STAR MUSIC VIDEO AWARDS-2019","episode":null,"category":"BEST DEBUT MODEL, FEMALE","contestant":{"voting_id":"14J","name":"Garima Maharjan"},"vote_count":1,"created_on":"2020-01-12T16:09:51.365094+05:45"},{"idx":"eR5iBTnthCGJggd8vwCog8","contest":"Mr. & Miss Teen Sherpa 2020 - S2","episode":"Mr.&Miss Teen Sherpa -S2","category":null,"contestant":{"voting_id":"05","name":"Nima Lhamu sherpa"},"vote_count":1,"created_on":"2020-01-12T16:02:43.191771+05:45"},{"idx":"aowasAjXGLMqVaxdFXeXqM","contest":"Mr. & Miss Teen Sherpa 2020 - S2","episode":"Mr.&Miss Teen Sherpa -S2","category":null,"contestant":{"voting_id":"05","name":"Nima Lhamu sherpa"},"vote_count":1,"created_on":"2020-01-12T16:02:28.480561+05:45"},{"idx":"7kWiCwrikUfM4Hzd9obC5T","contest":"Mr. & Miss Teen Sherpa 2020 - S2","episode":"Mr.&Miss Teen Sherpa -S2","category":null,"contestant":{"voting_id":"05","name":"Nima Lhamu sherpa"},"vote_count":1,"created_on":"2020-01-12T16:02:01.446598+05:45"},{"idx":"Pw2swydabo8bMZp8Be9e8P","contest":"Mr. & Miss Teen Sherpa 2020 - S2","episode":"Mr.&Miss Teen Sherpa -S2","category":null,"contestant":{"voting_id":"05","name":"Nima Lhamu sherpa"},"vote_count":1,"created_on":"2020-01-12T16:01:05.139378+05:45"},{"idx":"wLV9uV5neVPzNCtkgmdjgY","contest":"Mr. & Miss Teen Sherpa 2020 - S2","episode":"Mr.&Miss Teen Sherpa -S2","category":null,"contestant":{"voting_id":"05","name":"Nima Lhamu sherpa"},"vote_count":1,"created_on":"2020-01-12T16:00:45.927471+05:45"},{"idx":"86p2BuXDc5esxdd3cYUyRc","contest":"Mr. & Miss Teen Sherpa 2020 - S2","episode":"Mr.&Miss Teen Sherpa -S2","category":null,"contestant":{"voting_id":"05","name":"Nima Lhamu sherpa"},"vote_count":1,"created_on":"2020-01-12T16:00:11.708676+05:45"},{"idx":"z2QJ7YpxtEPtvenWjAZfDA","contest":"Mr. & Miss Teen Sherpa 2020 - S2","episode":"Mr.&Miss Teen Sherpa -S2","category":null,"contestant":{"voting_id":"05","name":"Nima Lhamu sherpa"},"vote_count":1,"created_on":"2020-01-12T15:59:58.703117+05:45"},{"idx":"jvkiseNHH2rqi8GDHCJYUA","contest":"Mr. & Miss Teen Sherpa 2020 - S2","episode":"Mr.&Miss Teen Sherpa -S2","category":null,"contestant":{"voting_id":"01","name":"Lhamu Sherpa"},"vote_count":500,"created_on":"2020-01-12T15:36:13.109948+05:45"},{"idx":"uUMNpPwvF5xFAEi6znRqpZ","contest":"Model Superstar","episode":"Model Superstar","category":null,"contestant":{"voting_id":"02","name":"Srijana Basnet"},"vote_count":1,"created_on":"2020-01-12T15:32:46.805699+05:45"},{"idx":"BJfnTv6aMt2QpLy6Dqj9A8","contest":"NEPALBHASA STAR MUSIC VIDEO AWARDS-2019","episode":null,"category":"BEST DIRECTOR","contestant":{"voting_id":"20G","name":"Hriday Prasad Mishra"},"vote_count":1,"created_on":"2020-01-12T15:24:36.422655+05:45"},{"idx":"u9vKTL2qvGGFnwh2Tb8Zy8","contest":"NEPALBHASA STAR MUSIC VIDEO AWARDS-2019","episode":null,"category":"THE RISING STAR SINGER","contestant":{"voting_id":"21E","name":"Purna Man Maharjan"},"vote_count":1,"created_on":"2020-01-12T15:03:41.512550+05:45"},{"idx":"y5pU9X86oh9Jj2VtJAnDRj","contest":"Mr. & Miss Teen Sherpa 2020 - S2","episode":"Mr.&Miss Teen Sherpa -S2","category":null,"contestant":{"voting_id":"06","name":"Tenzin Pema Sherpa"},"vote_count":1,"created_on":"2020-01-12T14:51:33.287077+05:45"},{"idx":"Z25J9HEniANo2QM5AEJULG","contest":"Mr. & Miss Teen Sherpa 2020 - S2","episode":"Mr.&Miss Teen Sherpa -S2","category":null,"contestant":{"voting_id":"06","name":"Tenzin Pema Sherpa"},"vote_count":1,"created_on":"2020-01-12T14:51:18.752227+05:45"},{"idx":"u8AVVWatXQNrHBAvQJsLrJ","contest":"Mr. & Miss Teen Sherpa 2020 - S2","episode":"Mr.&Miss Teen Sherpa -S2","category":null,"contestant":{"voting_id":"06","name":"Tenzin Pema Sherpa"},"vote_count":1,"created_on":"2020-01-12T14:51:02.826854+05:45"},{"idx":"Jp96WrfaQtWJ9quQvVuVjn","contest":"Mr. & Miss Teen Sherpa 2020 - S2","episode":"Mr.&Miss Teen Sherpa -S2","category":null,"contestant":{"voting_id":"06","name":"Tenzin Pema Sherpa"},"vote_count":1,"created_on":"2020-01-12T14:50:26.414159+05:45"},{"idx":"JS32nPRC6vUZtxPnYkFzgX","contest":"Mr. & Miss Teen Sherpa 2020 - S2","episode":"Mr.&Miss Teen Sherpa -S2","category":null,"contestant":{"voting_id":"06","name":"Tenzin Pema Sherpa"},"vote_count":1,"created_on":"2020-01-12T14:49:48.576295+05:45"},{"idx":"AxPiD2ybWPDoL6RXnUtma8","contest":"Mr. & Miss Teen Sherpa 2020 - S2","episode":"Mr.&Miss Teen Sherpa -S2","category":null,"contestant":{"voting_id":"06","name":"Tenzin Pema Sherpa"},"vote_count":1,"created_on":"2020-01-12T14:49:34.086082+05:45"},{"idx":"uXVdt26U9t4LYJVwcGmvs7","contest":"Mr. & Miss Teen Sherpa 2020 - S2","episode":"Mr.&Miss Teen Sherpa -S2","category":null,"contestant":{"voting_id":"06","name":"Tenzin Pema Sherpa"},"vote_count":1,"created_on":"2020-01-12T14:49:19.666054+05:45"},{"idx":"oEKzUVx9SDbSbefKQgkuTh","contest":"Mr. & Miss Teen Sherpa 2020 - S2","episode":"Mr.&Miss Teen Sherpa -S2","category":null,"contestant":{"voting_id":"06","name":"Tenzin Pema Sherpa"},"vote_count":1,"created_on":"2020-01-12T14:49:02.129286+05:45"},{"idx":"DRbswE6co5XhbJ5T58wg44","contest":"Model Superstar","episode":"Model Superstar","category":null,"contestant":{"voting_id":"02","name":"Srijana Basnet"},"vote_count":1,"created_on":"2020-01-12T12:36:15.297754+05:45"},{"idx":"wFDpMuLnasE4xS7bPJVYQA","contest":"Mr. & Miss Teen Sherpa 2020 - S2","episode":"Mr.&Miss Teen Sherpa -S2","category":null,"contestant":{"voting_id":"02","name":"Pema Yanji sherpa"},"vote_count":1,"created_on":"2020-01-12T12:23:02.377301+05:45"},{"idx":"kpSVGGy7UczbYRiZLjpYL7","contest":"Mr. & Miss Teen Sherpa 2020 - S2","episode":"Mr.&Miss Teen Sherpa -S2","category":null,"contestant":{"voting_id":"02","name":"Pema Yanji sherpa"},"vote_count":1,"created_on":"2020-01-12T12:22:39.963663+05:45"},{"idx":"X77pdScNJovVDJmXef6Dtg","contest":"Mr. & Miss Teen Sherpa 2020 - S2","episode":"Mr.&Miss Teen Sherpa -S2","category":null,"contestant":{"voting_id":"02","name":"Pema Yanji sherpa"},"vote_count":1,"created_on":"2020-01-12T12:22:21.896756+05:45"},{"idx":"rh3FAWvs9JeeVBQij9tsXE","contest":"Mr. & Miss Teen Sherpa 2020 - S2","episode":"Mr.&Miss Teen Sherpa -S2","category":null,"contestant":{"voting_id":"02","name":"Pema Yanji sherpa"},"vote_count":1,"created_on":"2020-01-12T12:22:08.704303+05:45"},{"idx":"89qwGf4QCExEMhJfpt3sXS","contest":"Mr. & Miss Teen Sherpa 2020 - S2","episode":"Mr.&Miss Teen Sherpa -S2","category":null,"contestant":{"voting_id":"02","name":"Pema Yanji sherpa"},"vote_count":1,"created_on":"2020-01-12T12:21:54.399590+05:45"},{"idx":"K9szoG9YTSJ8TdF4ovcGNe","contest":"Mr. & Miss Teen Sherpa 2020 - S2","episode":"Mr.&Miss Teen Sherpa -S2","category":null,"contestant":{"voting_id":"02","name":"Pema Yanji sherpa"},"vote_count":1,"created_on":"2020-01-12T12:21:41.888214+05:45"},{"idx":"3z4Qj3cPdW56ViaYiX6WY6","contest":"Mr. & Miss Teen Sherpa 2020 - S2","episode":"Mr.&Miss Teen Sherpa -S2","category":null,"contestant":{"voting_id":"02","name":"Pema Yanji sherpa"},"vote_count":1,"created_on":"2020-01-12T12:12:19.924584+05:45"},{"idx":"AYwNUWHF4AQeG9sZ6QtYfX","contest":"Mr. & Miss Teen Sherpa 2020 - S2","episode":"Mr.&Miss Teen Sherpa -S2","category":null,"contestant":{"voting_id":"02","name":"Pema Yanji sherpa"},"vote_count":1,"created_on":"2020-01-12T12:12:09.758065+05:45"},{"idx":"VrKHQ2FyHBn6Qx3QHGNBMi","contest":"Mr. & Miss Teen Sherpa 2020 - S2","episode":"Mr.&Miss Teen Sherpa -S2","category":null,"contestant":{"voting_id":"02","name":"Pema Yanji sherpa"},"vote_count":1,"created_on":"2020-01-12T12:11:56.093245+05:45"},{"idx":"bi4UKxFhwva6HrXjAeTv7e","contest":"Mr. & Miss Teen Sherpa 2020 - S2","episode":"Mr.&Miss Teen Sherpa -S2","category":null,"contestant":{"voting_id":"02","name":"Pema Yanji sherpa"},"vote_count":1,"created_on":"2020-01-12T12:11:39.020373+05:45"},{"idx":"rdBzX7ZwH8CGDtnoo6qP27","contest":"Mr. & Miss Teen Sherpa 2020 - S2","episode":"Mr.&Miss Teen Sherpa -S2","category":null,"contestant":{"voting_id":"02","name":"Pema Yanji sherpa"},"vote_count":1,"created_on":"2020-01-12T12:11:24.632038+05:45"},{"idx":"iWE9tuBC6uYneupSeTHSoR","contest":"Mr. & Miss Teen Sherpa 2020 - S2","episode":"Mr.&Miss Teen Sherpa -S2","category":null,"contestant":{"voting_id":"02","name":"Pema Yanji sherpa"},"vote_count":1,"created_on":"2020-01-12T12:11:13.829035+05:45"},{"idx":"4HKqrmdruEK8MqVmgXLec7","contest":"Mr. & Miss Teen Sherpa 2020 - S2","episode":"Mr.&Miss Teen Sherpa -S2","category":null,"contestant":{"voting_id":"02","name":"Pema Yanji sherpa"},"vote_count":1,"created_on":"2020-01-12T12:11:03.469562+05:45"},{"idx":"MnQ2VXQiKknYnNZkFT2YwP","contest":"Mr. & Miss Teen Sherpa 2020 - S2","episode":"Mr.&Miss Teen Sherpa -S2","category":null,"contestant":{"voting_id":"02","name":"Pema Yanji sherpa"},"vote_count":1,"created_on":"2020-01-12T12:10:42.130903+05:45"},{"idx":"hPLbmZboz9PW6QEW9YoYZk","contest":"Mr. & Miss Teen Sherpa 2020 - S2","episode":"Mr.&Miss Teen Sherpa -S2","category":null,"contestant":{"voting_id":"02","name":"Pema Yanji sherpa"},"vote_count":1,"created_on":"2020-01-12T12:10:28.140450+05:45"},{"idx":"jUZh4CD9yjSXJyvwgw4DUY","contest":"Mr. & Miss Teen Sherpa 2020 - S2","episode":"Mr.&Miss Teen Sherpa -S2","category":null,"contestant":{"voting_id":"02","name":"Pema Yanji sherpa"},"vote_count":1,"created_on":"2020-01-12T12:10:15.332605+05:45"},{"idx":"biYtwMhKJuhCnJp3aE2wUn","contest":"Mr. & Miss Teen Sherpa 2020 - S2","episode":"Mr.&Miss Teen Sherpa -S2","category":null,"contestant":{"voting_id":"02","name":"Pema Yanji sherpa"},"vote_count":1,"created_on":"2020-01-12T12:09:58.784693+05:45"},{"idx":"f2muVtEv8kbYsrXeDVufrQ","contest":"Mr. & Miss Teen Sherpa 2020 - S2","episode":"Mr.&Miss Teen Sherpa -S2","category":null,"contestant":{"voting_id":"02","name":"Pema Yanji sherpa"},"vote_count":1,"created_on":"2020-01-12T12:08:03.434052+05:45"}]}