{"total_pages":275,"total_records":13717,"next":"https://khalti.com/api/v2/vuservote/?page=115","previous":"https://khalti.com/api/v2/vuservote/?page=113","record_range":[5651,5700],"current_page":114,"records":[{"idx":"NqxrbqUyN5QYavE8VE4z6P","contest":"Mr. & Miss Teen Sherpa 2020 - S2","episode":"Mr.&Miss Teen Sherpa -S2","category":null,"contestant":{"voting_id":"02","name":"Pema Yanji sherpa"},"vote_count":1,"created_on":"2020-01-12T12:07:50.259145+05:45"},{"idx":"UfnzbS7KEhw4F9TAHjiQGe","contest":"Mr. & Miss Teen Sherpa 2020 - S2","episode":"Mr.&Miss Teen Sherpa -S2","category":null,"contestant":{"voting_id":"02","name":"Pema Yanji sherpa"},"vote_count":1,"created_on":"2020-01-12T12:07:34.887355+05:45"},{"idx":"bkgxPZi4x8aF9RUgxxHshf","contest":"Mr. & Miss Teen Sherpa 2020 - S2","episode":"Mr.&Miss Teen Sherpa -S2","category":null,"contestant":{"voting_id":"02","name":"Pema Yanji sherpa"},"vote_count":1,"created_on":"2020-01-12T12:07:24.261777+05:45"},{"idx":"5Kbp4omZXr2pRvJ6NxyBmT","contest":"Mr. & Miss Teen Sherpa 2020 - S2","episode":"Mr.&Miss Teen Sherpa -S2","category":null,"contestant":{"voting_id":"02","name":"Pema Yanji sherpa"},"vote_count":1,"created_on":"2020-01-12T12:07:12.953852+05:45"},{"idx":"tJtgirfKyJxcmsKKmDhxic","contest":"Mr. & Miss Teen Sherpa 2020 - S2","episode":"Mr.&Miss Teen Sherpa -S2","category":null,"contestant":{"voting_id":"02","name":"Pema Yanji sherpa"},"vote_count":1,"created_on":"2020-01-12T12:06:56.903641+05:45"},{"idx":"jax8XQkzxPwjNCxpj2KNyW","contest":"Mr. & Miss Teen Sherpa 2020 - S2","episode":"Mr.&Miss Teen Sherpa -S2","category":null,"contestant":{"voting_id":"02","name":"Pema Yanji sherpa"},"vote_count":1,"created_on":"2020-01-12T11:58:25.730547+05:45"},{"idx":"CSDaDrdxei72jDHEmX4U2R","contest":"Mr. & Miss Teen Sherpa 2020 - S2","episode":"Mr.&Miss Teen Sherpa -S2","category":null,"contestant":{"voting_id":"02","name":"Pema Yanji sherpa"},"vote_count":1,"created_on":"2020-01-12T11:58:07.087737+05:45"},{"idx":"vW9NwpzAQuBDZzAwA2Kbja","contest":"Mr. & Miss Teen Sherpa 2020 - S2","episode":"Mr.&Miss Teen Sherpa -S2","category":null,"contestant":{"voting_id":"02","name":"Pema Yanji sherpa"},"vote_count":1,"created_on":"2020-01-12T11:57:49.180933+05:45"},{"idx":"ecMbtMQNHGF85QP3eYGDMk","contest":"Mr. & Miss Teen Sherpa 2020 - S2","episode":"Mr.&Miss Teen Sherpa -S2","category":null,"contestant":{"voting_id":"02","name":"Pema Yanji sherpa"},"vote_count":1,"created_on":"2020-01-12T11:57:33.228157+05:45"},{"idx":"497fhQmx7C7LUg9RAapUtL","contest":"Mr. & Miss Teen Sherpa 2020 - S2","episode":"Mr.&Miss Teen Sherpa -S2","category":null,"contestant":{"voting_id":"02","name":"Pema Yanji sherpa"},"vote_count":1,"created_on":"2020-01-12T11:57:23.078583+05:45"},{"idx":"MDr5BxcFLRqGbx6N7dmMP8","contest":"Mr. & Miss Teen Sherpa 2020 - S2","episode":"Mr.&Miss Teen Sherpa -S2","category":null,"contestant":{"voting_id":"02","name":"Pema Yanji sherpa"},"vote_count":1,"created_on":"2020-01-12T11:57:11.492180+05:45"},{"idx":"eJXmXDDHAahK7EwnNwjV5T","contest":"Mr. & Miss Teen Sherpa 2020 - S2","episode":"Mr.&Miss Teen Sherpa -S2","category":null,"contestant":{"voting_id":"02","name":"Pema Yanji sherpa"},"vote_count":1,"created_on":"2020-01-12T11:48:54.273773+05:45"},{"idx":"yK3nC8kaiRwhA22gW3MXY6","contest":"Mr. & Miss Teen Sherpa 2020 - S2","episode":"Mr.&Miss Teen Sherpa -S2","category":null,"contestant":{"voting_id":"02","name":"Pema Yanji sherpa"},"vote_count":1,"created_on":"2020-01-12T11:48:54.268049+05:45"},{"idx":"UsqAhNqMoq44ywBH2ozcu7","contest":"Mr. & Miss Teen Sherpa 2020 - S2","episode":"Mr.&Miss Teen Sherpa -S2","category":null,"contestant":{"voting_id":"02","name":"Pema Yanji sherpa"},"vote_count":1,"created_on":"2020-01-12T11:48:28.171887+05:45"},{"idx":"fW7Ms8JbrmozrT7gfRuAFi","contest":"Mr. & Miss Teen Sherpa 2020 - S2","episode":"Mr.&Miss Teen Sherpa -S2","category":null,"contestant":{"voting_id":"02","name":"Pema Yanji sherpa"},"vote_count":1,"created_on":"2020-01-12T11:48:28.128236+05:45"},{"idx":"8SGm87S6wXRr2nzqLXzRh4","contest":"Mr. & Miss Teen Sherpa 2020 - S2","episode":"Mr.&Miss Teen Sherpa -S2","category":null,"contestant":{"voting_id":"02","name":"Pema Yanji sherpa"},"vote_count":1,"created_on":"2020-01-12T11:47:58.927801+05:45"},{"idx":"HgJfTcPaScrCXATDkXPDm4","contest":"Mr. & Miss Teen Sherpa 2020 - S2","episode":"Mr.&Miss Teen Sherpa -S2","category":null,"contestant":{"voting_id":"02","name":"Pema Yanji sherpa"},"vote_count":1,"created_on":"2020-01-12T11:47:58.900532+05:45"},{"idx":"BVUu63rybSrSRMKydALoVM","contest":"Mr. & Miss Teen Sherpa 2020 - S2","episode":"Mr.&Miss Teen Sherpa -S2","category":null,"contestant":{"voting_id":"02","name":"Pema Yanji sherpa"},"vote_count":1,"created_on":"2020-01-12T11:47:45.526965+05:45"},{"idx":"Xe5CxPh8oaEPdTWbG2JHTS","contest":"Mr. & Miss Teen Sherpa 2020 - S2","episode":"Mr.&Miss Teen Sherpa -S2","category":null,"contestant":{"voting_id":"02","name":"Pema Yanji sherpa"},"vote_count":1,"created_on":"2020-01-12T11:47:44.618825+05:45"},{"idx":"oG2gfKr6bV2kTL2gyFpSw6","contest":"Mr. & Miss Teen Sherpa 2020 - S2","episode":"Mr.&Miss Teen Sherpa -S2","category":null,"contestant":{"voting_id":"02","name":"Pema Yanji sherpa"},"vote_count":1,"created_on":"2020-01-12T11:47:30.037522+05:45"},{"idx":"GgkGBd3cTee3XZzr9onXBo","contest":"Mr. & Miss Teen Sherpa 2020 - S2","episode":"Mr.&Miss Teen Sherpa -S2","category":null,"contestant":{"voting_id":"02","name":"Pema Yanji sherpa"},"vote_count":1,"created_on":"2020-01-12T11:47:30.011483+05:45"},{"idx":"nnjbYecPnBaqaHBUYNBzzi","contest":"Mr. & Miss Teen Sherpa 2020 - S2","episode":"Mr.&Miss Teen Sherpa -S2","category":null,"contestant":{"voting_id":"02","name":"Pema Yanji sherpa"},"vote_count":1,"created_on":"2020-01-12T11:47:15.693950+05:45"},{"idx":"HozTQFNQSZxzB8enRexMrB","contest":"Mr. & Miss Teen Sherpa 2020 - S2","episode":"Mr.&Miss Teen Sherpa -S2","category":null,"contestant":{"voting_id":"02","name":"Pema Yanji sherpa"},"vote_count":1,"created_on":"2020-01-12T11:47:15.669821+05:45"},{"idx":"hJHKgrThpchEWfecVgUTXT","contest":"Mr. & Miss Teen Sherpa 2020 - S2","episode":"Mr.&Miss Teen Sherpa -S2","category":null,"contestant":{"voting_id":"02","name":"Pema Yanji sherpa"},"vote_count":1,"created_on":"2020-01-12T11:47:01.926480+05:45"},{"idx":"gLc2snNbHGQPdpqKUHhxyf","contest":"Mr. & Miss Teen Sherpa 2020 - S2","episode":"Mr.&Miss Teen Sherpa -S2","category":null,"contestant":{"voting_id":"02","name":"Pema Yanji sherpa"},"vote_count":1,"created_on":"2020-01-12T11:47:01.708109+05:45"},{"idx":"WpYw5EwF4sC75MzJUaV2V3","contest":"Mr. & Miss Teen Sherpa 2020 - S2","episode":"Mr.&Miss Teen Sherpa -S2","category":null,"contestant":{"voting_id":"02","name":"Pema Yanji sherpa"},"vote_count":1,"created_on":"2020-01-12T11:46:47.700499+05:45"},{"idx":"DhUZxebB4avQVhw7Ua2bmf","contest":"Mr. & Miss Teen Sherpa 2020 - S2","episode":"Mr.&Miss Teen Sherpa -S2","category":null,"contestant":{"voting_id":"02","name":"Pema Yanji sherpa"},"vote_count":1,"created_on":"2020-01-12T11:46:47.683331+05:45"},{"idx":"rCWexqmXHgTmRWqWJakpnK","contest":"Mr. & Miss Teen Sherpa 2020 - S2","episode":"Mr.&Miss Teen Sherpa -S2","category":null,"contestant":{"voting_id":"02","name":"Pema Yanji sherpa"},"vote_count":1,"created_on":"2020-01-12T11:46:34.622163+05:45"},{"idx":"jkQB6oWtx2mDGTE54onzxK","contest":"Mr. & Miss Teen Sherpa 2020 - S2","episode":"Mr.&Miss Teen Sherpa -S2","category":null,"contestant":{"voting_id":"02","name":"Pema Yanji sherpa"},"vote_count":1,"created_on":"2020-01-12T11:46:34.611920+05:45"},{"idx":"h8UA24vdd7DAp54EwwUDgJ","contest":"Model Superstar","episode":"Model Superstar","category":null,"contestant":{"voting_id":"16","name":"Anil Karki"},"vote_count":1,"created_on":"2020-01-12T11:38:14.430871+05:45"},{"idx":"sKAjaQ8KgwF6cCAQxFtdmT","contest":"Model Superstar","episode":"Model Superstar","category":null,"contestant":{"voting_id":"16","name":"Anil Karki"},"vote_count":1,"created_on":"2020-01-12T11:35:52.379313+05:45"},{"idx":"vKRFQGUZPjiFe5nHD6aEj4","contest":"NEPALBHASA STAR MUSIC VIDEO AWARDS-2019","episode":null,"category":"BEST DEBUT SINGER, MALE","contestant":{"voting_id":"16B","name":"Raj Kumar Manandhar"},"vote_count":500,"created_on":"2020-01-12T11:14:57.667794+05:45"},{"idx":"S58Po8cfcnyjxLLDp8M3AH","contest":"NEPALBHASA STAR MUSIC VIDEO AWARDS-2019","episode":null,"category":"THE RISING STAR SINGER","contestant":{"voting_id":"21D","name":"Krishna Maharjan"},"vote_count":1,"created_on":"2020-01-12T11:14:42.257861+05:45"},{"idx":"Ee89BdWk9QVriFGr6vHro2","contest":"Model Superstar","episode":"Model Superstar","category":null,"contestant":{"voting_id":"17","name":"Sajana Panta"},"vote_count":1,"created_on":"2020-01-12T10:44:26.906511+05:45"},{"idx":"L6zUz4zrCMUQDuiLANPqQ7","contest":"Model Superstar","episode":"Model Superstar","category":null,"contestant":{"voting_id":"17","name":"Sajana Panta"},"vote_count":1,"created_on":"2020-01-12T10:44:00.211268+05:45"},{"idx":"FcBt2eogCiDohAtb5YDfk3","contest":"Model Superstar","episode":"Model Superstar","category":null,"contestant":{"voting_id":"01","name":"Sajina Subba"},"vote_count":1,"created_on":"2020-01-12T09:49:29.151387+05:45"},{"idx":"GxNjpZy9ERgTwihk8rKzPB","contest":"Model Superstar","episode":"Model Superstar","category":null,"contestant":{"voting_id":"02","name":"Srijana Basnet"},"vote_count":1,"created_on":"2020-01-12T09:48:04.514588+05:45"},{"idx":"qrurBUwUYQmBU4M7Bp3p8C","contest":"Mr. & Miss Teen Sherpa 2020 - S2","episode":"Mr.&Miss Teen Sherpa -S2","category":null,"contestant":{"voting_id":"02","name":"Pema Yanji sherpa"},"vote_count":1,"created_on":"2020-01-12T09:46:58.958997+05:45"},{"idx":"T2y5bs2ngpMxTdDKHRQXqY","contest":"Mr. & Miss Teen Sherpa 2020 - S2","episode":"Mr.&Miss Teen Sherpa -S2","category":null,"contestant":{"voting_id":"02","name":"Pema Yanji sherpa"},"vote_count":1,"created_on":"2020-01-12T09:46:36.918097+05:45"},{"idx":"82Bx78rktvi26LMRrpTPqF","contest":"Mr. & Miss Teen Sherpa 2020 - S2","episode":"Mr.&Miss Teen Sherpa -S2","category":null,"contestant":{"voting_id":"02","name":"Pema Yanji sherpa"},"vote_count":1,"created_on":"2020-01-12T09:43:29.799697+05:45"},{"idx":"H5kFupNnGLConsyH2aghna","contest":"Mr. & Miss Teen Sherpa 2020 - S2","episode":"Mr.&Miss Teen Sherpa -S2","category":null,"contestant":{"voting_id":"05","name":"Nima Lhamu sherpa"},"vote_count":1,"created_on":"2020-01-12T09:05:28.868260+05:45"},{"idx":"riBPtYCLikMNFDTh7QanZX","contest":"Mr. & Miss Teen Sherpa 2020 - S2","episode":"Mr.&Miss Teen Sherpa -S2","category":null,"contestant":{"voting_id":"02","name":"Pema Yanji sherpa"},"vote_count":1,"created_on":"2020-01-12T08:59:14.630174+05:45"},{"idx":"vbpYhz5cJ9iPuRrwuwbcoW","contest":"Mr. & Miss Teen Sherpa 2020 - S2","episode":"Mr.&Miss Teen Sherpa -S2","category":null,"contestant":{"voting_id":"02","name":"Pema Yanji sherpa"},"vote_count":1,"created_on":"2020-01-12T08:58:57.419039+05:45"},{"idx":"nEX4GtUAnpWEr2CSW4ogmg","contest":"Mr. & Miss Teen Sherpa 2020 - S2","episode":"Mr.&Miss Teen Sherpa -S2","category":null,"contestant":{"voting_id":"02","name":"Pema Yanji sherpa"},"vote_count":1,"created_on":"2020-01-12T08:58:08.315243+05:45"},{"idx":"RfvfQubg85hSduajFagnsE","contest":"Model Superstar","episode":"Model Superstar","category":null,"contestant":{"voting_id":"12","name":"Rabin Ghising"},"vote_count":1,"created_on":"2020-01-12T08:38:28.444927+05:45"},{"idx":"QgSUfMoNfxaCLkxwS5GgaH","contest":"Mr. & Miss Teen Sherpa 2020 - S2","episode":"Mr.&Miss Teen Sherpa -S2","category":null,"contestant":{"voting_id":"01","name":"Lhamu Sherpa"},"vote_count":1,"created_on":"2020-01-12T08:37:54.221293+05:45"},{"idx":"ZVFPyEapkJhjPuRL9Vb9EE","contest":"Model Superstar","episode":"Model Superstar","category":null,"contestant":{"voting_id":"16","name":"Anil Karki"},"vote_count":100,"created_on":"2020-01-12T08:27:37.212656+05:45"},{"idx":"sefBs6JUrs7RorguTLxQ28","contest":"Model Superstar","episode":"Model Superstar","category":null,"contestant":{"voting_id":"07","name":"Narman Malla"},"vote_count":1,"created_on":"2020-01-12T08:27:23.153663+05:45"},{"idx":"Rpr5RL6vevKpRkh8J5m3Xc","contest":"Model Superstar","episode":"Model Superstar","category":null,"contestant":{"voting_id":"16","name":"Anil Karki"},"vote_count":1,"created_on":"2020-01-12T08:08:41.357692+05:45"},{"idx":"oMabk9r294foxvuq3X7Vyj","contest":"Model Superstar","episode":"Model Superstar","category":null,"contestant":{"voting_id":"16","name":"Anil Karki"},"vote_count":1,"created_on":"2020-01-12T08:07:25.948988+05:45"}]}