{"total_pages":275,"total_records":13717,"next":"https://khalti.com/api/v2/vuservote/?page=116","previous":"https://khalti.com/api/v2/vuservote/?page=114","record_range":[5701,5750],"current_page":115,"records":[{"idx":"Xz8cSagytD5iEjz9dSJYiU","contest":"Model Superstar","episode":"Model Superstar","category":null,"contestant":{"voting_id":"16","name":"Anil Karki"},"vote_count":1,"created_on":"2020-01-12T08:06:35.594341+05:45"},{"idx":"YBpGv9MfKGR7MXByV3mS6c","contest":"Mr. & Miss Teen Sherpa 2020 - S2","episode":"Mr.&Miss Teen Sherpa -S2","category":null,"contestant":{"voting_id":"11","name":"Ang Maya Sherpa"},"vote_count":1,"created_on":"2020-01-12T06:51:02.879026+05:45"},{"idx":"bFRMw6XYpFTrwvY9KHVqFF","contest":"Mr. & Miss Teen Sherpa 2020 - S2","episode":"Mr.&Miss Teen Sherpa -S2","category":null,"contestant":{"voting_id":"11","name":"Ang Maya Sherpa"},"vote_count":1,"created_on":"2020-01-12T06:49:57.758506+05:45"},{"idx":"r8CkEUU4makDaotqujjfYZ","contest":"Model Superstar","episode":"Model Superstar","category":null,"contestant":{"voting_id":"11","name":"Rachana Karki"},"vote_count":1,"created_on":"2020-01-12T01:37:50.164581+05:45"},{"idx":"qyVuQHh4s535THBiJV7BWW","contest":"Mr. & Miss Teen Sherpa 2020 - S2","episode":"Mr.&Miss Teen Sherpa -S2","category":null,"contestant":{"voting_id":"12","name":"Tshering Dolkar Sherpa"},"vote_count":1,"created_on":"2020-01-12T01:35:59.642090+05:45"},{"idx":"vtSgoMJRpxG9tDgkskJN5C","contest":"Mr. & Miss Teen Sherpa 2020 - S2","episode":"Mr.&Miss Teen Sherpa -S2","category":null,"contestant":{"voting_id":"02","name":"Pema Yanji sherpa"},"vote_count":1,"created_on":"2020-01-12T00:04:31.731601+05:45"},{"idx":"FF7BU2gYbRg5pkEsbd89v2","contest":"Mr. & Miss Teen Sherpa 2020 - S2","episode":"Mr.&Miss Teen Sherpa -S2","category":null,"contestant":{"voting_id":"02","name":"Pema Yanji sherpa"},"vote_count":1,"created_on":"2020-01-12T00:04:28.353204+05:45"},{"idx":"amVJbZkjtcqhydgNgZpiAc","contest":"Mr. & Miss Teen Sherpa 2020 - S2","episode":"Mr.&Miss Teen Sherpa -S2","category":null,"contestant":{"voting_id":"02","name":"Pema Yanji sherpa"},"vote_count":1,"created_on":"2020-01-12T00:04:12.358262+05:45"},{"idx":"5cMLGivrQ5SSB8PE34exrV","contest":"Mr. & Miss Teen Sherpa 2020 - S2","episode":"Mr.&Miss Teen Sherpa -S2","category":null,"contestant":{"voting_id":"02","name":"Pema Yanji sherpa"},"vote_count":1,"created_on":"2020-01-12T00:04:08.390262+05:45"},{"idx":"hwFqhT9gtGTMPdp5pfbaPj","contest":"Mr. & Miss Teen Sherpa 2020 - S2","episode":"Mr.&Miss Teen Sherpa -S2","category":null,"contestant":{"voting_id":"02","name":"Pema Yanji sherpa"},"vote_count":1,"created_on":"2020-01-12T00:03:48.669288+05:45"},{"idx":"hFen5UmWhM6ZB6hPuup7ZL","contest":"Mr. & Miss Teen Sherpa 2020 - S2","episode":"Mr.&Miss Teen Sherpa -S2","category":null,"contestant":{"voting_id":"02","name":"Pema Yanji sherpa"},"vote_count":1,"created_on":"2020-01-12T00:03:48.613512+05:45"},{"idx":"qYEyBi8mU7zK96Nmet6Ase","contest":"Mr. & Miss Teen Sherpa 2020 - S2","episode":"Mr.&Miss Teen Sherpa -S2","category":null,"contestant":{"voting_id":"02","name":"Pema Yanji sherpa"},"vote_count":1,"created_on":"2020-01-12T00:03:26.827674+05:45"},{"idx":"tBhmocMNqz8wN5pd7pynGS","contest":"Mr. & Miss Teen Sherpa 2020 - S2","episode":"Mr.&Miss Teen Sherpa -S2","category":null,"contestant":{"voting_id":"02","name":"Pema Yanji sherpa"},"vote_count":1,"created_on":"2020-01-12T00:03:26.566442+05:45"},{"idx":"DXAAUNEuv2Dq6kUSVKgJWR","contest":"Mr. & Miss Teen Sherpa 2020 - S2","episode":"Mr.&Miss Teen Sherpa -S2","category":null,"contestant":{"voting_id":"02","name":"Pema Yanji sherpa"},"vote_count":1,"created_on":"2020-01-12T00:03:10.076398+05:45"},{"idx":"TWJusCcFLXshEDtcjY7uz4","contest":"Mr. & Miss Teen Sherpa 2020 - S2","episode":"Mr.&Miss Teen Sherpa -S2","category":null,"contestant":{"voting_id":"02","name":"Pema Yanji sherpa"},"vote_count":1,"created_on":"2020-01-12T00:03:09.848892+05:45"},{"idx":"tgnyfLdoS9b48ur6Wt5XJX","contest":"Mr. & Miss Teen Sherpa 2020 - S2","episode":"Mr.&Miss Teen Sherpa -S2","category":null,"contestant":{"voting_id":"02","name":"Pema Yanji sherpa"},"vote_count":1,"created_on":"2020-01-12T00:02:45.625703+05:45"},{"idx":"D3qewTJ3dtGB4mwsxeAUeF","contest":"Mr. & Miss Teen Sherpa 2020 - S2","episode":"Mr.&Miss Teen Sherpa -S2","category":null,"contestant":{"voting_id":"02","name":"Pema Yanji sherpa"},"vote_count":1,"created_on":"2020-01-12T00:02:43.528581+05:45"},{"idx":"3y7qfYpes42XnwGuTEsRk4","contest":"Mr. & Miss Teen Sherpa 2020 - S2","episode":"Mr.&Miss Teen Sherpa -S2","category":null,"contestant":{"voting_id":"02","name":"Pema Yanji sherpa"},"vote_count":1,"created_on":"2020-01-12T00:02:27.659887+05:45"},{"idx":"5XYky7A9s7zSs9WFmu2QUN","contest":"Mr. & Miss Teen Sherpa 2020 - S2","episode":"Mr.&Miss Teen Sherpa -S2","category":null,"contestant":{"voting_id":"02","name":"Pema Yanji sherpa"},"vote_count":1,"created_on":"2020-01-12T00:02:22.510472+05:45"},{"idx":"tMRFSUZ9ZWuKydNRsqAoAh","contest":"Mr. & Miss Teen Sherpa 2020 - S2","episode":"Mr.&Miss Teen Sherpa -S2","category":null,"contestant":{"voting_id":"02","name":"Pema Yanji sherpa"},"vote_count":1,"created_on":"2020-01-12T00:02:04.614179+05:45"},{"idx":"MdU6vy2KZtyio8vfDZ8cHa","contest":"Mr. & Miss Teen Sherpa 2020 - S2","episode":"Mr.&Miss Teen Sherpa -S2","category":null,"contestant":{"voting_id":"02","name":"Pema Yanji sherpa"},"vote_count":1,"created_on":"2020-01-12T00:02:01.450985+05:45"},{"idx":"AKH5djYTx6XFfQfFbKkuPC","contest":"Mr. & Miss Teen Sherpa 2020 - S2","episode":"Mr.&Miss Teen Sherpa -S2","category":null,"contestant":{"voting_id":"02","name":"Pema Yanji sherpa"},"vote_count":1,"created_on":"2020-01-12T00:01:40.661279+05:45"},{"idx":"MVAHDxi9zhA6Xin6vG9aG8","contest":"Mr. & Miss Teen Sherpa 2020 - S2","episode":"Mr.&Miss Teen Sherpa -S2","category":null,"contestant":{"voting_id":"02","name":"Pema Yanji sherpa"},"vote_count":1,"created_on":"2020-01-12T00:01:40.027179+05:45"},{"idx":"8nEXgBNK5TyDDxBVNLMN6W","contest":"Mr. & Miss Teen Sherpa 2020 - S2","episode":"Mr.&Miss Teen Sherpa -S2","category":null,"contestant":{"voting_id":"02","name":"Pema Yanji sherpa"},"vote_count":1,"created_on":"2020-01-12T00:01:18.991148+05:45"},{"idx":"HWyMuqNkxnD3CVET8dwWg8","contest":"Mr. & Miss Teen Sherpa 2020 - S2","episode":"Mr.&Miss Teen Sherpa -S2","category":null,"contestant":{"voting_id":"02","name":"Pema Yanji sherpa"},"vote_count":1,"created_on":"2020-01-12T00:01:18.982611+05:45"},{"idx":"KEGNoBaETtaWbreCGnG7nj","contest":"Mr. & Miss Teen Sherpa 2020 - S2","episode":"Mr.&Miss Teen Sherpa -S2","category":null,"contestant":{"voting_id":"02","name":"Pema Yanji sherpa"},"vote_count":1,"created_on":"2020-01-12T00:01:01.608003+05:45"},{"idx":"f52MsNXUk4XTwgH7Q52E73","contest":"Mr. & Miss Teen Sherpa 2020 - S2","episode":"Mr.&Miss Teen Sherpa -S2","category":null,"contestant":{"voting_id":"02","name":"Pema Yanji sherpa"},"vote_count":1,"created_on":"2020-01-12T00:00:55.025659+05:45"},{"idx":"sZ6sE7ef8FGUYV3k6HN5B4","contest":"Mr. & Miss Teen Sherpa 2020 - S2","episode":"Mr.&Miss Teen Sherpa -S2","category":null,"contestant":{"voting_id":"02","name":"Pema Yanji sherpa"},"vote_count":1,"created_on":"2020-01-12T00:00:44.975743+05:45"},{"idx":"5ay5pJboEUTrFAqML7FPVV","contest":"Mr. & Miss Teen Sherpa 2020 - S2","episode":"Mr.&Miss Teen Sherpa -S2","category":null,"contestant":{"voting_id":"02","name":"Pema Yanji sherpa"},"vote_count":1,"created_on":"2020-01-12T00:00:32.780966+05:45"},{"idx":"gdXKzoDJC6HpEhcAuKg95o","contest":"Mr. & Miss Teen Sherpa 2020 - S2","episode":"Mr.&Miss Teen Sherpa -S2","category":null,"contestant":{"voting_id":"02","name":"Pema Yanji sherpa"},"vote_count":1,"created_on":"2020-01-12T00:00:25.404543+05:45"},{"idx":"RYnCEPRYVR4Veg8VRKwxKL","contest":"Mr. & Miss Teen Sherpa 2020 - S2","episode":"Mr.&Miss Teen Sherpa -S2","category":null,"contestant":{"voting_id":"02","name":"Pema Yanji sherpa"},"vote_count":1,"created_on":"2020-01-12T00:00:15.631046+05:45"},{"idx":"pAd4nqkJBijoLdwdyvoevc","contest":"Mr. & Miss Teen Sherpa 2020 - S2","episode":"Mr.&Miss Teen Sherpa -S2","category":null,"contestant":{"voting_id":"02","name":"Pema Yanji sherpa"},"vote_count":1,"created_on":"2020-01-12T00:00:06.948657+05:45"},{"idx":"hcBHUEPqmpe9rUt7jdxanJ","contest":"Mr. & Miss Teen Sherpa 2020 - S2","episode":"Mr.&Miss Teen Sherpa -S2","category":null,"contestant":{"voting_id":"02","name":"Pema Yanji sherpa"},"vote_count":1,"created_on":"2020-01-12T00:00:04.218759+05:45"},{"idx":"mzqKy5K7rqG7attiSfKEwA","contest":"Mr. & Miss Teen Sherpa 2020 - S2","episode":"Mr.&Miss Teen Sherpa -S2","category":null,"contestant":{"voting_id":"02","name":"Pema Yanji sherpa"},"vote_count":1,"created_on":"2020-01-11T23:59:45.959921+05:45"},{"idx":"8LEuTooCtr32WwXAXeKbNC","contest":"Mr. & Miss Teen Sherpa 2020 - S2","episode":"Mr.&Miss Teen Sherpa -S2","category":null,"contestant":{"voting_id":"02","name":"Pema Yanji sherpa"},"vote_count":1,"created_on":"2020-01-11T23:59:41.575779+05:45"},{"idx":"ezP8gYttqzoGurCJ49yphH","contest":"Mr. & Miss Teen Sherpa 2020 - S2","episode":"Mr.&Miss Teen Sherpa -S2","category":null,"contestant":{"voting_id":"02","name":"Pema Yanji sherpa"},"vote_count":1,"created_on":"2020-01-11T23:59:28.035846+05:45"},{"idx":"DJLwgDNYg8E4bvVEKjQfJM","contest":"Mr. & Miss Teen Sherpa 2020 - S2","episode":"Mr.&Miss Teen Sherpa -S2","category":null,"contestant":{"voting_id":"02","name":"Pema Yanji sherpa"},"vote_count":1,"created_on":"2020-01-11T23:59:22.971701+05:45"},{"idx":"LHufbhZPf5bUPZnLnaPMyh","contest":"Mr. & Miss Teen Sherpa 2020 - S2","episode":"Mr.&Miss Teen Sherpa -S2","category":null,"contestant":{"voting_id":"02","name":"Pema Yanji sherpa"},"vote_count":1,"created_on":"2020-01-11T23:59:08.620431+05:45"},{"idx":"Lio9MwwYNdrepeWpWcRwcP","contest":"Mr. & Miss Teen Sherpa 2020 - S2","episode":"Mr.&Miss Teen Sherpa -S2","category":null,"contestant":{"voting_id":"02","name":"Pema Yanji sherpa"},"vote_count":1,"created_on":"2020-01-11T23:59:05.561668+05:45"},{"idx":"fVcXqoGkSEUfPp3Nk4ghzd","contest":"Mr. & Miss Teen Sherpa 2020 - S2","episode":"Mr.&Miss Teen Sherpa -S2","category":null,"contestant":{"voting_id":"02","name":"Pema Yanji sherpa"},"vote_count":1,"created_on":"2020-01-11T23:58:45.979326+05:45"},{"idx":"B9XZxtjjvpLE3qwqjQH8db","contest":"Mr. & Miss Teen Sherpa 2020 - S2","episode":"Mr.&Miss Teen Sherpa -S2","category":null,"contestant":{"voting_id":"02","name":"Pema Yanji sherpa"},"vote_count":1,"created_on":"2020-01-11T23:58:45.938470+05:45"},{"idx":"5ZysjcRLATa6GDnhqmLs53","contest":"Mr. & Miss Teen Sherpa 2020 - S2","episode":"Mr.&Miss Teen Sherpa -S2","category":null,"contestant":{"voting_id":"02","name":"Pema Yanji sherpa"},"vote_count":1,"created_on":"2020-01-11T23:58:26.144458+05:45"},{"idx":"xzvz7iQjQWPBRLbMDgkESa","contest":"Mr. & Miss Teen Sherpa 2020 - S2","episode":"Mr.&Miss Teen Sherpa -S2","category":null,"contestant":{"voting_id":"02","name":"Pema Yanji sherpa"},"vote_count":1,"created_on":"2020-01-11T23:58:25.671489+05:45"},{"idx":"U34YdPyyM6vEvzdFpfRQtT","contest":"Mr. & Miss Teen Sherpa 2020 - S2","episode":"Mr.&Miss Teen Sherpa -S2","category":null,"contestant":{"voting_id":"02","name":"Pema Yanji sherpa"},"vote_count":1,"created_on":"2020-01-11T23:58:10.997590+05:45"},{"idx":"z7FYxYHhSBBsYbfMCpK2W7","contest":"Mr. & Miss Teen Sherpa 2020 - S2","episode":"Mr.&Miss Teen Sherpa -S2","category":null,"contestant":{"voting_id":"02","name":"Pema Yanji sherpa"},"vote_count":1,"created_on":"2020-01-11T23:58:06.988402+05:45"},{"idx":"pFs6GgebUjfx7QiFo5BqGJ","contest":"Mr. & Miss Teen Sherpa 2020 - S2","episode":"Mr.&Miss Teen Sherpa -S2","category":null,"contestant":{"voting_id":"02","name":"Pema Yanji sherpa"},"vote_count":1,"created_on":"2020-01-11T23:57:54.728399+05:45"},{"idx":"AQYFC7LQHR3wimK42m88tR","contest":"Mr. & Miss Teen Sherpa 2020 - S2","episode":"Mr.&Miss Teen Sherpa -S2","category":null,"contestant":{"voting_id":"02","name":"Pema Yanji sherpa"},"vote_count":1,"created_on":"2020-01-11T23:57:45.984391+05:45"},{"idx":"cPeAHdHYiPunbKUT9bZQPo","contest":"Mr. & Miss Teen Sherpa 2020 - S2","episode":"Mr.&Miss Teen Sherpa -S2","category":null,"contestant":{"voting_id":"02","name":"Pema Yanji sherpa"},"vote_count":1,"created_on":"2020-01-11T23:57:33.885481+05:45"},{"idx":"TYt6LTt28rDY4kVKHAze7g","contest":"Mr. & Miss Teen Sherpa 2020 - S2","episode":"Mr.&Miss Teen Sherpa -S2","category":null,"contestant":{"voting_id":"02","name":"Pema Yanji sherpa"},"vote_count":1,"created_on":"2020-01-11T23:57:21.697882+05:45"},{"idx":"TduFTEAaAxu5VDabQJ6yy4","contest":"Mr. & Miss Teen Sherpa 2020 - S2","episode":"Mr.&Miss Teen Sherpa -S2","category":null,"contestant":{"voting_id":"02","name":"Pema Yanji sherpa"},"vote_count":1,"created_on":"2020-01-11T23:57:13.670158+05:45"}]}