{"total_pages":275,"total_records":13717,"next":"https://khalti.com/api/v2/vuservote/?page=13","previous":"https://khalti.com/api/v2/vuservote/?page=11","record_range":[551,600],"current_page":12,"records":[{"idx":"HHz9EV9tW8rRDUvqW7JiQX","contest":"Locus 2020","episode":"Locus 2020","category":null,"contestant":{"voting_id":"29","name":"Project Accident Alert System"},"vote_count":1,"created_on":"2020-02-01T23:23:25.392252+05:45"},{"idx":"cTJGgsZ2zdfCTaNtzdzkeY","contest":"Locus 2020","episode":"Locus 2020","category":null,"contestant":{"voting_id":"19","name":"Project CNC Drawing Machine"},"vote_count":1,"created_on":"2020-02-01T23:22:45.659245+05:45"},{"idx":"NFiJXdf55DHRiFVWSVPXoN","contest":"Locus 2020","episode":"Locus 2020","category":null,"contestant":{"voting_id":"16","name":"Project IOT Based Smart Agriculture System"},"vote_count":1,"created_on":"2020-02-01T23:14:54.146169+05:45"},{"idx":"visF5BzvnrKsD95npUdwXd","contest":"Locus 2020","episode":"Locus 2020","category":null,"contestant":{"voting_id":"29","name":"Project Accident Alert System"},"vote_count":1,"created_on":"2020-02-01T23:12:20.697527+05:45"},{"idx":"YLS6zi8tLPLNCTKJwd3my2","contest":"Locus 2020","episode":"Locus 2020","category":null,"contestant":{"voting_id":"44","name":"Project Structural Dote"},"vote_count":1,"created_on":"2020-02-01T23:08:05.309281+05:45"},{"idx":"cFp2ZDZ9Xzo3RYfKgAEnhC","contest":"Locus 2020","episode":"Locus 2020","category":null,"contestant":{"voting_id":"46","name":"Project Immune"},"vote_count":1,"created_on":"2020-02-01T23:06:57.193892+05:45"},{"idx":"MPox8JCnjQ6ycPpK49kyb5","contest":"Locus 2020","episode":"Locus 2020","category":null,"contestant":{"voting_id":"46","name":"Project Immune"},"vote_count":5,"created_on":"2020-02-01T23:06:32.013421+05:45"},{"idx":"3ckUHwf8DDDwVMwNr2grCF","contest":"Locus 2020","episode":"Locus 2020","category":null,"contestant":{"voting_id":"46","name":"Project Immune"},"vote_count":5,"created_on":"2020-02-01T23:06:13.389968+05:45"},{"idx":"Q5xtWReQHogSH9QAc9U2vm","contest":"Locus 2020","episode":"Locus 2020","category":null,"contestant":{"voting_id":"46","name":"Project Immune"},"vote_count":5,"created_on":"2020-02-01T23:05:49.140738+05:45"},{"idx":"zCdEJUot5drbWZrYBqspHE","contest":"Locus 2020","episode":"Locus 2020","category":null,"contestant":{"voting_id":"46","name":"Project Immune"},"vote_count":5,"created_on":"2020-02-01T23:05:28.116097+05:45"},{"idx":"uhFi8eTqiYWdwuYM2dgRxS","contest":"Locus 2020","episode":"Locus 2020","category":null,"contestant":{"voting_id":"46","name":"Project Immune"},"vote_count":1,"created_on":"2020-02-01T23:03:22.404224+05:45"},{"idx":"KjudcGHkWeQAWDRQenWLz6","contest":"Locus 2020","episode":"Locus 2020","category":null,"contestant":{"voting_id":"44","name":"Project Structural Dote"},"vote_count":1,"created_on":"2020-02-01T22:59:47.764315+05:45"},{"idx":"uH7LoYqvzQpYdqrQW2sXZE","contest":"Locus 2020","episode":"Locus 2020","category":null,"contestant":{"voting_id":"16","name":"Project IOT Based Smart Agriculture System"},"vote_count":1,"created_on":"2020-02-01T22:48:45.084953+05:45"},{"idx":"Arb5vQk3nv4qG2gCW5d6yD","contest":"Locus 2020","episode":"Locus 2020","category":null,"contestant":{"voting_id":"60","name":"Project EMG Contolled Prosthetic Arm"},"vote_count":1,"created_on":"2020-02-01T22:39:41.252582+05:45"},{"idx":"o5AaW8QsG38vTjLAWXU4Rh","contest":"Locus 2020","episode":"Locus 2020","category":null,"contestant":{"voting_id":"31","name":"Project 3 in 1 Cartesian 3D Printer"},"vote_count":1,"created_on":"2020-02-01T22:31:49.682450+05:45"},{"idx":"n7K8nz5V8adHUqnMHZ3wXX","contest":"Locus 2020","episode":"Locus 2020","category":null,"contestant":{"voting_id":"36","name":"Project CNC Router"},"vote_count":1,"created_on":"2020-02-01T22:30:36.753776+05:45"},{"idx":"Zp9Miyhmer9au7zs8fTso5","contest":"Locus 2020","episode":"Locus 2020","category":null,"contestant":{"voting_id":"83","name":"Project Ghadi"},"vote_count":1,"created_on":"2020-02-01T22:25:09.197365+05:45"},{"idx":"p6HvxWVnyrzwECzqDJAfV5","contest":"Music Eve 2020","episode":"Music Eve 2020 IOE","category":null,"contestant":{"voting_id":"07","name":"Chemical Latch"},"vote_count":1,"created_on":"2020-02-01T22:10:30.111932+05:45"},{"idx":"ekfsdn5c6kiogJHStYE7tK","contest":"Model Superstar","episode":"Model Superstar Finale","category":null,"contestant":{"voting_id":"03","name":"Smriti Shah"},"vote_count":1,"created_on":"2020-02-01T22:08:03.280880+05:45"},{"idx":"pbbQPfe9TEvHtJih8sAGuH","contest":"Locus 2020","episode":"Locus 2020","category":null,"contestant":{"voting_id":"46","name":"Project Immune"},"vote_count":1,"created_on":"2020-02-01T22:07:17.428853+05:45"},{"idx":"bE6ihBkwTezwdmLoaxWsnf","contest":"Locus 2020","episode":"Locus 2020","category":null,"contestant":{"voting_id":"16","name":"Project IOT Based Smart Agriculture System"},"vote_count":1,"created_on":"2020-02-01T22:04:49.836922+05:45"},{"idx":"nQ5w8X8zzra286XkhsjscQ","contest":"Locus 2020","episode":"Locus 2020","category":null,"contestant":{"voting_id":"66","name":"Project Alexa Pi"},"vote_count":1,"created_on":"2020-02-01T22:04:25.337559+05:45"},{"idx":"iZgMbujf9xUtR2buhuzmu6","contest":"Locus 2020","episode":"Locus 2020","category":null,"contestant":{"voting_id":"12","name":"Project Green City"},"vote_count":1,"created_on":"2020-02-01T22:02:13.415273+05:45"},{"idx":"Q7rbfJXJcTm3PrGQ4om2of","contest":"Locus 2020","episode":"Locus 2020","category":null,"contestant":{"voting_id":"46","name":"Project Immune"},"vote_count":1,"created_on":"2020-02-01T22:01:50.872224+05:45"},{"idx":"EqqRwnmYV5suQRqM3KuFCe","contest":"Locus 2020","episode":"Locus 2020","category":null,"contestant":{"voting_id":"01","name":"Project Fire Robo"},"vote_count":1,"created_on":"2020-02-01T22:01:13.380119+05:45"},{"idx":"36JuVSikZ4PwVDxHXesQHa","contest":"Locus 2020","episode":"Locus 2020","category":null,"contestant":{"voting_id":"46","name":"Project Immune"},"vote_count":1,"created_on":"2020-02-01T22:00:45.070864+05:45"},{"idx":"XR3qPnovapXnudeGqVxGxC","contest":"Locus 2020","episode":"Locus 2020","category":null,"contestant":{"voting_id":"57","name":"Project Classroom Attendance using facial recognition"},"vote_count":1,"created_on":"2020-02-01T21:59:25.715938+05:45"},{"idx":"n2r39uqQKKDKXZiy8xiQKK","contest":"Locus 2020","episode":"Locus 2020","category":null,"contestant":{"voting_id":"44","name":"Project Structural Dote"},"vote_count":1,"created_on":"2020-02-01T21:58:56.690594+05:45"},{"idx":"D9mkyXiAqHCoagMqrW2pP8","contest":"Locus 2020","episode":"Locus 2020","category":null,"contestant":{"voting_id":"31","name":"Project 3 in 1 Cartesian 3D Printer"},"vote_count":1,"created_on":"2020-02-01T21:54:23.251875+05:45"},{"idx":"86AdJyDyWwf5AZZ3FvFRrJ","contest":"Locus 2020","episode":"Locus 2020","category":null,"contestant":{"voting_id":"29","name":"Project Accident Alert System"},"vote_count":1,"created_on":"2020-02-01T21:54:22.148143+05:45"},{"idx":"hs2xNcaL4cyJaRGmz9mPvB","contest":"Locus 2020","episode":"Locus 2020","category":null,"contestant":{"voting_id":"46","name":"Project Immune"},"vote_count":1,"created_on":"2020-02-01T21:54:04.785986+05:45"},{"idx":"kjU8EX9oMGeMybRvcwkZ3W","contest":"Locus 2020","episode":"Locus 2020","category":null,"contestant":{"voting_id":"66","name":"Project Alexa Pi"},"vote_count":1,"created_on":"2020-02-01T21:53:49.219157+05:45"},{"idx":"mnWsy4m3LupM3S7dnRj5xL","contest":"Locus 2020","episode":"Locus 2020","category":null,"contestant":{"voting_id":"32","name":"Project Health and Environment Checker"},"vote_count":1,"created_on":"2020-02-01T21:53:40.579588+05:45"},{"idx":"zchupvHyCdsEq7zT5DRmo2","contest":"Locus 2020","episode":"Locus 2020","category":null,"contestant":{"voting_id":"46","name":"Project Immune"},"vote_count":1,"created_on":"2020-02-01T21:53:31.710260+05:45"},{"idx":"oCJVhLksiqwdN8CS94zb4X","contest":"Locus 2020","episode":"Locus 2020","category":null,"contestant":{"voting_id":"46","name":"Project Immune"},"vote_count":1,"created_on":"2020-02-01T21:52:44.821957+05:45"},{"idx":"Xy5ujMcMv7wbN6r6LiF8ZL","contest":"Locus 2020","episode":"Locus 2020","category":null,"contestant":{"voting_id":"31","name":"Project 3 in 1 Cartesian 3D Printer"},"vote_count":1,"created_on":"2020-02-01T21:52:31.654654+05:45"},{"idx":"sc9jfhhibqQLoM4XcjhpsE","contest":"Locus 2020","episode":"Locus 2020","category":null,"contestant":{"voting_id":"57","name":"Project Classroom Attendance using facial recognition"},"vote_count":1,"created_on":"2020-02-01T21:51:25.268219+05:45"},{"idx":"oGrL7PqAD8jYgz6jrzJWEY","contest":"Locus 2020","episode":"Locus 2020","category":null,"contestant":{"voting_id":"86","name":"Project Target Shooter"},"vote_count":1,"created_on":"2020-02-01T21:51:24.424044+05:45"},{"idx":"yHT75JyEfnhpbDr6YkfVQN","contest":"Locus 2020","episode":"Locus 2020","category":null,"contestant":{"voting_id":"36","name":"Project CNC Router"},"vote_count":1,"created_on":"2020-02-01T21:49:45.898865+05:45"},{"idx":"2FPK43hYHnzCYy4bgiDEon","contest":"Locus 2020","episode":"Locus 2020","category":null,"contestant":{"voting_id":"02","name":"Project Plant -e"},"vote_count":1,"created_on":"2020-02-01T21:49:00.504371+05:45"},{"idx":"FJNBavrtNEGLsp6cyRikvd","contest":"Locus 2020","episode":"Locus 2020","category":null,"contestant":{"voting_id":"29","name":"Project Accident Alert System"},"vote_count":1,"created_on":"2020-02-01T21:48:48.516019+05:45"},{"idx":"AkG3C2WdnRSpTtRKzNj9Vk","contest":"Locus 2020","episode":"Locus 2020","category":null,"contestant":{"voting_id":"14","name":"Project TeeForges"},"vote_count":1,"created_on":"2020-02-01T21:44:01.045310+05:45"},{"idx":"jLSw5eQ5tkYvHJAt2JzCdD","contest":"Locus 2020","episode":"Locus 2020","category":null,"contestant":{"voting_id":"46","name":"Project Immune"},"vote_count":1,"created_on":"2020-02-01T21:43:32.358330+05:45"},{"idx":"EpDkebKyRpUkzUeV8yRkkA","contest":"Locus 2020","episode":"Locus 2020","category":null,"contestant":{"voting_id":"14","name":"Project TeeForges"},"vote_count":1,"created_on":"2020-02-01T21:43:17.837956+05:45"},{"idx":"Qdp8vFqremzBnTgSXiGNRU","contest":"Locus 2020","episode":"Locus 2020","category":null,"contestant":{"voting_id":"92","name":"Project Bhakari Shopping Nepal"},"vote_count":1,"created_on":"2020-02-01T21:42:46.245943+05:45"},{"idx":"Be8qCrAAdiYDqtQSHh9urW","contest":"Locus 2020","episode":"Locus 2020","category":null,"contestant":{"voting_id":"31","name":"Project 3 in 1 Cartesian 3D Printer"},"vote_count":1,"created_on":"2020-02-01T21:40:33.974429+05:45"},{"idx":"uFhZ6EX7VsbBHzuU7Arbv8","contest":"Locus 2020","episode":"Locus 2020","category":null,"contestant":{"voting_id":"29","name":"Project Accident Alert System"},"vote_count":1,"created_on":"2020-02-01T21:38:38.404545+05:45"},{"idx":"tLimUinunjPdkYerLLXR4C","contest":"Locus 2020","episode":"Locus 2020","category":null,"contestant":{"voting_id":"52","name":"Project Trivram"},"vote_count":1,"created_on":"2020-02-01T21:38:23.817670+05:45"},{"idx":"HXSH3agkAvDgLDP87VYe92","contest":"Locus 2020","episode":"Locus 2020","category":null,"contestant":{"voting_id":"14","name":"Project TeeForges"},"vote_count":1,"created_on":"2020-02-01T21:37:53.891309+05:45"},{"idx":"vnRVmLx2ehMgSXCpri64q8","contest":"Locus 2020","episode":"Locus 2020","category":null,"contestant":{"voting_id":"24","name":"Project Library App"},"vote_count":1,"created_on":"2020-02-01T21:36:15.773191+05:45"}]}