{"total_pages":275,"total_records":13719,"next":"https://khalti.com/api/v2/vuservote/?page=126","previous":"https://khalti.com/api/v2/vuservote/?page=124","record_range":[6201,6250],"current_page":125,"records":[{"idx":"zmz26rFECgFiU2XkJrLXCG","contest":"Mr. & Miss Teen Sherpa 2020 - S2","episode":"Mr.&Miss Teen Sherpa -S2","category":null,"contestant":{"voting_id":"08","name":"Angdali Sherpa"},"vote_count":1,"created_on":"2020-01-11T22:41:15.510168+05:45"},{"idx":"jiSNxibVEMsJj4EUkH8miN","contest":"Mr. & Miss Teen Sherpa 2020 - S2","episode":"Mr.&Miss Teen Sherpa -S2","category":null,"contestant":{"voting_id":"02","name":"Pema Yanji sherpa"},"vote_count":1,"created_on":"2020-01-11T22:41:10.957776+05:45"},{"idx":"GwcynXgWesMRd9xDDs3466","contest":"Mr. & Miss Teen Sherpa 2020 - S2","episode":"Mr.&Miss Teen Sherpa -S2","category":null,"contestant":{"voting_id":"02","name":"Pema Yanji sherpa"},"vote_count":1,"created_on":"2020-01-11T22:41:05.721573+05:45"},{"idx":"pagYhnHBgKU6zQvZWUZmH4","contest":"Mr. & Miss Teen Sherpa 2020 - S2","episode":"Mr.&Miss Teen Sherpa -S2","category":null,"contestant":{"voting_id":"08","name":"Angdali Sherpa"},"vote_count":1,"created_on":"2020-01-11T22:41:01.924782+05:45"},{"idx":"AJvvkav8qdrvgPCmfdkfEB","contest":"Mr. & Miss Teen Sherpa 2020 - S2","episode":"Mr.&Miss Teen Sherpa -S2","category":null,"contestant":{"voting_id":"02","name":"Pema Yanji sherpa"},"vote_count":1,"created_on":"2020-01-11T22:40:57.542161+05:45"},{"idx":"QYGuGVYybDfurKWV6qpE76","contest":"Mr. & Miss Teen Sherpa 2020 - S2","episode":"Mr.&Miss Teen Sherpa -S2","category":null,"contestant":{"voting_id":"02","name":"Pema Yanji sherpa"},"vote_count":1,"created_on":"2020-01-11T22:40:55.348729+05:45"},{"idx":"jBTeUFHa6LxLcTJgaJPAef","contest":"Mr. & Miss Teen Sherpa 2020 - S2","episode":"Mr.&Miss Teen Sherpa -S2","category":null,"contestant":{"voting_id":"08","name":"Angdali Sherpa"},"vote_count":1,"created_on":"2020-01-11T22:40:51.108129+05:45"},{"idx":"2NkKyyoSJ9NXP7DdHfAccj","contest":"Mr. & Miss Teen Sherpa 2020 - S2","episode":"Mr.&Miss Teen Sherpa -S2","category":null,"contestant":{"voting_id":"02","name":"Pema Yanji sherpa"},"vote_count":1,"created_on":"2020-01-11T22:40:49.573014+05:45"},{"idx":"DKU4y562yxTy2Qd6P6gjWd","contest":"Mr. & Miss Teen Sherpa 2020 - S2","episode":"Mr.&Miss Teen Sherpa -S2","category":null,"contestant":{"voting_id":"02","name":"Pema Yanji sherpa"},"vote_count":1,"created_on":"2020-01-11T22:40:43.642596+05:45"},{"idx":"e7BHeWpLG22Mb3yCuaXxwE","contest":"Mr. & Miss Teen Sherpa 2020 - S2","episode":"Mr.&Miss Teen Sherpa -S2","category":null,"contestant":{"voting_id":"08","name":"Angdali Sherpa"},"vote_count":1,"created_on":"2020-01-11T22:40:39.881476+05:45"},{"idx":"HEVMkmNfX7eM7ceak4cSQm","contest":"Mr. & Miss Teen Sherpa 2020 - S2","episode":"Mr.&Miss Teen Sherpa -S2","category":null,"contestant":{"voting_id":"02","name":"Pema Yanji sherpa"},"vote_count":1,"created_on":"2020-01-11T22:40:39.698537+05:45"},{"idx":"r8JxkvDQpJF4AtG8irB7AX","contest":"Mr. & Miss Teen Sherpa 2020 - S2","episode":"Mr.&Miss Teen Sherpa -S2","category":null,"contestant":{"voting_id":"02","name":"Pema Yanji sherpa"},"vote_count":1,"created_on":"2020-01-11T22:40:30.739204+05:45"},{"idx":"R87zVnvfSHpggtS8LrbxPF","contest":"Mr. & Miss Teen Sherpa 2020 - S2","episode":"Mr.&Miss Teen Sherpa -S2","category":null,"contestant":{"voting_id":"08","name":"Angdali Sherpa"},"vote_count":1,"created_on":"2020-01-11T22:40:29.623543+05:45"},{"idx":"J2SecdcmhVJdDHjHVpMcGh","contest":"Mr. & Miss Teen Sherpa 2020 - S2","episode":"Mr.&Miss Teen Sherpa -S2","category":null,"contestant":{"voting_id":"02","name":"Pema Yanji sherpa"},"vote_count":1,"created_on":"2020-01-11T22:40:26.485107+05:45"},{"idx":"BkqWBzMaXPTZyUZqBVxb9R","contest":"Mr. & Miss Teen Sherpa 2020 - S2","episode":"Mr.&Miss Teen Sherpa -S2","category":null,"contestant":{"voting_id":"02","name":"Pema Yanji sherpa"},"vote_count":1,"created_on":"2020-01-11T22:40:20.656887+05:45"},{"idx":"xFvx6zDPFn4Xi7mwD3u55Q","contest":"Mr. & Miss Teen Sherpa 2020 - S2","episode":"Mr.&Miss Teen Sherpa -S2","category":null,"contestant":{"voting_id":"02","name":"Pema Yanji sherpa"},"vote_count":1,"created_on":"2020-01-11T22:40:13.928243+05:45"},{"idx":"P5QaNHeTuSjFC76kTTuASM","contest":"Mr. & Miss Teen Sherpa 2020 - S2","episode":"Mr.&Miss Teen Sherpa -S2","category":null,"contestant":{"voting_id":"08","name":"Angdali Sherpa"},"vote_count":1,"created_on":"2020-01-11T22:40:12.372363+05:45"},{"idx":"5vGYHvGEZHeVpn3U3grXPX","contest":"Mr. & Miss Teen Sherpa 2020 - S2","episode":"Mr.&Miss Teen Sherpa -S2","category":null,"contestant":{"voting_id":"02","name":"Pema Yanji sherpa"},"vote_count":1,"created_on":"2020-01-11T22:40:09.640144+05:45"},{"idx":"b7EiGxNNCETL7SuWjFb2kA","contest":"Mr. & Miss Teen Sherpa 2020 - S2","episode":"Mr.&Miss Teen Sherpa -S2","category":null,"contestant":{"voting_id":"02","name":"Pema Yanji sherpa"},"vote_count":1,"created_on":"2020-01-11T22:40:03.117024+05:45"},{"idx":"FoqNHq3QPKBRJSHkx9Z42Y","contest":"Mr. & Miss Teen Sherpa 2020 - S2","episode":"Mr.&Miss Teen Sherpa -S2","category":null,"contestant":{"voting_id":"02","name":"Pema Yanji sherpa"},"vote_count":1,"created_on":"2020-01-11T22:40:00.935022+05:45"},{"idx":"sFnuj9bekZjCdZ3gMkSxEB","contest":"Mr. & Miss Teen Sherpa 2020 - S2","episode":"Mr.&Miss Teen Sherpa -S2","category":null,"contestant":{"voting_id":"08","name":"Angdali Sherpa"},"vote_count":1,"created_on":"2020-01-11T22:39:58.590031+05:45"},{"idx":"rveToTMvjFL47tvR45jvnF","contest":"Mr. & Miss Teen Sherpa 2020 - S2","episode":"Mr.&Miss Teen Sherpa -S2","category":null,"contestant":{"voting_id":"02","name":"Pema Yanji sherpa"},"vote_count":1,"created_on":"2020-01-11T22:39:52.795675+05:45"},{"idx":"Lcn8UHcE8HE6QTssiXNtBi","contest":"Mr. & Miss Teen Sherpa 2020 - S2","episode":"Mr.&Miss Teen Sherpa -S2","category":null,"contestant":{"voting_id":"02","name":"Pema Yanji sherpa"},"vote_count":1,"created_on":"2020-01-11T22:39:51.731935+05:45"},{"idx":"i3XxMe8XPzWnxKZrvnYvTE","contest":"Mr. & Miss Teen Sherpa 2020 - S2","episode":"Mr.&Miss Teen Sherpa -S2","category":null,"contestant":{"voting_id":"08","name":"Angdali Sherpa"},"vote_count":1,"created_on":"2020-01-11T22:39:47.805178+05:45"},{"idx":"LkyfSPquhaixQqkXff7kD8","contest":"Mr. & Miss Teen Sherpa 2020 - S2","episode":"Mr.&Miss Teen Sherpa -S2","category":null,"contestant":{"voting_id":"02","name":"Pema Yanji sherpa"},"vote_count":1,"created_on":"2020-01-11T22:39:44.610646+05:45"},{"idx":"NaxKBftJxxUQtdCA4HNTkF","contest":"Mr. & Miss Teen Sherpa 2020 - S2","episode":"Mr.&Miss Teen Sherpa -S2","category":null,"contestant":{"voting_id":"02","name":"Pema Yanji sherpa"},"vote_count":1,"created_on":"2020-01-11T22:39:39.291380+05:45"},{"idx":"2Kcp2h4DLvPat8V5BnpGSH","contest":"Mr. & Miss Teen Sherpa 2020 - S2","episode":"Mr.&Miss Teen Sherpa -S2","category":null,"contestant":{"voting_id":"08","name":"Angdali Sherpa"},"vote_count":1,"created_on":"2020-01-11T22:39:27.183070+05:45"},{"idx":"BMDRwKdg7eTieU9upkw4gF","contest":"Mr. & Miss Teen Sherpa 2020 - S2","episode":"Mr.&Miss Teen Sherpa -S2","category":null,"contestant":{"voting_id":"02","name":"Pema Yanji sherpa"},"vote_count":1,"created_on":"2020-01-11T22:39:26.051822+05:45"},{"idx":"EZeHumjbNjJ33K3p99H2PQ","contest":"Mr. & Miss Teen Sherpa 2020 - S2","episode":"Mr.&Miss Teen Sherpa -S2","category":null,"contestant":{"voting_id":"02","name":"Pema Yanji sherpa"},"vote_count":1,"created_on":"2020-01-11T22:39:21.698846+05:45"},{"idx":"gCtJX3kRjuG7h9dCqJYoDf","contest":"Mr. & Miss Teen Sherpa 2020 - S2","episode":"Mr.&Miss Teen Sherpa -S2","category":null,"contestant":{"voting_id":"02","name":"Pema Yanji sherpa"},"vote_count":1,"created_on":"2020-01-11T22:39:15.773491+05:45"},{"idx":"XeNowphxhTcF5bGu4ZH7xf","contest":"Mr. & Miss Teen Sherpa 2020 - S2","episode":"Mr.&Miss Teen Sherpa -S2","category":null,"contestant":{"voting_id":"02","name":"Pema Yanji sherpa"},"vote_count":1,"created_on":"2020-01-11T22:39:09.443423+05:45"},{"idx":"ZPdajskrNdfs9kun9D8VwE","contest":"Mr. & Miss Teen Sherpa 2020 - S2","episode":"Mr.&Miss Teen Sherpa -S2","category":null,"contestant":{"voting_id":"02","name":"Pema Yanji sherpa"},"vote_count":1,"created_on":"2020-01-11T22:39:06.736754+05:45"},{"idx":"pLzPb5h3PUPamAr9F7zMy9","contest":"Mr. & Miss Teen Sherpa 2020 - S2","episode":"Mr.&Miss Teen Sherpa -S2","category":null,"contestant":{"voting_id":"02","name":"Pema Yanji sherpa"},"vote_count":1,"created_on":"2020-01-11T22:38:58.157099+05:45"},{"idx":"XkACyzBf7WNSZ6cFmVpW5h","contest":"Mr. & Miss Teen Sherpa 2020 - S2","episode":"Mr.&Miss Teen Sherpa -S2","category":null,"contestant":{"voting_id":"02","name":"Pema Yanji sherpa"},"vote_count":1,"created_on":"2020-01-11T22:38:52.373877+05:45"},{"idx":"NjHqSuJRvjSKSxpHvDzgQd","contest":"Mr. & Miss Teen Sherpa 2020 - S2","episode":"Mr.&Miss Teen Sherpa -S2","category":null,"contestant":{"voting_id":"02","name":"Pema Yanji sherpa"},"vote_count":1,"created_on":"2020-01-11T22:38:45.020283+05:45"},{"idx":"KwGdg2t6cKM7yx6Pa8XHc4","contest":"Mr. & Miss Teen Sherpa 2020 - S2","episode":"Mr.&Miss Teen Sherpa -S2","category":null,"contestant":{"voting_id":"02","name":"Pema Yanji sherpa"},"vote_count":1,"created_on":"2020-01-11T22:38:38.311500+05:45"},{"idx":"6LtFJUsyDC98cEpZJZPEkG","contest":"Mr. & Miss Teen Sherpa 2020 - S2","episode":"Mr.&Miss Teen Sherpa -S2","category":null,"contestant":{"voting_id":"02","name":"Pema Yanji sherpa"},"vote_count":1,"created_on":"2020-01-11T22:38:36.932016+05:45"},{"idx":"FvWUXtXBoHwKbtQpMFBPEQ","contest":"Mr. & Miss Teen Sherpa 2020 - S2","episode":"Mr.&Miss Teen Sherpa -S2","category":null,"contestant":{"voting_id":"02","name":"Pema Yanji sherpa"},"vote_count":1,"created_on":"2020-01-11T22:38:28.129254+05:45"},{"idx":"gPWGjftfJFTVCsQN9GdCLN","contest":"Mr. & Miss Teen Sherpa 2020 - S2","episode":"Mr.&Miss Teen Sherpa -S2","category":null,"contestant":{"voting_id":"02","name":"Pema Yanji sherpa"},"vote_count":1,"created_on":"2020-01-11T22:38:22.337592+05:45"},{"idx":"ycM5B5qX4RVhmPATpwBNtB","contest":"Mr. & Miss Teen Sherpa 2020 - S2","episode":"Mr.&Miss Teen Sherpa -S2","category":null,"contestant":{"voting_id":"02","name":"Pema Yanji sherpa"},"vote_count":1,"created_on":"2020-01-11T22:37:48.008414+05:45"},{"idx":"GGLhH7G4ujSQMz9GvXkiGG","contest":"Mr. & Miss Teen Sherpa 2020 - S2","episode":"Mr.&Miss Teen Sherpa -S2","category":null,"contestant":{"voting_id":"02","name":"Pema Yanji sherpa"},"vote_count":1,"created_on":"2020-01-11T22:37:34.908846+05:45"},{"idx":"XhsqfmdZy6tCcoJ298jbTL","contest":"Mr. & Miss Teen Sherpa 2020 - S2","episode":"Mr.&Miss Teen Sherpa -S2","category":null,"contestant":{"voting_id":"02","name":"Pema Yanji sherpa"},"vote_count":1,"created_on":"2020-01-11T22:37:32.095674+05:45"},{"idx":"WRknsFqx4BENaUomhVeDFT","contest":"Mr. & Miss Teen Sherpa 2020 - S2","episode":"Mr.&Miss Teen Sherpa -S2","category":null,"contestant":{"voting_id":"02","name":"Pema Yanji sherpa"},"vote_count":1,"created_on":"2020-01-11T22:37:17.406237+05:45"},{"idx":"LoiLtya3FaZJ4ph2Tcp9RG","contest":"Mr. & Miss Teen Sherpa 2020 - S2","episode":"Mr.&Miss Teen Sherpa -S2","category":null,"contestant":{"voting_id":"02","name":"Pema Yanji sherpa"},"vote_count":1,"created_on":"2020-01-11T22:37:10.614835+05:45"},{"idx":"nLPYr7cWML3jehRTtfRzQ2","contest":"Mr. & Miss Teen Sherpa 2020 - S2","episode":"Mr.&Miss Teen Sherpa -S2","category":null,"contestant":{"voting_id":"02","name":"Pema Yanji sherpa"},"vote_count":1,"created_on":"2020-01-11T22:37:03.230961+05:45"},{"idx":"yhpssdakgwxaZGVu6Bhc8Z","contest":"Mr. & Miss Teen Sherpa 2020 - S2","episode":"Mr.&Miss Teen Sherpa -S2","category":null,"contestant":{"voting_id":"02","name":"Pema Yanji sherpa"},"vote_count":1,"created_on":"2020-01-11T22:37:00.259001+05:45"},{"idx":"HwNfrVsBo4MzvbAdsABdFW","contest":"Mr. & Miss Teen Sherpa 2020 - S2","episode":"Mr.&Miss Teen Sherpa -S2","category":null,"contestant":{"voting_id":"02","name":"Pema Yanji sherpa"},"vote_count":1,"created_on":"2020-01-11T22:36:53.984791+05:45"},{"idx":"gFX97bP932L9LnUzBQTh2L","contest":"Mr. & Miss Teen Sherpa 2020 - S2","episode":"Mr.&Miss Teen Sherpa -S2","category":null,"contestant":{"voting_id":"02","name":"Pema Yanji sherpa"},"vote_count":1,"created_on":"2020-01-11T22:36:48.764125+05:45"},{"idx":"FT9Hx2xP8vm4CHvErdgBca","contest":"Mr. & Miss Teen Sherpa 2020 - S2","episode":"Mr.&Miss Teen Sherpa -S2","category":null,"contestant":{"voting_id":"02","name":"Pema Yanji sherpa"},"vote_count":1,"created_on":"2020-01-11T22:36:46.108376+05:45"},{"idx":"b77TukKNUBMqpjjfmGXj57","contest":"Mr. & Miss Teen Sherpa 2020 - S2","episode":"Mr.&Miss Teen Sherpa -S2","category":null,"contestant":{"voting_id":"02","name":"Pema Yanji sherpa"},"vote_count":1,"created_on":"2020-01-11T22:36:37.709201+05:45"}]}