{"total_pages":275,"total_records":13720,"next":"https://khalti.com/api/v2/vuservote/?page=130","previous":"https://khalti.com/api/v2/vuservote/?page=128","record_range":[6401,6450],"current_page":129,"records":[{"idx":"hAHLTUpeMFGv3e9Yqm3xVN","contest":"Model Superstar","episode":"Model Superstar","category":null,"contestant":{"voting_id":"17","name":"Sajana Panta"},"vote_count":100,"created_on":"2020-01-11T21:13:04.404398+05:45"},{"idx":"74gtcFcryMNUK7X5bVSmaZ","contest":"Model Superstar","episode":"Model Superstar","category":null,"contestant":{"voting_id":"17","name":"Sajana Panta"},"vote_count":1,"created_on":"2020-01-11T21:03:12.229492+05:45"},{"idx":"KoPy23gA3kjKYa8DyxZGCF","contest":"Model Superstar","episode":"Model Superstar","category":null,"contestant":{"voting_id":"17","name":"Sajana Panta"},"vote_count":1,"created_on":"2020-01-11T21:02:41.733761+05:45"},{"idx":"K2omr4uZJL8BMAzayvSV6E","contest":"Model Superstar","episode":"Model Superstar","category":null,"contestant":{"voting_id":"17","name":"Sajana Panta"},"vote_count":1,"created_on":"2020-01-11T21:02:02.638400+05:45"},{"idx":"GyT3zJyokDLwpTFLRdUEn4","contest":"Model Superstar","episode":"Model Superstar","category":null,"contestant":{"voting_id":"17","name":"Sajana Panta"},"vote_count":1,"created_on":"2020-01-11T21:01:21.820483+05:45"},{"idx":"ZnmBf4khscUw6FPNASE7Nm","contest":"Model Superstar","episode":"Model Superstar","category":null,"contestant":{"voting_id":"17","name":"Sajana Panta"},"vote_count":1,"created_on":"2020-01-11T21:00:23.169025+05:45"},{"idx":"cgWfNDTcExeho3uS44c7vZ","contest":"Model Superstar","episode":"Model Superstar","category":null,"contestant":{"voting_id":"17","name":"Sajana Panta"},"vote_count":1,"created_on":"2020-01-11T20:59:54.269095+05:45"},{"idx":"t7aEmajmMLUA3Vi8hqA8fh","contest":"Model Superstar","episode":"Model Superstar","category":null,"contestant":{"voting_id":"17","name":"Sajana Panta"},"vote_count":1,"created_on":"2020-01-11T20:59:21.648726+05:45"},{"idx":"s7hRHCsHyEPmC4xXk97LkT","contest":"Model Superstar","episode":"Model Superstar","category":null,"contestant":{"voting_id":"17","name":"Sajana Panta"},"vote_count":1,"created_on":"2020-01-11T20:58:49.263180+05:45"},{"idx":"AH2Bmjqa8Vfqn3auR8mPf9","contest":"Model Superstar","episode":"Model Superstar","category":null,"contestant":{"voting_id":"17","name":"Sajana Panta"},"vote_count":1,"created_on":"2020-01-11T20:58:09.941463+05:45"},{"idx":"5v6GcaBN2rQE6pciFDXzaU","contest":"Model Superstar","episode":"Model Superstar","category":null,"contestant":{"voting_id":"17","name":"Sajana Panta"},"vote_count":1,"created_on":"2020-01-11T20:57:44.906373+05:45"},{"idx":"Xjwm9oXaw87eDjphpG4HEm","contest":"Model Superstar","episode":"Model Superstar","category":null,"contestant":{"voting_id":"04","name":"Sabita Maharjan"},"vote_count":1,"created_on":"2020-01-11T20:57:12.357822+05:45"},{"idx":"36tHUygsHTKdX6gupH4iKk","contest":"Model Superstar","episode":"Model Superstar","category":null,"contestant":{"voting_id":"17","name":"Sajana Panta"},"vote_count":1,"created_on":"2020-01-11T20:56:16.166476+05:45"},{"idx":"gFuCF3ysfro2mBmHpXMipb","contest":"Model Superstar","episode":"Model Superstar","category":null,"contestant":{"voting_id":"17","name":"Sajana Panta"},"vote_count":1,"created_on":"2020-01-11T20:54:31.807042+05:45"},{"idx":"P3vicVACNDRJodKvRDhNAj","contest":"Mr. & Miss Teen Sherpa 2020 - S2","episode":"Mr.&Miss Teen Sherpa -S2","category":null,"contestant":{"voting_id":"01","name":"Lhamu Sherpa"},"vote_count":1,"created_on":"2020-01-11T20:53:06.171866+05:45"},{"idx":"YCi5LT8g5qhCf5GatcYWjd","contest":"Model Superstar","episode":"Model Superstar","category":null,"contestant":{"voting_id":"17","name":"Sajana Panta"},"vote_count":1,"created_on":"2020-01-11T20:52:50.508089+05:45"},{"idx":"vsSo5RAwbKFJNo9upTu26B","contest":"Model Superstar","episode":"Model Superstar","category":null,"contestant":{"voting_id":"17","name":"Sajana Panta"},"vote_count":1,"created_on":"2020-01-11T20:50:52.477694+05:45"},{"idx":"K2Ngtxvf6d8uAE2zbtLAc7","contest":"Model Superstar","episode":"Model Superstar","category":null,"contestant":{"voting_id":"17","name":"Sajana Panta"},"vote_count":1,"created_on":"2020-01-11T20:49:34.812961+05:45"},{"idx":"C7vgZLmtjUkzWRTEo4QjfU","contest":"Mr. & Miss Teen Sherpa 2020 - S2","episode":"Mr.&Miss Teen Sherpa -S2","category":null,"contestant":{"voting_id":"06","name":"Tenzin Pema Sherpa"},"vote_count":1,"created_on":"2020-01-11T20:47:59.013162+05:45"},{"idx":"ewySD6QiA8mryMhRE5q5Pk","contest":"Mr. & Miss Teen Sherpa 2020 - S2","episode":"Mr.&Miss Teen Sherpa -S2","category":null,"contestant":{"voting_id":"06","name":"Tenzin Pema Sherpa"},"vote_count":1,"created_on":"2020-01-11T20:46:42.162410+05:45"},{"idx":"ViqeQoWPszXUe9jX57wx6d","contest":"Mr. & Miss Teen Sherpa 2020 - S2","episode":"Mr.&Miss Teen Sherpa -S2","category":null,"contestant":{"voting_id":"06","name":"Tenzin Pema Sherpa"},"vote_count":1,"created_on":"2020-01-11T20:46:10.989910+05:45"},{"idx":"ctM9s67Zdn4KWVsQgDnQSj","contest":"Mr. & Miss Teen Sherpa 2020 - S2","episode":"Mr.&Miss Teen Sherpa -S2","category":null,"contestant":{"voting_id":"06","name":"Tenzin Pema Sherpa"},"vote_count":1,"created_on":"2020-01-11T20:45:46.487166+05:45"},{"idx":"8L8dyqthY4jgN2mXLogvq2","contest":"Model Superstar","episode":"Model Superstar","category":null,"contestant":{"voting_id":"17","name":"Sajana Panta"},"vote_count":1,"created_on":"2020-01-11T20:45:25.024193+05:45"},{"idx":"sK2bvaAUEvxuHYkCHGhAoH","contest":"Mr. & Miss Teen Sherpa 2020 - S2","episode":"Mr.&Miss Teen Sherpa -S2","category":null,"contestant":{"voting_id":"06","name":"Tenzin Pema Sherpa"},"vote_count":1,"created_on":"2020-01-11T20:45:17.281562+05:45"},{"idx":"pSSWV5izns8cGYP2AAxGRk","contest":"Mr. & Miss Teen Sherpa 2020 - S2","episode":"Mr.&Miss Teen Sherpa -S2","category":null,"contestant":{"voting_id":"06","name":"Tenzin Pema Sherpa"},"vote_count":1,"created_on":"2020-01-11T20:44:46.825952+05:45"},{"idx":"jpMvgYdu3dDvPTeXXZfEAe","contest":"Mr. & Miss Teen Sherpa 2020 - S2","episode":"Mr.&Miss Teen Sherpa -S2","category":null,"contestant":{"voting_id":"02","name":"Pema Yanji sherpa"},"vote_count":1,"created_on":"2020-01-11T20:43:40.048941+05:45"},{"idx":"M5htXUfpp8NhqgDNCca2vh","contest":"Model Superstar","episode":"Model Superstar","category":null,"contestant":{"voting_id":"17","name":"Sajana Panta"},"vote_count":1,"created_on":"2020-01-11T20:43:20.564892+05:45"},{"idx":"TNgJc8ZfxzMx8hRXmUg2qn","contest":"Model Superstar","episode":"Model Superstar","category":null,"contestant":{"voting_id":"07","name":"Narman Malla"},"vote_count":1,"created_on":"2020-01-11T20:41:14.337464+05:45"},{"idx":"mEZJbhCAmqsz3tQQyBfSBU","contest":"Model Superstar","episode":"Model Superstar","category":null,"contestant":{"voting_id":"07","name":"Narman Malla"},"vote_count":1,"created_on":"2020-01-11T20:40:56.340812+05:45"},{"idx":"u3PrVp8uYASrx4dENghSCV","contest":"Model Superstar","episode":"Model Superstar","category":null,"contestant":{"voting_id":"07","name":"Narman Malla"},"vote_count":1,"created_on":"2020-01-11T20:40:29.634364+05:45"},{"idx":"DwX7GrVNiGFEzJQFqG3DQ2","contest":"Mr. & Miss Teen Sherpa 2020 - S2","episode":"Mr.&Miss Teen Sherpa -S2","category":null,"contestant":{"voting_id":"06","name":"Tenzin Pema Sherpa"},"vote_count":1,"created_on":"2020-01-11T20:40:12.374836+05:45"},{"idx":"indBZTmEZsNBZpKvqmnpqG","contest":"Model Superstar","episode":"Model Superstar","category":null,"contestant":{"voting_id":"17","name":"Sajana Panta"},"vote_count":1,"created_on":"2020-01-11T20:36:53.267382+05:45"},{"idx":"mAbhm32iSeygbWuf8xFaoG","contest":"Model Superstar","episode":"Model Superstar","category":null,"contestant":{"voting_id":"17","name":"Sajana Panta"},"vote_count":1,"created_on":"2020-01-11T20:36:28.263067+05:45"},{"idx":"Tn5yYSBoLfc7KYUvfFSr6c","contest":"Mr. & Miss Teen Sherpa 2020 - S2","episode":"Mr.&Miss Teen Sherpa -S2","category":null,"contestant":{"voting_id":"24","name":"Mingma Tshering Sherpa"},"vote_count":1,"created_on":"2020-01-11T20:34:26.632136+05:45"},{"idx":"MRTtbXjRNJkqT99bqTZqsD","contest":"Mr. & Miss Teen Sherpa 2020 - S2","episode":"Mr.&Miss Teen Sherpa -S2","category":null,"contestant":{"voting_id":"24","name":"Mingma Tshering Sherpa"},"vote_count":1,"created_on":"2020-01-11T20:34:04.402265+05:45"},{"idx":"zfXNUsqeafpSRSdxbkZcL8","contest":"Mr. & Miss Teen Sherpa 2020 - S2","episode":"Mr.&Miss Teen Sherpa -S2","category":null,"contestant":{"voting_id":"24","name":"Mingma Tshering Sherpa"},"vote_count":1,"created_on":"2020-01-11T20:33:42.930816+05:45"},{"idx":"tyGL9zQyPUrj5vLw8nsVnb","contest":"Mr. & Miss Teen Sherpa 2020 - S2","episode":"Mr.&Miss Teen Sherpa -S2","category":null,"contestant":{"voting_id":"24","name":"Mingma Tshering Sherpa"},"vote_count":1,"created_on":"2020-01-11T20:33:25.644308+05:45"},{"idx":"4P7e3jcf5JWP3nTdwFJvwY","contest":"Mr. & Miss Teen Sherpa 2020 - S2","episode":"Mr.&Miss Teen Sherpa -S2","category":null,"contestant":{"voting_id":"24","name":"Mingma Tshering Sherpa"},"vote_count":1,"created_on":"2020-01-11T20:33:04.291519+05:45"},{"idx":"Egy73K49Q54eufTRTk5X7A","contest":"Mr. & Miss Teen Sherpa 2020 - S2","episode":"Mr.&Miss Teen Sherpa -S2","category":null,"contestant":{"voting_id":"24","name":"Mingma Tshering Sherpa"},"vote_count":1,"created_on":"2020-01-11T20:32:45.922115+05:45"},{"idx":"DvwfLPtgHriE5JA892PTLj","contest":"Mr. & Miss Teen Sherpa 2020 - S2","episode":"Mr.&Miss Teen Sherpa -S2","category":null,"contestant":{"voting_id":"24","name":"Mingma Tshering Sherpa"},"vote_count":1,"created_on":"2020-01-11T20:29:30.405225+05:45"},{"idx":"aUdXnsgk7AjGi3hVVsXFeG","contest":"Model Superstar","episode":"Model Superstar","category":null,"contestant":{"voting_id":"16","name":"Anil Karki"},"vote_count":1,"created_on":"2020-01-11T20:29:15.969250+05:45"},{"idx":"ZpBeFSbCVJ68LvUje6GWYh","contest":"Mr. & Miss Teen Sherpa 2020 - S2","episode":"Mr.&Miss Teen Sherpa -S2","category":null,"contestant":{"voting_id":"24","name":"Mingma Tshering Sherpa"},"vote_count":1,"created_on":"2020-01-11T20:29:06.533210+05:45"},{"idx":"rKjhZzH6zdLE6EQxJqjJaA","contest":"Model Superstar","episode":"Model Superstar","category":null,"contestant":{"voting_id":"17","name":"Sajana Panta"},"vote_count":1,"created_on":"2020-01-11T20:25:54.140585+05:45"},{"idx":"Rrq9jdLArcrKc28WumZ5uV","contest":"Mr. & Miss Teen Sherpa 2020 - S2","episode":"Mr.&Miss Teen Sherpa -S2","category":null,"contestant":{"voting_id":"06","name":"Tenzin Pema Sherpa"},"vote_count":1,"created_on":"2020-01-11T20:23:43.681368+05:45"},{"idx":"RtQErGucRafCC97szuw6cb","contest":"Mr. & Miss Teen Sherpa 2020 - S2","episode":"Mr.&Miss Teen Sherpa -S2","category":null,"contestant":{"voting_id":"06","name":"Tenzin Pema Sherpa"},"vote_count":1,"created_on":"2020-01-11T20:23:30.631072+05:45"},{"idx":"VGjyD96XjhffuCQcNpkvj3","contest":"Model Superstar","episode":"Model Superstar","category":null,"contestant":{"voting_id":"04","name":"Sabita Maharjan"},"vote_count":1,"created_on":"2020-01-11T20:22:43.536722+05:45"},{"idx":"h73EZ2uMqdnDiSyh5WT38i","contest":"Mr. & Miss Teen Sherpa 2020 - S2","episode":"Mr.&Miss Teen Sherpa -S2","category":null,"contestant":{"voting_id":"06","name":"Tenzin Pema Sherpa"},"vote_count":1,"created_on":"2020-01-11T20:21:17.268632+05:45"},{"idx":"DpffJexBau5uXtKG8EuPpQ","contest":"Mr. & Miss Teen Sherpa 2020 - S2","episode":"Mr.&Miss Teen Sherpa -S2","category":null,"contestant":{"voting_id":"06","name":"Tenzin Pema Sherpa"},"vote_count":1,"created_on":"2020-01-11T20:20:17.714482+05:45"},{"idx":"HVDAvTtjvejyYUB5LBi6MC","contest":"Mr. & Miss Teen Sherpa 2020 - S2","episode":"Mr.&Miss Teen Sherpa -S2","category":null,"contestant":{"voting_id":"06","name":"Tenzin Pema Sherpa"},"vote_count":1,"created_on":"2020-01-11T20:18:28.167649+05:45"},{"idx":"g6YLdJXwTCLsfKF8XyDBDK","contest":"Mr. & Miss Teen Sherpa 2020 - S2","episode":"Mr.&Miss Teen Sherpa -S2","category":null,"contestant":{"voting_id":"06","name":"Tenzin Pema Sherpa"},"vote_count":1,"created_on":"2020-01-11T20:18:08.409933+05:45"}]}