{"total_pages":275,"total_records":13717,"next":"https://khalti.com/api/v2/vuservote/?page=14","previous":"https://khalti.com/api/v2/vuservote/?page=12","record_range":[601,650],"current_page":13,"records":[{"idx":"v5xU3YJKFZcWLQPMfsFuYg","contest":"Locus 2020","episode":"Locus 2020","category":null,"contestant":{"voting_id":"31","name":"Project 3 in 1 Cartesian 3D Printer"},"vote_count":1,"created_on":"2020-02-01T21:36:03.038148+05:45"},{"idx":"RH4DovfjwdoAgNn4CRV3VU","contest":"Locus 2020","episode":"Locus 2020","category":null,"contestant":{"voting_id":"32","name":"Project Health and Environment Checker"},"vote_count":1,"created_on":"2020-02-01T21:34:56.387022+05:45"},{"idx":"fDodesYLgHLDijPSfxiJdM","contest":"Locus 2020","episode":"Locus 2020","category":null,"contestant":{"voting_id":"14","name":"Project TeeForges"},"vote_count":1,"created_on":"2020-02-01T21:34:42.834353+05:45"},{"idx":"zuvcVyr54KF447GxzCaiCN","contest":"Music Eve 2020","episode":"Music Eve 2020 IOE","category":null,"contestant":{"voting_id":"10","name":"Nishan Paudel"},"vote_count":1,"created_on":"2020-02-01T21:34:35.355950+05:45"},{"idx":"Z7RQugTQhyexFYC4AarVBm","contest":"Locus 2020","episode":"Locus 2020","category":null,"contestant":{"voting_id":"35","name":"Project Atomatable Robotic Arm"},"vote_count":1,"created_on":"2020-02-01T21:32:58.268559+05:45"},{"idx":"4HaCBS39o9t7KEb3S6Uurb","contest":"Locus 2020","episode":"Locus 2020","category":null,"contestant":{"voting_id":"31","name":"Project 3 in 1 Cartesian 3D Printer"},"vote_count":1,"created_on":"2020-02-01T21:32:54.920329+05:45"},{"idx":"d2DAdKU4Ff5m2bVDFV3xhe","contest":"Locus 2020","episode":"Locus 2020","category":null,"contestant":{"voting_id":"24","name":"Project Library App"},"vote_count":1,"created_on":"2020-02-01T21:31:47.472154+05:45"},{"idx":"n5WpGZgj5DkwbVUSUVDMzc","contest":"Locus 2020","episode":"Locus 2020","category":null,"contestant":{"voting_id":"29","name":"Project Accident Alert System"},"vote_count":1,"created_on":"2020-02-01T21:30:45.457852+05:45"},{"idx":"C5PY34wvLoreowisAEBpF2","contest":"Locus 2020","episode":"Locus 2020","category":null,"contestant":{"voting_id":"29","name":"Project Accident Alert System"},"vote_count":1,"created_on":"2020-02-01T21:30:29.953967+05:45"},{"idx":"getvDpD3H285LV3ke85cKC","contest":"Locus 2020","episode":"Locus 2020","category":null,"contestant":{"voting_id":"31","name":"Project 3 in 1 Cartesian 3D Printer"},"vote_count":1,"created_on":"2020-02-01T21:30:19.312704+05:45"},{"idx":"4ctf5dwmitoDTiAZa8jMGD","contest":"Locus 2020","episode":"Locus 2020","category":null,"contestant":{"voting_id":"46","name":"Project Immune"},"vote_count":25,"created_on":"2020-02-01T21:30:07.550060+05:45"},{"idx":"CetMZPeQMsNkVZhRdYcGxQ","contest":"Locus 2020","episode":"Locus 2020","category":null,"contestant":{"voting_id":"09","name":"Project Solar Powered Water Surface Garbage Collecting Boat"},"vote_count":1,"created_on":"2020-02-01T21:27:55.947355+05:45"},{"idx":"4Rr9Nc5dNSNxTXzB2HQ2L5","contest":"Locus 2020","episode":"Locus 2020","category":null,"contestant":{"voting_id":"46","name":"Project Immune"},"vote_count":1,"created_on":"2020-02-01T21:27:44.130781+05:45"},{"idx":"NkbtpjQR8eiknCn6uQ8sbm","contest":"Locus 2020","episode":"Locus 2020","category":null,"contestant":{"voting_id":"29","name":"Project Accident Alert System"},"vote_count":1,"created_on":"2020-02-01T21:27:29.353481+05:45"},{"idx":"r8yjPBv6oSUcC2t4tTdcwC","contest":"Locus 2020","episode":"Locus 2020","category":null,"contestant":{"voting_id":"13","name":"Project Smart Fire Detector"},"vote_count":1,"created_on":"2020-02-01T21:26:08.392592+05:45"},{"idx":"28jaz8ainvwjqCDzDd4E4H","contest":"Locus 2020","episode":"Locus 2020","category":null,"contestant":{"voting_id":"24","name":"Project Library App"},"vote_count":1,"created_on":"2020-02-01T21:25:45.678336+05:45"},{"idx":"ru82jwLG9NSBpA7mRZvzrQ","contest":"Locus 2020","episode":"Locus 2020","category":null,"contestant":{"voting_id":"29","name":"Project Accident Alert System"},"vote_count":1,"created_on":"2020-02-01T21:25:17.234172+05:45"},{"idx":"QKHQFArv4GacnJyRSPFiVF","contest":"Locus 2020","episode":"Locus 2020","category":null,"contestant":{"voting_id":"24","name":"Project Library App"},"vote_count":1,"created_on":"2020-02-01T21:24:19.746542+05:45"},{"idx":"KCgUim7SJDuvUAbFpShLpT","contest":"Locus 2020","episode":"Locus 2020","category":null,"contestant":{"voting_id":"31","name":"Project 3 in 1 Cartesian 3D Printer"},"vote_count":1,"created_on":"2020-02-01T21:18:16.855245+05:45"},{"idx":"w6Fj7NpJvUuUupmx6uf68b","contest":"Locus 2020","episode":"Locus 2020","category":null,"contestant":{"voting_id":"24","name":"Project Library App"},"vote_count":1,"created_on":"2020-02-01T21:18:02.902233+05:45"},{"idx":"mECYbW7aKK6fVWssCWPqdK","contest":"Music Eve 2020","episode":"Music Eve 2020 IOE","category":null,"contestant":{"voting_id":"03","name":"Abishek Aryal"},"vote_count":1,"created_on":"2020-02-01T21:17:32.089243+05:45"},{"idx":"KgVCqMwHiYaTLL79upoAyN","contest":"Music Eve 2020","episode":"Music Eve 2020 IOE","category":null,"contestant":{"voting_id":"02","name":"abinash acharya"},"vote_count":1,"created_on":"2020-02-01T21:16:44.557636+05:45"},{"idx":"BSWdZXDW9QLs84GasC5P9P","contest":"Locus 2020","episode":"Locus 2020","category":null,"contestant":{"voting_id":"04","name":"Project IRB -Robo Arm"},"vote_count":1,"created_on":"2020-02-01T21:15:26.742413+05:45"},{"idx":"ghzpUKXDjT66YqD7vtXyvM","contest":"Locus 2020","episode":"Locus 2020","category":null,"contestant":{"voting_id":"14","name":"Project TeeForges"},"vote_count":1,"created_on":"2020-02-01T21:14:51.232906+05:45"},{"idx":"gpVeiXAJpZe6XWjoHREWrE","contest":"Locus 2020","episode":"Locus 2020","category":null,"contestant":{"voting_id":"34","name":"Project Femicoders"},"vote_count":1,"created_on":"2020-02-01T21:14:41.689379+05:45"},{"idx":"icMuMToup9G3kvz2WAEef9","contest":"Locus 2020","episode":"Locus 2020","category":null,"contestant":{"voting_id":"04","name":"Project IRB -Robo Arm"},"vote_count":1,"created_on":"2020-02-01T21:12:52.088763+05:45"},{"idx":"4iyrnRoP65wPZFTtCqqFRU","contest":"Locus 2020","episode":"Locus 2020","category":null,"contestant":{"voting_id":"12","name":"Project Green City"},"vote_count":1,"created_on":"2020-02-01T21:11:43.501174+05:45"},{"idx":"eFNzhefvbEtJoe5PFDUWF5","contest":"Locus 2020","episode":"Locus 2020","category":null,"contestant":{"voting_id":"16","name":"Project IOT Based Smart Agriculture System"},"vote_count":1,"created_on":"2020-02-01T21:11:07.609287+05:45"},{"idx":"EFesUbFJ6qhRZhW9WuPohF","contest":"Locus 2020","episode":"Locus 2020","category":null,"contestant":{"voting_id":"32","name":"Project Health and Environment Checker"},"vote_count":1,"created_on":"2020-02-01T21:10:47.690598+05:45"},{"idx":"cefRxrRwb3TR6k9Y3KBBZH","contest":"Music Eve 2020","episode":"Music Eve 2020 IOE","category":null,"contestant":{"voting_id":"02","name":"abinash acharya"},"vote_count":1,"created_on":"2020-02-01T21:09:48.757284+05:45"},{"idx":"fTLePrXNbvCtpV2rPW7PSJ","contest":"Locus 2020","episode":"Locus 2020","category":null,"contestant":{"voting_id":"92","name":"Project Bhakari Shopping Nepal"},"vote_count":1,"created_on":"2020-02-01T21:08:23.468887+05:45"},{"idx":"c9dVLKLiLcBaYj6mHmVwiU","contest":"Locus 2020","episode":"Locus 2020","category":null,"contestant":{"voting_id":"46","name":"Project Immune"},"vote_count":1,"created_on":"2020-02-01T21:08:17.855479+05:45"},{"idx":"zGq2JJAcrFEUQx6ko9Jr7X","contest":"Locus 2020","episode":"Locus 2020","category":null,"contestant":{"voting_id":"02","name":"Project Plant -e"},"vote_count":1,"created_on":"2020-02-01T21:08:05.874275+05:45"},{"idx":"XFnTfziGxt62R5kdSqMZe9","contest":"Locus 2020","episode":"Locus 2020","category":null,"contestant":{"voting_id":"24","name":"Project Library App"},"vote_count":1,"created_on":"2020-02-01T21:08:02.358384+05:45"},{"idx":"bN7uYjM7mvt6jQLwbAQCiD","contest":"Locus 2020","episode":"Locus 2020","category":null,"contestant":{"voting_id":"31","name":"Project 3 in 1 Cartesian 3D Printer"},"vote_count":1,"created_on":"2020-02-01T21:07:41.305466+05:45"},{"idx":"S78jq8wwxaKg3ywrLzc53C","contest":"Locus 2020","episode":"Locus 2020","category":null,"contestant":{"voting_id":"32","name":"Project Health and Environment Checker"},"vote_count":1,"created_on":"2020-02-01T21:06:40.726279+05:45"},{"idx":"odF6BSGcvMDaJDQWphPNuF","contest":"Model Superstar","episode":"Model Superstar Finale","category":null,"contestant":{"voting_id":"02","name":"Srijana Basnet"},"vote_count":1,"created_on":"2020-02-01T21:06:24.931124+05:45"},{"idx":"jxWpPif3Tcxc3s7zLdhgyh","contest":"Model Superstar","episode":"Model Superstar Finale","category":null,"contestant":{"voting_id":"02","name":"Srijana Basnet"},"vote_count":1,"created_on":"2020-02-01T21:05:52.771987+05:45"},{"idx":"JMHEyudtHMiQQDTK398n6k","contest":"Locus 2020","episode":"Locus 2020","category":null,"contestant":{"voting_id":"23","name":"Project Home Automation"},"vote_count":1,"created_on":"2020-02-01T21:05:39.435688+05:45"},{"idx":"77N74ZmTz2tF3t5xqKRmJ7","contest":"Model Superstar","episode":"Model Superstar Finale","category":null,"contestant":{"voting_id":"02","name":"Srijana Basnet"},"vote_count":1,"created_on":"2020-02-01T21:05:16.629548+05:45"},{"idx":"fztAgZYmYmSoPmeZC3SfEd","contest":"Locus 2020","episode":"Locus 2020","category":null,"contestant":{"voting_id":"12","name":"Project Green City"},"vote_count":1,"created_on":"2020-02-01T21:05:03.528974+05:45"},{"idx":"yBZFFQcuz9R226gDMqqEa2","contest":"Locus 2020","episode":"Locus 2020","category":null,"contestant":{"voting_id":"27","name":"Project Online Entrance System ( IOE Entrance)"},"vote_count":1,"created_on":"2020-02-01T21:05:03.299951+05:45"},{"idx":"JNcRQU4JcJCvNmGVMp9boF","contest":"Locus 2020","episode":"Locus 2020","category":null,"contestant":{"voting_id":"92","name":"Project Bhakari Shopping Nepal"},"vote_count":1,"created_on":"2020-02-01T21:04:33.657875+05:45"},{"idx":"jHm4AFTPfw7uXZUsRMBuv7","contest":"Locus 2020","episode":"Locus 2020","category":null,"contestant":{"voting_id":"38","name":"Project Project -N"},"vote_count":100,"created_on":"2020-02-01T21:04:17.737469+05:45"},{"idx":"9Hxa8XbryfgSyPu5Dya2Dn","contest":"Music Eve 2020","episode":"Music Eve 2020 IOE","category":null,"contestant":{"voting_id":"18","name":"Saurav Sinjali Magar"},"vote_count":1,"created_on":"2020-02-01T21:04:01.586078+05:45"},{"idx":"jGNMiAYTxMapcH8EgsPJSF","contest":"Music Eve 2020","episode":"Music Eve 2020 IOE","category":null,"contestant":{"voting_id":"03","name":"Abishek Aryal"},"vote_count":1,"created_on":"2020-02-01T21:03:51.832376+05:45"},{"idx":"ZHNHfU99cvHifwc6t9DYJo","contest":"Locus 2020","episode":"Locus 2020","category":null,"contestant":{"voting_id":"04","name":"Project IRB -Robo Arm"},"vote_count":1,"created_on":"2020-02-01T21:03:33.810616+05:45"},{"idx":"yPP7fJwwsBPHDgFedPrWFk","contest":"Model Superstar","episode":"Model Superstar Finale","category":null,"contestant":{"voting_id":"03","name":"Smriti Shah"},"vote_count":1,"created_on":"2020-02-01T21:03:17.667528+05:45"},{"idx":"GmCYDeaT3ktYbK4LmSEpVX","contest":"Model Superstar","episode":"Model Superstar Finale","category":null,"contestant":{"voting_id":"03","name":"Smriti Shah"},"vote_count":1,"created_on":"2020-02-01T21:02:52.922762+05:45"},{"idx":"FaxEN6hewWG3EJo2NN6p93","contest":"Model Superstar","episode":"Model Superstar Finale","category":null,"contestant":{"voting_id":"02","name":"Srijana Basnet"},"vote_count":1,"created_on":"2020-02-01T21:02:49.493858+05:45"}]}