{"total_pages":275,"total_records":13720,"next":"https://khalti.com/api/v2/vuservote/?page=131","previous":"https://khalti.com/api/v2/vuservote/?page=129","record_range":[6451,6500],"current_page":130,"records":[{"idx":"bGxJT6WMnG26ivfXvwYzSU","contest":"Model Superstar","episode":"Model Superstar","category":null,"contestant":{"voting_id":"17","name":"Sajana Panta"},"vote_count":1,"created_on":"2020-01-11T20:10:44.278351+05:45"},{"idx":"jnTQpaoTYWgUVKWTQikDuW","contest":"Mr. & Miss Teen Sherpa 2020 - S2","episode":"Mr.&Miss Teen Sherpa -S2","category":null,"contestant":{"voting_id":"06","name":"Tenzin Pema Sherpa"},"vote_count":1,"created_on":"2020-01-11T20:03:57.312633+05:45"},{"idx":"6AYdfDjnztbE8e3CxD7gdG","contest":"Model Superstar","episode":"Model Superstar","category":null,"contestant":{"voting_id":"17","name":"Sajana Panta"},"vote_count":1,"created_on":"2020-01-11T20:00:32.952314+05:45"},{"idx":"i34ZQRnrR2X3gJSFtrMd3T","contest":"Model Superstar","episode":"Model Superstar","category":null,"contestant":{"voting_id":"17","name":"Sajana Panta"},"vote_count":1,"created_on":"2020-01-11T19:57:13.904344+05:45"},{"idx":"8Q7iNLzFraaRQdBJdfTrDS","contest":"Model Superstar","episode":"Model Superstar","category":null,"contestant":{"voting_id":"02","name":"Srijana Basnet"},"vote_count":1,"created_on":"2020-01-11T19:57:00.821859+05:45"},{"idx":"DL7JxbehV3XJVTtS5ao48h","contest":"Mr. & Miss Teen Sherpa 2020 - S2","episode":"Mr.&Miss Teen Sherpa -S2","category":null,"contestant":{"voting_id":"23","name":"Chhiri Sherpa"},"vote_count":1,"created_on":"2020-01-11T19:40:42.890750+05:45"},{"idx":"AWRJVMAjWy8T6RpnSYepGm","contest":"Mr. & Miss Teen Sherpa 2020 - S2","episode":"Mr.&Miss Teen Sherpa -S2","category":null,"contestant":{"voting_id":"02","name":"Pema Yanji sherpa"},"vote_count":1,"created_on":"2020-01-11T19:40:14.481271+05:45"},{"idx":"udJin3JPRrYMMb4oq5HsyK","contest":"Mr. & Miss Teen Sherpa 2020 - S2","episode":"Mr.&Miss Teen Sherpa -S2","category":null,"contestant":{"voting_id":"02","name":"Pema Yanji sherpa"},"vote_count":1,"created_on":"2020-01-11T19:39:53.688667+05:45"},{"idx":"hh2pdM5KFQxWy57RCwBuEA","contest":"Mr. & Miss Teen Sherpa 2020 - S2","episode":"Mr.&Miss Teen Sherpa -S2","category":null,"contestant":{"voting_id":"02","name":"Pema Yanji sherpa"},"vote_count":1,"created_on":"2020-01-11T19:39:14.304533+05:45"},{"idx":"w7XkMhy8KApTiF7ustiRhM","contest":"Model Superstar","episode":"Model Superstar","category":null,"contestant":{"voting_id":"14","name":"Ashish Shakya"},"vote_count":1,"created_on":"2020-01-11T18:34:08.790793+05:45"},{"idx":"rFzY94Z9wyvG5ycZLr25bW","contest":"Model Superstar","episode":"Model Superstar","category":null,"contestant":{"voting_id":"16","name":"Anil Karki"},"vote_count":1,"created_on":"2020-01-11T17:46:43.901312+05:45"},{"idx":"gD6zFvofGxjy9Pf3fMy8U6","contest":"Mr. & Miss Teen Sherpa 2020 - S2","episode":"Mr.&Miss Teen Sherpa -S2","category":null,"contestant":{"voting_id":"01","name":"Lhamu Sherpa"},"vote_count":1,"created_on":"2020-01-11T17:24:54.933082+05:45"},{"idx":"CVnTbwTmC63xk7ijaR4cDm","contest":"NEPALBHASA STAR MUSIC VIDEO AWARDS-2019","episode":null,"category":"BEST DIRECTOR","contestant":{"voting_id":"20J","name":"Sonam Pakhrin"},"vote_count":1,"created_on":"2020-01-11T17:24:28.631068+05:45"},{"idx":"mHtrnxJVnMDHgrhx6Zwjze","contest":"NEPALBHASA STAR MUSIC VIDEO AWARDS-2019","episode":null,"category":"THE RISING STAR SINGER","contestant":{"voting_id":"21A","name":"Macha Raja Maharjan"},"vote_count":1,"created_on":"2020-01-11T17:24:07.380786+05:45"},{"idx":"mXx6vnfGbBwDoi8uC5yVqL","contest":"Mr. & Miss Teen Sherpa 2020 - S2","episode":"Mr.&Miss Teen Sherpa -S2","category":null,"contestant":{"voting_id":"23","name":"Chhiri Sherpa"},"vote_count":1,"created_on":"2020-01-11T17:23:44.079280+05:45"},{"idx":"N9GEaoVnBWwXQMtCXNKZa4","contest":"Mr. & Miss Teen Sherpa 2020 - S2","episode":"Mr.&Miss Teen Sherpa -S2","category":null,"contestant":{"voting_id":"24","name":"Mingma Tshering Sherpa"},"vote_count":1,"created_on":"2020-01-11T17:18:58.114635+05:45"},{"idx":"T2FuZMQ2C3u4pvVMx2dkDn","contest":"Mr. & Miss Teen Sherpa 2020 - S2","episode":"Mr.&Miss Teen Sherpa -S2","category":null,"contestant":{"voting_id":"24","name":"Mingma Tshering Sherpa"},"vote_count":1,"created_on":"2020-01-11T17:18:42.597805+05:45"},{"idx":"c4zFRgfMQfPbjSZmLe9u9E","contest":"Mr. & Miss Teen Sherpa 2020 - S2","episode":"Mr.&Miss Teen Sherpa -S2","category":null,"contestant":{"voting_id":"24","name":"Mingma Tshering Sherpa"},"vote_count":1,"created_on":"2020-01-11T17:18:21.408670+05:45"},{"idx":"pDZ9S8YCVsiXhXT6CunACT","contest":"Mr. & Miss Teen Sherpa 2020 - S2","episode":"Mr.&Miss Teen Sherpa -S2","category":null,"contestant":{"voting_id":"24","name":"Mingma Tshering Sherpa"},"vote_count":1,"created_on":"2020-01-11T17:18:02.365977+05:45"},{"idx":"JeodstjKqgKTZMqDxoTtMX","contest":"Mr. & Miss Teen Sherpa 2020 - S2","episode":"Mr.&Miss Teen Sherpa -S2","category":null,"contestant":{"voting_id":"05","name":"Nima Lhamu sherpa"},"vote_count":1,"created_on":"2020-01-11T16:45:24.931830+05:45"},{"idx":"BZohZ8cbGGrpFXsGKotVxd","contest":"Mr. & Miss Teen Sherpa 2020 - S2","episode":"Mr.&Miss Teen Sherpa -S2","category":null,"contestant":{"voting_id":"05","name":"Nima Lhamu sherpa"},"vote_count":1,"created_on":"2020-01-11T16:44:52.150223+05:45"},{"idx":"fSjNfqAivZGr8BVyCwdHyN","contest":"Model Superstar","episode":"Model Superstar","category":null,"contestant":{"voting_id":"17","name":"Sajana Panta"},"vote_count":1,"created_on":"2020-01-11T16:18:17.339970+05:45"},{"idx":"25Yn3NLDaRzLxocsZyVxWM","contest":"Model Superstar","episode":"Model Superstar","category":null,"contestant":{"voting_id":"17","name":"Sajana Panta"},"vote_count":25,"created_on":"2020-01-11T16:08:05.601660+05:45"},{"idx":"yHTbu4rZXyx7kKB9FaZXVS","contest":"Model Superstar","episode":"Model Superstar","category":null,"contestant":{"voting_id":"17","name":"Sajana Panta"},"vote_count":1,"created_on":"2020-01-11T15:59:14.914626+05:45"},{"idx":"KPqfvGFkvM6zSNVQXUNXbS","contest":"Model Superstar","episode":"Model Superstar","category":null,"contestant":{"voting_id":"17","name":"Sajana Panta"},"vote_count":1,"created_on":"2020-01-11T15:54:19.565820+05:45"},{"idx":"rQtXiWoWWY7phuT8kg7yQi","contest":"Model Superstar","episode":"Model Superstar","category":null,"contestant":{"voting_id":"17","name":"Sajana Panta"},"vote_count":1,"created_on":"2020-01-11T15:49:37.590588+05:45"},{"idx":"M2pMko3ZKLgep4HFeWhrEa","contest":"Mr. & Miss Teen Sherpa 2020 - S2","episode":"Mr.&Miss Teen Sherpa -S2","category":null,"contestant":{"voting_id":"05","name":"Nima Lhamu sherpa"},"vote_count":1,"created_on":"2020-01-11T15:40:56.441326+05:45"},{"idx":"YNh8euVQEc4wP9ARV9jMp8","contest":"Model Superstar","episode":"Model Superstar","category":null,"contestant":{"voting_id":"04","name":"Sabita Maharjan"},"vote_count":1,"created_on":"2020-01-11T15:01:13.193445+05:45"},{"idx":"3gnSb6CkJ7gBgdYYwiF8uX","contest":"Model Superstar","episode":"Model Superstar","category":null,"contestant":{"voting_id":"16","name":"Anil Karki"},"vote_count":1,"created_on":"2020-01-11T14:49:57.759315+05:45"},{"idx":"fWVQGp5i66rxBcA8tw7i22","contest":"Mr. & Miss Teen Sherpa 2020 - S2","episode":"Mr.&Miss Teen Sherpa -S2","category":null,"contestant":{"voting_id":"05","name":"Nima Lhamu sherpa"},"vote_count":1,"created_on":"2020-01-11T14:45:34.232776+05:45"},{"idx":"YoMo62EmPmTsfbVrKfM5BK","contest":"Mr. & Miss Teen Sherpa 2020 - S2","episode":"Mr.&Miss Teen Sherpa -S2","category":null,"contestant":{"voting_id":"05","name":"Nima Lhamu sherpa"},"vote_count":1,"created_on":"2020-01-11T14:45:11.163457+05:45"},{"idx":"qJJ3RTUqHvkUtLUk53BcLa","contest":"Mr. & Miss Teen Sherpa 2020 - S2","episode":"Mr.&Miss Teen Sherpa -S2","category":null,"contestant":{"voting_id":"05","name":"Nima Lhamu sherpa"},"vote_count":1,"created_on":"2020-01-11T14:44:48.789995+05:45"},{"idx":"8RK7j2ye3d6c7myNvjkNQk","contest":"Mr. & Miss Teen Sherpa 2020 - S2","episode":"Mr.&Miss Teen Sherpa -S2","category":null,"contestant":{"voting_id":"05","name":"Nima Lhamu sherpa"},"vote_count":1,"created_on":"2020-01-11T14:44:33.856715+05:45"},{"idx":"XXHz8NVKAEV8LcK6gxbkHL","contest":"Mr. & Miss Teen Sherpa 2020 - S2","episode":"Mr.&Miss Teen Sherpa -S2","category":null,"contestant":{"voting_id":"05","name":"Nima Lhamu sherpa"},"vote_count":1,"created_on":"2020-01-11T14:44:20.328647+05:45"},{"idx":"Zg6LC5scN4NT78KR8vsgf8","contest":"Mr. & Miss Teen Sherpa 2020 - S2","episode":"Mr.&Miss Teen Sherpa -S2","category":null,"contestant":{"voting_id":"05","name":"Nima Lhamu sherpa"},"vote_count":1,"created_on":"2020-01-11T14:43:52.118609+05:45"},{"idx":"ZRop7xm8GNPDcKkbw82NM8","contest":"Mr. & Miss Teen Sherpa 2020 - S2","episode":"Mr.&Miss Teen Sherpa -S2","category":null,"contestant":{"voting_id":"05","name":"Nima Lhamu sherpa"},"vote_count":1,"created_on":"2020-01-11T14:43:33.749901+05:45"},{"idx":"hWE4o2gNZq4xz33vZUqUfa","contest":"Mr. & Miss Teen Sherpa 2020 - S2","episode":"Mr.&Miss Teen Sherpa -S2","category":null,"contestant":{"voting_id":"05","name":"Nima Lhamu sherpa"},"vote_count":1,"created_on":"2020-01-11T14:43:11.203034+05:45"},{"idx":"muVxdHEfgaKVyxT35CsWQG","contest":"Mr. & Miss Teen Sherpa 2020 - S2","episode":"Mr.&Miss Teen Sherpa -S2","category":null,"contestant":{"voting_id":"05","name":"Nima Lhamu sherpa"},"vote_count":1,"created_on":"2020-01-11T14:42:46.790780+05:45"},{"idx":"AQB5tYg6ZKFADvSbvnQZZ8","contest":"Mr. & Miss Teen Sherpa 2020 - S2","episode":"Mr.&Miss Teen Sherpa -S2","category":null,"contestant":{"voting_id":"05","name":"Nima Lhamu sherpa"},"vote_count":1,"created_on":"2020-01-11T14:42:10.799808+05:45"},{"idx":"gvPvtMoRF2D2UKqAGWnGQ9","contest":"Mr. & Miss Teen Sherpa 2020 - S2","episode":"Mr.&Miss Teen Sherpa -S2","category":null,"contestant":{"voting_id":"05","name":"Nima Lhamu sherpa"},"vote_count":1,"created_on":"2020-01-11T14:40:37.510959+05:45"},{"idx":"afdaJXZm5ALXYvbfXMhAHb","contest":"Mr. & Miss Teen Sherpa 2020 - S2","episode":"Mr.&Miss Teen Sherpa -S2","category":null,"contestant":{"voting_id":"04","name":"Chhewang Sherpa"},"vote_count":1,"created_on":"2020-01-11T13:46:43.620587+05:45"},{"idx":"Dgey3SNXLfeNzsf7JXZtY5","contest":"NEPALBHASA STAR MUSIC VIDEO AWARDS-2019","episode":null,"category":"BEST LYRICIST","contestant":{"voting_id":"4B","name":"Chandeswar Maharjan"},"vote_count":1,"created_on":"2020-01-11T13:46:34.251000+05:45"},{"idx":"xchXdqaUniy3uTXVxFVbna","contest":"NEPALBHASA STAR MUSIC VIDEO AWARDS-2019","episode":null,"category":"BEST MODEL, FEMALE","contestant":{"voting_id":"13B","name":"Ashishma Nakarmi"},"vote_count":1,"created_on":"2020-01-11T13:46:04.257833+05:45"},{"idx":"T2uCvNJjoQ6ch3vbuVJZfP","contest":"NEPALBHASA STAR MUSIC VIDEO AWARDS-2019","episode":null,"category":"BEST Singer,FEMALE","contestant":{"voting_id":"17F","name":"Sonam Maharjan"},"vote_count":1,"created_on":"2020-01-11T13:45:19.047232+05:45"},{"idx":"TvW3jJdNgHvoHftPNz6Exj","contest":"NEPALBHASA STAR MUSIC VIDEO AWARDS-2019","episode":null,"category":"THE RISING STAR SINGER","contestant":{"voting_id":"21E","name":"Purna Man Maharjan"},"vote_count":1,"created_on":"2020-01-11T13:43:53.565261+05:45"},{"idx":"8YxDxrk7cNVhSMEmCHCEyW","contest":"Mr. & Miss Teen Sherpa 2020 - S2","episode":"Mr.&Miss Teen Sherpa -S2","category":null,"contestant":{"voting_id":"10","name":"Kaljang Lhamu Sherpa"},"vote_count":1,"created_on":"2020-01-11T13:43:19.530618+05:45"},{"idx":"QV6dKRQcSD6ynBiMV5NKKN","contest":"Model Superstar","episode":"Model Superstar","category":null,"contestant":{"voting_id":"19","name":"Asmita Khadka"},"vote_count":1,"created_on":"2020-01-11T13:42:20.933677+05:45"},{"idx":"924pB3BYsZTv7PRWAJ2FJL","contest":"Model Superstar","episode":"Model Superstar","category":null,"contestant":{"voting_id":"02","name":"Srijana Basnet"},"vote_count":1,"created_on":"2020-01-11T12:33:18.516669+05:45"},{"idx":"UTMLYKDKCoE2szLDWUJ5QB","contest":"Model Superstar","episode":"Model Superstar","category":null,"contestant":{"voting_id":"03","name":"Smriti Shah"},"vote_count":1,"created_on":"2020-01-11T12:24:13.624393+05:45"},{"idx":"RZ4m7fhf36pKqLLnXf3nGK","contest":"Model Superstar","episode":"Model Superstar","category":null,"contestant":{"voting_id":"17","name":"Sajana Panta"},"vote_count":1,"created_on":"2020-01-11T11:59:07.010017+05:45"}]}