{"total_pages":275,"total_records":13720,"next":"https://khalti.com/api/v2/vuservote/?page=132","previous":"https://khalti.com/api/v2/vuservote/?page=130","record_range":[6501,6550],"current_page":131,"records":[{"idx":"CU7fGaNfFJxsvouCySpZ9H","contest":"NEPALBHASA STAR MUSIC VIDEO AWARDS-2019","episode":null,"category":"BEST DEBUT SINGER, FEMALE","contestant":{"voting_id":"18C","name":"KalpanaKapali"},"vote_count":1,"created_on":"2020-01-11T11:52:13.763500+05:45"},{"idx":"3Ga6dsiENwe4FUr7JSe9gF","contest":"NEPALBHASA STAR MUSIC VIDEO AWARDS-2019","episode":null,"category":"BEST LYRICIST","contestant":{"voting_id":"4C","name":"Bhim Bahadur Nakarmi"},"vote_count":1,"created_on":"2020-01-11T11:51:13.726317+05:45"},{"idx":"bJbgApgkgWwM5WZ6u52ZaA","contest":"Model Superstar","episode":"Model Superstar","category":null,"contestant":{"voting_id":"27","name":"Suweta Shrestha"},"vote_count":1,"created_on":"2020-01-11T11:17:10.510354+05:45"},{"idx":"AJuKRPFGSpx84Uy62c3mA9","contest":"Model Superstar","episode":"Model Superstar","category":null,"contestant":{"voting_id":"15","name":"Manisha Pal"},"vote_count":1,"created_on":"2020-01-11T11:07:24.234875+05:45"},{"idx":"srGb2aXESK8rG4qGeJZR9b","contest":"Model Superstar","episode":"Model Superstar","category":null,"contestant":{"voting_id":"05","name":"Asmita Thapa Magar"},"vote_count":1,"created_on":"2020-01-11T11:06:38.601492+05:45"},{"idx":"KnHhuH6Yfek4FHbxnE7kgn","contest":"Model Superstar","episode":"Model Superstar","category":null,"contestant":{"voting_id":"04","name":"Sabita Maharjan"},"vote_count":1,"created_on":"2020-01-11T11:06:20.979662+05:45"},{"idx":"x6py4FNEPhoEVVnQCRMr3Z","contest":"Model Superstar","episode":"Model Superstar","category":null,"contestant":{"voting_id":"02","name":"Srijana Basnet"},"vote_count":1,"created_on":"2020-01-11T11:06:05.379756+05:45"},{"idx":"cDvxBfvodPDZops7YGnHhC","contest":"Model Superstar","episode":"Model Superstar","category":null,"contestant":{"voting_id":"03","name":"Smriti Shah"},"vote_count":1,"created_on":"2020-01-11T11:05:47.301444+05:45"},{"idx":"kXN8hBq7dBteF3R2hXEyRc","contest":"Model Superstar","episode":"Model Superstar","category":null,"contestant":{"voting_id":"24","name":"Elin Raut"},"vote_count":1,"created_on":"2020-01-11T11:01:21.610704+05:45"},{"idx":"wjhAQnaACCNFuLUsrKheh2","contest":"Mr. & Miss Teen Sherpa 2020 - S2","episode":"Mr.&Miss Teen Sherpa -S2","category":null,"contestant":{"voting_id":"24","name":"Mingma Tshering Sherpa"},"vote_count":1,"created_on":"2020-01-11T10:39:30.036958+05:45"},{"idx":"SHqy7Bfaa4JTrrMToAoVNo","contest":"Mr. & Miss Teen Sherpa 2020 - S2","episode":"Mr.&Miss Teen Sherpa -S2","category":null,"contestant":{"voting_id":"24","name":"Mingma Tshering Sherpa"},"vote_count":1,"created_on":"2020-01-11T10:39:19.686433+05:45"},{"idx":"3q9RryV8uCKoMTFzDhUmNm","contest":"Mr. & Miss Teen Sherpa 2020 - S2","episode":"Mr.&Miss Teen Sherpa -S2","category":null,"contestant":{"voting_id":"24","name":"Mingma Tshering Sherpa"},"vote_count":1,"created_on":"2020-01-11T10:39:06.903109+05:45"},{"idx":"v2ZHDjWLYNc2HEEP63JqWZ","contest":"Model Superstar","episode":"Model Superstar","category":null,"contestant":{"voting_id":"01","name":"Sajina Subba"},"vote_count":1,"created_on":"2020-01-11T10:21:02.919575+05:45"},{"idx":"bsMVKFCBBRwpPBKekNmu8D","contest":"NEPALBHASA STAR MUSIC VIDEO AWARDS-2019","episode":null,"category":"BEST MODEL, FEMALE","contestant":{"voting_id":"13B","name":"Ashishma Nakarmi"},"vote_count":1,"created_on":"2020-01-11T09:57:32.517957+05:45"},{"idx":"M69vB95LmLPhpfh3zXHRdd","contest":"Model Superstar","episode":"Model Superstar","category":null,"contestant":{"voting_id":"14","name":"Ashish Shakya"},"vote_count":1,"created_on":"2020-01-11T09:55:19.841069+05:45"},{"idx":"NxywRLzRYXEx7kFGvrpJVU","contest":"Mr. & Miss Teen Sherpa 2020 - S2","episode":"Mr.&Miss Teen Sherpa -S2","category":null,"contestant":{"voting_id":"10","name":"Kaljang Lhamu Sherpa"},"vote_count":1,"created_on":"2020-01-11T09:55:06.131803+05:45"},{"idx":"sz3VRVfUsy4mNgD59mqFUJ","contest":"Model Superstar","episode":"Model Superstar","category":null,"contestant":{"voting_id":"05","name":"Asmita Thapa Magar"},"vote_count":1,"created_on":"2020-01-11T09:53:04.556291+05:45"},{"idx":"kvpvkSuw3pdgkS56TNpDmk","contest":"Mr. & Miss Teen Sherpa 2020 - S2","episode":"Mr.&Miss Teen Sherpa -S2","category":null,"contestant":{"voting_id":"04","name":"Chhewang Sherpa"},"vote_count":1,"created_on":"2020-01-11T09:52:40.951436+05:45"},{"idx":"3HTPj5Em3RtBmMWT5Xzv3P","contest":"Model Superstar","episode":"Model Superstar","category":null,"contestant":{"voting_id":"12","name":"Rabin Ghising"},"vote_count":1,"created_on":"2020-01-11T09:38:38.825985+05:45"},{"idx":"dQsnKbKn3BmvzvBUe6FAE3","contest":"Model Superstar","episode":"Model Superstar","category":null,"contestant":{"voting_id":"03","name":"Smriti Shah"},"vote_count":1,"created_on":"2020-01-11T09:37:26.041043+05:45"},{"idx":"WBwAQsHv5aVnfS3dfNW3Jg","contest":"Model Superstar","episode":"Model Superstar","category":null,"contestant":{"voting_id":"17","name":"Sajana Panta"},"vote_count":100,"created_on":"2020-01-11T09:23:43.996216+05:45"},{"idx":"5FNy7zkNWQu2KuewPvhwAW","contest":"Mr. & Miss Teen Sherpa 2020 - S2","episode":"Mr.&Miss Teen Sherpa -S2","category":null,"contestant":{"voting_id":"06","name":"Tenzin Pema Sherpa"},"vote_count":1,"created_on":"2020-01-11T09:14:05.422652+05:45"},{"idx":"CrbjwZAUaAtqVS9vdxirDh","contest":"Mr. & Miss Teen Sherpa 2020 - S2","episode":"Mr.&Miss Teen Sherpa -S2","category":null,"contestant":{"voting_id":"27","name":"Pemba Chiring Sherpa"},"vote_count":1,"created_on":"2020-01-11T09:13:50.977575+05:45"},{"idx":"LLRjtsJ3eS73bo9jBgejNU","contest":"Mr. & Miss Teen Sherpa 2020 - S2","episode":"Mr.&Miss Teen Sherpa -S2","category":null,"contestant":{"voting_id":"06","name":"Tenzin Pema Sherpa"},"vote_count":1,"created_on":"2020-01-11T09:12:30.122139+05:45"},{"idx":"n4U7vdM8sg9TY8cSXe9UK2","contest":"Mr. & Miss Teen Sherpa 2020 - S2","episode":"Mr.&Miss Teen Sherpa -S2","category":null,"contestant":{"voting_id":"06","name":"Tenzin Pema Sherpa"},"vote_count":1,"created_on":"2020-01-11T09:12:14.544202+05:45"},{"idx":"dhawVVG3j2iFnDgVsk477K","contest":"NEPALBHASA STAR MUSIC VIDEO AWARDS-2019","episode":null,"category":"BEST LYRICIST","contestant":{"voting_id":"4C","name":"Bhim Bahadur Nakarmi"},"vote_count":1,"created_on":"2020-01-11T08:27:09.988285+05:45"},{"idx":"msdhVmYd6zc9prk4rssDWS","contest":"NEPALBHASA STAR MUSIC VIDEO AWARDS-2019","episode":null,"category":"BEST MODEL, FEMALE","contestant":{"voting_id":"13I","name":"Rajani Khadgi"},"vote_count":1,"created_on":"2020-01-11T08:25:35.489082+05:45"},{"idx":"LzSLsMENYETa3TM6uwd6FW","contest":"NEPALBHASA STAR MUSIC VIDEO AWARDS-2019","episode":null,"category":"BEST VIDEO COLORIST","contestant":{"voting_id":"8H","name":"Yoban Shakya"},"vote_count":1,"created_on":"2020-01-11T08:25:02.264016+05:45"},{"idx":"NRAuXhQyxwgh5c5iwThzvk","contest":"NEPALBHASA STAR MUSIC VIDEO AWARDS-2019","episode":null,"category":"BEST MUSIC DIRECTOR","contestant":{"voting_id":"6G","name":"Rita Maharjan"},"vote_count":1,"created_on":"2020-01-11T08:23:50.074247+05:45"},{"idx":"x7fXuPyDsVd7m67D5j5AUn","contest":"NEPALBHASA STAR MUSIC VIDEO AWARDS-2019","episode":null,"category":"BEST VIDEO EDITOR","contestant":{"voting_id":"9C","name":"Yoban Shakya"},"vote_count":1,"created_on":"2020-01-11T08:23:10.833844+05:45"},{"idx":"4qDb632VM9K48X32HGMRwn","contest":"NEPALBHASA STAR MUSIC VIDEO AWARDS-2019","episode":null,"category":"BEST CAMERAPERSON","contestant":{"voting_id":"10E","name":"Yoban Shakya"},"vote_count":5,"created_on":"2020-01-11T08:22:48.002540+05:45"},{"idx":"vakqGNWp37B3aTikt8G8F3","contest":"NEPALBHASA STAR MUSIC VIDEO AWARDS-2019","episode":null,"category":"BEST DRESS DESIGNER","contestant":{"voting_id":"3F","name":"Aradhya Laxmi Khadgi"},"vote_count":1,"created_on":"2020-01-11T08:21:59.625527+05:45"},{"idx":"wDkiCTSMtLiaqZDTNjdDHm","contest":"NEPALBHASA STAR MUSIC VIDEO AWARDS-2019","episode":null,"category":"BEST MODEL, FEMALE","contestant":{"voting_id":"13I","name":"Rajani Khadgi"},"vote_count":5,"created_on":"2020-01-11T08:21:11.985890+05:45"},{"idx":"6Arg9e6oQYSKLX3dmpCpJY","contest":"NEPALBHASA STAR MUSIC VIDEO AWARDS-2019","episode":null,"category":"BEST DEBUT MODEL, FEMALE","contestant":{"voting_id":"14E","name":"Karoona Shrestha"},"vote_count":1,"created_on":"2020-01-11T08:20:13.079364+05:45"},{"idx":"czKNa2CSMJtHpq6QFqbDJE","contest":"NEPALBHASA STAR MUSIC VIDEO AWARDS-2019","episode":null,"category":"BEST DANCE DIRECTOR","contestant":{"voting_id":"19B","name":"Srijana Maharjan"},"vote_count":1,"created_on":"2020-01-11T08:18:52.564596+05:45"},{"idx":"86LQMSGmf5x4kBqHWAfuSh","contest":"Model Superstar","episode":"Model Superstar","category":null,"contestant":{"voting_id":"04","name":"Sabita Maharjan"},"vote_count":1,"created_on":"2020-01-11T08:17:27.029858+05:45"},{"idx":"oZytmaUXCpBPFctkqZUaYA","contest":"Model Superstar","episode":"Model Superstar","category":null,"contestant":{"voting_id":"03","name":"Smriti Shah"},"vote_count":1,"created_on":"2020-01-11T06:41:10.481886+05:45"},{"idx":"tMDx9TZnvGZJXm8dT64u2G","contest":"Model Superstar","episode":"Model Superstar","category":null,"contestant":{"voting_id":"10","name":"Sameep Sharma"},"vote_count":1,"created_on":"2020-01-11T06:39:30.963227+05:45"},{"idx":"gm5AYTXQ2vkepatRk59sL5","contest":"Mr. & Miss Teen Sherpa 2020 - S2","episode":"Mr.&Miss Teen Sherpa -S2","category":null,"contestant":{"voting_id":"04","name":"Chhewang Sherpa"},"vote_count":1,"created_on":"2020-01-11T06:01:07.783149+05:45"},{"idx":"QWo2vbnfDomF6tFZxPGFzm","contest":"Model Superstar","episode":"Model Superstar","category":null,"contestant":{"voting_id":"01","name":"Sajina Subba"},"vote_count":1,"created_on":"2020-01-11T05:35:54.624405+05:45"},{"idx":"D5NbccpfUq7GR3QSxRN7zb","contest":"Mr. & Miss Teen Sherpa 2020 - S2","episode":"Mr.&Miss Teen Sherpa -S2","category":null,"contestant":{"voting_id":"02","name":"Pema Yanji sherpa"},"vote_count":1,"created_on":"2020-01-11T02:03:01.620887+05:45"},{"idx":"HpMxh5xzxUDGMYqi32D3kc","contest":"Mr. & Miss Teen Sherpa 2020 - S2","episode":"Mr.&Miss Teen Sherpa -S2","category":null,"contestant":{"voting_id":"02","name":"Pema Yanji sherpa"},"vote_count":1,"created_on":"2020-01-11T02:02:39.653746+05:45"},{"idx":"JLWqsRBj64wAWNuyTTjGY7","contest":"Mr. & Miss Teen Sherpa 2020 - S2","episode":"Mr.&Miss Teen Sherpa -S2","category":null,"contestant":{"voting_id":"05","name":"Nima Lhamu sherpa"},"vote_count":1,"created_on":"2020-01-11T01:57:08.528063+05:45"},{"idx":"4uAvrgNbKpM8baXSzCG7tZ","contest":"Mr. & Miss Teen Sherpa 2020 - S2","episode":"Mr.&Miss Teen Sherpa -S2","category":null,"contestant":{"voting_id":"06","name":"Tenzin Pema Sherpa"},"vote_count":1,"created_on":"2020-01-11T01:45:01.247643+05:45"},{"idx":"VeNrfNBQFK9Ky7RunuAVy2","contest":"Mr. & Miss Teen Sherpa 2020 - S2","episode":"Mr.&Miss Teen Sherpa -S2","category":null,"contestant":{"voting_id":"05","name":"Nima Lhamu sherpa"},"vote_count":1,"created_on":"2020-01-11T01:44:38.612027+05:45"},{"idx":"Xa6f6oEuU4EoMmH7Mj7tm7","contest":"NEPALBHASA STAR MUSIC VIDEO AWARDS-2019","episode":null,"category":"THE RISING STAR SINGER","contestant":{"voting_id":"21A","name":"Macha Raja Maharjan"},"vote_count":1,"created_on":"2020-01-11T01:43:57.690140+05:45"},{"idx":"DsQCeSR9s8RSM86AZ2d3eC","contest":"NEPALBHASA STAR MUSIC VIDEO AWARDS-2019","episode":null,"category":"BEST Singer,FEMALE","contestant":{"voting_id":"17J","name":"Anita Maharjan"},"vote_count":1,"created_on":"2020-01-11T00:28:14.013989+05:45"},{"idx":"xRaMFYnQxz3C5HJa6yrKZZ","contest":"Model Superstar","episode":"Model Superstar","category":null,"contestant":{"voting_id":"17","name":"Sajana Panta"},"vote_count":5,"created_on":"2020-01-11T00:07:32.356219+05:45"},{"idx":"Awa2Usvm326FSeJ95VQToh","contest":"Model Superstar","episode":"Model Superstar","category":null,"contestant":{"voting_id":"17","name":"Sajana Panta"},"vote_count":1,"created_on":"2020-01-10T22:56:19.693348+05:45"},{"idx":"2eZCRZntCGLCpkeHHd5gZ7","contest":"Mr. & Miss Teen Sherpa 2020 - S2","episode":"Mr.&Miss Teen Sherpa -S2","category":null,"contestant":{"voting_id":"02","name":"Pema Yanji sherpa"},"vote_count":1,"created_on":"2020-01-10T22:54:42.872830+05:45"}]}