{"total_pages":275,"total_records":13720,"next":"https://khalti.com/api/v2/vuservote/?page=135","previous":"https://khalti.com/api/v2/vuservote/?page=133","record_range":[6651,6700],"current_page":134,"records":[{"idx":"7K7r8ESeC9fJyJB3ichC5o","contest":"Mr. & Miss Teen Sherpa 2020 - S2","episode":"Mr.&Miss Teen Sherpa -S2","category":null,"contestant":{"voting_id":"02","name":"Pema Yanji sherpa"},"vote_count":1,"created_on":"2020-01-10T20:29:25.375686+05:45"},{"idx":"ka83emQeM3pneFv5bCgKCR","contest":"Mr. & Miss Teen Sherpa 2020 - S2","episode":"Mr.&Miss Teen Sherpa -S2","category":null,"contestant":{"voting_id":"02","name":"Pema Yanji sherpa"},"vote_count":1,"created_on":"2020-01-10T20:29:17.886041+05:45"},{"idx":"iRSBbFZJxavkuj2RvRxdeE","contest":"Mr. & Miss Teen Sherpa 2020 - S2","episode":"Mr.&Miss Teen Sherpa -S2","category":null,"contestant":{"voting_id":"02","name":"Pema Yanji sherpa"},"vote_count":1,"created_on":"2020-01-10T20:29:12.815995+05:45"},{"idx":"WPPAc3wMaCrqeS72L6mpTU","contest":"Mr. & Miss Teen Sherpa 2020 - S2","episode":"Mr.&Miss Teen Sherpa -S2","category":null,"contestant":{"voting_id":"02","name":"Pema Yanji sherpa"},"vote_count":1,"created_on":"2020-01-10T20:29:07.721954+05:45"},{"idx":"YWQX6vokWZS6kZUu89x6yF","contest":"Mr. & Miss Teen Sherpa 2020 - S2","episode":"Mr.&Miss Teen Sherpa -S2","category":null,"contestant":{"voting_id":"02","name":"Pema Yanji sherpa"},"vote_count":1,"created_on":"2020-01-10T20:29:01.517779+05:45"},{"idx":"VQGKqsa4SVD2tUNJqhGqvA","contest":"Mr. & Miss Teen Sherpa 2020 - S2","episode":"Mr.&Miss Teen Sherpa -S2","category":null,"contestant":{"voting_id":"02","name":"Pema Yanji sherpa"},"vote_count":1,"created_on":"2020-01-10T20:28:55.159911+05:45"},{"idx":"oAkDJusu8ZhuYdN54y4oRU","contest":"Mr. & Miss Teen Sherpa 2020 - S2","episode":"Mr.&Miss Teen Sherpa -S2","category":null,"contestant":{"voting_id":"02","name":"Pema Yanji sherpa"},"vote_count":1,"created_on":"2020-01-10T20:28:49.487269+05:45"},{"idx":"i9TZxUJG8VYgdSRxsm3nFQ","contest":"Mr. & Miss Teen Sherpa 2020 - S2","episode":"Mr.&Miss Teen Sherpa -S2","category":null,"contestant":{"voting_id":"02","name":"Pema Yanji sherpa"},"vote_count":1,"created_on":"2020-01-10T20:28:43.670028+05:45"},{"idx":"PrqzPbLxsGq7vqtnfnGps8","contest":"Mr. & Miss Teen Sherpa 2020 - S2","episode":"Mr.&Miss Teen Sherpa -S2","category":null,"contestant":{"voting_id":"02","name":"Pema Yanji sherpa"},"vote_count":1,"created_on":"2020-01-10T20:28:37.560145+05:45"},{"idx":"WaRBN2yLwLYumBvqcaAynJ","contest":"Mr. & Miss Teen Sherpa 2020 - S2","episode":"Mr.&Miss Teen Sherpa -S2","category":null,"contestant":{"voting_id":"02","name":"Pema Yanji sherpa"},"vote_count":1,"created_on":"2020-01-10T20:28:32.422653+05:45"},{"idx":"6fexLUqiaY6NiJrzUkZKne","contest":"Mr. & Miss Teen Sherpa 2020 - S2","episode":"Mr.&Miss Teen Sherpa -S2","category":null,"contestant":{"voting_id":"02","name":"Pema Yanji sherpa"},"vote_count":1,"created_on":"2020-01-10T20:28:27.418165+05:45"},{"idx":"K6j7AB9MQSQd8D9ihdehVT","contest":"Mr. & Miss Teen Sherpa 2020 - S2","episode":"Mr.&Miss Teen Sherpa -S2","category":null,"contestant":{"voting_id":"02","name":"Pema Yanji sherpa"},"vote_count":1,"created_on":"2020-01-10T20:28:21.275810+05:45"},{"idx":"F8D8ENfW9MKBvpsBGcjeo4","contest":"Mr. & Miss Teen Sherpa 2020 - S2","episode":"Mr.&Miss Teen Sherpa -S2","category":null,"contestant":{"voting_id":"02","name":"Pema Yanji sherpa"},"vote_count":1,"created_on":"2020-01-10T20:28:12.563566+05:45"},{"idx":"Mdy6qB4itrp3vEz98UwvVR","contest":"Mr. & Miss Teen Sherpa 2020 - S2","episode":"Mr.&Miss Teen Sherpa -S2","category":null,"contestant":{"voting_id":"02","name":"Pema Yanji sherpa"},"vote_count":1,"created_on":"2020-01-10T20:28:07.447160+05:45"},{"idx":"qCzMYWYu4sPe7pSAXz9Rwc","contest":"Mr. & Miss Teen Sherpa 2020 - S2","episode":"Mr.&Miss Teen Sherpa -S2","category":null,"contestant":{"voting_id":"02","name":"Pema Yanji sherpa"},"vote_count":1,"created_on":"2020-01-10T20:28:01.148004+05:45"},{"idx":"7coWMkX2dq98Vy47pgUpvW","contest":"Mr. & Miss Teen Sherpa 2020 - S2","episode":"Mr.&Miss Teen Sherpa -S2","category":null,"contestant":{"voting_id":"02","name":"Pema Yanji sherpa"},"vote_count":1,"created_on":"2020-01-10T20:27:55.686114+05:45"},{"idx":"4FNEzyM2E6C6bzvVHKjkz3","contest":"Mr. & Miss Teen Sherpa 2020 - S2","episode":"Mr.&Miss Teen Sherpa -S2","category":null,"contestant":{"voting_id":"02","name":"Pema Yanji sherpa"},"vote_count":1,"created_on":"2020-01-10T20:27:47.695638+05:45"},{"idx":"dPcEqLmmuGAgTUdp3CFFzZ","contest":"Mr. & Miss Teen Sherpa 2020 - S2","episode":"Mr.&Miss Teen Sherpa -S2","category":null,"contestant":{"voting_id":"02","name":"Pema Yanji sherpa"},"vote_count":1,"created_on":"2020-01-10T20:27:41.807038+05:45"},{"idx":"kpijB5Q4PPZhe9AiYwm88Q","contest":"Mr. & Miss Teen Sherpa 2020 - S2","episode":"Mr.&Miss Teen Sherpa -S2","category":null,"contestant":{"voting_id":"02","name":"Pema Yanji sherpa"},"vote_count":1,"created_on":"2020-01-10T20:27:33.888609+05:45"},{"idx":"k6QnFM3wtPewF8nB6yWoCL","contest":"Mr. & Miss Teen Sherpa 2020 - S2","episode":"Mr.&Miss Teen Sherpa -S2","category":null,"contestant":{"voting_id":"02","name":"Pema Yanji sherpa"},"vote_count":1,"created_on":"2020-01-10T20:27:27.201077+05:45"},{"idx":"j9WUqQAmrwc4AoV2NUfTRU","contest":"Mr. & Miss Teen Sherpa 2020 - S2","episode":"Mr.&Miss Teen Sherpa -S2","category":null,"contestant":{"voting_id":"02","name":"Pema Yanji sherpa"},"vote_count":1,"created_on":"2020-01-10T20:27:21.957608+05:45"},{"idx":"czgt6H6GxVx3HcTuB62nbK","contest":"Mr. & Miss Teen Sherpa 2020 - S2","episode":"Mr.&Miss Teen Sherpa -S2","category":null,"contestant":{"voting_id":"02","name":"Pema Yanji sherpa"},"vote_count":1,"created_on":"2020-01-10T20:27:15.629408+05:45"},{"idx":"U3rfSRt6W7UhGjf6CKWUM9","contest":"Mr. & Miss Teen Sherpa 2020 - S2","episode":"Mr.&Miss Teen Sherpa -S2","category":null,"contestant":{"voting_id":"02","name":"Pema Yanji sherpa"},"vote_count":1,"created_on":"2020-01-10T20:27:03.421181+05:45"},{"idx":"vx9WCrHAxD8Sf5WW2YGyNE","contest":"Mr. & Miss Teen Sherpa 2020 - S2","episode":"Mr.&Miss Teen Sherpa -S2","category":null,"contestant":{"voting_id":"02","name":"Pema Yanji sherpa"},"vote_count":1,"created_on":"2020-01-10T20:26:57.781312+05:45"},{"idx":"5wkdNEVG4rR4nZtrNmwdW6","contest":"Mr. & Miss Teen Sherpa 2020 - S2","episode":"Mr.&Miss Teen Sherpa -S2","category":null,"contestant":{"voting_id":"02","name":"Pema Yanji sherpa"},"vote_count":1,"created_on":"2020-01-10T20:26:50.044014+05:45"},{"idx":"SJDU25u6XGmSojLKNS9mnF","contest":"Mr. & Miss Teen Sherpa 2020 - S2","episode":"Mr.&Miss Teen Sherpa -S2","category":null,"contestant":{"voting_id":"02","name":"Pema Yanji sherpa"},"vote_count":1,"created_on":"2020-01-10T20:26:45.000130+05:45"},{"idx":"jE435y3hhkH6pirUCsbU3m","contest":"Mr. & Miss Teen Sherpa 2020 - S2","episode":"Mr.&Miss Teen Sherpa -S2","category":null,"contestant":{"voting_id":"02","name":"Pema Yanji sherpa"},"vote_count":1,"created_on":"2020-01-10T20:26:16.548246+05:45"},{"idx":"85nQztvrawzyskoiw6UcWj","contest":"Mr. & Miss Teen Sherpa 2020 - S2","episode":"Mr.&Miss Teen Sherpa -S2","category":null,"contestant":{"voting_id":"02","name":"Pema Yanji sherpa"},"vote_count":1,"created_on":"2020-01-10T20:26:10.163862+05:45"},{"idx":"Up6G7CxjSdk8mai69SULgN","contest":"Model Superstar","episode":"Model Superstar","category":null,"contestant":{"voting_id":"17","name":"Sajana Panta"},"vote_count":50,"created_on":"2020-01-10T20:20:15.775469+05:45"},{"idx":"xhZQnVVG2GPGMozozaLASS","contest":"Model Superstar","episode":"Model Superstar","category":null,"contestant":{"voting_id":"17","name":"Sajana Panta"},"vote_count":1,"created_on":"2020-01-10T19:59:54.881615+05:45"},{"idx":"ozMWLcHfbivTsUzyWk7qTA","contest":"Model Superstar","episode":"Model Superstar","category":null,"contestant":{"voting_id":"17","name":"Sajana Panta"},"vote_count":100,"created_on":"2020-01-10T19:32:23.949151+05:45"},{"idx":"FJm3MgxFs8dAHdK6AnKPtH","contest":"Mr. & Miss Teen Sherpa 2020 - S2","episode":"Mr.&Miss Teen Sherpa -S2","category":null,"contestant":{"voting_id":"26","name":"Tengin Sherpa"},"vote_count":1,"created_on":"2020-01-10T19:19:18.613378+05:45"},{"idx":"tGzjXxDUE8SvEc37MPs3s8","contest":"Model Superstar","episode":"Model Superstar","category":null,"contestant":{"voting_id":"22","name":"Sunil Laudrey"},"vote_count":1,"created_on":"2020-01-10T18:52:22.089593+05:45"},{"idx":"aQUUm2PwRbQpTvPgXJVfeY","contest":"Model Superstar","episode":"Model Superstar","category":null,"contestant":{"voting_id":"22","name":"Sunil Laudrey"},"vote_count":1,"created_on":"2020-01-10T18:52:02.865034+05:45"},{"idx":"FnyBMtCsAiNfAnBJhPF7U5","contest":"Mr. & Miss Teen Sherpa 2020 - S2","episode":"Mr.&Miss Teen Sherpa -S2","category":null,"contestant":{"voting_id":"24","name":"Mingma Tshering Sherpa"},"vote_count":1,"created_on":"2020-01-10T18:23:07.617936+05:45"},{"idx":"nqx9FHc2CXvXUYTixB2mWA","contest":"Mr. & Miss Teen Sherpa 2020 - S2","episode":"Mr.&Miss Teen Sherpa -S2","category":null,"contestant":{"voting_id":"24","name":"Mingma Tshering Sherpa"},"vote_count":1,"created_on":"2020-01-10T18:22:04.867786+05:45"},{"idx":"5k5LUTus8LYmfGA7zj74Rh","contest":"NEPALBHASA STAR MUSIC VIDEO AWARDS-2019","episode":null,"category":"BEST Singer,FEMALE","contestant":{"voting_id":"17C","name":"Pooja Sunuwar"},"vote_count":1,"created_on":"2020-01-10T17:17:10.829011+05:45"},{"idx":"ChMKsz9aS9iZfxkujT2cs8","contest":"Model Superstar","episode":"Model Superstar","category":null,"contestant":{"voting_id":"09","name":"Sagar Ghimire"},"vote_count":1,"created_on":"2020-01-10T17:15:45.285160+05:45"},{"idx":"5GFUNUscS5Y9oXCaEmwuN4","contest":"Model Superstar","episode":"Model Superstar","category":null,"contestant":{"voting_id":"17","name":"Sajana Panta"},"vote_count":1,"created_on":"2020-01-10T17:14:01.020160+05:45"},{"idx":"VtqhHGPBVbSpqkUb9yGNRj","contest":"Model Superstar","episode":"Model Superstar","category":null,"contestant":{"voting_id":"17","name":"Sajana Panta"},"vote_count":1,"created_on":"2020-01-10T17:08:15.354877+05:45"},{"idx":"pLe89kDYeDxRSH4WBVn9yU","contest":"Model Superstar","episode":"Model Superstar","category":null,"contestant":{"voting_id":"17","name":"Sajana Panta"},"vote_count":1,"created_on":"2020-01-10T17:07:07.229703+05:45"},{"idx":"Rpc9tsSaGpCQBNMh6TrAZF","contest":"Model Superstar","episode":"Model Superstar","category":null,"contestant":{"voting_id":"17","name":"Sajana Panta"},"vote_count":1,"created_on":"2020-01-10T17:06:02.965991+05:45"},{"idx":"fxkE6XGFpmKkVRgFkAsH3P","contest":"Model Superstar","episode":"Model Superstar","category":null,"contestant":{"voting_id":"17","name":"Sajana Panta"},"vote_count":1,"created_on":"2020-01-10T17:03:44.169880+05:45"},{"idx":"ZRfF8v9Jd2KALSfkhJNieC","contest":"Model Superstar","episode":"Model Superstar","category":null,"contestant":{"voting_id":"17","name":"Sajana Panta"},"vote_count":1,"created_on":"2020-01-10T16:31:52.729021+05:45"},{"idx":"4PuEToMS9o6DBqchj9wQHP","contest":"Model Superstar","episode":"Model Superstar","category":null,"contestant":{"voting_id":"17","name":"Sajana Panta"},"vote_count":1,"created_on":"2020-01-10T16:25:57.563399+05:45"},{"idx":"aqQ7vkuokbbAE7pnDZnKmg","contest":"Model Superstar","episode":"Model Superstar","category":null,"contestant":{"voting_id":"17","name":"Sajana Panta"},"vote_count":1,"created_on":"2020-01-10T16:25:50.914149+05:45"},{"idx":"sDEYXmzH38SSv6LLUxiwNY","contest":"Model Superstar","episode":"Model Superstar","category":null,"contestant":{"voting_id":"17","name":"Sajana Panta"},"vote_count":1,"created_on":"2020-01-10T16:23:19.868791+05:45"},{"idx":"c83SS8ySw4JNstySYnYv3W","contest":"Model Superstar","episode":"Model Superstar","category":null,"contestant":{"voting_id":"17","name":"Sajana Panta"},"vote_count":1,"created_on":"2020-01-10T16:08:28.500477+05:45"},{"idx":"7DLw5ABNZNZFCCnS6iqMjD","contest":"Model Superstar","episode":"Model Superstar","category":null,"contestant":{"voting_id":"17","name":"Sajana Panta"},"vote_count":1,"created_on":"2020-01-10T16:07:09.584964+05:45"},{"idx":"g9Za8u5gjjXrBZCztRm5Hm","contest":"Model Superstar","episode":"Model Superstar","category":null,"contestant":{"voting_id":"04","name":"Sabita Maharjan"},"vote_count":1,"created_on":"2020-01-10T15:10:15.073619+05:45"}]}