{"total_pages":275,"total_records":13720,"next":"https://khalti.com/api/v2/vuservote/?page=136","previous":"https://khalti.com/api/v2/vuservote/?page=134","record_range":[6701,6750],"current_page":135,"records":[{"idx":"8v5pWhKveyAS4BnkSLfMYE","contest":"Model Superstar","episode":"Model Superstar","category":null,"contestant":{"voting_id":"12","name":"Rabin Ghising"},"vote_count":1,"created_on":"2020-01-10T14:24:19.683906+05:45"},{"idx":"EPDXFsvUgSDpFEp769aqp4","contest":"Model Superstar","episode":"Model Superstar","category":null,"contestant":{"voting_id":"17","name":"Sajana Panta"},"vote_count":100,"created_on":"2020-01-10T14:18:26.336491+05:45"},{"idx":"v7vh9PdgBw4xhu7XK4y6Cf","contest":"Model Superstar","episode":"Model Superstar","category":null,"contestant":{"voting_id":"31","name":"Aakriti Subedi"},"vote_count":1,"created_on":"2020-01-10T13:41:07.538143+05:45"},{"idx":"PqXgUTPvHuTFWnWfB3HyJE","contest":"Model Superstar","episode":"Model Superstar","category":null,"contestant":{"voting_id":"17","name":"Sajana Panta"},"vote_count":1,"created_on":"2020-01-10T13:41:03.594771+05:45"},{"idx":"ZLCcPuDuwHm7iiNkvvhAFe","contest":"Model Superstar","episode":"Model Superstar","category":null,"contestant":{"voting_id":"17","name":"Sajana Panta"},"vote_count":1,"created_on":"2020-01-10T13:13:11.870282+05:45"},{"idx":"ZM7GPYYWy2dWuFT6PYWf6n","contest":"Model Superstar","episode":"Model Superstar","category":null,"contestant":{"voting_id":"03","name":"Smriti Shah"},"vote_count":1,"created_on":"2020-01-10T12:57:39.722043+05:45"},{"idx":"Mdrk5DBwDmVsKr28P4xwQY","contest":"Model Superstar","episode":"Model Superstar","category":null,"contestant":{"voting_id":"17","name":"Sajana Panta"},"vote_count":1,"created_on":"2020-01-10T12:22:45.039349+05:45"},{"idx":"SWZanSYNGQsMXhUBvGZBNf","contest":"Model Superstar","episode":"Model Superstar","category":null,"contestant":{"voting_id":"17","name":"Sajana Panta"},"vote_count":1,"created_on":"2020-01-10T12:21:06.562391+05:45"},{"idx":"78q6LnNj5u3zLMyJhfazfY","contest":"Model Superstar","episode":"Model Superstar","category":null,"contestant":{"voting_id":"17","name":"Sajana Panta"},"vote_count":1,"created_on":"2020-01-10T12:11:00.827663+05:45"},{"idx":"wEBvkReQudytfmXFazwzw5","contest":"Model Superstar","episode":"Model Superstar","category":null,"contestant":{"voting_id":"17","name":"Sajana Panta"},"vote_count":1,"created_on":"2020-01-10T11:42:52.421922+05:45"},{"idx":"ascZCdPuhYV7a7hbzGXzW8","contest":"Model Superstar","episode":"Model Superstar","category":null,"contestant":{"voting_id":"17","name":"Sajana Panta"},"vote_count":1,"created_on":"2020-01-10T11:41:02.917759+05:45"},{"idx":"SBQvoSxzG4Nd4DCoeFqdHK","contest":"Model Superstar","episode":"Model Superstar","category":null,"contestant":{"voting_id":"02","name":"Srijana Basnet"},"vote_count":1,"created_on":"2020-01-10T11:40:50.818375+05:45"},{"idx":"y7MSHAXSN9sHXrLfDSonSW","contest":"NEPALBHASA STAR MUSIC VIDEO AWARDS-2019","episode":null,"category":"BEST MODEL, FEMALE","contestant":{"voting_id":"13D","name":"Shova Maharjan"},"vote_count":1,"created_on":"2020-01-10T11:39:54.502232+05:45"},{"idx":"r8q3CXRJNmsjgGFaMPVpQe","contest":"Model Superstar","episode":"Model Superstar","category":null,"contestant":{"voting_id":"17","name":"Sajana Panta"},"vote_count":1,"created_on":"2020-01-10T11:38:26.880390+05:45"},{"idx":"psSVjNSfQ2arGGsJdQZh8A","contest":"Model Superstar","episode":"Model Superstar","category":null,"contestant":{"voting_id":"17","name":"Sajana Panta"},"vote_count":1,"created_on":"2020-01-10T11:38:00.272219+05:45"},{"idx":"ktuLiuwXdY5r7AvQUaDvEo","contest":"Model Superstar","episode":"Model Superstar","category":null,"contestant":{"voting_id":"17","name":"Sajana Panta"},"vote_count":1,"created_on":"2020-01-10T11:37:26.086372+05:45"},{"idx":"k6yqskskLWuhfkPu8kbB3c","contest":"Model Superstar","episode":"Model Superstar","category":null,"contestant":{"voting_id":"17","name":"Sajana Panta"},"vote_count":1,"created_on":"2020-01-10T11:36:48.557946+05:45"},{"idx":"nduQB4P4JjvH8y43LBB4ne","contest":"Model Superstar","episode":"Model Superstar","category":null,"contestant":{"voting_id":"17","name":"Sajana Panta"},"vote_count":1,"created_on":"2020-01-10T11:28:26.792725+05:45"},{"idx":"zx39LvcMp9WijSsYekDxGS","contest":"Model Superstar","episode":"Model Superstar","category":null,"contestant":{"voting_id":"17","name":"Sajana Panta"},"vote_count":1,"created_on":"2020-01-10T11:27:26.672697+05:45"},{"idx":"qRN5avp5o33v7cNwdv5toE","contest":"Mr. & Miss Teen Sherpa 2020 - S2","episode":"Mr.&Miss Teen Sherpa -S2","category":null,"contestant":{"voting_id":"06","name":"Tenzin Pema Sherpa"},"vote_count":1,"created_on":"2020-01-10T11:11:46.380946+05:45"},{"idx":"RpGcpPiZytmDKnsG3AJdCF","contest":"Mr. & Miss Teen Sherpa 2020 - S2","episode":"Mr.&Miss Teen Sherpa -S2","category":null,"contestant":{"voting_id":"06","name":"Tenzin Pema Sherpa"},"vote_count":1,"created_on":"2020-01-10T11:11:18.833427+05:45"},{"idx":"46aE7EXmGyG5oDhJktwgQQ","contest":"Mr. & Miss Teen Sherpa 2020 - S2","episode":"Mr.&Miss Teen Sherpa -S2","category":null,"contestant":{"voting_id":"06","name":"Tenzin Pema Sherpa"},"vote_count":1,"created_on":"2020-01-10T11:11:01.968696+05:45"},{"idx":"oG3eHt8zi6WC5yoc3xTo32","contest":"Mr. & Miss Teen Sherpa 2020 - S2","episode":"Mr.&Miss Teen Sherpa -S2","category":null,"contestant":{"voting_id":"06","name":"Tenzin Pema Sherpa"},"vote_count":1,"created_on":"2020-01-10T11:10:46.923574+05:45"},{"idx":"9jjEDyJ9wyBc56hMRJMMfZ","contest":"Mr. & Miss Teen Sherpa 2020 - S2","episode":"Mr.&Miss Teen Sherpa -S2","category":null,"contestant":{"voting_id":"06","name":"Tenzin Pema Sherpa"},"vote_count":1,"created_on":"2020-01-10T11:10:30.781044+05:45"},{"idx":"Juh8JoiUTEbrfVhpX7bcCJ","contest":"Mr. & Miss Teen Sherpa 2020 - S2","episode":"Mr.&Miss Teen Sherpa -S2","category":null,"contestant":{"voting_id":"24","name":"Mingma Tshering Sherpa"},"vote_count":1,"created_on":"2020-01-10T10:42:51.091699+05:45"},{"idx":"vFiA7WYT4U7B68VkLcjLmA","contest":"Mr. & Miss Teen Sherpa 2020 - S2","episode":"Mr.&Miss Teen Sherpa -S2","category":null,"contestant":{"voting_id":"24","name":"Mingma Tshering Sherpa"},"vote_count":1,"created_on":"2020-01-10T10:42:40.198721+05:45"},{"idx":"fegH7NfFPnjgWX4UQVYqGe","contest":"Mr. & Miss Teen Sherpa 2020 - S2","episode":"Mr.&Miss Teen Sherpa -S2","category":null,"contestant":{"voting_id":"24","name":"Mingma Tshering Sherpa"},"vote_count":1,"created_on":"2020-01-10T10:42:28.960101+05:45"},{"idx":"SMWXw2bPhAor6a9u5xoC3a","contest":"Mr. & Miss Teen Sherpa 2020 - S2","episode":"Mr.&Miss Teen Sherpa -S2","category":null,"contestant":{"voting_id":"24","name":"Mingma Tshering Sherpa"},"vote_count":1,"created_on":"2020-01-10T10:42:14.492173+05:45"},{"idx":"N96mFnnuxtc2eEEJsxmaQ2","contest":"Model Superstar","episode":"Model Superstar","category":null,"contestant":{"voting_id":"17","name":"Sajana Panta"},"vote_count":1,"created_on":"2020-01-10T10:24:22.847082+05:45"},{"idx":"PrgzMS8ATfZ8KZ2NS3vVAW","contest":"Mr. & Miss Teen Sherpa 2020 - S2","episode":"Mr.&Miss Teen Sherpa -S2","category":null,"contestant":{"voting_id":"06","name":"Tenzin Pema Sherpa"},"vote_count":1,"created_on":"2020-01-10T10:15:56.398473+05:45"},{"idx":"Fdj342bPupZRTy6t23FNNk","contest":"Mr. & Miss Teen Sherpa 2020 - S2","episode":"Mr.&Miss Teen Sherpa -S2","category":null,"contestant":{"voting_id":"05","name":"Nima Lhamu sherpa"},"vote_count":1,"created_on":"2020-01-10T09:27:11.659771+05:45"},{"idx":"RR6a8htVPaYpm5CSjsQwqA","contest":"Model Superstar","episode":"Model Superstar","category":null,"contestant":{"voting_id":"17","name":"Sajana Panta"},"vote_count":1,"created_on":"2020-01-10T08:47:55.527140+05:45"},{"idx":"7hFmaecRaeZ2UVQMkefewL","contest":"Model Superstar","episode":"Model Superstar","category":null,"contestant":{"voting_id":"12","name":"Rabin Ghising"},"vote_count":1,"created_on":"2020-01-10T08:26:19.489640+05:45"},{"idx":"cdMGEMavDniMdLKn89USy6","contest":"Model Superstar","episode":"Model Superstar","category":null,"contestant":{"voting_id":"17","name":"Sajana Panta"},"vote_count":1,"created_on":"2020-01-10T08:02:24.374286+05:45"},{"idx":"v3JJKSG8fbfxoyiMk8fFQF","contest":"Model Superstar","episode":"Model Superstar","category":null,"contestant":{"voting_id":"02","name":"Srijana Basnet"},"vote_count":1,"created_on":"2020-01-10T07:59:34.296083+05:45"},{"idx":"i6CEKhCRwRuF3DuiqkGCEo","contest":"Model Superstar","episode":"Model Superstar","category":null,"contestant":{"voting_id":"08","name":"Roshan Sunam"},"vote_count":1,"created_on":"2020-01-10T07:47:18.502983+05:45"},{"idx":"4jipLBUYf9AdjzVpM4b5Mn","contest":"Model Superstar","episode":"Model Superstar","category":null,"contestant":{"voting_id":"17","name":"Sajana Panta"},"vote_count":1,"created_on":"2020-01-09T23:16:53.561506+05:45"},{"idx":"WFg68rGoa5UVQZSRy63A3k","contest":"NEPALBHASA STAR MUSIC VIDEO AWARDS-2019","episode":null,"category":"BEST Singer,FEMALE","contestant":{"voting_id":"17J","name":"Anita Maharjan"},"vote_count":1,"created_on":"2020-01-09T23:16:25.535351+05:45"},{"idx":"CkUxFeCoHbw3yGokyTv9qD","contest":"Model Superstar","episode":"Model Superstar","category":null,"contestant":{"voting_id":"13","name":"Prashant Shah"},"vote_count":1,"created_on":"2020-01-09T22:04:20.981945+05:45"},{"idx":"V8ME5BGZC6Ckb8MitD87e5","contest":"NEPALBHASA STAR MUSIC VIDEO AWARDS-2019","episode":null,"category":"BEST MODEL, FEMALE","contestant":{"voting_id":"13H","name":"Sarita Bajracharya"},"vote_count":1,"created_on":"2020-01-09T21:57:19.197931+05:45"},{"idx":"yoGXZXpxuaTyt4fZV3irLA","contest":"Model Superstar","episode":"Model Superstar","category":null,"contestant":{"voting_id":"08","name":"Roshan Sunam"},"vote_count":1,"created_on":"2020-01-09T21:52:16.358309+05:45"},{"idx":"rvc3pwB5qaHJU8XCEfhYDm","contest":"Model Superstar","episode":"Model Superstar","category":null,"contestant":{"voting_id":"14","name":"Ashish Shakya"},"vote_count":100,"created_on":"2020-01-09T21:42:57.756237+05:45"},{"idx":"9Ff956RpNW6VA5mGynaDJo","contest":"Model Superstar","episode":"Model Superstar","category":null,"contestant":{"voting_id":"14","name":"Ashish Shakya"},"vote_count":100,"created_on":"2020-01-09T21:34:32.200988+05:45"},{"idx":"pqUXPLph6vBposv4xSFtuJ","contest":"Model Superstar","episode":"Model Superstar","category":null,"contestant":{"voting_id":"12","name":"Rabin Ghising"},"vote_count":500,"created_on":"2020-01-09T21:18:47.471417+05:45"},{"idx":"vm2oAcW78WeT96JiYPNdSD","contest":"Model Superstar","episode":"Model Superstar","category":null,"contestant":{"voting_id":"12","name":"Rabin Ghising"},"vote_count":500,"created_on":"2020-01-09T21:18:10.761157+05:45"},{"idx":"Z3JuxEvLyN9GjXef6HMy8S","contest":"Mr. & Miss Teen Sherpa 2020 - S2","episode":"Mr.&Miss Teen Sherpa -S2","category":null,"contestant":{"voting_id":"05","name":"Nima Lhamu sherpa"},"vote_count":1,"created_on":"2020-01-09T21:17:13.086574+05:45"},{"idx":"yy38vaUaaGhsFnm4f5CzSZ","contest":"Mr. & Miss Teen Sherpa 2020 - S2","episode":"Mr.&Miss Teen Sherpa -S2","category":null,"contestant":{"voting_id":"01","name":"Lhamu Sherpa"},"vote_count":1,"created_on":"2020-01-09T21:16:43.443086+05:45"},{"idx":"G2u6jqiJpwQ8cp6Laiz2Rd","contest":"Mr. & Miss Teen Sherpa 2020 - S2","episode":"Mr.&Miss Teen Sherpa -S2","category":null,"contestant":{"voting_id":"05","name":"Nima Lhamu sherpa"},"vote_count":1,"created_on":"2020-01-09T20:43:52.708176+05:45"},{"idx":"tNtT4DHoEe26u9KuMBsKHT","contest":"Model Superstar","episode":"Model Superstar","category":null,"contestant":{"voting_id":"04","name":"Sabita Maharjan"},"vote_count":1,"created_on":"2020-01-09T20:43:15.824002+05:45"},{"idx":"WzKTDN4tBML4C98Py5fRk6","contest":"Model Superstar","episode":"Model Superstar","category":null,"contestant":{"voting_id":"12","name":"Rabin Ghising"},"vote_count":1,"created_on":"2020-01-09T20:18:58.576680+05:45"}]}