{"total_pages":275,"total_records":13720,"next":"https://khalti.com/api/v2/vuservote/?page=137","previous":"https://khalti.com/api/v2/vuservote/?page=135","record_range":[6751,6800],"current_page":136,"records":[{"idx":"QubP9QejhoxpVhb5MgUVaM","contest":"Mr. & Miss Teen Sherpa 2020 - S2","episode":"Mr.&Miss Teen Sherpa -S2","category":null,"contestant":{"voting_id":"03","name":"Mingma Sherpa"},"vote_count":1,"created_on":"2020-01-09T20:07:11.185891+05:45"},{"idx":"nRnSC5dwUSnSgcREpBsZbn","contest":"Mr. & Miss Teen Sherpa 2020 - S2","episode":"Mr.&Miss Teen Sherpa -S2","category":null,"contestant":{"voting_id":"06","name":"Tenzin Pema Sherpa"},"vote_count":1,"created_on":"2020-01-09T19:38:09.338933+05:45"},{"idx":"HLpCrY9FU4xPpse7DVy3yS","contest":"Model Superstar","episode":"Model Superstar","category":null,"contestant":{"voting_id":"17","name":"Sajana Panta"},"vote_count":100,"created_on":"2020-01-09T18:40:25.978482+05:45"},{"idx":"A6bZNmBVoE28U9cX7B5MqW","contest":"Mr. & Miss Teen Sherpa 2020 - S2","episode":"Mr.&Miss Teen Sherpa -S2","category":null,"contestant":{"voting_id":"03","name":"Mingma Sherpa"},"vote_count":1,"created_on":"2020-01-09T18:25:01.513057+05:45"},{"idx":"mtgJJJguoiCPqqCxcY2NUC","contest":"Mr. & Miss Teen Sherpa 2020 - S2","episode":"Mr.&Miss Teen Sherpa -S2","category":null,"contestant":{"voting_id":"24","name":"Mingma Tshering Sherpa"},"vote_count":1,"created_on":"2020-01-09T17:22:29.346967+05:45"},{"idx":"9dQ68eRXDF4gXyJrtovkB6","contest":"Mr. & Miss Teen Sherpa 2020 - S2","episode":"Mr.&Miss Teen Sherpa -S2","category":null,"contestant":{"voting_id":"24","name":"Mingma Tshering Sherpa"},"vote_count":1,"created_on":"2020-01-09T17:22:00.243350+05:45"},{"idx":"Av6hXrLijzxoKXc2sALsFg","contest":"Mr. & Miss Teen Sherpa 2020 - S2","episode":"Mr.&Miss Teen Sherpa -S2","category":null,"contestant":{"voting_id":"24","name":"Mingma Tshering Sherpa"},"vote_count":1,"created_on":"2020-01-09T17:21:44.554096+05:45"},{"idx":"WKZBW3w5XUgvAjWUUftMj9","contest":"Mr. & Miss Teen Sherpa 2020 - S2","episode":"Mr.&Miss Teen Sherpa -S2","category":null,"contestant":{"voting_id":"24","name":"Mingma Tshering Sherpa"},"vote_count":1,"created_on":"2020-01-09T17:21:23.210300+05:45"},{"idx":"bxq2XedVNdPdKVrmMTPr2B","contest":"Model Superstar","episode":"Model Superstar","category":null,"contestant":{"voting_id":"08","name":"Roshan Sunam"},"vote_count":1,"created_on":"2020-01-09T17:17:55.392378+05:45"},{"idx":"zcUWntcNaCXXQSG99Z8QfC","contest":"Model Superstar","episode":"Model Superstar","category":null,"contestant":{"voting_id":"03","name":"Smriti Shah"},"vote_count":1,"created_on":"2020-01-09T17:17:41.815766+05:45"},{"idx":"6gxTPnVuMhmC52YjkLJXgU","contest":"Mr. & Miss Teen Sherpa 2020 - S2","episode":"Mr.&Miss Teen Sherpa -S2","category":null,"contestant":{"voting_id":"11","name":"Ang Maya Sherpa"},"vote_count":1,"created_on":"2020-01-09T16:06:41.626499+05:45"},{"idx":"g5K7zRLYAPj8sCzNBJvTmU","contest":"Model Superstar","episode":"Model Superstar","category":null,"contestant":{"voting_id":"01","name":"Sajina Subba"},"vote_count":1,"created_on":"2020-01-09T16:05:43.351982+05:45"},{"idx":"unmUxqYEUBT3souCyXbNBB","contest":"NEPALBHASA STAR MUSIC VIDEO AWARDS-2019","episode":null,"category":"BEST DANCE DIRECTOR","contestant":{"voting_id":"19B","name":"Srijana Maharjan"},"vote_count":1,"created_on":"2020-01-09T15:25:49.024745+05:45"},{"idx":"GzaN5VSgqG9fHriTS6TWvU","contest":"Model Superstar","episode":"Model Superstar","category":null,"contestant":{"voting_id":"01","name":"Sajina Subba"},"vote_count":1,"created_on":"2020-01-09T15:21:44.806478+05:45"},{"idx":"hkFukfS6ajjHq8DNTWtWLE","contest":"Mr. & Miss Teen Sherpa 2020 - S2","episode":"Mr.&Miss Teen Sherpa -S2","category":null,"contestant":{"voting_id":"02","name":"Pema Yanji sherpa"},"vote_count":1,"created_on":"2020-01-09T15:17:37.076284+05:45"},{"idx":"wKevpntbFMeh3f3gdyjzSm","contest":"Mr. & Miss Teen Sherpa 2020 - S2","episode":"Mr.&Miss Teen Sherpa -S2","category":null,"contestant":{"voting_id":"02","name":"Pema Yanji sherpa"},"vote_count":1,"created_on":"2020-01-09T15:16:41.860058+05:45"},{"idx":"7Y3SzMxNQ838iXbBvk8aJh","contest":"NEPALBHASA STAR MUSIC VIDEO AWARDS-2019","episode":null,"category":"BEST VIDEO EDITOR","contestant":{"voting_id":"9A","name":"B.K. Jalmi"},"vote_count":1,"created_on":"2020-01-09T13:53:12.245183+05:45"},{"idx":"C98SwxsshsrzsNpQH7Va2k","contest":"NEPALBHASA STAR MUSIC VIDEO AWARDS-2019","episode":null,"category":"BEST Singer,FEMALE","contestant":{"voting_id":"17B","name":"Ratna Shova Maharjan"},"vote_count":1,"created_on":"2020-01-09T13:52:32.740082+05:45"},{"idx":"LgMmZTWrhhgJPqQyQ5SVQn","contest":"NEPALBHASA STAR MUSIC VIDEO AWARDS-2019","episode":null,"category":"BEST MODEL, FEMALE","contestant":{"voting_id":"13I","name":"Rajani Khadgi"},"vote_count":1,"created_on":"2020-01-09T13:50:23.352801+05:45"},{"idx":"kAa5ryaCzz5N7NVonFrTGN","contest":"Mr. & Miss Teen Sherpa 2020 - S2","episode":"Mr.&Miss Teen Sherpa -S2","category":null,"contestant":{"voting_id":"06","name":"Tenzin Pema Sherpa"},"vote_count":1,"created_on":"2020-01-09T13:37:00.798239+05:45"},{"idx":"MPYFdG4PCQRHz4ZA9FDpgi","contest":"Mr. & Miss Teen Sherpa 2020 - S2","episode":"Mr.&Miss Teen Sherpa -S2","category":null,"contestant":{"voting_id":"06","name":"Tenzin Pema Sherpa"},"vote_count":1,"created_on":"2020-01-09T13:36:05.812051+05:45"},{"idx":"NHceTNdmpY69oW3PsYMUmc","contest":"Mr. & Miss Teen Sherpa 2020 - S2","episode":"Mr.&Miss Teen Sherpa -S2","category":null,"contestant":{"voting_id":"06","name":"Tenzin Pema Sherpa"},"vote_count":1,"created_on":"2020-01-09T13:35:37.113099+05:45"},{"idx":"knKLbhvRzPKRCwFLEP9DHf","contest":"Mr. & Miss Teen Sherpa 2020 - S2","episode":"Mr.&Miss Teen Sherpa -S2","category":null,"contestant":{"voting_id":"06","name":"Tenzin Pema Sherpa"},"vote_count":1,"created_on":"2020-01-09T13:34:40.437565+05:45"},{"idx":"iiRMt7rYr3qMEKwonyZLVN","contest":"Mr. & Miss Teen Sherpa 2020 - S2","episode":"Mr.&Miss Teen Sherpa -S2","category":null,"contestant":{"voting_id":"06","name":"Tenzin Pema Sherpa"},"vote_count":1,"created_on":"2020-01-09T13:34:08.729829+05:45"},{"idx":"CbQeDxPAUAFw6ntQFk2knL","contest":"Mr. & Miss Teen Sherpa 2020 - S2","episode":"Mr.&Miss Teen Sherpa -S2","category":null,"contestant":{"voting_id":"01","name":"Lhamu Sherpa"},"vote_count":1,"created_on":"2020-01-09T13:16:27.969239+05:45"},{"idx":"KVWeYYYLWyExayUYgJhHeH","contest":"Mr. & Miss Teen Sherpa 2020 - S2","episode":"Mr.&Miss Teen Sherpa -S2","category":null,"contestant":{"voting_id":"01","name":"Lhamu Sherpa"},"vote_count":1,"created_on":"2020-01-09T13:16:06.972040+05:45"},{"idx":"DgekrgWm9Qd2j4LVp5LBmV","contest":"Model Superstar","episode":"Model Superstar","category":null,"contestant":{"voting_id":"09","name":"Sagar Ghimire"},"vote_count":1,"created_on":"2020-01-09T13:04:41.171582+05:45"},{"idx":"S6q4TuKHEsRSw9gpkr58AU","contest":"Mr. & Miss Teen Sherpa 2020 - S2","episode":"Mr.&Miss Teen Sherpa -S2","category":null,"contestant":{"voting_id":"24","name":"Mingma Tshering Sherpa"},"vote_count":1,"created_on":"2020-01-09T12:23:45.358211+05:45"},{"idx":"wmSvinKQ6KsEFnbbDDNctg","contest":"Mr. & Miss Teen Sherpa 2020 - S2","episode":"Mr.&Miss Teen Sherpa -S2","category":null,"contestant":{"voting_id":"24","name":"Mingma Tshering Sherpa"},"vote_count":1,"created_on":"2020-01-09T12:23:28.490109+05:45"},{"idx":"nybdqVivbnsMFmCsnsrEeh","contest":"Mr. & Miss Teen Sherpa 2020 - S2","episode":"Mr.&Miss Teen Sherpa -S2","category":null,"contestant":{"voting_id":"24","name":"Mingma Tshering Sherpa"},"vote_count":1,"created_on":"2020-01-09T12:23:12.417421+05:45"},{"idx":"FHQZS5wtFoinAYXmkBfCPV","contest":"Mr. & Miss Teen Sherpa 2020 - S2","episode":"Mr.&Miss Teen Sherpa -S2","category":null,"contestant":{"voting_id":"24","name":"Mingma Tshering Sherpa"},"vote_count":1,"created_on":"2020-01-09T12:22:59.044283+05:45"},{"idx":"fJ75jtBwi6HXmbXNSXASgE","contest":"Mr. & Miss Teen Sherpa 2020 - S2","episode":"Mr.&Miss Teen Sherpa -S2","category":null,"contestant":{"voting_id":"24","name":"Mingma Tshering Sherpa"},"vote_count":1,"created_on":"2020-01-09T12:22:42.739474+05:45"},{"idx":"ExppbmCJXUJi7HK6nR4fNh","contest":"Mr. & Miss Teen Sherpa 2020 - S2","episode":"Mr.&Miss Teen Sherpa -S2","category":null,"contestant":{"voting_id":"24","name":"Mingma Tshering Sherpa"},"vote_count":1,"created_on":"2020-01-09T12:22:29.022220+05:45"},{"idx":"Swxqu4aar9RzrknCne2bbi","contest":"Model Superstar","episode":"Model Superstar","category":null,"contestant":{"voting_id":"22","name":"Sunil Laudrey"},"vote_count":1,"created_on":"2020-01-09T11:07:44.539835+05:45"},{"idx":"cPY5fcgvkuPU3bPPzRk7nF","contest":"Model Superstar","episode":"Model Superstar","category":null,"contestant":{"voting_id":"16","name":"Anil Karki"},"vote_count":1,"created_on":"2020-01-09T10:44:33.930801+05:45"},{"idx":"kQMhsGxxLCQxdovZg2FQeb","contest":"Model Superstar","episode":"Model Superstar","category":null,"contestant":{"voting_id":"02","name":"Srijana Basnet"},"vote_count":1,"created_on":"2020-01-09T10:41:37.763046+05:45"},{"idx":"xn5N3qLD8uqGBoTS7EJ2n3","contest":"Model Superstar","episode":"Model Superstar","category":null,"contestant":{"voting_id":"15","name":"Manisha Pal"},"vote_count":1,"created_on":"2020-01-09T10:41:04.734800+05:45"},{"idx":"3Mnr6bENNGBeECwiZoCmiH","contest":"Mr. & Miss Teen Sherpa 2020 - S2","episode":"Mr.&Miss Teen Sherpa -S2","category":null,"contestant":{"voting_id":"24","name":"Mingma Tshering Sherpa"},"vote_count":1,"created_on":"2020-01-09T10:37:23.005282+05:45"},{"idx":"czkrPmYotANkdprir2sRbd","contest":"Mr. & Miss Teen Sherpa 2020 - S2","episode":"Mr.&Miss Teen Sherpa -S2","category":null,"contestant":{"voting_id":"24","name":"Mingma Tshering Sherpa"},"vote_count":1,"created_on":"2020-01-09T10:37:04.763318+05:45"},{"idx":"Gs3QvmD6MeWVHJUgk8GyXG","contest":"Mr. & Miss Teen Sherpa 2020 - S2","episode":"Mr.&Miss Teen Sherpa -S2","category":null,"contestant":{"voting_id":"24","name":"Mingma Tshering Sherpa"},"vote_count":1,"created_on":"2020-01-09T10:36:42.942910+05:45"},{"idx":"BNNTanURYWBhHwrQuRnYek","contest":"Mr. & Miss Teen Sherpa 2020 - S2","episode":"Mr.&Miss Teen Sherpa -S2","category":null,"contestant":{"voting_id":"24","name":"Mingma Tshering Sherpa"},"vote_count":1,"created_on":"2020-01-09T10:35:44.607211+05:45"},{"idx":"WwUN7YuStbtSWi7mNqVnaK","contest":"Mr. & Miss Teen Sherpa 2020 - S2","episode":"Mr.&Miss Teen Sherpa -S2","category":null,"contestant":{"voting_id":"24","name":"Mingma Tshering Sherpa"},"vote_count":1,"created_on":"2020-01-09T10:34:51.812083+05:45"},{"idx":"YgJTnop8HUyQMshg2E9qdX","contest":"Model Superstar","episode":"Model Superstar","category":null,"contestant":{"voting_id":"03","name":"Smriti Shah"},"vote_count":1,"created_on":"2020-01-09T10:34:27.719526+05:45"},{"idx":"2aKEh7keTACfxF7z2wkxCM","contest":"Model Superstar","episode":"Model Superstar","category":null,"contestant":{"voting_id":"03","name":"Smriti Shah"},"vote_count":1,"created_on":"2020-01-09T10:25:10.031999+05:45"},{"idx":"wTTFbK5capcnbA6RtqYRv5","contest":"Mr. & Miss Teen Sherpa 2020 - S2","episode":"Mr.&Miss Teen Sherpa -S2","category":null,"contestant":{"voting_id":"06","name":"Tenzin Pema Sherpa"},"vote_count":1,"created_on":"2020-01-09T10:15:31.656815+05:45"},{"idx":"rS7M7LZ79qTVG2zoFpPHhg","contest":"Mr. & Miss Teen Sherpa 2020 - S2","episode":"Mr.&Miss Teen Sherpa -S2","category":null,"contestant":{"voting_id":"06","name":"Tenzin Pema Sherpa"},"vote_count":1,"created_on":"2020-01-09T10:14:37.123732+05:45"},{"idx":"iNBGZdV3So4nk6So4VbnZT","contest":"Mr. & Miss Teen Sherpa 2020 - S2","episode":"Mr.&Miss Teen Sherpa -S2","category":null,"contestant":{"voting_id":"06","name":"Tenzin Pema Sherpa"},"vote_count":1,"created_on":"2020-01-09T10:14:22.640777+05:45"},{"idx":"W2PWTi94LLsdw8SPytpLf9","contest":"Mr. & Miss Teen Sherpa 2020 - S2","episode":"Mr.&Miss Teen Sherpa -S2","category":null,"contestant":{"voting_id":"06","name":"Tenzin Pema Sherpa"},"vote_count":1,"created_on":"2020-01-09T10:14:04.769429+05:45"},{"idx":"2FiiBSMoU5a7WERJGPVJFR","contest":"Mr. & Miss Teen Sherpa 2020 - S2","episode":"Mr.&Miss Teen Sherpa -S2","category":null,"contestant":{"voting_id":"06","name":"Tenzin Pema Sherpa"},"vote_count":1,"created_on":"2020-01-09T10:13:46.306625+05:45"},{"idx":"yR5nSCQrZYuWcMwHkR9Job","contest":"Mr. & Miss Teen Sherpa 2020 - S2","episode":"Mr.&Miss Teen Sherpa -S2","category":null,"contestant":{"voting_id":"06","name":"Tenzin Pema Sherpa"},"vote_count":1,"created_on":"2020-01-09T10:13:30.791576+05:45"}]}