{"total_pages":275,"total_records":13720,"next":"https://khalti.com/api/v2/vuservote/?page=138","previous":"https://khalti.com/api/v2/vuservote/?page=136","record_range":[6801,6850],"current_page":137,"records":[{"idx":"NResFts3cUVmh4BxffnEg7","contest":"Mr. & Miss Teen Sherpa 2020 - S2","episode":"Mr.&Miss Teen Sherpa -S2","category":null,"contestant":{"voting_id":"06","name":"Tenzin Pema Sherpa"},"vote_count":1,"created_on":"2020-01-09T10:13:14.355526+05:45"},{"idx":"F5DgvX634CdwKeekfWcv6d","contest":"Mr. & Miss Teen Sherpa 2020 - S2","episode":"Mr.&Miss Teen Sherpa -S2","category":null,"contestant":{"voting_id":"06","name":"Tenzin Pema Sherpa"},"vote_count":1,"created_on":"2020-01-09T10:12:55.919262+05:45"},{"idx":"BHhPpirCjXXcxWoFLpGRzf","contest":"Mr. & Miss Teen Sherpa 2020 - S2","episode":"Mr.&Miss Teen Sherpa -S2","category":null,"contestant":{"voting_id":"06","name":"Tenzin Pema Sherpa"},"vote_count":1,"created_on":"2020-01-09T10:12:39.361380+05:45"},{"idx":"DRUc7EAcKx565jsJBUBmUj","contest":"Mr. & Miss Teen Sherpa 2020 - S2","episode":"Mr.&Miss Teen Sherpa -S2","category":null,"contestant":{"voting_id":"06","name":"Tenzin Pema Sherpa"},"vote_count":1,"created_on":"2020-01-09T10:11:40.342690+05:45"},{"idx":"HTJBfQtgTSQZQASuQnAQRL","contest":"Mr. & Miss Teen Sherpa 2020 - S2","episode":"Mr.&Miss Teen Sherpa -S2","category":null,"contestant":{"voting_id":"06","name":"Tenzin Pema Sherpa"},"vote_count":1,"created_on":"2020-01-09T10:11:24.763735+05:45"},{"idx":"PaqwK7XMXAsdDRFMkMCLF7","contest":"Mr. & Miss Teen Sherpa 2020 - S2","episode":"Mr.&Miss Teen Sherpa -S2","category":null,"contestant":{"voting_id":"06","name":"Tenzin Pema Sherpa"},"vote_count":1,"created_on":"2020-01-09T10:11:11.789351+05:45"},{"idx":"hLdUT7UibVXA8UkyoYuCK2","contest":"Mr. & Miss Teen Sherpa 2020 - S2","episode":"Mr.&Miss Teen Sherpa -S2","category":null,"contestant":{"voting_id":"06","name":"Tenzin Pema Sherpa"},"vote_count":1,"created_on":"2020-01-09T10:10:56.678222+05:45"},{"idx":"xTGH6TJtTgL5X8QrcyvLZg","contest":"Mr. & Miss Teen Sherpa 2020 - S2","episode":"Mr.&Miss Teen Sherpa -S2","category":null,"contestant":{"voting_id":"06","name":"Tenzin Pema Sherpa"},"vote_count":1,"created_on":"2020-01-09T10:10:40.954490+05:45"},{"idx":"5cVghbYw4DmkGkpk5tCDGS","contest":"Mr. & Miss Teen Sherpa 2020 - S2","episode":"Mr.&Miss Teen Sherpa -S2","category":null,"contestant":{"voting_id":"06","name":"Tenzin Pema Sherpa"},"vote_count":1,"created_on":"2020-01-09T10:10:27.172722+05:45"},{"idx":"WBFTDqpuAqVpEgW4CwwhWN","contest":"Mr. & Miss Teen Sherpa 2020 - S2","episode":"Mr.&Miss Teen Sherpa -S2","category":null,"contestant":{"voting_id":"06","name":"Tenzin Pema Sherpa"},"vote_count":1,"created_on":"2020-01-09T10:10:09.608514+05:45"},{"idx":"Gr9SrnFCFBXcRSrFPq9Xri","contest":"Mr. & Miss Teen Sherpa 2020 - S2","episode":"Mr.&Miss Teen Sherpa -S2","category":null,"contestant":{"voting_id":"06","name":"Tenzin Pema Sherpa"},"vote_count":1,"created_on":"2020-01-09T10:09:53.789885+05:45"},{"idx":"J6ZnydGsws4LQU8cNeYH3M","contest":"Model Superstar","episode":"Model Superstar","category":null,"contestant":{"voting_id":"12","name":"Rabin Ghising"},"vote_count":1,"created_on":"2020-01-09T10:07:07.557437+05:45"},{"idx":"RHCqLygMbCyRh2xbJpzhFJ","contest":"Mr. & Miss Teen Sherpa 2020 - S2","episode":"Mr.&Miss Teen Sherpa -S2","category":null,"contestant":{"voting_id":"02","name":"Pema Yanji sherpa"},"vote_count":1,"created_on":"2020-01-09T10:02:18.288119+05:45"},{"idx":"gaHmUAfsR5sTJtSwvTMTD6","contest":"Mr. & Miss Teen Sherpa 2020 - S2","episode":"Mr.&Miss Teen Sherpa -S2","category":null,"contestant":{"voting_id":"02","name":"Pema Yanji sherpa"},"vote_count":1,"created_on":"2020-01-09T10:02:12.589026+05:45"},{"idx":"d4ZYHjGGuGszGH2NC9PnxE","contest":"Mr. & Miss Teen Sherpa 2020 - S2","episode":"Mr.&Miss Teen Sherpa -S2","category":null,"contestant":{"voting_id":"02","name":"Pema Yanji sherpa"},"vote_count":1,"created_on":"2020-01-09T10:02:06.239060+05:45"},{"idx":"rXSm67KqvAhFrXmQ2koCdS","contest":"Mr. & Miss Teen Sherpa 2020 - S2","episode":"Mr.&Miss Teen Sherpa -S2","category":null,"contestant":{"voting_id":"02","name":"Pema Yanji sherpa"},"vote_count":1,"created_on":"2020-01-09T10:02:01.290964+05:45"},{"idx":"LcnJ8TSHAbNVDX4zuCyCDb","contest":"Mr. & Miss Teen Sherpa 2020 - S2","episode":"Mr.&Miss Teen Sherpa -S2","category":null,"contestant":{"voting_id":"02","name":"Pema Yanji sherpa"},"vote_count":1,"created_on":"2020-01-09T10:01:55.819003+05:45"},{"idx":"KsKRKFEM3tBp52fuW6XWjk","contest":"Mr. & Miss Teen Sherpa 2020 - S2","episode":"Mr.&Miss Teen Sherpa -S2","category":null,"contestant":{"voting_id":"02","name":"Pema Yanji sherpa"},"vote_count":1,"created_on":"2020-01-09T09:44:02.843316+05:45"},{"idx":"xBpoyCnZ3CdQp6Tj6hFvhC","contest":"Mr. & Miss Teen Sherpa 2020 - S2","episode":"Mr.&Miss Teen Sherpa -S2","category":null,"contestant":{"voting_id":"06","name":"Tenzin Pema Sherpa"},"vote_count":1,"created_on":"2020-01-09T08:53:31.162234+05:45"},{"idx":"HQCfbYPaQunLkMJ5EEMB6V","contest":"Mr. & Miss Teen Sherpa 2020 - S2","episode":"Mr.&Miss Teen Sherpa -S2","category":null,"contestant":{"voting_id":"06","name":"Tenzin Pema Sherpa"},"vote_count":1,"created_on":"2020-01-09T08:53:05.642854+05:45"},{"idx":"eJiJUrny6x22qACZyf2fWi","contest":"Mr. & Miss Teen Sherpa 2020 - S2","episode":"Mr.&Miss Teen Sherpa -S2","category":null,"contestant":{"voting_id":"06","name":"Tenzin Pema Sherpa"},"vote_count":1,"created_on":"2020-01-09T08:52:23.247035+05:45"},{"idx":"cEAEV8ve4PwvbgyLnvkQb9","contest":"Mr. & Miss Teen Sherpa 2020 - S2","episode":"Mr.&Miss Teen Sherpa -S2","category":null,"contestant":{"voting_id":"27","name":"Pemba Chiring Sherpa"},"vote_count":1,"created_on":"2020-01-09T08:52:06.457420+05:45"},{"idx":"2bjvXaVP5XAw3YFoZ3bWX7","contest":"Mr. & Miss Teen Sherpa 2020 - S2","episode":"Mr.&Miss Teen Sherpa -S2","category":null,"contestant":{"voting_id":"06","name":"Tenzin Pema Sherpa"},"vote_count":1,"created_on":"2020-01-09T08:51:34.827317+05:45"},{"idx":"aScXgb5oXqw3pLfokMmRSj","contest":"Mr. & Miss Teen Sherpa 2020 - S2","episode":"Mr.&Miss Teen Sherpa -S2","category":null,"contestant":{"voting_id":"06","name":"Tenzin Pema Sherpa"},"vote_count":1,"created_on":"2020-01-09T08:51:11.549790+05:45"},{"idx":"V7wtLEh2no3bMaebpYaFHB","contest":"Mr. & Miss Teen Sherpa 2020 - S2","episode":"Mr.&Miss Teen Sherpa -S2","category":null,"contestant":{"voting_id":"03","name":"Mingma Sherpa"},"vote_count":1,"created_on":"2020-01-09T08:37:00.000259+05:45"},{"idx":"k3mXAFcm9CcCsi3DNH6u84","contest":"Mr. & Miss Teen Sherpa 2020 - S2","episode":"Mr.&Miss Teen Sherpa -S2","category":null,"contestant":{"voting_id":"06","name":"Tenzin Pema Sherpa"},"vote_count":1,"created_on":"2020-01-09T08:31:41.607396+05:45"},{"idx":"kcZ7L9cHwkigKefLnCNcdi","contest":"Mr. & Miss Teen Sherpa 2020 - S2","episode":"Mr.&Miss Teen Sherpa -S2","category":null,"contestant":{"voting_id":"06","name":"Tenzin Pema Sherpa"},"vote_count":1,"created_on":"2020-01-09T08:31:22.508243+05:45"},{"idx":"8dQjTeKmuzea42kLF6EcTU","contest":"Mr. & Miss Teen Sherpa 2020 - S2","episode":"Mr.&Miss Teen Sherpa -S2","category":null,"contestant":{"voting_id":"06","name":"Tenzin Pema Sherpa"},"vote_count":1,"created_on":"2020-01-09T08:30:57.055089+05:45"},{"idx":"Phh2QfFgwmhdqNZxHKjHUZ","contest":"Mr. & Miss Teen Sherpa 2020 - S2","episode":"Mr.&Miss Teen Sherpa -S2","category":null,"contestant":{"voting_id":"06","name":"Tenzin Pema Sherpa"},"vote_count":1,"created_on":"2020-01-09T08:30:39.313543+05:45"},{"idx":"SdLLmWnfLFtN5VjWenH77a","contest":"Mr. & Miss Teen Sherpa 2020 - S2","episode":"Mr.&Miss Teen Sherpa -S2","category":null,"contestant":{"voting_id":"06","name":"Tenzin Pema Sherpa"},"vote_count":1,"created_on":"2020-01-09T08:30:21.038652+05:45"},{"idx":"WP3ieCtCApoQTEfTcSYEkM","contest":"Mr. & Miss Teen Sherpa 2020 - S2","episode":"Mr.&Miss Teen Sherpa -S2","category":null,"contestant":{"voting_id":"06","name":"Tenzin Pema Sherpa"},"vote_count":1,"created_on":"2020-01-09T08:29:17.100531+05:45"},{"idx":"WBLRD8CyScFEiaimpqjBj2","contest":"Mr. & Miss Teen Sherpa 2020 - S2","episode":"Mr.&Miss Teen Sherpa -S2","category":null,"contestant":{"voting_id":"06","name":"Tenzin Pema Sherpa"},"vote_count":1,"created_on":"2020-01-09T08:28:09.578689+05:45"},{"idx":"MVQijtd78P5kBFwcpczs8F","contest":"Mr. & Miss Teen Sherpa 2020 - S2","episode":"Mr.&Miss Teen Sherpa -S2","category":null,"contestant":{"voting_id":"06","name":"Tenzin Pema Sherpa"},"vote_count":1,"created_on":"2020-01-09T08:27:38.266720+05:45"},{"idx":"4o5cwFi3LDPugvfxjbseDe","contest":"Model Superstar","episode":"Model Superstar","category":null,"contestant":{"voting_id":"12","name":"Rabin Ghising"},"vote_count":1,"created_on":"2020-01-09T08:26:38.406549+05:45"},{"idx":"jXktz7C9gyu4eeWH2XQDqG","contest":"Mr. & Miss Teen Sherpa 2020 - S2","episode":"Mr.&Miss Teen Sherpa -S2","category":null,"contestant":{"voting_id":"21","name":"Dawa Tsering Sherpa"},"vote_count":1,"created_on":"2020-01-09T07:31:18.239004+05:45"},{"idx":"AsnyS7A5p5NJFonF8LkS3i","contest":"Model Superstar","episode":"Model Superstar","category":null,"contestant":{"voting_id":"10","name":"Sameep Sharma"},"vote_count":1,"created_on":"2020-01-09T07:30:35.556789+05:45"},{"idx":"zNaRyg2ddQBoFKUfMqz6n2","contest":"Model Superstar","episode":"Model Superstar","category":null,"contestant":{"voting_id":"17","name":"Sajana Panta"},"vote_count":1,"created_on":"2020-01-09T05:52:23.851822+05:45"},{"idx":"ux3FpRKCM7LT7fiRviDCuS","contest":"Model Superstar","episode":"Model Superstar","category":null,"contestant":{"voting_id":"02","name":"Srijana Basnet"},"vote_count":1,"created_on":"2020-01-09T03:35:30.569137+05:45"},{"idx":"fkVGedYXj5gvV7wNMXNGU4","contest":"Model Superstar","episode":"Model Superstar","category":null,"contestant":{"voting_id":"02","name":"Srijana Basnet"},"vote_count":1,"created_on":"2020-01-09T03:34:35.055955+05:45"},{"idx":"Um7CnE2kqwtmR3r4dMTNSK","contest":"Mr. & Miss Teen Sherpa 2020 - S2","episode":"Mr.&Miss Teen Sherpa -S2","category":null,"contestant":{"voting_id":"24","name":"Mingma Tshering Sherpa"},"vote_count":1,"created_on":"2020-01-08T23:10:57.706708+05:45"},{"idx":"oEVEYptetVeJXhL3GiuB6e","contest":"Mr. & Miss Teen Sherpa 2020 - S2","episode":"Mr.&Miss Teen Sherpa -S2","category":null,"contestant":{"voting_id":"24","name":"Mingma Tshering Sherpa"},"vote_count":1,"created_on":"2020-01-08T23:10:42.400491+05:45"},{"idx":"pMwMFG9mKCnFbkxBBZtGAM","contest":"Model Superstar","episode":"Model Superstar","category":null,"contestant":{"voting_id":"12","name":"Rabin Ghising"},"vote_count":1,"created_on":"2020-01-08T22:53:24.035534+05:45"},{"idx":"wmFJaJa8xf8kTaQkbJmpc7","contest":"Mr. & Miss Teen Sherpa 2020 - S2","episode":"Mr.&Miss Teen Sherpa -S2","category":null,"contestant":{"voting_id":"24","name":"Mingma Tshering Sherpa"},"vote_count":1,"created_on":"2020-01-08T21:51:58.708358+05:45"},{"idx":"M4LeUeNnNgmry24uQ9teme","contest":"Mr. & Miss Teen Sherpa 2020 - S2","episode":"Mr.&Miss Teen Sherpa -S2","category":null,"contestant":{"voting_id":"24","name":"Mingma Tshering Sherpa"},"vote_count":1,"created_on":"2020-01-08T21:51:08.753429+05:45"},{"idx":"nZL2k4x3AbpwRMZix7uWYW","contest":"Mr. & Miss Teen Sherpa 2020 - S2","episode":"Mr.&Miss Teen Sherpa -S2","category":null,"contestant":{"voting_id":"24","name":"Mingma Tshering Sherpa"},"vote_count":1,"created_on":"2020-01-08T21:50:08.131433+05:45"},{"idx":"25qxCKNgZjZoSJQtcRViPR","contest":"Mr. & Miss Teen Sherpa 2020 - S2","episode":"Mr.&Miss Teen Sherpa -S2","category":null,"contestant":{"voting_id":"24","name":"Mingma Tshering Sherpa"},"vote_count":1,"created_on":"2020-01-08T21:49:56.965284+05:45"},{"idx":"wYAnJnh9JPjZwH9zRSWk5j","contest":"Mr. & Miss Teen Sherpa 2020 - S2","episode":"Mr.&Miss Teen Sherpa -S2","category":null,"contestant":{"voting_id":"24","name":"Mingma Tshering Sherpa"},"vote_count":1,"created_on":"2020-01-08T21:49:45.241543+05:45"},{"idx":"jcdXqgSQqUCgWzbwvoQg5P","contest":"Mr. & Miss Teen Sherpa 2020 - S2","episode":"Mr.&Miss Teen Sherpa -S2","category":null,"contestant":{"voting_id":"24","name":"Mingma Tshering Sherpa"},"vote_count":1,"created_on":"2020-01-08T21:49:33.862817+05:45"},{"idx":"oHZ9oSnWFvusk2JiMosMce","contest":"Mr. & Miss Teen Sherpa 2020 - S2","episode":"Mr.&Miss Teen Sherpa -S2","category":null,"contestant":{"voting_id":"24","name":"Mingma Tshering Sherpa"},"vote_count":1,"created_on":"2020-01-08T21:48:33.399486+05:45"},{"idx":"XtuUasXPpNWS7sjMLjUHve","contest":"Mr. & Miss Teen Sherpa 2020 - S2","episode":"Mr.&Miss Teen Sherpa -S2","category":null,"contestant":{"voting_id":"24","name":"Mingma Tshering Sherpa"},"vote_count":1,"created_on":"2020-01-08T21:48:23.583192+05:45"}]}