{"total_pages":275,"total_records":13717,"next":"https://khalti.com/api/v2/vuservote/?page=15","previous":"https://khalti.com/api/v2/vuservote/?page=13","record_range":[651,700],"current_page":14,"records":[{"idx":"kVTTLpf3Aa7sfCQzQ7p7JW","contest":"Locus 2020","episode":"Locus 2020","category":null,"contestant":{"voting_id":"92","name":"Project Bhakari Shopping Nepal"},"vote_count":1,"created_on":"2020-02-01T21:02:42.911208+05:45"},{"idx":"GLGSswLyVBqoQ7wczkbipD","contest":"Locus 2020","episode":"Locus 2020","category":null,"contestant":{"voting_id":"04","name":"Project IRB -Robo Arm"},"vote_count":1,"created_on":"2020-02-01T21:01:19.135429+05:45"},{"idx":"gh9R23izk7zSGK2D7ZtzUb","contest":"Model Superstar","episode":"Model Superstar Finale","category":null,"contestant":{"voting_id":"13","name":"Prashant Shah"},"vote_count":1,"created_on":"2020-02-01T20:58:49.506388+05:45"},{"idx":"UDkJYAC6qViauUEpm2seGS","contest":"Locus 2020","episode":"Locus 2020","category":null,"contestant":{"voting_id":"36","name":"Project CNC Router"},"vote_count":1,"created_on":"2020-02-01T20:58:12.134785+05:45"},{"idx":"VD2poRqD7sgvGUDFLJ45pa","contest":"Locus 2020","episode":"Locus 2020","category":null,"contestant":{"voting_id":"29","name":"Project Accident Alert System"},"vote_count":1,"created_on":"2020-02-01T20:57:34.338085+05:45"},{"idx":"Mq2C7RyjH8G7QFvB9RRkDg","contest":"Locus 2020","episode":"Locus 2020","category":null,"contestant":{"voting_id":"19","name":"Project CNC Drawing Machine"},"vote_count":1,"created_on":"2020-02-01T20:55:57.108627+05:45"},{"idx":"pvVd9MjAfWgRbB838d2cMP","contest":"Locus 2020","episode":"Locus 2020","category":null,"contestant":{"voting_id":"34","name":"Project Femicoders"},"vote_count":1,"created_on":"2020-02-01T20:54:58.743813+05:45"},{"idx":"zDvY2c9cvJLv27PmshtprY","contest":"Locus 2020","episode":"Locus 2020","category":null,"contestant":{"voting_id":"34","name":"Project Femicoders"},"vote_count":1,"created_on":"2020-02-01T20:54:33.272329+05:45"},{"idx":"jG4wvc6TFp43BR8n3DG6c8","contest":"Locus 2020","episode":"Locus 2020","category":null,"contestant":{"voting_id":"16","name":"Project IOT Based Smart Agriculture System"},"vote_count":1,"created_on":"2020-02-01T20:54:12.019167+05:45"},{"idx":"UbCHrqkoMokwdPhJmWssBM","contest":"Locus 2020","episode":"Locus 2020","category":null,"contestant":{"voting_id":"04","name":"Project IRB -Robo Arm"},"vote_count":1,"created_on":"2020-02-01T20:51:49.021642+05:45"},{"idx":"kzthMQmgU5tE5yksohRRQb","contest":"Locus 2020","episode":"Locus 2020","category":null,"contestant":{"voting_id":"36","name":"Project CNC Router"},"vote_count":1,"created_on":"2020-02-01T20:51:13.668896+05:45"},{"idx":"mQhastJm7AWAPXVcjEee27","contest":"Locus 2020","episode":"Locus 2020","category":null,"contestant":{"voting_id":"42","name":"Project P.I.M.P."},"vote_count":1,"created_on":"2020-02-01T20:50:50.088504+05:45"},{"idx":"3i7azifqTE5ucbtvXKu4Fn","contest":"Locus 2020","episode":"Locus 2020","category":null,"contestant":{"voting_id":"46","name":"Project Immune"},"vote_count":1,"created_on":"2020-02-01T20:50:49.849283+05:45"},{"idx":"LoS3zMWTvcaADmriXnMMM2","contest":"Locus 2020","episode":"Locus 2020","category":null,"contestant":{"voting_id":"46","name":"Project Immune"},"vote_count":5,"created_on":"2020-02-01T20:49:31.407172+05:45"},{"idx":"tKwG2to6XvcVejza88HbhS","contest":"Locus 2020","episode":"Locus 2020","category":null,"contestant":{"voting_id":"46","name":"Project Immune"},"vote_count":5,"created_on":"2020-02-01T20:49:25.675113+05:45"},{"idx":"2cW35wEJaQmwAzPRP2ecKP","contest":"Locus 2020","episode":"Locus 2020","category":null,"contestant":{"voting_id":"24","name":"Project Library App"},"vote_count":1,"created_on":"2020-02-01T20:48:20.666129+05:45"},{"idx":"VV482fkRtnEcc2LHpBR2cb","contest":"Locus 2020","episode":"Locus 2020","category":null,"contestant":{"voting_id":"60","name":"Project EMG Contolled Prosthetic Arm"},"vote_count":1,"created_on":"2020-02-01T20:47:58.470735+05:45"},{"idx":"ZM26n9pvbEYXv3GvXaCHpN","contest":"Locus 2020","episode":"Locus 2020","category":null,"contestant":{"voting_id":"32","name":"Project Health and Environment Checker"},"vote_count":1,"created_on":"2020-02-01T20:47:50.948183+05:45"},{"idx":"K7dLJdiFPp7tMhghuMcxqB","contest":"Locus 2020","episode":"Locus 2020","category":null,"contestant":{"voting_id":"61","name":"Project Crowd Analyzer"},"vote_count":1,"created_on":"2020-02-01T20:47:26.957398+05:45"},{"idx":"Q6bJPaAsP2fz5nhgGnHvRd","contest":"Locus 2020","episode":"Locus 2020","category":null,"contestant":{"voting_id":"12","name":"Project Green City"},"vote_count":1,"created_on":"2020-02-01T20:46:57.761986+05:45"},{"idx":"4Y3AC3UhXzqbD2PASdu7PG","contest":"Locus 2020","episode":"Locus 2020","category":null,"contestant":{"voting_id":"36","name":"Project CNC Router"},"vote_count":5,"created_on":"2020-02-01T20:46:54.922834+05:45"},{"idx":"qeGpHnabNEuoNCbidQ5rw4","contest":"Locus 2020","episode":"Locus 2020","category":null,"contestant":{"voting_id":"46","name":"Project Immune"},"vote_count":1,"created_on":"2020-02-01T20:46:41.215543+05:45"},{"idx":"pQt5JqVZxL8qBAG8A86dLA","contest":"Locus 2020","episode":"Locus 2020","category":null,"contestant":{"voting_id":"46","name":"Project Immune"},"vote_count":1,"created_on":"2020-02-01T20:46:00.268597+05:45"},{"idx":"M3vC3hrUfq3Kh27QCQTNFg","contest":"Locus 2020","episode":"Locus 2020","category":null,"contestant":{"voting_id":"92","name":"Project Bhakari Shopping Nepal"},"vote_count":1,"created_on":"2020-02-01T20:45:59.036331+05:45"},{"idx":"cKcQWzaWEQvTbDsGZZhyvk","contest":"Locus 2020","episode":"Locus 2020","category":null,"contestant":{"voting_id":"12","name":"Project Green City"},"vote_count":1,"created_on":"2020-02-01T20:44:46.763877+05:45"},{"idx":"GA4hMNrAaigtJsaQnenK2Y","contest":"Locus 2020","episode":"Locus 2020","category":null,"contestant":{"voting_id":"29","name":"Project Accident Alert System"},"vote_count":1,"created_on":"2020-02-01T20:42:03.608401+05:45"},{"idx":"SAHnMy3RWPUt7uXAyhvYTd","contest":"Locus 2020","episode":"Locus 2020","category":null,"contestant":{"voting_id":"12","name":"Project Green City"},"vote_count":1,"created_on":"2020-02-01T20:41:44.703210+05:45"},{"idx":"cFJ6vzs6VsArJpBgqNu8fQ","contest":"Locus 2020","episode":"Locus 2020","category":null,"contestant":{"voting_id":"14","name":"Project TeeForges"},"vote_count":1,"created_on":"2020-02-01T20:41:16.467617+05:45"},{"idx":"2GRpR7w8g86CU2epJJszMn","contest":"Locus 2020","episode":"Locus 2020","category":null,"contestant":{"voting_id":"29","name":"Project Accident Alert System"},"vote_count":1,"created_on":"2020-02-01T20:41:08.813012+05:45"},{"idx":"uoPPwZkrGLguqqcSrfCvVo","contest":"Locus 2020","episode":"Locus 2020","category":null,"contestant":{"voting_id":"04","name":"Project IRB -Robo Arm"},"vote_count":1,"created_on":"2020-02-01T20:40:06.945506+05:45"},{"idx":"nDrGPBQqt4ZX67Qg6FUXCU","contest":"Locus 2020","episode":"Locus 2020","category":null,"contestant":{"voting_id":"26","name":"Project Automatic Rechargaeble Stove"},"vote_count":1,"created_on":"2020-02-01T20:39:09.709498+05:45"},{"idx":"Nwpj5EMncz2Tkri87C9fF7","contest":"Locus 2020","episode":"Locus 2020","category":null,"contestant":{"voting_id":"36","name":"Project CNC Router"},"vote_count":1,"created_on":"2020-02-01T20:38:55.235669+05:45"},{"idx":"WCrEcSNkmfiufkm3SWQqPn","contest":"Locus 2020","episode":"Locus 2020","category":null,"contestant":{"voting_id":"12","name":"Project Green City"},"vote_count":1,"created_on":"2020-02-01T20:38:19.380380+05:45"},{"idx":"kNmaP8v7LWcKXFLPFDJ3DV","contest":"Locus 2020","episode":"Locus 2020","category":null,"contestant":{"voting_id":"04","name":"Project IRB -Robo Arm"},"vote_count":1,"created_on":"2020-02-01T20:37:38.574018+05:45"},{"idx":"uvysREFswnS2LujbVhf8EZ","contest":"Locus 2020","episode":"Locus 2020","category":null,"contestant":{"voting_id":"12","name":"Project Green City"},"vote_count":1,"created_on":"2020-02-01T20:36:41.570665+05:45"},{"idx":"LhPhd9CvGVjkdhbcXREtkg","contest":"Locus 2020","episode":"Locus 2020","category":null,"contestant":{"voting_id":"46","name":"Project Immune"},"vote_count":1,"created_on":"2020-02-01T20:36:09.974435+05:45"},{"idx":"QBFU2M5FyEo8i2A9fjvapd","contest":"Locus 2020","episode":"Locus 2020","category":null,"contestant":{"voting_id":"75","name":"Project Hand Gesture Control Car"},"vote_count":1,"created_on":"2020-02-01T20:35:03.888342+05:45"},{"idx":"vJpRe5YbgpXqtWMFgBBT5A","contest":"Locus 2020","episode":"Locus 2020","category":null,"contestant":{"voting_id":"09","name":"Project Solar Powered Water Surface Garbage Collecting Boat"},"vote_count":1,"created_on":"2020-02-01T20:34:36.019228+05:45"},{"idx":"f2rWZnnkqC59W6hNntQtE3","contest":"Locus 2020","episode":"Locus 2020","category":null,"contestant":{"voting_id":"54","name":"Project LCR Meter"},"vote_count":1,"created_on":"2020-02-01T20:34:03.158583+05:45"},{"idx":"4fc69QjAH7pPzJEuVR2Wr9","contest":"Locus 2020","episode":"Locus 2020","category":null,"contestant":{"voting_id":"16","name":"Project IOT Based Smart Agriculture System"},"vote_count":1,"created_on":"2020-02-01T20:32:55.509932+05:45"},{"idx":"YtNXapaxyHG3CCJzCypreK","contest":"Locus 2020","episode":"Locus 2020","category":null,"contestant":{"voting_id":"32","name":"Project Health and Environment Checker"},"vote_count":1,"created_on":"2020-02-01T20:32:40.545273+05:45"},{"idx":"WiP8Gc2kQHF88FTu6DbnSW","contest":"Locus 2020","episode":"Locus 2020","category":null,"contestant":{"voting_id":"32","name":"Project Health and Environment Checker"},"vote_count":1,"created_on":"2020-02-01T20:32:40.471187+05:45"},{"idx":"PMC7XgKjPa8GJSSV9oKAmi","contest":"Locus 2020","episode":"Locus 2020","category":null,"contestant":{"voting_id":"75","name":"Project Hand Gesture Control Car"},"vote_count":1,"created_on":"2020-02-01T20:32:17.945398+05:45"},{"idx":"mp2oFyoJntGK3j9TxYAstK","contest":"Locus 2020","episode":"Locus 2020","category":null,"contestant":{"voting_id":"16","name":"Project IOT Based Smart Agriculture System"},"vote_count":1,"created_on":"2020-02-01T20:31:23.575260+05:45"},{"idx":"hVcekgSXzykbkPsJm3Rzim","contest":"Locus 2020","episode":"Locus 2020","category":null,"contestant":{"voting_id":"42","name":"Project P.I.M.P."},"vote_count":1,"created_on":"2020-02-01T20:31:13.658654+05:45"},{"idx":"6BFYcV8DXyQ5H95jijUWYH","contest":"Locus 2020","episode":"Locus 2020","category":null,"contestant":{"voting_id":"12","name":"Project Green City"},"vote_count":1,"created_on":"2020-02-01T20:30:22.701685+05:45"},{"idx":"cN3J2WKCJ2LrujuEs8aG5K","contest":"Locus 2020","episode":"Locus 2020","category":null,"contestant":{"voting_id":"57","name":"Project Classroom Attendance using facial recognition"},"vote_count":1,"created_on":"2020-02-01T20:30:07.396100+05:45"},{"idx":"qLCinWDwRieZGUsJMc4DKE","contest":"Locus 2020","episode":"Locus 2020","category":null,"contestant":{"voting_id":"32","name":"Project Health and Environment Checker"},"vote_count":1,"created_on":"2020-02-01T20:27:32.738920+05:45"},{"idx":"vs8udBEdawckEYvc6cS58A","contest":"Locus 2020","episode":"Locus 2020","category":null,"contestant":{"voting_id":"42","name":"Project P.I.M.P."},"vote_count":1,"created_on":"2020-02-01T20:26:34.417775+05:45"},{"idx":"3XKH69QUMz5ivRohkSYAWR","contest":"Locus 2020","episode":"Locus 2020","category":null,"contestant":{"voting_id":"29","name":"Project Accident Alert System"},"vote_count":1,"created_on":"2020-02-01T20:26:20.555746+05:45"}]}