{"total_pages":275,"total_records":13720,"next":"https://khalti.com/api/v2/vuservote/?page=141","previous":"https://khalti.com/api/v2/vuservote/?page=139","record_range":[6951,7000],"current_page":140,"records":[{"idx":"YDcNrtJQvEkcUFWNnjq8FX","contest":"NEPALBHASA STAR MUSIC VIDEO AWARDS-2019","episode":null,"category":"THE RISING STAR SINGER","contestant":{"voting_id":"21E","name":"Purna Man Maharjan"},"vote_count":1,"created_on":"2020-01-08T16:14:27.217210+05:45"},{"idx":"aV6jXdtXiesnNNWjbqXZu8","contest":"Mr. & Miss Teen Sherpa 2020 - S2","episode":"Mr.&Miss Teen Sherpa -S2","category":null,"contestant":{"voting_id":"01","name":"Lhamu Sherpa"},"vote_count":1,"created_on":"2020-01-08T16:13:34.469196+05:45"},{"idx":"Jwk3Pm3XBQAxryvf5zXzdS","contest":"Mr. & Miss Teen Sherpa 2020 - S2","episode":"Mr.&Miss Teen Sherpa -S2","category":null,"contestant":{"voting_id":"01","name":"Lhamu Sherpa"},"vote_count":1,"created_on":"2020-01-08T16:06:24.218245+05:45"},{"idx":"UpejJyv9tBZKBjxZP3ynhX","contest":"Model Superstar","episode":"Model Superstar","category":null,"contestant":{"voting_id":"01","name":"Sajina Subba"},"vote_count":1,"created_on":"2020-01-08T14:47:52.255991+05:45"},{"idx":"ZXhd4jU7MoH9tD3jEX8T7Y","contest":"Model Superstar","episode":"Model Superstar","category":null,"contestant":{"voting_id":"29","name":"Ramesh Kapali"},"vote_count":1,"created_on":"2020-01-08T14:47:27.211138+05:45"},{"idx":"EcJf4x7pNLZbEzG5qsj6wb","contest":"Model Superstar","episode":"Model Superstar","category":null,"contestant":{"voting_id":"16","name":"Anil Karki"},"vote_count":1,"created_on":"2020-01-08T14:32:14.245916+05:45"},{"idx":"ebNtf2Z4W7ZtkzQJkEBFWo","contest":"NEPALBHASA STAR MUSIC VIDEO AWARDS-2019","episode":null,"category":"THE RISING STAR SINGER","contestant":{"voting_id":"21A","name":"Macha Raja Maharjan"},"vote_count":1,"created_on":"2020-01-08T14:23:12.184944+05:45"},{"idx":"DCtzQ7jt22bYbTKpf95S6U","contest":"Model Superstar","episode":"Model Superstar","category":null,"contestant":{"voting_id":"31","name":"Aakriti Subedi"},"vote_count":1,"created_on":"2020-01-08T13:58:44.826817+05:45"},{"idx":"84nW8vtLghkUqZRrUZSDhF","contest":"Model Superstar","episode":"Model Superstar","category":null,"contestant":{"voting_id":"31","name":"Aakriti Subedi"},"vote_count":1,"created_on":"2020-01-08T13:57:56.109305+05:45"},{"idx":"Kfar7Bx8ej95gaahxkury3","contest":"Model Superstar","episode":"Model Superstar","category":null,"contestant":{"voting_id":"03","name":"Smriti Shah"},"vote_count":1,"created_on":"2020-01-08T13:52:32.477749+05:45"},{"idx":"qg9JjcDHmQgBhK5sXVmn9o","contest":"Mr. & Miss Teen Sherpa 2020 - S2","episode":"Mr.&Miss Teen Sherpa -S2","category":null,"contestant":{"voting_id":"05","name":"Nima Lhamu sherpa"},"vote_count":1,"created_on":"2020-01-08T12:46:05.392382+05:45"},{"idx":"BUjnPrqh4tf7e7iTpUQgsD","contest":"Model Superstar","episode":"Model Superstar","category":null,"contestant":{"voting_id":"03","name":"Smriti Shah"},"vote_count":1,"created_on":"2020-01-08T12:09:30.923614+05:45"},{"idx":"ugwizTzB9n4JkW9gMyv7L8","contest":"Mr. & Miss Teen Sherpa 2020 - S2","episode":"Mr.&Miss Teen Sherpa -S2","category":null,"contestant":{"voting_id":"08","name":"Angdali Sherpa"},"vote_count":1,"created_on":"2020-01-08T12:06:46.810377+05:45"},{"idx":"dyxYiPBS6SfaaUsRJqyF5G","contest":"Mr. & Miss Teen Sherpa 2020 - S2","episode":"Mr.&Miss Teen Sherpa -S2","category":null,"contestant":{"voting_id":"08","name":"Angdali Sherpa"},"vote_count":1,"created_on":"2020-01-08T12:05:51.752826+05:45"},{"idx":"GRDpZbDiwL7iAHQttCqBan","contest":"Mr. & Miss Teen Sherpa 2020 - S2","episode":"Mr.&Miss Teen Sherpa -S2","category":null,"contestant":{"voting_id":"08","name":"Angdali Sherpa"},"vote_count":1,"created_on":"2020-01-08T12:05:36.133925+05:45"},{"idx":"ydKZheNtdYAusU9vEGdiRM","contest":"Mr. & Miss Teen Sherpa 2020 - S2","episode":"Mr.&Miss Teen Sherpa -S2","category":null,"contestant":{"voting_id":"08","name":"Angdali Sherpa"},"vote_count":1,"created_on":"2020-01-08T12:05:09.334556+05:45"},{"idx":"SPFRvMcVvGRivnNmkjE9L4","contest":"Mr. & Miss Teen Sherpa 2020 - S2","episode":"Mr.&Miss Teen Sherpa -S2","category":null,"contestant":{"voting_id":"08","name":"Angdali Sherpa"},"vote_count":1,"created_on":"2020-01-08T12:04:51.452268+05:45"},{"idx":"mtHPZRi3HKVbUqffR92YxX","contest":"Mr. & Miss Teen Sherpa 2020 - S2","episode":"Mr.&Miss Teen Sherpa -S2","category":null,"contestant":{"voting_id":"08","name":"Angdali Sherpa"},"vote_count":1,"created_on":"2020-01-08T12:04:24.051223+05:45"},{"idx":"AAVRgYeD4HhWjHe3Me4nH7","contest":"Mr. & Miss Teen Sherpa 2020 - S2","episode":"Mr.&Miss Teen Sherpa -S2","category":null,"contestant":{"voting_id":"08","name":"Angdali Sherpa"},"vote_count":1,"created_on":"2020-01-08T12:03:25.936548+05:45"},{"idx":"X525MuekSEhVWidiXMuyCM","contest":"Mr. & Miss Teen Sherpa 2020 - S2","episode":"Mr.&Miss Teen Sherpa -S2","category":null,"contestant":{"voting_id":"23","name":"Chhiri Sherpa"},"vote_count":1,"created_on":"2020-01-08T10:49:38.885234+05:45"},{"idx":"pNbmTECi6dqcUXvo9RAMB2","contest":"Mr. & Miss Teen Sherpa 2020 - S2","episode":"Mr.&Miss Teen Sherpa -S2","category":null,"contestant":{"voting_id":"02","name":"Pema Yanji sherpa"},"vote_count":1,"created_on":"2020-01-08T10:13:34.829390+05:45"},{"idx":"FyAe6Z3nbf7rWvzatQV4Xi","contest":"NEPALBHASA STAR MUSIC VIDEO AWARDS-2019","episode":null,"category":"BEST DIRECTOR","contestant":{"voting_id":"20A","name":"Bhuwan Shrestha"},"vote_count":1,"created_on":"2020-01-08T10:13:12.460653+05:45"},{"idx":"8zkTYS5GQsyGdh7yqj4wCN","contest":"Model Superstar","episode":"Model Superstar","category":null,"contestant":{"voting_id":"12","name":"Rabin Ghising"},"vote_count":1,"created_on":"2020-01-08T10:00:41.193330+05:45"},{"idx":"ecMsJaH4AYfyUd6PHNFAJR","contest":"Model Superstar","episode":"Model Superstar","category":null,"contestant":{"voting_id":"12","name":"Rabin Ghising"},"vote_count":1,"created_on":"2020-01-08T10:00:16.458333+05:45"},{"idx":"y3Tmm8Ee8xsLH4QUksq6WN","contest":"Mr. & Miss Teen Sherpa 2020 - S2","episode":"Mr.&Miss Teen Sherpa -S2","category":null,"contestant":{"voting_id":"02","name":"Pema Yanji sherpa"},"vote_count":1,"created_on":"2020-01-08T09:59:32.409416+05:45"},{"idx":"C94hrUEvQ9bm8LVqyEbG7d","contest":"NEPALBHASA STAR MUSIC VIDEO AWARDS-2019","episode":null,"category":"BEST MUSIC DIRECTOR","contestant":{"voting_id":"6C","name":"Purna Man Maharjan "},"vote_count":50,"created_on":"2020-01-08T09:31:16.877873+05:45"},{"idx":"QFJCNiZNv5vHfXeSwdXhdh","contest":"NEPALBHASA STAR MUSIC VIDEO AWARDS-2019","episode":null,"category":"BEST MUSIC DIRECTOR","contestant":{"voting_id":"6C","name":"Purna Man Maharjan "},"vote_count":100,"created_on":"2020-01-08T09:30:39.476446+05:45"},{"idx":"XMk3uyRpJiumCVXj6M4ZeV","contest":"NEPALBHASA STAR MUSIC VIDEO AWARDS-2019","episode":null,"category":"THE RISING STAR SINGER","contestant":{"voting_id":"21E","name":"Purna Man Maharjan"},"vote_count":50,"created_on":"2020-01-08T09:29:55.183738+05:45"},{"idx":"wVxPcXbwy8m6HVGnQJh3Gc","contest":"NEPALBHASA STAR MUSIC VIDEO AWARDS-2019","episode":null,"category":"THE RISING STAR SINGER","contestant":{"voting_id":"21E","name":"Purna Man Maharjan"},"vote_count":100,"created_on":"2020-01-08T09:29:28.097472+05:45"},{"idx":"33KpPeWffbGG7LjHGpirYU","contest":"Model Superstar","episode":"Model Superstar","category":null,"contestant":{"voting_id":"12","name":"Rabin Ghising"},"vote_count":1,"created_on":"2020-01-08T08:48:34.233705+05:45"},{"idx":"SjAdwuip87paMMbefNk3yb","contest":"Model Superstar","episode":"Model Superstar","category":null,"contestant":{"voting_id":"17","name":"Sajana Panta"},"vote_count":5,"created_on":"2020-01-08T00:56:47.772627+05:45"},{"idx":"tuF6EDBdbJKVAcyppy4hJT","contest":"Model Superstar","episode":"Model Superstar","category":null,"contestant":{"voting_id":"17","name":"Sajana Panta"},"vote_count":1,"created_on":"2020-01-08T00:52:44.056943+05:45"},{"idx":"vDgvrCnyxVxi8Jq5RjWUXS","contest":"Mr. & Miss Teen Sherpa 2020 - S2","episode":"Mr.&Miss Teen Sherpa -S2","category":null,"contestant":{"voting_id":"06","name":"Tenzin Pema Sherpa"},"vote_count":1,"created_on":"2020-01-07T22:59:05.304345+05:45"},{"idx":"WYcm68qwi3nUtg3Fs89P3h","contest":"Mr. & Miss Teen Sherpa 2020 - S2","episode":"Mr.&Miss Teen Sherpa -S2","category":null,"contestant":{"voting_id":"06","name":"Tenzin Pema Sherpa"},"vote_count":1,"created_on":"2020-01-07T22:58:41.022542+05:45"},{"idx":"rNLc2UvfjPiHpSnGzv7wVo","contest":"Mr. & Miss Teen Sherpa 2020 - S2","episode":"Mr.&Miss Teen Sherpa -S2","category":null,"contestant":{"voting_id":"06","name":"Tenzin Pema Sherpa"},"vote_count":1,"created_on":"2020-01-07T22:52:50.204345+05:45"},{"idx":"WjJK6UyJG6MdHqb9sDqwGe","contest":"Mr. & Miss Teen Sherpa 2020 - S2","episode":"Mr.&Miss Teen Sherpa -S2","category":null,"contestant":{"voting_id":"06","name":"Tenzin Pema Sherpa"},"vote_count":1,"created_on":"2020-01-07T22:52:15.576467+05:45"},{"idx":"e9tf7bNLh6kEYNgemNZBvR","contest":"Mr. & Miss Teen Sherpa 2020 - S2","episode":"Mr.&Miss Teen Sherpa -S2","category":null,"contestant":{"voting_id":"06","name":"Tenzin Pema Sherpa"},"vote_count":1,"created_on":"2020-01-07T22:51:50.869806+05:45"},{"idx":"CZtDFq4Tcbemjj74ujodve","contest":"NEPALBHASA STAR MUSIC VIDEO AWARDS-2019","episode":null,"category":"BEST MODEL, FEMALE","contestant":{"voting_id":"13B","name":"Ashishma Nakarmi"},"vote_count":1,"created_on":"2020-01-07T22:51:28.307448+05:45"},{"idx":"9TT5TFFgbYpSkUrEufcEt5","contest":"Mr. & Miss Teen Sherpa 2020 - S2","episode":"Mr.&Miss Teen Sherpa -S2","category":null,"contestant":{"voting_id":"06","name":"Tenzin Pema Sherpa"},"vote_count":1,"created_on":"2020-01-07T22:50:48.703111+05:45"},{"idx":"ZowAjavEXpZhjyvxKJjAUJ","contest":"Mr. & Miss Teen Sherpa 2020 - S2","episode":"Mr.&Miss Teen Sherpa -S2","category":null,"contestant":{"voting_id":"06","name":"Tenzin Pema Sherpa"},"vote_count":1,"created_on":"2020-01-07T22:50:30.632875+05:45"},{"idx":"FMZAQPbPfuxDSRgmunCoPR","contest":"Mr. & Miss Teen Sherpa 2020 - S2","episode":"Mr.&Miss Teen Sherpa -S2","category":null,"contestant":{"voting_id":"06","name":"Tenzin Pema Sherpa"},"vote_count":1,"created_on":"2020-01-07T22:50:12.069844+05:45"},{"idx":"8vGUmioxJ4vCWKZQhAvBC8","contest":"Model Superstar","episode":"Model Superstar","category":null,"contestant":{"voting_id":"02","name":"Srijana Basnet"},"vote_count":1,"created_on":"2020-01-07T22:50:00.735791+05:45"},{"idx":"mZN3oDv2hibQXykGRVniiW","contest":"Mr. & Miss Teen Sherpa 2020 - S2","episode":"Mr.&Miss Teen Sherpa -S2","category":null,"contestant":{"voting_id":"06","name":"Tenzin Pema Sherpa"},"vote_count":1,"created_on":"2020-01-07T22:49:14.903613+05:45"},{"idx":"5WbrcMF6fV8D9ajV48uvoi","contest":"Mr. & Miss Teen Sherpa 2020 - S2","episode":"Mr.&Miss Teen Sherpa -S2","category":null,"contestant":{"voting_id":"06","name":"Tenzin Pema Sherpa"},"vote_count":1,"created_on":"2020-01-07T22:48:51.140680+05:45"},{"idx":"GvXunaWYyVYvWhczaNEZBf","contest":"Mr. & Miss Teen Sherpa 2020 - S2","episode":"Mr.&Miss Teen Sherpa -S2","category":null,"contestant":{"voting_id":"06","name":"Tenzin Pema Sherpa"},"vote_count":1,"created_on":"2020-01-07T22:45:50.635543+05:45"},{"idx":"QufXLa2hZV4vtioKYHaaX2","contest":"Mr. & Miss Teen Sherpa 2020 - S2","episode":"Mr.&Miss Teen Sherpa -S2","category":null,"contestant":{"voting_id":"06","name":"Tenzin Pema Sherpa"},"vote_count":1,"created_on":"2020-01-07T22:45:24.122244+05:45"},{"idx":"9he84wP4G3iym383wQjkFV","contest":"Model Superstar","episode":"Model Superstar","category":null,"contestant":{"voting_id":"01","name":"Sajina Subba"},"vote_count":1,"created_on":"2020-01-07T22:07:02.649819+05:45"},{"idx":"qptFPhNvaaWHrWsgb8EaJf","contest":"Mr. & Miss Teen Sherpa 2020 - S2","episode":"Mr.&Miss Teen Sherpa -S2","category":null,"contestant":{"voting_id":"03","name":"Mingma Sherpa"},"vote_count":1,"created_on":"2020-01-07T22:04:27.653801+05:45"},{"idx":"6rH86GbKeyyLz6qjmtJwsM","contest":"Model Superstar","episode":"Model Superstar","category":null,"contestant":{"voting_id":"04","name":"Sabita Maharjan"},"vote_count":1,"created_on":"2020-01-07T21:49:36.327574+05:45"},{"idx":"GUunqzTejSqDgqN9HkxRLB","contest":"Mr. & Miss Teen Sherpa 2020 - S2","episode":"Mr.&Miss Teen Sherpa -S2","category":null,"contestant":{"voting_id":"02","name":"Pema Yanji sherpa"},"vote_count":1,"created_on":"2020-01-07T21:48:38.773668+05:45"}]}