{"total_pages":275,"total_records":13720,"next":"https://khalti.com/api/v2/vuservote/?page=142","previous":"https://khalti.com/api/v2/vuservote/?page=140","record_range":[7001,7050],"current_page":141,"records":[{"idx":"eR3taFqS93Zw6JPo7SyZJd","contest":"Mr. & Miss Teen Sherpa 2020 - S2","episode":"Mr.&Miss Teen Sherpa -S2","category":null,"contestant":{"voting_id":"06","name":"Tenzin Pema Sherpa"},"vote_count":1,"created_on":"2020-01-07T21:14:12.559750+05:45"},{"idx":"5ts3TvrNsgLgz6ZSd8W2rD","contest":"Mr. & Miss Teen Sherpa 2020 - S2","episode":"Mr.&Miss Teen Sherpa -S2","category":null,"contestant":{"voting_id":"06","name":"Tenzin Pema Sherpa"},"vote_count":1,"created_on":"2020-01-07T21:13:59.622486+05:45"},{"idx":"ApuQDR29sazjtxsvGngw8j","contest":"Mr. & Miss Teen Sherpa 2020 - S2","episode":"Mr.&Miss Teen Sherpa -S2","category":null,"contestant":{"voting_id":"06","name":"Tenzin Pema Sherpa"},"vote_count":1,"created_on":"2020-01-07T21:13:06.404304+05:45"},{"idx":"QgCRTpf5WRj69pdWj8Xd47","contest":"Mr. & Miss Teen Sherpa 2020 - S2","episode":"Mr.&Miss Teen Sherpa -S2","category":null,"contestant":{"voting_id":"06","name":"Tenzin Pema Sherpa"},"vote_count":1,"created_on":"2020-01-07T21:04:35.824964+05:45"},{"idx":"LtTfbR6LRefGz5TdPveNcV","contest":"Mr. & Miss Teen Sherpa 2020 - S2","episode":"Mr.&Miss Teen Sherpa -S2","category":null,"contestant":{"voting_id":"06","name":"Tenzin Pema Sherpa"},"vote_count":1,"created_on":"2020-01-07T21:04:00.237753+05:45"},{"idx":"3b88sAzWXvPHAyYJqpEmkS","contest":"Mr. & Miss Teen Sherpa 2020 - S2","episode":"Mr.&Miss Teen Sherpa -S2","category":null,"contestant":{"voting_id":"06","name":"Tenzin Pema Sherpa"},"vote_count":1,"created_on":"2020-01-07T21:03:04.026089+05:45"},{"idx":"gkk4r72eHGQkmQh9ihZSCb","contest":"Mr. & Miss Teen Sherpa 2020 - S2","episode":"Mr.&Miss Teen Sherpa -S2","category":null,"contestant":{"voting_id":"06","name":"Tenzin Pema Sherpa"},"vote_count":1,"created_on":"2020-01-07T21:02:27.466476+05:45"},{"idx":"KRoZbHawaMnBRBMs5NmVhC","contest":"Mr. & Miss Teen Sherpa 2020 - S2","episode":"Mr.&Miss Teen Sherpa -S2","category":null,"contestant":{"voting_id":"06","name":"Tenzin Pema Sherpa"},"vote_count":1,"created_on":"2020-01-07T21:00:50.329230+05:45"},{"idx":"UCMWApTaYkdz2XCgZTqnzd","contest":"Model Superstar","episode":"Model Superstar","category":null,"contestant":{"voting_id":"02","name":"Srijana Basnet"},"vote_count":1,"created_on":"2020-01-07T21:00:32.057660+05:45"},{"idx":"HJSwSVP4PM4FMXaXNojsPZ","contest":"NEPALBHASA STAR MUSIC VIDEO AWARDS-2019","episode":null,"category":"BEST DANCE DIRECTOR","contestant":{"voting_id":"19B","name":"Srijana Maharjan"},"vote_count":1,"created_on":"2020-01-07T20:53:42.109367+05:45"},{"idx":"bZCjbCkpC7SLrGhzSabkAh","contest":"Model Superstar","episode":"Model Superstar","category":null,"contestant":{"voting_id":"02","name":"Srijana Basnet"},"vote_count":1,"created_on":"2020-01-07T20:46:08.136703+05:45"},{"idx":"ZrsSho5srLThkLjG5r69dm","contest":"Model Superstar","episode":"Model Superstar","category":null,"contestant":{"voting_id":"05","name":"Asmita Thapa Magar"},"vote_count":1,"created_on":"2020-01-07T20:43:45.993708+05:45"},{"idx":"L4m3GfGosreoXd4Bhxjzx5","contest":"NEPALBHASA STAR MUSIC VIDEO AWARDS-2019","episode":null,"category":"THE RISING STAR SINGER","contestant":{"voting_id":"21E","name":"Purna Man Maharjan"},"vote_count":1,"created_on":"2020-01-07T20:43:16.810223+05:45"},{"idx":"JG5EvTHDqJx8x32HEHQv5f","contest":"Mr. & Miss Teen Sherpa 2020 - S2","episode":"Mr.&Miss Teen Sherpa -S2","category":null,"contestant":{"voting_id":"24","name":"Mingma Tshering Sherpa"},"vote_count":1,"created_on":"2020-01-07T20:43:11.091221+05:45"},{"idx":"mi8sgkpUVysHgyD93Hgktb","contest":"Model Superstar","episode":"Model Superstar","category":null,"contestant":{"voting_id":"03","name":"Smriti Shah"},"vote_count":1,"created_on":"2020-01-07T20:43:07.458040+05:45"},{"idx":"xibQWo7Bb2WpgS5xH4PEE2","contest":"Mr. & Miss Teen Sherpa 2020 - S2","episode":"Mr.&Miss Teen Sherpa -S2","category":null,"contestant":{"voting_id":"02","name":"Pema Yanji sherpa"},"vote_count":1,"created_on":"2020-01-07T20:41:46.078057+05:45"},{"idx":"QuGCGshcGE8NqXS2iJoYQS","contest":"Mr. & Miss Teen Sherpa 2020 - S2","episode":"Mr.&Miss Teen Sherpa -S2","category":null,"contestant":{"voting_id":"02","name":"Pema Yanji sherpa"},"vote_count":1,"created_on":"2020-01-07T20:41:39.869062+05:45"},{"idx":"dYkbtKKqjwy2ruHMFMu8qJ","contest":"Mr. & Miss Teen Sherpa 2020 - S2","episode":"Mr.&Miss Teen Sherpa -S2","category":null,"contestant":{"voting_id":"02","name":"Pema Yanji sherpa"},"vote_count":1,"created_on":"2020-01-07T20:41:34.905142+05:45"},{"idx":"LLKwKK5ekWcX58uMu8dPDU","contest":"Mr. & Miss Teen Sherpa 2020 - S2","episode":"Mr.&Miss Teen Sherpa -S2","category":null,"contestant":{"voting_id":"02","name":"Pema Yanji sherpa"},"vote_count":1,"created_on":"2020-01-07T20:41:29.869107+05:45"},{"idx":"N9kQiVpFCuXVE7dd7UPBBg","contest":"Mr. & Miss Teen Sherpa 2020 - S2","episode":"Mr.&Miss Teen Sherpa -S2","category":null,"contestant":{"voting_id":"02","name":"Pema Yanji sherpa"},"vote_count":1,"created_on":"2020-01-07T20:41:24.813576+05:45"},{"idx":"bNNWZcZ8VtiFam8oV9c7pm","contest":"Mr. & Miss Teen Sherpa 2020 - S2","episode":"Mr.&Miss Teen Sherpa -S2","category":null,"contestant":{"voting_id":"02","name":"Pema Yanji sherpa"},"vote_count":1,"created_on":"2020-01-07T20:41:20.218803+05:45"},{"idx":"Gi6TXoMhSeFQv87GbVK6Gm","contest":"Mr. & Miss Teen Sherpa 2020 - S2","episode":"Mr.&Miss Teen Sherpa -S2","category":null,"contestant":{"voting_id":"02","name":"Pema Yanji sherpa"},"vote_count":1,"created_on":"2020-01-07T20:41:15.098673+05:45"},{"idx":"MjqK6Xyig4y32yZdTLTGZ5","contest":"Mr. & Miss Teen Sherpa 2020 - S2","episode":"Mr.&Miss Teen Sherpa -S2","category":null,"contestant":{"voting_id":"02","name":"Pema Yanji sherpa"},"vote_count":1,"created_on":"2020-01-07T20:41:09.368356+05:45"},{"idx":"TFoo8LpobvoSPUfT9kMx9M","contest":"Mr. & Miss Teen Sherpa 2020 - S2","episode":"Mr.&Miss Teen Sherpa -S2","category":null,"contestant":{"voting_id":"02","name":"Pema Yanji sherpa"},"vote_count":1,"created_on":"2020-01-07T20:41:04.348736+05:45"},{"idx":"9cwtztC3HaMKWHEQhoDBn4","contest":"Mr. & Miss Teen Sherpa 2020 - S2","episode":"Mr.&Miss Teen Sherpa -S2","category":null,"contestant":{"voting_id":"02","name":"Pema Yanji sherpa"},"vote_count":1,"created_on":"2020-01-07T20:40:56.422028+05:45"},{"idx":"zNHapDKeBUGdSN7BGUiDxN","contest":"Model Superstar","episode":"Model Superstar","category":null,"contestant":{"voting_id":"31","name":"Aakriti Subedi"},"vote_count":1,"created_on":"2020-01-07T20:40:08.273420+05:45"},{"idx":"yYGqE8rxJ578sGc6kCQStG","contest":"Mr. & Miss Teen Sherpa 2020 - S2","episode":"Mr.&Miss Teen Sherpa -S2","category":null,"contestant":{"voting_id":"02","name":"Pema Yanji sherpa"},"vote_count":1,"created_on":"2020-01-07T18:38:24.336723+05:45"},{"idx":"TwaEjDmBoqcu5xJpbig9fJ","contest":"Mr. & Miss Teen Sherpa 2020 - S2","episode":"Mr.&Miss Teen Sherpa -S2","category":null,"contestant":{"voting_id":"02","name":"Pema Yanji sherpa"},"vote_count":1,"created_on":"2020-01-07T18:37:46.826641+05:45"},{"idx":"dtxfUYsVLeh8bCcPHiRa8G","contest":"Mr. & Miss Teen Sherpa 2020 - S2","episode":"Mr.&Miss Teen Sherpa -S2","category":null,"contestant":{"voting_id":"02","name":"Pema Yanji sherpa"},"vote_count":1,"created_on":"2020-01-07T18:37:10.867245+05:45"},{"idx":"X7BZKfS2om8cJ8rmbRai4E","contest":"Mr. & Miss Teen Sherpa 2020 - S2","episode":"Mr.&Miss Teen Sherpa -S2","category":null,"contestant":{"voting_id":"02","name":"Pema Yanji sherpa"},"vote_count":1,"created_on":"2020-01-07T18:36:54.606414+05:45"},{"idx":"eJTgqo3Ahgwuwjhb66TKeK","contest":"Mr. & Miss Teen Sherpa 2020 - S2","episode":"Mr.&Miss Teen Sherpa -S2","category":null,"contestant":{"voting_id":"24","name":"Mingma Tshering Sherpa"},"vote_count":1,"created_on":"2020-01-07T16:56:16.093666+05:45"},{"idx":"QM2v3zBDwvb3PXMvUBamhc","contest":"Mr. & Miss Teen Sherpa 2020 - S2","episode":"Mr.&Miss Teen Sherpa -S2","category":null,"contestant":{"voting_id":"24","name":"Mingma Tshering Sherpa"},"vote_count":1,"created_on":"2020-01-07T16:55:48.345959+05:45"},{"idx":"BRRDg3gMasqfRT66RLJCTm","contest":"Mr. & Miss Teen Sherpa 2020 - S2","episode":"Mr.&Miss Teen Sherpa -S2","category":null,"contestant":{"voting_id":"24","name":"Mingma Tshering Sherpa"},"vote_count":1,"created_on":"2020-01-07T16:55:27.902486+05:45"},{"idx":"KnPLp3U3EYdmSG82gAETpY","contest":"Mr. & Miss Teen Sherpa 2020 - S2","episode":"Mr.&Miss Teen Sherpa -S2","category":null,"contestant":{"voting_id":"24","name":"Mingma Tshering Sherpa"},"vote_count":1,"created_on":"2020-01-07T16:55:06.462904+05:45"},{"idx":"aquZuJ44Mfhsa2B88CXEK3","contest":"Model Superstar","episode":"Model Superstar","category":null,"contestant":{"voting_id":"12","name":"Rabin Ghising"},"vote_count":1,"created_on":"2020-01-07T16:54:53.215274+05:45"},{"idx":"Y2cXjSJeAREUPNSvTnATs9","contest":"Model Superstar","episode":"Model Superstar","category":null,"contestant":{"voting_id":"04","name":"Sabita Maharjan"},"vote_count":1,"created_on":"2020-01-07T16:36:21.008655+05:45"},{"idx":"zxVczycZBSjUrTpD9o6926","contest":"Model Superstar","episode":"Model Superstar","category":null,"contestant":{"voting_id":"22","name":"Sunil Laudrey"},"vote_count":1,"created_on":"2020-01-07T16:17:30.715378+05:45"},{"idx":"S8HbijDy6X9WWh8U9LP4Mk","contest":"Model Superstar","episode":"Model Superstar","category":null,"contestant":{"voting_id":"22","name":"Sunil Laudrey"},"vote_count":1,"created_on":"2020-01-07T15:43:31.842417+05:45"},{"idx":"TzFyfZCVDkxTHBGhpZn7xj","contest":"Model Superstar","episode":"Model Superstar","category":null,"contestant":{"voting_id":"22","name":"Sunil Laudrey"},"vote_count":1,"created_on":"2020-01-07T15:30:52.530850+05:45"},{"idx":"BZiW3fU9CX2T2ejkFcV9FE","contest":"Mr. & Miss Teen Sherpa 2020 - S2","episode":"Mr.&Miss Teen Sherpa -S2","category":null,"contestant":{"voting_id":"23","name":"Chhiri Sherpa"},"vote_count":1,"created_on":"2020-01-07T15:03:11.918924+05:45"},{"idx":"YuuoE7ZVn4esj6UwJLGUag","contest":"Model Superstar","episode":"Model Superstar","category":null,"contestant":{"voting_id":"30","name":"Nikita Shakya"},"vote_count":1,"created_on":"2020-01-07T13:24:04.280174+05:45"},{"idx":"FQEpCgKoGWKvMStcuVJjyX","contest":"NEPALBHASA STAR MUSIC VIDEO AWARDS-2019","episode":null,"category":"BEST MUSIC VIDEO","contestant":{"voting_id":"1E","name":"Raju Karmacharya"},"vote_count":1,"created_on":"2020-01-07T13:22:03.742667+05:45"},{"idx":"sCGi3nogf7bB6CacBWGwpg","contest":"NEPALBHASA STAR MUSIC VIDEO AWARDS-2019","episode":null,"category":"BEST MAKE UP ARTIST","contestant":{"voting_id":"2G","name":"Sarita Bajracharya "},"vote_count":1,"created_on":"2020-01-07T13:21:29.074905+05:45"},{"idx":"zR25zSxTbCeihVpzoKTEJc","contest":"NEPALBHASA STAR MUSIC VIDEO AWARDS-2019","episode":null,"category":"BEST LYRICIST","contestant":{"voting_id":"4G","name":"Shailesh Shakya "},"vote_count":1,"created_on":"2020-01-07T13:20:18.443066+05:45"},{"idx":"xaf5bWueQo5v6bsDTLEREN","contest":"NEPALBHASA STAR MUSIC VIDEO AWARDS-2019","episode":null,"category":"BEST MUSIC ARRANGER","contestant":{"voting_id":"5J","name":" Bhupendra Bajracharya"},"vote_count":1,"created_on":"2020-01-07T13:19:48.179200+05:45"},{"idx":"kU9xVTnk9qJ2g27K5iAyvf","contest":"NEPALBHASA STAR MUSIC VIDEO AWARDS-2019","episode":null,"category":"BEST MUSIC DIRECTOR","contestant":{"voting_id":"6H","name":"Padam Jyoti Bajracharya "},"vote_count":1,"created_on":"2020-01-07T13:19:20.545267+05:45"},{"idx":"vptD6efMsfzKnvdJQr43UH","contest":"NEPALBHASA STAR MUSIC VIDEO AWARDS-2019","episode":null,"category":"BEST VIDEO COLORIST","contestant":{"voting_id":"8C","name":"Rajesh Shakya"},"vote_count":1,"created_on":"2020-01-07T13:15:28.806988+05:45"},{"idx":"FGyprXejaic7uwNozwG7Ed","contest":"NEPALBHASA STAR MUSIC VIDEO AWARDS-2019","episode":null,"category":"BEST VIDEO EDITOR","contestant":{"voting_id":"9I","name":"Rajesh Shakya"},"vote_count":1,"created_on":"2020-01-07T13:14:57.203386+05:45"},{"idx":"EPWvTW8d256AoJxvz4aQ9k","contest":"NEPALBHASA STAR MUSIC VIDEO AWARDS-2019","episode":null,"category":"BEST CAMERAPERSON","contestant":{"voting_id":"10C","name":"Rajesh Shakya"},"vote_count":1,"created_on":"2020-01-07T13:14:30.211467+05:45"},{"idx":"goeUCgJoE7vohaBKCuQha6","contest":"NEPALBHASA STAR MUSIC VIDEO AWARDS-2019","episode":null,"category":"BEST MODEL, MALE","contestant":{"voting_id":"11F","name":"Suraj Byanjankar"},"vote_count":1,"created_on":"2020-01-07T13:13:58.740952+05:45"}]}