{"total_pages":275,"total_records":13720,"next":"https://khalti.com/api/v2/vuservote/?page=143","previous":"https://khalti.com/api/v2/vuservote/?page=141","record_range":[7051,7100],"current_page":142,"records":[{"idx":"fZ6eHEz5Z66yKghnsPXoTm","contest":"NEPALBHASA STAR MUSIC VIDEO AWARDS-2019","episode":null,"category":"BEST DEBUT MODEL, MALE","contestant":{"voting_id":"12H","name":"Anup Shakya"},"vote_count":1,"created_on":"2020-01-07T13:13:21.168919+05:45"},{"idx":"Jz47i2P4xysDdmqSp7bMNB","contest":"NEPALBHASA STAR MUSIC VIDEO AWARDS-2019","episode":null,"category":"BEST MODEL, FEMALE","contestant":{"voting_id":"13A","name":"Salona Bajracharya"},"vote_count":1,"created_on":"2020-01-07T13:12:52.573012+05:45"},{"idx":"U6FxYeEEg5GzR84VjSgqwP","contest":"NEPALBHASA STAR MUSIC VIDEO AWARDS-2019","episode":null,"category":"BEST DEBUT MODEL, FEMALE","contestant":{"voting_id":"14B","name":"Binu Shakya"},"vote_count":1,"created_on":"2020-01-07T13:11:56.831779+05:45"},{"idx":"Np5gC2dEXs8MUP4UHHweym","contest":"NEPALBHASA STAR MUSIC VIDEO AWARDS-2019","episode":null,"category":"BEST DANCE DIRECTOR","contestant":{"voting_id":"19F","name":"Sunita Rajbhandari/Sujan Bajracharya"},"vote_count":1,"created_on":"2020-01-07T13:10:30.024166+05:45"},{"idx":"fHLNsTomXuFjLcTtm8hkVa","contest":"NEPALBHASA STAR MUSIC VIDEO AWARDS-2019","episode":null,"category":"BEST DIRECTOR","contestant":{"voting_id":"20F","name":"Sunita Rajbhandari"},"vote_count":1,"created_on":"2020-01-07T13:09:33.982742+05:45"},{"idx":"3wp7c3mekpPYsu9YyAWUiG","contest":"NEPALBHASA STAR MUSIC VIDEO AWARDS-2019","episode":null,"category":"BEST Singer,FEMALE","contestant":{"voting_id":"17G","name":"Saraswati Manandhar"},"vote_count":1,"created_on":"2020-01-07T13:08:30.548227+05:45"},{"idx":"5hYLvmGVviQwB2YAZ2txkm","contest":"NEPALBHASA STAR MUSIC VIDEO AWARDS-2019","episode":null,"category":"BEST SINGER, MALE","contestant":{"voting_id":"15I","name":"Suraj Bir Bajracharya"},"vote_count":1,"created_on":"2020-01-07T13:07:44.619723+05:45"},{"idx":"cbR2c5XZtGFCcfqAFE3yhM","contest":"Model Superstar","episode":"Model Superstar","category":null,"contestant":{"voting_id":"03","name":"Smriti Shah"},"vote_count":1,"created_on":"2020-01-07T12:14:41.915899+05:45"},{"idx":"qyhwR65wQwKbskXgYHTnL8","contest":"Model Superstar","episode":"Model Superstar","category":null,"contestant":{"voting_id":"17","name":"Sajana Panta"},"vote_count":1,"created_on":"2020-01-07T12:14:13.254515+05:45"},{"idx":"RRsSd8zKksCw2bB75VmXuJ","contest":"NEPALBHASA STAR MUSIC VIDEO AWARDS-2019","episode":null,"category":"BEST DANCE DIRECTOR","contestant":{"voting_id":"19A","name":"Gautam Tandukar"},"vote_count":1,"created_on":"2020-01-07T12:07:12.354292+05:45"},{"idx":"gjNEadSu3tZCgN7uA4ryr2","contest":"Mr. & Miss Teen Sherpa 2020 - S2","episode":"Mr.&Miss Teen Sherpa -S2","category":null,"contestant":{"voting_id":"25","name":"Pemba Dorji Sherpa"},"vote_count":1,"created_on":"2020-01-07T11:51:10.107260+05:45"},{"idx":"SAJQrSgKSdBn7YQZBYLARj","contest":"NEPALBHASA STAR MUSIC VIDEO AWARDS-2019","episode":null,"category":"BEST DEBUT MODEL, FEMALE","contestant":{"voting_id":"14J","name":"Garima Maharjan"},"vote_count":1,"created_on":"2020-01-07T11:50:22.080085+05:45"},{"idx":"79sZ4BUZwXL9rULyArVobQ","contest":"Model Superstar","episode":"Model Superstar","category":null,"contestant":{"voting_id":"12","name":"Rabin Ghising"},"vote_count":1,"created_on":"2020-01-07T11:48:07.526115+05:45"},{"idx":"2zfJ4ffBwKHasVig724WWN","contest":"Mr. & Miss Teen Sherpa 2020 - S2","episode":"Mr.&Miss Teen Sherpa -S2","category":null,"contestant":{"voting_id":"01","name":"Lhamu Sherpa"},"vote_count":1,"created_on":"2020-01-07T11:19:52.771674+05:45"},{"idx":"3UvCfHjYDLbJCSLgZcaFiR","contest":"Mr. & Miss Teen Sherpa 2020 - S2","episode":"Mr.&Miss Teen Sherpa -S2","category":null,"contestant":{"voting_id":"01","name":"Lhamu Sherpa"},"vote_count":5,"created_on":"2020-01-07T11:18:15.961297+05:45"},{"idx":"RiBK76gCFkfrToTMMqwjvg","contest":"Mr. & Miss Teen Sherpa 2020 - S2","episode":"Mr.&Miss Teen Sherpa -S2","category":null,"contestant":{"voting_id":"01","name":"Lhamu Sherpa"},"vote_count":1,"created_on":"2020-01-07T11:16:29.285148+05:45"},{"idx":"CW2GwDGGYEDbayKVKtC4XP","contest":"Model Superstar","episode":"Model Superstar","category":null,"contestant":{"voting_id":"12","name":"Rabin Ghising"},"vote_count":1,"created_on":"2020-01-07T11:16:05.344654+05:45"},{"idx":"YYR2j2fRD7jdByexmX2Wwf","contest":"Mr. & Miss Teen Sherpa 2020 - S2","episode":"Mr.&Miss Teen Sherpa -S2","category":null,"contestant":{"voting_id":"01","name":"Lhamu Sherpa"},"vote_count":1,"created_on":"2020-01-07T11:13:12.928708+05:45"},{"idx":"kVv6jwEZL6kzt5dowxLmth","contest":"Mr. & Miss Teen Sherpa 2020 - S2","episode":"Mr.&Miss Teen Sherpa -S2","category":null,"contestant":{"voting_id":"01","name":"Lhamu Sherpa"},"vote_count":1,"created_on":"2020-01-07T11:12:30.531204+05:45"},{"idx":"PruarZBUhqoLgNHEVFXFCK","contest":"Mr. & Miss Teen Sherpa 2020 - S2","episode":"Mr.&Miss Teen Sherpa -S2","category":null,"contestant":{"voting_id":"01","name":"Lhamu Sherpa"},"vote_count":1,"created_on":"2020-01-07T11:09:32.883834+05:45"},{"idx":"x6GMBPV2xyPFZaYVpE7XkS","contest":"Mr. & Miss Teen Sherpa 2020 - S2","episode":"Mr.&Miss Teen Sherpa -S2","category":null,"contestant":{"voting_id":"01","name":"Lhamu Sherpa"},"vote_count":1,"created_on":"2020-01-07T11:07:48.383559+05:45"},{"idx":"EnVsrpVLYNXWyMKe7J7ddd","contest":"Mr. & Miss Teen Sherpa 2020 - S2","episode":"Mr.&Miss Teen Sherpa -S2","category":null,"contestant":{"voting_id":"01","name":"Lhamu Sherpa"},"vote_count":1,"created_on":"2020-01-07T11:06:52.502101+05:45"},{"idx":"vaQp3XYneV4mtNfwFnAewd","contest":"Mr. & Miss Teen Sherpa 2020 - S2","episode":"Mr.&Miss Teen Sherpa -S2","category":null,"contestant":{"voting_id":"01","name":"Lhamu Sherpa"},"vote_count":1,"created_on":"2020-01-07T11:06:30.968609+05:45"},{"idx":"MK4e2Mikz4wb3z5c3UCXMf","contest":"Model Superstar","episode":"Model Superstar","category":null,"contestant":{"voting_id":"14","name":"Ashish Shakya"},"vote_count":1,"created_on":"2020-01-07T10:51:49.664920+05:45"},{"idx":"3JUU5ZzS6umgmQe66JnE6V","contest":"Model Superstar","episode":"Model Superstar","category":null,"contestant":{"voting_id":"14","name":"Ashish Shakya"},"vote_count":1,"created_on":"2020-01-07T10:51:24.451889+05:45"},{"idx":"Lr9ELGQTFkRuyagQMUo49k","contest":"Model Superstar","episode":"Model Superstar","category":null,"contestant":{"voting_id":"04","name":"Sabita Maharjan"},"vote_count":1,"created_on":"2020-01-07T10:44:46.050050+05:45"},{"idx":"nLGM4BpAgEjczm77Trg3w2","contest":"Mr. & Miss Teen Sherpa 2020 - S2","episode":"Mr.&Miss Teen Sherpa -S2","category":null,"contestant":{"voting_id":"06","name":"Tenzin Pema Sherpa"},"vote_count":1,"created_on":"2020-01-07T10:28:55.789398+05:45"},{"idx":"9VbDpHA3KzRzxXYoj7GLia","contest":"Mr. & Miss Teen Sherpa 2020 - S2","episode":"Mr.&Miss Teen Sherpa -S2","category":null,"contestant":{"voting_id":"06","name":"Tenzin Pema Sherpa"},"vote_count":1,"created_on":"2020-01-07T10:28:08.819096+05:45"},{"idx":"RTn4YWCSYQ786Yq9hN5Fik","contest":"Mr. & Miss Teen Sherpa 2020 - S2","episode":"Mr.&Miss Teen Sherpa -S2","category":null,"contestant":{"voting_id":"06","name":"Tenzin Pema Sherpa"},"vote_count":1,"created_on":"2020-01-07T10:27:46.495775+05:45"},{"idx":"nTCCFeWMLYjnbxyBRaKHkd","contest":"Mr. & Miss Teen Sherpa 2020 - S2","episode":"Mr.&Miss Teen Sherpa -S2","category":null,"contestant":{"voting_id":"06","name":"Tenzin Pema Sherpa"},"vote_count":1,"created_on":"2020-01-07T10:27:23.108318+05:45"},{"idx":"7D25FA8erpt89amBY9JcF8","contest":"Mr. & Miss Teen Sherpa 2020 - S2","episode":"Mr.&Miss Teen Sherpa -S2","category":null,"contestant":{"voting_id":"06","name":"Tenzin Pema Sherpa"},"vote_count":1,"created_on":"2020-01-07T10:26:53.763122+05:45"},{"idx":"PAE6Xqc7jhhkc3ydNiXSrf","contest":"Mr. & Miss Teen Sherpa 2020 - S2","episode":"Mr.&Miss Teen Sherpa -S2","category":null,"contestant":{"voting_id":"06","name":"Tenzin Pema Sherpa"},"vote_count":1,"created_on":"2020-01-07T10:26:00.752633+05:45"},{"idx":"4vdyxe6FNgWScE5U5AcCN4","contest":"Mr. & Miss Teen Sherpa 2020 - S2","episode":"Mr.&Miss Teen Sherpa -S2","category":null,"contestant":{"voting_id":"06","name":"Tenzin Pema Sherpa"},"vote_count":1,"created_on":"2020-01-07T10:25:14.370680+05:45"},{"idx":"re8SchM5nVMJVWNw7PyJF6","contest":"Mr. & Miss Teen Sherpa 2020 - S2","episode":"Mr.&Miss Teen Sherpa -S2","category":null,"contestant":{"voting_id":"06","name":"Tenzin Pema Sherpa"},"vote_count":1,"created_on":"2020-01-07T10:24:29.481072+05:45"},{"idx":"M8M2LFjPFHWmQfW5nZxsAJ","contest":"Mr. & Miss Teen Sherpa 2020 - S2","episode":"Mr.&Miss Teen Sherpa -S2","category":null,"contestant":{"voting_id":"06","name":"Tenzin Pema Sherpa"},"vote_count":1,"created_on":"2020-01-07T10:24:06.156067+05:45"},{"idx":"KXTCJr8cituRevjzWgFRA6","contest":"Mr. & Miss Teen Sherpa 2020 - S2","episode":"Mr.&Miss Teen Sherpa -S2","category":null,"contestant":{"voting_id":"06","name":"Tenzin Pema Sherpa"},"vote_count":1,"created_on":"2020-01-07T10:23:44.425298+05:45"},{"idx":"gMA8rXNFmifWQysbBKFLH8","contest":"Mr. & Miss Teen Sherpa 2020 - S2","episode":"Mr.&Miss Teen Sherpa -S2","category":null,"contestant":{"voting_id":"06","name":"Tenzin Pema Sherpa"},"vote_count":1,"created_on":"2020-01-07T10:23:02.591958+05:45"},{"idx":"bYaDLjvUG6LgkEusSZSQGf","contest":"Mr. & Miss Teen Sherpa 2020 - S2","episode":"Mr.&Miss Teen Sherpa -S2","category":null,"contestant":{"voting_id":"06","name":"Tenzin Pema Sherpa"},"vote_count":1,"created_on":"2020-01-07T10:22:16.684526+05:45"},{"idx":"jcciCVTHRVua8nh33rDYNK","contest":"Mr. & Miss Teen Sherpa 2020 - S2","episode":"Mr.&Miss Teen Sherpa -S2","category":null,"contestant":{"voting_id":"02","name":"Pema Yanji sherpa"},"vote_count":1,"created_on":"2020-01-07T09:40:54.969569+05:45"},{"idx":"zEq2g9z7uRXnEvvGiecgjF","contest":"Mr. & Miss Teen Sherpa 2020 - S2","episode":"Mr.&Miss Teen Sherpa -S2","category":null,"contestant":{"voting_id":"02","name":"Pema Yanji sherpa"},"vote_count":1,"created_on":"2020-01-07T09:40:49.258277+05:45"},{"idx":"TU3dbNxaXcXZiF2M72HdRE","contest":"Mr. & Miss Teen Sherpa 2020 - S2","episode":"Mr.&Miss Teen Sherpa -S2","category":null,"contestant":{"voting_id":"02","name":"Pema Yanji sherpa"},"vote_count":1,"created_on":"2020-01-07T09:40:43.261343+05:45"},{"idx":"EERKkwFC5zdnoWnxFZqmP3","contest":"Mr. & Miss Teen Sherpa 2020 - S2","episode":"Mr.&Miss Teen Sherpa -S2","category":null,"contestant":{"voting_id":"02","name":"Pema Yanji sherpa"},"vote_count":1,"created_on":"2020-01-07T09:40:37.799910+05:45"},{"idx":"iWEHxC6FveiFoELbGrgXS6","contest":"Mr. & Miss Teen Sherpa 2020 - S2","episode":"Mr.&Miss Teen Sherpa -S2","category":null,"contestant":{"voting_id":"02","name":"Pema Yanji sherpa"},"vote_count":1,"created_on":"2020-01-07T09:40:33.058646+05:45"},{"idx":"4Vq92BEfUsGvfzk3jpqeMT","contest":"Mr. & Miss Teen Sherpa 2020 - S2","episode":"Mr.&Miss Teen Sherpa -S2","category":null,"contestant":{"voting_id":"02","name":"Pema Yanji sherpa"},"vote_count":1,"created_on":"2020-01-07T09:40:27.862240+05:45"},{"idx":"znkpj8BWAyGiL7wpiS4sNK","contest":"Mr. & Miss Teen Sherpa 2020 - S2","episode":"Mr.&Miss Teen Sherpa -S2","category":null,"contestant":{"voting_id":"02","name":"Pema Yanji sherpa"},"vote_count":1,"created_on":"2020-01-07T09:40:19.931161+05:45"},{"idx":"8YNLhG23nKriDRX36A3kJ3","contest":"Mr. & Miss Teen Sherpa 2020 - S2","episode":"Mr.&Miss Teen Sherpa -S2","category":null,"contestant":{"voting_id":"02","name":"Pema Yanji sherpa"},"vote_count":1,"created_on":"2020-01-07T09:40:15.073471+05:45"},{"idx":"dRfKrt3z6kq8N9xtVcPDwe","contest":"Mr. & Miss Teen Sherpa 2020 - S2","episode":"Mr.&Miss Teen Sherpa -S2","category":null,"contestant":{"voting_id":"02","name":"Pema Yanji sherpa"},"vote_count":1,"created_on":"2020-01-07T09:40:08.377522+05:45"},{"idx":"VVqobwNCBtsUR9JPFDcHXE","contest":"Mr. & Miss Teen Sherpa 2020 - S2","episode":"Mr.&Miss Teen Sherpa -S2","category":null,"contestant":{"voting_id":"02","name":"Pema Yanji sherpa"},"vote_count":1,"created_on":"2020-01-07T09:40:03.130322+05:45"},{"idx":"TNbZtz5mGDtAx6723tPeiD","contest":"Mr. & Miss Teen Sherpa 2020 - S2","episode":"Mr.&Miss Teen Sherpa -S2","category":null,"contestant":{"voting_id":"02","name":"Pema Yanji sherpa"},"vote_count":1,"created_on":"2020-01-07T09:39:55.626383+05:45"},{"idx":"tiuZCVGacUe9EfkCWijBZj","contest":"Mr. & Miss Teen Sherpa 2020 - S2","episode":"Mr.&Miss Teen Sherpa -S2","category":null,"contestant":{"voting_id":"02","name":"Pema Yanji sherpa"},"vote_count":1,"created_on":"2020-01-07T09:39:50.206717+05:45"}]}