{"total_pages":275,"total_records":13720,"next":"https://khalti.com/api/v2/vuservote/?page=144","previous":"https://khalti.com/api/v2/vuservote/?page=142","record_range":[7101,7150],"current_page":143,"records":[{"idx":"r2x96WUMF2oiqsbWNRkpm4","contest":"Mr. & Miss Teen Sherpa 2020 - S2","episode":"Mr.&Miss Teen Sherpa -S2","category":null,"contestant":{"voting_id":"02","name":"Pema Yanji sherpa"},"vote_count":1,"created_on":"2020-01-07T09:39:45.101630+05:45"},{"idx":"u4ThMhGr5YPvo6m4dGpLL4","contest":"Mr. & Miss Teen Sherpa 2020 - S2","episode":"Mr.&Miss Teen Sherpa -S2","category":null,"contestant":{"voting_id":"02","name":"Pema Yanji sherpa"},"vote_count":1,"created_on":"2020-01-07T09:39:37.199646+05:45"},{"idx":"7fwNjNszsQ385JJwufs3Ck","contest":"Mr. & Miss Teen Sherpa 2020 - S2","episode":"Mr.&Miss Teen Sherpa -S2","category":null,"contestant":{"voting_id":"02","name":"Pema Yanji sherpa"},"vote_count":1,"created_on":"2020-01-07T09:39:31.775752+05:45"},{"idx":"FF4QjbXbkJNeFPe7yGHANL","contest":"Mr. & Miss Teen Sherpa 2020 - S2","episode":"Mr.&Miss Teen Sherpa -S2","category":null,"contestant":{"voting_id":"02","name":"Pema Yanji sherpa"},"vote_count":1,"created_on":"2020-01-07T09:39:26.006627+05:45"},{"idx":"4oH4B77QhwJKjwrYdRdoSK","contest":"Mr. & Miss Teen Sherpa 2020 - S2","episode":"Mr.&Miss Teen Sherpa -S2","category":null,"contestant":{"voting_id":"02","name":"Pema Yanji sherpa"},"vote_count":1,"created_on":"2020-01-07T09:39:20.751890+05:45"},{"idx":"MaT5aVj4AvtEfjkm367juV","contest":"Mr. & Miss Teen Sherpa 2020 - S2","episode":"Mr.&Miss Teen Sherpa -S2","category":null,"contestant":{"voting_id":"02","name":"Pema Yanji sherpa"},"vote_count":1,"created_on":"2020-01-07T09:39:15.736771+05:45"},{"idx":"qS7P4XPrci4XmuktfBjATg","contest":"Mr. & Miss Teen Sherpa 2020 - S2","episode":"Mr.&Miss Teen Sherpa -S2","category":null,"contestant":{"voting_id":"02","name":"Pema Yanji sherpa"},"vote_count":1,"created_on":"2020-01-07T09:39:11.213848+05:45"},{"idx":"BM4x4EQEwaFPZxwN3Y3X9U","contest":"Mr. & Miss Teen Sherpa 2020 - S2","episode":"Mr.&Miss Teen Sherpa -S2","category":null,"contestant":{"voting_id":"02","name":"Pema Yanji sherpa"},"vote_count":1,"created_on":"2020-01-07T09:39:03.985508+05:45"},{"idx":"DgTHuSFXWBi9yZDe8e3Gn3","contest":"Mr. & Miss Teen Sherpa 2020 - S2","episode":"Mr.&Miss Teen Sherpa -S2","category":null,"contestant":{"voting_id":"02","name":"Pema Yanji sherpa"},"vote_count":1,"created_on":"2020-01-07T09:38:59.355483+05:45"},{"idx":"gfkecp6dHsdqTeAD3HcPDM","contest":"Mr. & Miss Teen Sherpa 2020 - S2","episode":"Mr.&Miss Teen Sherpa -S2","category":null,"contestant":{"voting_id":"02","name":"Pema Yanji sherpa"},"vote_count":1,"created_on":"2020-01-07T09:38:54.717565+05:45"},{"idx":"3hNo3EmAFJmPd9kHjjGGhc","contest":"Mr. & Miss Teen Sherpa 2020 - S2","episode":"Mr.&Miss Teen Sherpa -S2","category":null,"contestant":{"voting_id":"02","name":"Pema Yanji sherpa"},"vote_count":1,"created_on":"2020-01-07T09:38:50.102058+05:45"},{"idx":"amxavUuMcc2UpgoozRxr2k","contest":"Mr. & Miss Teen Sherpa 2020 - S2","episode":"Mr.&Miss Teen Sherpa -S2","category":null,"contestant":{"voting_id":"02","name":"Pema Yanji sherpa"},"vote_count":1,"created_on":"2020-01-07T09:38:44.932856+05:45"},{"idx":"FdJxyvqQWaXsPM4mxzSvia","contest":"Mr. & Miss Teen Sherpa 2020 - S2","episode":"Mr.&Miss Teen Sherpa -S2","category":null,"contestant":{"voting_id":"02","name":"Pema Yanji sherpa"},"vote_count":1,"created_on":"2020-01-07T09:38:39.390527+05:45"},{"idx":"QkuJgigEJYmcEKRozfcp7d","contest":"Mr. & Miss Teen Sherpa 2020 - S2","episode":"Mr.&Miss Teen Sherpa -S2","category":null,"contestant":{"voting_id":"02","name":"Pema Yanji sherpa"},"vote_count":1,"created_on":"2020-01-07T09:38:34.307965+05:45"},{"idx":"nd9kCQtbUz4WcGXPkyFYFU","contest":"Mr. & Miss Teen Sherpa 2020 - S2","episode":"Mr.&Miss Teen Sherpa -S2","category":null,"contestant":{"voting_id":"02","name":"Pema Yanji sherpa"},"vote_count":1,"created_on":"2020-01-07T09:38:28.882807+05:45"},{"idx":"Gtywzp9763wDEo8LPc3Li8","contest":"Mr. & Miss Teen Sherpa 2020 - S2","episode":"Mr.&Miss Teen Sherpa -S2","category":null,"contestant":{"voting_id":"02","name":"Pema Yanji sherpa"},"vote_count":1,"created_on":"2020-01-07T09:38:22.384653+05:45"},{"idx":"SrVXc7wssmkg58fhkU395K","contest":"Mr. & Miss Teen Sherpa 2020 - S2","episode":"Mr.&Miss Teen Sherpa -S2","category":null,"contestant":{"voting_id":"02","name":"Pema Yanji sherpa"},"vote_count":1,"created_on":"2020-01-07T09:38:17.654495+05:45"},{"idx":"5xJzH7G9ehZSwXYMPVUrVA","contest":"Mr. & Miss Teen Sherpa 2020 - S2","episode":"Mr.&Miss Teen Sherpa -S2","category":null,"contestant":{"voting_id":"02","name":"Pema Yanji sherpa"},"vote_count":1,"created_on":"2020-01-07T09:38:13.073748+05:45"},{"idx":"bSLgM9bcrwe28MR3YmdL2j","contest":"Mr. & Miss Teen Sherpa 2020 - S2","episode":"Mr.&Miss Teen Sherpa -S2","category":null,"contestant":{"voting_id":"02","name":"Pema Yanji sherpa"},"vote_count":1,"created_on":"2020-01-07T09:38:07.129865+05:45"},{"idx":"pD23Vf3V3FhPiVZCGnv3GB","contest":"Mr. & Miss Teen Sherpa 2020 - S2","episode":"Mr.&Miss Teen Sherpa -S2","category":null,"contestant":{"voting_id":"02","name":"Pema Yanji sherpa"},"vote_count":1,"created_on":"2020-01-07T09:38:02.044214+05:45"},{"idx":"PYGe4Ja8oUZ688MpiW69N7","contest":"Mr. & Miss Teen Sherpa 2020 - S2","episode":"Mr.&Miss Teen Sherpa -S2","category":null,"contestant":{"voting_id":"02","name":"Pema Yanji sherpa"},"vote_count":1,"created_on":"2020-01-07T09:37:57.509187+05:45"},{"idx":"tfkFShuwz6X6NBm5DwN7p2","contest":"Mr. & Miss Teen Sherpa 2020 - S2","episode":"Mr.&Miss Teen Sherpa -S2","category":null,"contestant":{"voting_id":"02","name":"Pema Yanji sherpa"},"vote_count":1,"created_on":"2020-01-07T09:37:52.747887+05:45"},{"idx":"KGmoskJbx987g6kiKubV4D","contest":"Mr. & Miss Teen Sherpa 2020 - S2","episode":"Mr.&Miss Teen Sherpa -S2","category":null,"contestant":{"voting_id":"02","name":"Pema Yanji sherpa"},"vote_count":1,"created_on":"2020-01-07T09:37:48.156008+05:45"},{"idx":"ebhmDnPcDALcVD2C9o3nmA","contest":"Mr. & Miss Teen Sherpa 2020 - S2","episode":"Mr.&Miss Teen Sherpa -S2","category":null,"contestant":{"voting_id":"02","name":"Pema Yanji sherpa"},"vote_count":1,"created_on":"2020-01-07T09:37:38.742801+05:45"},{"idx":"zFsAdCXHn6xqpQLW6YqkbP","contest":"Mr. & Miss Teen Sherpa 2020 - S2","episode":"Mr.&Miss Teen Sherpa -S2","category":null,"contestant":{"voting_id":"02","name":"Pema Yanji sherpa"},"vote_count":1,"created_on":"2020-01-07T09:37:33.652935+05:45"},{"idx":"tS2CP8jph5ECT9eS92SkMH","contest":"Mr. & Miss Teen Sherpa 2020 - S2","episode":"Mr.&Miss Teen Sherpa -S2","category":null,"contestant":{"voting_id":"02","name":"Pema Yanji sherpa"},"vote_count":1,"created_on":"2020-01-07T09:37:25.896041+05:45"},{"idx":"EnE2Y22APer8Cv79uE38wD","contest":"Mr. & Miss Teen Sherpa 2020 - S2","episode":"Mr.&Miss Teen Sherpa -S2","category":null,"contestant":{"voting_id":"02","name":"Pema Yanji sherpa"},"vote_count":1,"created_on":"2020-01-07T09:37:19.967449+05:45"},{"idx":"sHKPtaTqHn5HjciXjHYZKQ","contest":"Mr. & Miss Teen Sherpa 2020 - S2","episode":"Mr.&Miss Teen Sherpa -S2","category":null,"contestant":{"voting_id":"02","name":"Pema Yanji sherpa"},"vote_count":1,"created_on":"2020-01-07T09:37:14.828025+05:45"},{"idx":"C7VJGWjcw5RXxXcvQm5P8T","contest":"Mr. & Miss Teen Sherpa 2020 - S2","episode":"Mr.&Miss Teen Sherpa -S2","category":null,"contestant":{"voting_id":"02","name":"Pema Yanji sherpa"},"vote_count":1,"created_on":"2020-01-07T09:37:09.944814+05:45"},{"idx":"AzXx3LaH97EYjsJN8iAmu2","contest":"Mr. & Miss Teen Sherpa 2020 - S2","episode":"Mr.&Miss Teen Sherpa -S2","category":null,"contestant":{"voting_id":"02","name":"Pema Yanji sherpa"},"vote_count":1,"created_on":"2020-01-07T09:37:05.157470+05:45"},{"idx":"74wdKzyVrFJ8ntNRq72TuV","contest":"Mr. & Miss Teen Sherpa 2020 - S2","episode":"Mr.&Miss Teen Sherpa -S2","category":null,"contestant":{"voting_id":"02","name":"Pema Yanji sherpa"},"vote_count":1,"created_on":"2020-01-07T09:36:59.910503+05:45"},{"idx":"vWEBRrbbrjjDBqGV2qtRUf","contest":"Mr. & Miss Teen Sherpa 2020 - S2","episode":"Mr.&Miss Teen Sherpa -S2","category":null,"contestant":{"voting_id":"02","name":"Pema Yanji sherpa"},"vote_count":1,"created_on":"2020-01-07T09:36:54.404267+05:45"},{"idx":"6TEJc3vWNvrn59WWM3h9KQ","contest":"Mr. & Miss Teen Sherpa 2020 - S2","episode":"Mr.&Miss Teen Sherpa -S2","category":null,"contestant":{"voting_id":"02","name":"Pema Yanji sherpa"},"vote_count":1,"created_on":"2020-01-07T09:36:49.731980+05:45"},{"idx":"7VccGmZ9AE8fKmmaepLxyc","contest":"Mr. & Miss Teen Sherpa 2020 - S2","episode":"Mr.&Miss Teen Sherpa -S2","category":null,"contestant":{"voting_id":"02","name":"Pema Yanji sherpa"},"vote_count":1,"created_on":"2020-01-07T09:36:44.753630+05:45"},{"idx":"o6GRWNoLNkEwfEY9psFfsM","contest":"NEPALBHASA STAR MUSIC VIDEO AWARDS-2019","episode":null,"category":"BEST DEBUT SINGER, MALE","contestant":{"voting_id":"16B","name":"Raj Kumar Manandhar"},"vote_count":500,"created_on":"2020-01-07T09:19:43.117951+05:45"},{"idx":"MjF7df8w2RJNjHE4Cc29BT","contest":"Mr. & Miss Teen Sherpa 2020 - S2","episode":"Mr.&Miss Teen Sherpa -S2","category":null,"contestant":{"voting_id":"02","name":"Pema Yanji sherpa"},"vote_count":1,"created_on":"2020-01-07T09:05:08.640913+05:45"},{"idx":"gMdw7dPco5c5xjBK3GvHgE","contest":"Model Superstar","episode":"Model Superstar","category":null,"contestant":{"voting_id":"12","name":"Rabin Ghising"},"vote_count":1,"created_on":"2020-01-07T08:36:00.480420+05:45"},{"idx":"6rZTbCny3FrtBKUqc8hgQC","contest":"Model Superstar","episode":"Model Superstar","category":null,"contestant":{"voting_id":"01","name":"Sajina Subba"},"vote_count":1,"created_on":"2020-01-07T07:51:34.360532+05:45"},{"idx":"ZfPdTK8LYMzFcrJuo4kYuP","contest":"NEPALBHASA STAR MUSIC VIDEO AWARDS-2019","episode":null,"category":"BEST RECORDING STUDIO","contestant":{"voting_id":"7B","name":"Hisi Recording Studio"},"vote_count":1,"created_on":"2020-01-07T06:08:31.639831+05:45"},{"idx":"98X2FCwYfaJT3FBDqnGJ5V","contest":"Mr. & Miss Teen Sherpa 2020 - S2","episode":"Mr.&Miss Teen Sherpa -S2","category":null,"contestant":{"voting_id":"01","name":"Lhamu Sherpa"},"vote_count":1,"created_on":"2020-01-07T05:52:56.015506+05:45"},{"idx":"TZUsTHdpaLrbZmzKCYeMFE","contest":"Model Superstar","episode":"Model Superstar","category":null,"contestant":{"voting_id":"08","name":"Roshan Sunam"},"vote_count":1,"created_on":"2020-01-07T01:07:23.256111+05:45"},{"idx":"dczdHuaYcdvJhJzrg2goAa","contest":"Mr. & Miss Teen Sherpa 2020 - S2","episode":"Mr.&Miss Teen Sherpa -S2","category":null,"contestant":{"voting_id":"02","name":"Pema Yanji sherpa"},"vote_count":1,"created_on":"2020-01-06T22:08:57.061222+05:45"},{"idx":"sSgbE2gM6EjehojLaea85A","contest":"Mr. & Miss Teen Sherpa 2020 - S2","episode":"Mr.&Miss Teen Sherpa -S2","category":null,"contestant":{"voting_id":"01","name":"Lhamu Sherpa"},"vote_count":1,"created_on":"2020-01-06T22:08:34.629768+05:45"},{"idx":"xQmmRNYHvum3MXtJSBk24h","contest":"Model Superstar","episode":"Model Superstar","category":null,"contestant":{"voting_id":"07","name":"Narman Malla"},"vote_count":5,"created_on":"2020-01-06T21:33:52.301633+05:45"},{"idx":"hcEii3gSMirM45bpCZQsp7","contest":"Model Superstar","episode":"Model Superstar","category":null,"contestant":{"voting_id":"07","name":"Narman Malla"},"vote_count":1,"created_on":"2020-01-06T21:33:32.463501+05:45"},{"idx":"qodzs9ZJs8xccqLEcGGK2m","contest":"Mr. & Miss Teen Sherpa 2020 - S2","episode":"Mr.&Miss Teen Sherpa -S2","category":null,"contestant":{"voting_id":"05","name":"Nima Lhamu sherpa"},"vote_count":1,"created_on":"2020-01-06T21:30:49.247527+05:45"},{"idx":"ZjNWkpgsqiGyn7trCzTvnc","contest":"Mr. & Miss Teen Sherpa 2020 - S2","episode":"Mr.&Miss Teen Sherpa -S2","category":null,"contestant":{"voting_id":"02","name":"Pema Yanji sherpa"},"vote_count":1,"created_on":"2020-01-06T20:41:33.379712+05:45"},{"idx":"BGMS7vKcs65AFxGM9BWvug","contest":"Mr. & Miss Teen Sherpa 2020 - S2","episode":"Mr.&Miss Teen Sherpa -S2","category":null,"contestant":{"voting_id":"02","name":"Pema Yanji sherpa"},"vote_count":1,"created_on":"2020-01-06T20:41:28.101038+05:45"},{"idx":"4qVyQt9MFpXN2Pr4ow8BP7","contest":"Mr. & Miss Teen Sherpa 2020 - S2","episode":"Mr.&Miss Teen Sherpa -S2","category":null,"contestant":{"voting_id":"02","name":"Pema Yanji sherpa"},"vote_count":1,"created_on":"2020-01-06T20:41:20.824082+05:45"},{"idx":"ZSdWERJY8jc3k9VZDSWtGe","contest":"Mr. & Miss Teen Sherpa 2020 - S2","episode":"Mr.&Miss Teen Sherpa -S2","category":null,"contestant":{"voting_id":"02","name":"Pema Yanji sherpa"},"vote_count":1,"created_on":"2020-01-06T20:41:13.387913+05:45"}]}