{"total_pages":275,"total_records":13720,"next":"https://khalti.com/api/v2/vuservote/?page=145","previous":"https://khalti.com/api/v2/vuservote/?page=143","record_range":[7151,7200],"current_page":144,"records":[{"idx":"of8MGB6qWa9NeGLZr5xqQ5","contest":"Mr. & Miss Teen Sherpa 2020 - S2","episode":"Mr.&Miss Teen Sherpa -S2","category":null,"contestant":{"voting_id":"02","name":"Pema Yanji sherpa"},"vote_count":1,"created_on":"2020-01-06T20:41:07.465625+05:45"},{"idx":"z2BzRnU7LSAEZvxKASrXWZ","contest":"Mr. & Miss Teen Sherpa 2020 - S2","episode":"Mr.&Miss Teen Sherpa -S2","category":null,"contestant":{"voting_id":"02","name":"Pema Yanji sherpa"},"vote_count":1,"created_on":"2020-01-06T20:41:00.878227+05:45"},{"idx":"65U4bTi4zvK44mSQMS6kS2","contest":"Mr. & Miss Teen Sherpa 2020 - S2","episode":"Mr.&Miss Teen Sherpa -S2","category":null,"contestant":{"voting_id":"02","name":"Pema Yanji sherpa"},"vote_count":1,"created_on":"2020-01-06T20:40:55.466554+05:45"},{"idx":"xoTKeqq86FfsBj9FT7P3Eo","contest":"Mr. & Miss Teen Sherpa 2020 - S2","episode":"Mr.&Miss Teen Sherpa -S2","category":null,"contestant":{"voting_id":"02","name":"Pema Yanji sherpa"},"vote_count":1,"created_on":"2020-01-06T20:40:47.352410+05:45"},{"idx":"wWwmMKGMAUbpkugBia2PeF","contest":"Mr. & Miss Teen Sherpa 2020 - S2","episode":"Mr.&Miss Teen Sherpa -S2","category":null,"contestant":{"voting_id":"02","name":"Pema Yanji sherpa"},"vote_count":1,"created_on":"2020-01-06T20:40:40.390679+05:45"},{"idx":"TcjwmLt8Axdtpyu75CJhbX","contest":"Model Superstar","episode":"Model Superstar","category":null,"contestant":{"voting_id":"17","name":"Sajana Panta"},"vote_count":50,"created_on":"2020-01-06T20:09:51.294727+05:45"},{"idx":"dosQS8AGb5Rc7AV7RNs4yM","contest":"Model Superstar","episode":"Model Superstar","category":null,"contestant":{"voting_id":"04","name":"Sabita Maharjan"},"vote_count":1,"created_on":"2020-01-06T20:07:37.512421+05:45"},{"idx":"uwzg4z8nL2urNQjdqrapv5","contest":"Mr. & Miss Teen Sherpa 2020 - S2","episode":"Mr.&Miss Teen Sherpa -S2","category":null,"contestant":{"voting_id":"24","name":"Mingma Tshering Sherpa"},"vote_count":1,"created_on":"2020-01-06T20:03:52.667403+05:45"},{"idx":"YtPa5n6GKMmGRJaXs7USkT","contest":"Mr. & Miss Teen Sherpa 2020 - S2","episode":"Mr.&Miss Teen Sherpa -S2","category":null,"contestant":{"voting_id":"24","name":"Mingma Tshering Sherpa"},"vote_count":1,"created_on":"2020-01-06T20:03:32.838333+05:45"},{"idx":"URhtNFt4UJbbQVjuusfNxj","contest":"Mr. & Miss Teen Sherpa 2020 - S2","episode":"Mr.&Miss Teen Sherpa -S2","category":null,"contestant":{"voting_id":"24","name":"Mingma Tshering Sherpa"},"vote_count":1,"created_on":"2020-01-06T20:02:53.138515+05:45"},{"idx":"FaxkvvTDByyiJhGEj3pyqC","contest":"Mr. & Miss Teen Sherpa 2020 - S2","episode":"Mr.&Miss Teen Sherpa -S2","category":null,"contestant":{"voting_id":"24","name":"Mingma Tshering Sherpa"},"vote_count":1,"created_on":"2020-01-06T20:02:33.929788+05:45"},{"idx":"B9rBKUx6NTB52xtrpnJzvZ","contest":"Mr. & Miss Teen Sherpa 2020 - S2","episode":"Mr.&Miss Teen Sherpa -S2","category":null,"contestant":{"voting_id":"24","name":"Mingma Tshering Sherpa"},"vote_count":1,"created_on":"2020-01-06T20:02:14.968017+05:45"},{"idx":"Nq8kg2BNWaoBUcxSrKD9Zb","contest":"Mr. & Miss Teen Sherpa 2020 - S2","episode":"Mr.&Miss Teen Sherpa -S2","category":null,"contestant":{"voting_id":"24","name":"Mingma Tshering Sherpa"},"vote_count":1,"created_on":"2020-01-06T20:01:54.644110+05:45"},{"idx":"jdpKmSwdsJs6XrTMFeFZK8","contest":"Mr. & Miss Teen Sherpa 2020 - S2","episode":"Mr.&Miss Teen Sherpa -S2","category":null,"contestant":{"voting_id":"24","name":"Mingma Tshering Sherpa"},"vote_count":1,"created_on":"2020-01-06T19:58:54.931970+05:45"},{"idx":"fY5LeG663PsVftJmpB2pPN","contest":"Model Superstar","episode":"Model Superstar","category":null,"contestant":{"voting_id":"12","name":"Rabin Ghising"},"vote_count":1,"created_on":"2020-01-06T19:48:50.364031+05:45"},{"idx":"BKUPB2xS8QDUsANFaA2nbZ","contest":"Model Superstar","episode":"Model Superstar","category":null,"contestant":{"voting_id":"12","name":"Rabin Ghising"},"vote_count":1,"created_on":"2020-01-06T19:48:06.646608+05:45"},{"idx":"eCy42opDKoKodR9NrFBKrN","contest":"Model Superstar","episode":"Model Superstar","category":null,"contestant":{"voting_id":"17","name":"Sajana Panta"},"vote_count":1,"created_on":"2020-01-06T19:11:56.033278+05:45"},{"idx":"HP5aipvbnTsEJjxGPVGcej","contest":"Mr. & Miss Teen Sherpa 2020 - S2","episode":"Mr.&Miss Teen Sherpa -S2","category":null,"contestant":{"voting_id":"02","name":"Pema Yanji sherpa"},"vote_count":1,"created_on":"2020-01-06T19:09:36.591243+05:45"},{"idx":"gj5s64eQeM824MvRYEa7Ge","contest":"Model Superstar","episode":"Model Superstar","category":null,"contestant":{"voting_id":"11","name":"Rachana Karki"},"vote_count":1,"created_on":"2020-01-06T19:08:42.217261+05:45"},{"idx":"YMGH37h3EehLwRcpdibrqQ","contest":"Mr. & Miss Teen Sherpa 2020 - S2","episode":"Mr.&Miss Teen Sherpa -S2","category":null,"contestant":{"voting_id":"24","name":"Mingma Tshering Sherpa"},"vote_count":1,"created_on":"2020-01-06T18:40:48.750186+05:45"},{"idx":"aF9mMLvg7jT5PDxoXfoz2D","contest":"NEPALBHASA STAR MUSIC VIDEO AWARDS-2019","episode":null,"category":"BEST LYRICIST","contestant":{"voting_id":"4C","name":"Bhim Bahadur Nakarmi"},"vote_count":1,"created_on":"2020-01-06T17:15:09.487933+05:45"},{"idx":"LMGbk75kemBJcKUzgf8eeL","contest":"Model Superstar","episode":"Model Superstar","category":null,"contestant":{"voting_id":"04","name":"Sabita Maharjan"},"vote_count":50,"created_on":"2020-01-06T16:55:45.557214+05:45"},{"idx":"4DhUGnUAjSp7U89TNqnAPL","contest":"Model Superstar","episode":"Model Superstar","category":null,"contestant":{"voting_id":"04","name":"Sabita Maharjan"},"vote_count":100,"created_on":"2020-01-06T16:55:14.846989+05:45"},{"idx":"K7namQxjfNubyHYTana896","contest":"Mr. & Miss Teen Sherpa 2020 - S2","episode":"Mr.&Miss Teen Sherpa -S2","category":null,"contestant":{"voting_id":"24","name":"Mingma Tshering Sherpa"},"vote_count":1,"created_on":"2020-01-06T16:46:00.593114+05:45"},{"idx":"gJf5u22j3UdvHuuUkYsoxF","contest":"Mr. & Miss Teen Sherpa 2020 - S2","episode":"Mr.&Miss Teen Sherpa -S2","category":null,"contestant":{"voting_id":"02","name":"Pema Yanji sherpa"},"vote_count":1,"created_on":"2020-01-06T16:45:57.861371+05:45"},{"idx":"e5peHFTg4vNgsKGZzvdJXH","contest":"Mr. & Miss Teen Sherpa 2020 - S2","episode":"Mr.&Miss Teen Sherpa -S2","category":null,"contestant":{"voting_id":"02","name":"Pema Yanji sherpa"},"vote_count":1,"created_on":"2020-01-06T16:45:42.280948+05:45"},{"idx":"ru3Y3vGUfSCVr6kZFeSrdC","contest":"Mr. & Miss Teen Sherpa 2020 - S2","episode":"Mr.&Miss Teen Sherpa -S2","category":null,"contestant":{"voting_id":"02","name":"Pema Yanji sherpa"},"vote_count":1,"created_on":"2020-01-06T16:45:37.116589+05:45"},{"idx":"mqzFziTMvpMQt4ELPgwfMP","contest":"Mr. & Miss Teen Sherpa 2020 - S2","episode":"Mr.&Miss Teen Sherpa -S2","category":null,"contestant":{"voting_id":"02","name":"Pema Yanji sherpa"},"vote_count":1,"created_on":"2020-01-06T16:45:28.554005+05:45"},{"idx":"pHt9DJWogFHNEHEBCJBfzC","contest":"Model Superstar","episode":"Model Superstar","category":null,"contestant":{"voting_id":"14","name":"Ashish Shakya"},"vote_count":100,"created_on":"2020-01-06T16:41:25.130654+05:45"},{"idx":"yPLHPEgc8yy6ZiXQNoDie7","contest":"Model Superstar","episode":"Model Superstar","category":null,"contestant":{"voting_id":"04","name":"Sabita Maharjan"},"vote_count":500,"created_on":"2020-01-06T14:28:00.158455+05:45"},{"idx":"UpYwNnHEgy89MJxPfM4Cxk","contest":"Model Superstar","episode":"Model Superstar","category":null,"contestant":{"voting_id":"04","name":"Sabita Maharjan"},"vote_count":1,"created_on":"2020-01-06T14:12:14.886803+05:45"},{"idx":"5uQQ4P2HLwAt6qKvyqJW2V","contest":"Model Superstar","episode":"Model Superstar","category":null,"contestant":{"voting_id":"22","name":"Sunil Laudrey"},"vote_count":1,"created_on":"2020-01-06T13:53:09.157738+05:45"},{"idx":"xTkQbFpJ9toBFUSXyZU3gb","contest":"Model Superstar","episode":"Model Superstar","category":null,"contestant":{"voting_id":"22","name":"Sunil Laudrey"},"vote_count":5,"created_on":"2020-01-06T13:52:34.865285+05:45"},{"idx":"Y9zrY6gGJEs63CQMYVQ8c5","contest":"Model Superstar","episode":"Model Superstar","category":null,"contestant":{"voting_id":"22","name":"Sunil Laudrey"},"vote_count":1,"created_on":"2020-01-06T13:52:20.730321+05:45"},{"idx":"MFwzAH5YNHGQ5uxudwEB43","contest":"Model Superstar","episode":"Model Superstar","category":null,"contestant":{"voting_id":"22","name":"Sunil Laudrey"},"vote_count":5,"created_on":"2020-01-06T13:50:45.205922+05:45"},{"idx":"LZWeauB6LDZAefpN4K3N7P","contest":"Model Superstar","episode":"Model Superstar","category":null,"contestant":{"voting_id":"22","name":"Sunil Laudrey"},"vote_count":100,"created_on":"2020-01-06T13:50:08.083332+05:45"},{"idx":"hcZarYK5o5XdWKawHEpqga","contest":"Model Superstar","episode":"Model Superstar","category":null,"contestant":{"voting_id":"22","name":"Sunil Laudrey"},"vote_count":1,"created_on":"2020-01-06T13:49:41.631963+05:45"},{"idx":"fqPpC8YELtFLJywtZn3znc","contest":"Mr. & Miss Teen Sherpa 2020 - S2","episode":"Mr.&Miss Teen Sherpa -S2","category":null,"contestant":{"voting_id":"05","name":"Nima Lhamu sherpa"},"vote_count":1,"created_on":"2020-01-06T13:41:44.672937+05:45"},{"idx":"2uKDYj7BKFFM4eRPFs5jUV","contest":"Mr. & Miss Teen Sherpa 2020 - S2","episode":"Mr.&Miss Teen Sherpa -S2","category":null,"contestant":{"voting_id":"05","name":"Nima Lhamu sherpa"},"vote_count":1,"created_on":"2020-01-06T13:40:57.555648+05:45"},{"idx":"K5T7n7PkdpmtZzKwukQex8","contest":"Mr. & Miss Teen Sherpa 2020 - S2","episode":"Mr.&Miss Teen Sherpa -S2","category":null,"contestant":{"voting_id":"05","name":"Nima Lhamu sherpa"},"vote_count":1,"created_on":"2020-01-06T13:39:54.143553+05:45"},{"idx":"wxiSvVzEmEd5wrnvbD4z4f","contest":"NEPALBHASA STAR MUSIC VIDEO AWARDS-2019","episode":null,"category":"BEST DEBUT SINGER, MALE","contestant":{"voting_id":"16G","name":"Krishna Dangol"},"vote_count":1,"created_on":"2020-01-06T13:37:51.323669+05:45"},{"idx":"YtofzVNzJ8Zahqrfid7xPh","contest":"Model Superstar","episode":"Model Superstar","category":null,"contestant":{"voting_id":"04","name":"Sabita Maharjan"},"vote_count":1,"created_on":"2020-01-06T13:24:01.473463+05:45"},{"idx":"ud9EWbeeKJE9fy62LenKrR","contest":"Mr. & Miss Teen Sherpa 2020 - S2","episode":"Mr.&Miss Teen Sherpa -S2","category":null,"contestant":{"voting_id":"03","name":"Mingma Sherpa"},"vote_count":1,"created_on":"2020-01-06T13:09:21.874698+05:45"},{"idx":"AdPLXrURjeKu6w3TzSwEu6","contest":"NEPALBHASA STAR MUSIC VIDEO AWARDS-2019","episode":null,"category":"BEST DEBUT SINGER, FEMALE","contestant":{"voting_id":"18B","name":"Mohan Devi Maharjan"},"vote_count":1,"created_on":"2020-01-06T12:56:51.599342+05:45"},{"idx":"cvkSVvuMG8sj57FirvtCG6","contest":"Model Superstar","episode":"Model Superstar","category":null,"contestant":{"voting_id":"13","name":"Prashant Shah"},"vote_count":1,"created_on":"2020-01-06T12:22:35.466451+05:45"},{"idx":"h8VfKe9SQtZFcEd8prVtpg","contest":"Model Superstar","episode":"Model Superstar","category":null,"contestant":{"voting_id":"03","name":"Smriti Shah"},"vote_count":1,"created_on":"2020-01-06T12:20:45.563350+05:45"},{"idx":"TJt8hFvo6vc3Tsee7E7YVG","contest":"Model Superstar","episode":"Model Superstar","category":null,"contestant":{"voting_id":"01","name":"Sajina Subba"},"vote_count":1,"created_on":"2020-01-06T12:09:17.969375+05:45"},{"idx":"G8kAPGfhZv2GUmssBUzQa3","contest":"Model Superstar","episode":"Model Superstar","category":null,"contestant":{"voting_id":"04","name":"Sabita Maharjan"},"vote_count":1,"created_on":"2020-01-06T11:30:11.387897+05:45"},{"idx":"6SU2ZTR63n6wuXsCVZPciB","contest":"Mr. & Miss Teen Sherpa 2020 - S2","episode":"Mr.&Miss Teen Sherpa -S2","category":null,"contestant":{"voting_id":"06","name":"Tenzin Pema Sherpa"},"vote_count":1,"created_on":"2020-01-06T11:16:33.475842+05:45"},{"idx":"QEyyjZ9DiNFTDeY9bMm3eD","contest":"Mr. & Miss Teen Sherpa 2020 - S2","episode":"Mr.&Miss Teen Sherpa -S2","category":null,"contestant":{"voting_id":"06","name":"Tenzin Pema Sherpa"},"vote_count":1,"created_on":"2020-01-06T11:16:15.899438+05:45"}]}