{"total_pages":275,"total_records":13720,"next":"https://khalti.com/api/v2/vuservote/?page=146","previous":"https://khalti.com/api/v2/vuservote/?page=144","record_range":[7201,7250],"current_page":145,"records":[{"idx":"zqfs6onb3bSuQ4iGq2dRW7","contest":"Model Superstar","episode":"Model Superstar","category":null,"contestant":{"voting_id":"04","name":"Sabita Maharjan"},"vote_count":50,"created_on":"2020-01-06T11:15:56.506735+05:45"},{"idx":"CcLpWcRgJGWnJX833Gm6A2","contest":"Model Superstar","episode":"Model Superstar","category":null,"contestant":{"voting_id":"21","name":"Padam Bahadur Ranamagar"},"vote_count":1,"created_on":"2020-01-06T10:48:26.435057+05:45"},{"idx":"RzeRLHBt25Vjr87qcAdCvH","contest":"Model Superstar","episode":"Model Superstar","category":null,"contestant":{"voting_id":"22","name":"Sunil Laudrey"},"vote_count":5,"created_on":"2020-01-06T10:47:08.401732+05:45"},{"idx":"iK9Wkb2jwKALo252BnaQcJ","contest":"Model Superstar","episode":"Model Superstar","category":null,"contestant":{"voting_id":"22","name":"Sunil Laudrey"},"vote_count":5,"created_on":"2020-01-06T10:46:24.923510+05:45"},{"idx":"P8JcJLg52JrmxLXrGjBSXM","contest":"Model Superstar","episode":"Model Superstar","category":null,"contestant":{"voting_id":"22","name":"Sunil Laudrey"},"vote_count":5,"created_on":"2020-01-06T10:45:47.714793+05:45"},{"idx":"UrbgoCw96EKxQ4NwEatRcV","contest":"Model Superstar","episode":"Model Superstar","category":null,"contestant":{"voting_id":"12","name":"Rabin Ghising"},"vote_count":1,"created_on":"2020-01-06T10:43:01.809357+05:45"},{"idx":"7GsjtffecYn8EMVUiJe7mb","contest":"Model Superstar","episode":"Model Superstar","category":null,"contestant":{"voting_id":"22","name":"Sunil Laudrey"},"vote_count":1,"created_on":"2020-01-06T10:42:39.888277+05:45"},{"idx":"JBejaUYwvFzDHXnvmpWq6e","contest":"Model Superstar","episode":"Model Superstar","category":null,"contestant":{"voting_id":"04","name":"Sabita Maharjan"},"vote_count":1,"created_on":"2020-01-06T10:36:29.529367+05:45"},{"idx":"gSxnCxwot7beVbqms3jTg4","contest":"Model Superstar","episode":"Model Superstar","category":null,"contestant":{"voting_id":"04","name":"Sabita Maharjan"},"vote_count":1,"created_on":"2020-01-06T10:36:08.558286+05:45"},{"idx":"zWNd9t78MSMW9SJnKFWxja","contest":"Model Superstar","episode":"Model Superstar","category":null,"contestant":{"voting_id":"04","name":"Sabita Maharjan"},"vote_count":1,"created_on":"2020-01-06T10:35:58.762202+05:45"},{"idx":"2WYg4THxCCHhhzKjMADgwi","contest":"Model Superstar","episode":"Model Superstar","category":null,"contestant":{"voting_id":"04","name":"Sabita Maharjan"},"vote_count":1,"created_on":"2020-01-06T10:35:50.084728+05:45"},{"idx":"kQxZF8R8k2mqwtnxsHDpzC","contest":"Model Superstar","episode":"Model Superstar","category":null,"contestant":{"voting_id":"04","name":"Sabita Maharjan"},"vote_count":1,"created_on":"2020-01-06T10:35:40.560942+05:45"},{"idx":"kzoQCH3debfSL7rnGVzhaR","contest":"Model Superstar","episode":"Model Superstar","category":null,"contestant":{"voting_id":"04","name":"Sabita Maharjan"},"vote_count":1,"created_on":"2020-01-06T10:35:30.297669+05:45"},{"idx":"ny33j5nf4W9X5CPxGiTTD9","contest":"Model Superstar","episode":"Model Superstar","category":null,"contestant":{"voting_id":"04","name":"Sabita Maharjan"},"vote_count":1,"created_on":"2020-01-06T10:34:33.284452+05:45"},{"idx":"ZVComj5Q4o4Q9dLtPEtmv5","contest":"Model Superstar","episode":"Model Superstar","category":null,"contestant":{"voting_id":"04","name":"Sabita Maharjan"},"vote_count":1,"created_on":"2020-01-06T10:34:25.032386+05:45"},{"idx":"qvydAcsno6wwD67S2wP5BM","contest":"Model Superstar","episode":"Model Superstar","category":null,"contestant":{"voting_id":"04","name":"Sabita Maharjan"},"vote_count":1,"created_on":"2020-01-06T10:33:50.991474+05:45"},{"idx":"2SqyU2orcRSYN3WLNBkzwH","contest":"Model Superstar","episode":"Model Superstar","category":null,"contestant":{"voting_id":"04","name":"Sabita Maharjan"},"vote_count":1,"created_on":"2020-01-06T10:33:40.985352+05:45"},{"idx":"QsEWRRcbaXvLVhewruVE7Z","contest":"Model Superstar","episode":"Model Superstar","category":null,"contestant":{"voting_id":"04","name":"Sabita Maharjan"},"vote_count":1,"created_on":"2020-01-06T10:33:28.395895+05:45"},{"idx":"jEncisLgFfwH9WCYHV6VK6","contest":"Model Superstar","episode":"Model Superstar","category":null,"contestant":{"voting_id":"04","name":"Sabita Maharjan"},"vote_count":1,"created_on":"2020-01-06T10:33:18.018707+05:45"},{"idx":"EhLkksXpdcnKEyDBWUkrJo","contest":"Model Superstar","episode":"Model Superstar","category":null,"contestant":{"voting_id":"04","name":"Sabita Maharjan"},"vote_count":1,"created_on":"2020-01-06T10:30:50.513403+05:45"},{"idx":"D6ofqzfVY5WrjudzCEsKt2","contest":"Model Superstar","episode":"Model Superstar","category":null,"contestant":{"voting_id":"04","name":"Sabita Maharjan"},"vote_count":1,"created_on":"2020-01-06T10:30:32.283633+05:45"},{"idx":"vRKNPLi93c2kYMbpyRMAef","contest":"Model Superstar","episode":"Model Superstar","category":null,"contestant":{"voting_id":"04","name":"Sabita Maharjan"},"vote_count":1,"created_on":"2020-01-06T10:29:36.755327+05:45"},{"idx":"cZXZBys4TAqcRyYXMut6Uo","contest":"Model Superstar","episode":"Model Superstar","category":null,"contestant":{"voting_id":"04","name":"Sabita Maharjan"},"vote_count":1,"created_on":"2020-01-06T10:29:26.752674+05:45"},{"idx":"bbMaT7di9bi5PHifSmTQy8","contest":"Model Superstar","episode":"Model Superstar","category":null,"contestant":{"voting_id":"04","name":"Sabita Maharjan"},"vote_count":1,"created_on":"2020-01-06T10:26:49.446741+05:45"},{"idx":"skexLeCdfmEocvzC2CD6PD","contest":"Model Superstar","episode":"Model Superstar","category":null,"contestant":{"voting_id":"04","name":"Sabita Maharjan"},"vote_count":1,"created_on":"2020-01-06T10:26:40.784774+05:45"},{"idx":"Yxhg2AZkPf3rko3gnFMx2P","contest":"Model Superstar","episode":"Model Superstar","category":null,"contestant":{"voting_id":"04","name":"Sabita Maharjan"},"vote_count":1,"created_on":"2020-01-06T10:26:31.005468+05:45"},{"idx":"tQzjRLu57D952Liwew2W28","contest":"Model Superstar","episode":"Model Superstar","category":null,"contestant":{"voting_id":"04","name":"Sabita Maharjan"},"vote_count":1,"created_on":"2020-01-06T10:26:21.901370+05:45"},{"idx":"TDmEfbCpSkNfxnsxcV9tpB","contest":"Model Superstar","episode":"Model Superstar","category":null,"contestant":{"voting_id":"04","name":"Sabita Maharjan"},"vote_count":1,"created_on":"2020-01-06T10:26:11.276111+05:45"},{"idx":"26irogp44mkBUAUK6c4CFg","contest":"Model Superstar","episode":"Model Superstar","category":null,"contestant":{"voting_id":"04","name":"Sabita Maharjan"},"vote_count":1,"created_on":"2020-01-06T10:26:01.580451+05:45"},{"idx":"vJPHUV7j8GZZYqBALgc847","contest":"Model Superstar","episode":"Model Superstar","category":null,"contestant":{"voting_id":"04","name":"Sabita Maharjan"},"vote_count":1,"created_on":"2020-01-06T10:25:51.261880+05:45"},{"idx":"ebTSBjyNNYGrtRAtqvvLg4","contest":"Model Superstar","episode":"Model Superstar","category":null,"contestant":{"voting_id":"04","name":"Sabita Maharjan"},"vote_count":1,"created_on":"2020-01-06T10:25:41.840191+05:45"},{"idx":"dwzdZ9bsPSnZuiFMYuL7qX","contest":"Model Superstar","episode":"Model Superstar","category":null,"contestant":{"voting_id":"04","name":"Sabita Maharjan"},"vote_count":1,"created_on":"2020-01-06T10:25:31.019187+05:45"},{"idx":"oFYtnGyoBWBR3u6fAc7CaJ","contest":"Model Superstar","episode":"Model Superstar","category":null,"contestant":{"voting_id":"04","name":"Sabita Maharjan"},"vote_count":1,"created_on":"2020-01-06T10:25:17.442505+05:45"},{"idx":"NByZq3uGxXaCMunTtk8Mi2","contest":"Model Superstar","episode":"Model Superstar","category":null,"contestant":{"voting_id":"04","name":"Sabita Maharjan"},"vote_count":1,"created_on":"2020-01-06T10:25:07.020405+05:45"},{"idx":"o7ewXRqhs4PJ56jejHHXDb","contest":"Model Superstar","episode":"Model Superstar","category":null,"contestant":{"voting_id":"04","name":"Sabita Maharjan"},"vote_count":1,"created_on":"2020-01-06T10:24:54.917076+05:45"},{"idx":"d89texpgnj29qJSD2ebpig","contest":"Model Superstar","episode":"Model Superstar","category":null,"contestant":{"voting_id":"04","name":"Sabita Maharjan"},"vote_count":1,"created_on":"2020-01-06T10:24:44.859164+05:45"},{"idx":"nymXeiTtCfoac4XSY43WUn","contest":"Model Superstar","episode":"Model Superstar","category":null,"contestant":{"voting_id":"04","name":"Sabita Maharjan"},"vote_count":1,"created_on":"2020-01-06T10:24:34.693305+05:45"},{"idx":"soFgEviijDcwEeEW3wbrvA","contest":"Model Superstar","episode":"Model Superstar","category":null,"contestant":{"voting_id":"04","name":"Sabita Maharjan"},"vote_count":1,"created_on":"2020-01-06T10:24:22.512771+05:45"},{"idx":"HKBVomAsLyfaJuxNhceVeL","contest":"Model Superstar","episode":"Model Superstar","category":null,"contestant":{"voting_id":"04","name":"Sabita Maharjan"},"vote_count":1,"created_on":"2020-01-06T10:24:10.271129+05:45"},{"idx":"GieVRT8WDRkvee6DT6krYo","contest":"Model Superstar","episode":"Model Superstar","category":null,"contestant":{"voting_id":"04","name":"Sabita Maharjan"},"vote_count":1,"created_on":"2020-01-06T10:23:47.532433+05:45"},{"idx":"wimxs5iWNywrc6ZxCoa3PY","contest":"Model Superstar","episode":"Model Superstar","category":null,"contestant":{"voting_id":"04","name":"Sabita Maharjan"},"vote_count":1,"created_on":"2020-01-06T10:23:36.472932+05:45"},{"idx":"rjJYNk8PdouQZ5Ko7w7hgB","contest":"Model Superstar","episode":"Model Superstar","category":null,"contestant":{"voting_id":"04","name":"Sabita Maharjan"},"vote_count":1,"created_on":"2020-01-06T10:23:25.341615+05:45"},{"idx":"g2egxUjCNMaZ4cnG59zQnP","contest":"Model Superstar","episode":"Model Superstar","category":null,"contestant":{"voting_id":"04","name":"Sabita Maharjan"},"vote_count":1,"created_on":"2020-01-06T10:23:12.240884+05:45"},{"idx":"LujhfuznH6ZiJSszqJgf8n","contest":"Model Superstar","episode":"Model Superstar","category":null,"contestant":{"voting_id":"28","name":"Pujan Tamang"},"vote_count":1,"created_on":"2020-01-06T10:13:32.550211+05:45"},{"idx":"RHgJraZSpDs6HpBqjsHTuZ","contest":"Model Superstar","episode":"Model Superstar","category":null,"contestant":{"voting_id":"04","name":"Sabita Maharjan"},"vote_count":1,"created_on":"2020-01-06T10:10:33.928464+05:45"},{"idx":"vKUybEQpWNF7T9u6Dwqsta","contest":"Model Superstar","episode":"Model Superstar","category":null,"contestant":{"voting_id":"04","name":"Sabita Maharjan"},"vote_count":1,"created_on":"2020-01-06T10:02:08.939918+05:45"},{"idx":"cjFwK89V5U6YxFayRaYH8T","contest":"Mr. & Miss Teen Sherpa 2020 - S2","episode":"Mr.&Miss Teen Sherpa -S2","category":null,"contestant":{"voting_id":"03","name":"Mingma Sherpa"},"vote_count":1,"created_on":"2020-01-06T09:46:07.800030+05:45"},{"idx":"CpGBuoUZxNEoe4SZXLcrNB","contest":"Mr. & Miss Teen Sherpa 2020 - S2","episode":"Mr.&Miss Teen Sherpa -S2","category":null,"contestant":{"voting_id":"02","name":"Pema Yanji sherpa"},"vote_count":1,"created_on":"2020-01-06T09:45:10.069266+05:45"},{"idx":"WuJ9nxvMMpsGYUbzPYxiaR","contest":"Mr. & Miss Teen Sherpa 2020 - S2","episode":"Mr.&Miss Teen Sherpa -S2","category":null,"contestant":{"voting_id":"02","name":"Pema Yanji sherpa"},"vote_count":1,"created_on":"2020-01-06T09:45:04.877204+05:45"},{"idx":"JdQxApCZGpeUfsG74Jr2zb","contest":"Mr. & Miss Teen Sherpa 2020 - S2","episode":"Mr.&Miss Teen Sherpa -S2","category":null,"contestant":{"voting_id":"02","name":"Pema Yanji sherpa"},"vote_count":1,"created_on":"2020-01-06T09:44:59.221644+05:45"}]}