{"total_pages":275,"total_records":13720,"next":"https://khalti.com/api/v2/vuservote/?page=147","previous":"https://khalti.com/api/v2/vuservote/?page=145","record_range":[7251,7300],"current_page":146,"records":[{"idx":"Vq7MQgAxpyhYXaDW2CCVz8","contest":"Mr. & Miss Teen Sherpa 2020 - S2","episode":"Mr.&Miss Teen Sherpa -S2","category":null,"contestant":{"voting_id":"02","name":"Pema Yanji sherpa"},"vote_count":1,"created_on":"2020-01-06T09:44:53.794887+05:45"},{"idx":"xLEBRaw6HgZDUnsSmTCwET","contest":"Mr. & Miss Teen Sherpa 2020 - S2","episode":"Mr.&Miss Teen Sherpa -S2","category":null,"contestant":{"voting_id":"02","name":"Pema Yanji sherpa"},"vote_count":1,"created_on":"2020-01-06T09:44:48.136037+05:45"},{"idx":"6GUxFvAZsB9vURV6WBPaBP","contest":"Mr. & Miss Teen Sherpa 2020 - S2","episode":"Mr.&Miss Teen Sherpa -S2","category":null,"contestant":{"voting_id":"02","name":"Pema Yanji sherpa"},"vote_count":1,"created_on":"2020-01-06T09:44:41.794913+05:45"},{"idx":"JZaTmQ8XJVTWz9MjnhwpVd","contest":"Mr. & Miss Teen Sherpa 2020 - S2","episode":"Mr.&Miss Teen Sherpa -S2","category":null,"contestant":{"voting_id":"02","name":"Pema Yanji sherpa"},"vote_count":1,"created_on":"2020-01-06T09:44:36.297354+05:45"},{"idx":"2DrThdARbTGAzTRXS67XTB","contest":"Mr. & Miss Teen Sherpa 2020 - S2","episode":"Mr.&Miss Teen Sherpa -S2","category":null,"contestant":{"voting_id":"02","name":"Pema Yanji sherpa"},"vote_count":1,"created_on":"2020-01-06T09:44:31.209564+05:45"},{"idx":"CJiVMjRA4zQRaMmW2KJRFh","contest":"Mr. & Miss Teen Sherpa 2020 - S2","episode":"Mr.&Miss Teen Sherpa -S2","category":null,"contestant":{"voting_id":"02","name":"Pema Yanji sherpa"},"vote_count":1,"created_on":"2020-01-06T09:44:26.078936+05:45"},{"idx":"F2MooTKR4AjMg7gQGmNHsR","contest":"Mr. & Miss Teen Sherpa 2020 - S2","episode":"Mr.&Miss Teen Sherpa -S2","category":null,"contestant":{"voting_id":"02","name":"Pema Yanji sherpa"},"vote_count":1,"created_on":"2020-01-06T09:44:20.569898+05:45"},{"idx":"UULZ9pRv3diKGuGGLrLcf5","contest":"Mr. & Miss Teen Sherpa 2020 - S2","episode":"Mr.&Miss Teen Sherpa -S2","category":null,"contestant":{"voting_id":"02","name":"Pema Yanji sherpa"},"vote_count":1,"created_on":"2020-01-06T09:44:15.273703+05:45"},{"idx":"RfeiQcS7spAA6ZUSAf9EfA","contest":"Mr. & Miss Teen Sherpa 2020 - S2","episode":"Mr.&Miss Teen Sherpa -S2","category":null,"contestant":{"voting_id":"02","name":"Pema Yanji sherpa"},"vote_count":1,"created_on":"2020-01-06T09:44:10.159061+05:45"},{"idx":"qwkKvYD2MSnj3SraDBfXTK","contest":"Mr. & Miss Teen Sherpa 2020 - S2","episode":"Mr.&Miss Teen Sherpa -S2","category":null,"contestant":{"voting_id":"02","name":"Pema Yanji sherpa"},"vote_count":1,"created_on":"2020-01-06T09:44:05.200505+05:45"},{"idx":"Ddk9vG9bot9rv9bQxZTvyD","contest":"Mr. & Miss Teen Sherpa 2020 - S2","episode":"Mr.&Miss Teen Sherpa -S2","category":null,"contestant":{"voting_id":"02","name":"Pema Yanji sherpa"},"vote_count":1,"created_on":"2020-01-06T09:44:00.209930+05:45"},{"idx":"WotYqqzK99dDst82iawR42","contest":"Mr. & Miss Teen Sherpa 2020 - S2","episode":"Mr.&Miss Teen Sherpa -S2","category":null,"contestant":{"voting_id":"02","name":"Pema Yanji sherpa"},"vote_count":1,"created_on":"2020-01-06T09:43:47.249401+05:45"},{"idx":"wGPZVrGSBbWfAFcmv6cmPF","contest":"Mr. & Miss Teen Sherpa 2020 - S2","episode":"Mr.&Miss Teen Sherpa -S2","category":null,"contestant":{"voting_id":"02","name":"Pema Yanji sherpa"},"vote_count":1,"created_on":"2020-01-06T09:43:42.037330+05:45"},{"idx":"ezXVAeJKjahRiqmhcwAvH8","contest":"Mr. & Miss Teen Sherpa 2020 - S2","episode":"Mr.&Miss Teen Sherpa -S2","category":null,"contestant":{"voting_id":"02","name":"Pema Yanji sherpa"},"vote_count":1,"created_on":"2020-01-06T09:43:37.403806+05:45"},{"idx":"AZXtmpSBdKGzoThcKyYX6f","contest":"Mr. & Miss Teen Sherpa 2020 - S2","episode":"Mr.&Miss Teen Sherpa -S2","category":null,"contestant":{"voting_id":"02","name":"Pema Yanji sherpa"},"vote_count":1,"created_on":"2020-01-06T09:43:31.396112+05:45"},{"idx":"JhXDvsoLywVnxLZSabq9ih","contest":"Mr. & Miss Teen Sherpa 2020 - S2","episode":"Mr.&Miss Teen Sherpa -S2","category":null,"contestant":{"voting_id":"02","name":"Pema Yanji sherpa"},"vote_count":1,"created_on":"2020-01-06T09:43:25.673796+05:45"},{"idx":"qeCvAVbaumveBvNPRQGzPA","contest":"Mr. & Miss Teen Sherpa 2020 - S2","episode":"Mr.&Miss Teen Sherpa -S2","category":null,"contestant":{"voting_id":"02","name":"Pema Yanji sherpa"},"vote_count":1,"created_on":"2020-01-06T09:43:24.183431+05:45"},{"idx":"XWGuNYT2jzTuc24xkLvceX","contest":"Mr. & Miss Teen Sherpa 2020 - S2","episode":"Mr.&Miss Teen Sherpa -S2","category":null,"contestant":{"voting_id":"02","name":"Pema Yanji sherpa"},"vote_count":1,"created_on":"2020-01-06T09:43:20.840857+05:45"},{"idx":"6wJ5y3ksyF77dG2jW54yBR","contest":"Mr. & Miss Teen Sherpa 2020 - S2","episode":"Mr.&Miss Teen Sherpa -S2","category":null,"contestant":{"voting_id":"02","name":"Pema Yanji sherpa"},"vote_count":1,"created_on":"2020-01-06T09:43:15.678337+05:45"},{"idx":"a2Kcb4xiC9UtEJANW9pdBa","contest":"Mr. & Miss Teen Sherpa 2020 - S2","episode":"Mr.&Miss Teen Sherpa -S2","category":null,"contestant":{"voting_id":"02","name":"Pema Yanji sherpa"},"vote_count":1,"created_on":"2020-01-06T09:43:12.325165+05:45"},{"idx":"7FX78fhgSaw4yqqkERAFGS","contest":"Mr. & Miss Teen Sherpa 2020 - S2","episode":"Mr.&Miss Teen Sherpa -S2","category":null,"contestant":{"voting_id":"02","name":"Pema Yanji sherpa"},"vote_count":1,"created_on":"2020-01-06T09:43:10.026127+05:45"},{"idx":"EbPHswW5fdQ6Df5TYcQT66","contest":"Mr. & Miss Teen Sherpa 2020 - S2","episode":"Mr.&Miss Teen Sherpa -S2","category":null,"contestant":{"voting_id":"02","name":"Pema Yanji sherpa"},"vote_count":1,"created_on":"2020-01-06T09:43:04.509127+05:45"},{"idx":"qt8juYTZQY2KS47nknFhz2","contest":"Mr. & Miss Teen Sherpa 2020 - S2","episode":"Mr.&Miss Teen Sherpa -S2","category":null,"contestant":{"voting_id":"02","name":"Pema Yanji sherpa"},"vote_count":1,"created_on":"2020-01-06T09:43:02.534835+05:45"},{"idx":"oPPQ4RDvTuEk6AiAdEhVXE","contest":"Mr. & Miss Teen Sherpa 2020 - S2","episode":"Mr.&Miss Teen Sherpa -S2","category":null,"contestant":{"voting_id":"02","name":"Pema Yanji sherpa"},"vote_count":1,"created_on":"2020-01-06T09:42:57.981169+05:45"},{"idx":"xRUtDoAsPGWzmySgJRCvab","contest":"Mr. & Miss Teen Sherpa 2020 - S2","episode":"Mr.&Miss Teen Sherpa -S2","category":null,"contestant":{"voting_id":"02","name":"Pema Yanji sherpa"},"vote_count":1,"created_on":"2020-01-06T09:42:53.572332+05:45"},{"idx":"XtgaYbCY79PmqxyPWtBqsG","contest":"Mr. & Miss Teen Sherpa 2020 - S2","episode":"Mr.&Miss Teen Sherpa -S2","category":null,"contestant":{"voting_id":"02","name":"Pema Yanji sherpa"},"vote_count":1,"created_on":"2020-01-06T09:42:52.775934+05:45"},{"idx":"LCTLPWBDMTLL5xnPWf5bWm","contest":"Mr. & Miss Teen Sherpa 2020 - S2","episode":"Mr.&Miss Teen Sherpa -S2","category":null,"contestant":{"voting_id":"02","name":"Pema Yanji sherpa"},"vote_count":1,"created_on":"2020-01-06T09:42:43.873202+05:45"},{"idx":"f9rc8qkKhH6TioDeydwTXE","contest":"Mr. & Miss Teen Sherpa 2020 - S2","episode":"Mr.&Miss Teen Sherpa -S2","category":null,"contestant":{"voting_id":"02","name":"Pema Yanji sherpa"},"vote_count":1,"created_on":"2020-01-06T09:42:34.284888+05:45"},{"idx":"4yqbzmF8fBhfiQ8nzpybVD","contest":"Mr. & Miss Teen Sherpa 2020 - S2","episode":"Mr.&Miss Teen Sherpa -S2","category":null,"contestant":{"voting_id":"02","name":"Pema Yanji sherpa"},"vote_count":1,"created_on":"2020-01-06T09:42:22.972938+05:45"},{"idx":"obNikvMkiC7rgV9qRWYSHA","contest":"Model Superstar","episode":"Model Superstar","category":null,"contestant":{"voting_id":"01","name":"Sajina Subba"},"vote_count":1,"created_on":"2020-01-06T09:35:00.733631+05:45"},{"idx":"SXE5Uvn83v53SpG4WyUnWk","contest":"Mr. & Miss Teen Sherpa 2020 - S2","episode":"Mr.&Miss Teen Sherpa -S2","category":null,"contestant":{"voting_id":"01","name":"Lhamu Sherpa"},"vote_count":1,"created_on":"2020-01-06T09:34:18.086974+05:45"},{"idx":"EGh5jFZfYRHref8hh8DdTR","contest":"Mr. & Miss Teen Sherpa 2020 - S2","episode":"Mr.&Miss Teen Sherpa -S2","category":null,"contestant":{"voting_id":"01","name":"Lhamu Sherpa"},"vote_count":1,"created_on":"2020-01-06T09:13:39.068767+05:45"},{"idx":"csf6kmjZc9BNy5Nu8HP65P","contest":"Mr. & Miss Teen Sherpa 2020 - S2","episode":"Mr.&Miss Teen Sherpa -S2","category":null,"contestant":{"voting_id":"01","name":"Lhamu Sherpa"},"vote_count":1,"created_on":"2020-01-06T09:13:23.604290+05:45"},{"idx":"4FM4Jsg9WgZcogNsiSdXiQ","contest":"Mr. & Miss Teen Sherpa 2020 - S2","episode":"Mr.&Miss Teen Sherpa -S2","category":null,"contestant":{"voting_id":"01","name":"Lhamu Sherpa"},"vote_count":1,"created_on":"2020-01-06T07:52:07.327229+05:45"},{"idx":"UpUeUgyan6WLBMDLiY5dQF","contest":"Model Superstar","episode":"Model Superstar","category":null,"contestant":{"voting_id":"04","name":"Sabita Maharjan"},"vote_count":5,"created_on":"2020-01-06T07:40:12.291094+05:45"},{"idx":"apsdzJQVGQyz3JwpQBfPLS","contest":"Model Superstar","episode":"Model Superstar","category":null,"contestant":{"voting_id":"04","name":"Sabita Maharjan"},"vote_count":1,"created_on":"2020-01-06T07:38:37.856825+05:45"},{"idx":"ZeUbHdJa2sJzg4EhBt5Aw8","contest":"Model Superstar","episode":"Model Superstar","category":null,"contestant":{"voting_id":"04","name":"Sabita Maharjan"},"vote_count":1,"created_on":"2020-01-06T07:38:09.597296+05:45"},{"idx":"4N5Tm9dutxzbqNDzwhZcdW","contest":"Model Superstar","episode":"Model Superstar","category":null,"contestant":{"voting_id":"16","name":"Anil Karki"},"vote_count":1,"created_on":"2020-01-06T07:04:01.488528+05:45"},{"idx":"w4MZZZftL8FiWNZdHrxo85","contest":"Model Superstar","episode":"Model Superstar","category":null,"contestant":{"voting_id":"31","name":"Aakriti Subedi"},"vote_count":1,"created_on":"2020-01-06T04:57:27.120053+05:45"},{"idx":"sYTPqsuKfwFFsjKzqe6aJg","contest":"Model Superstar","episode":"Model Superstar","category":null,"contestant":{"voting_id":"12","name":"Rabin Ghising"},"vote_count":1,"created_on":"2020-01-05T23:08:36.836772+05:45"},{"idx":"zKcgmJqHKEa7s9ZgjkGEpR","contest":"Model Superstar","episode":"Model Superstar","category":null,"contestant":{"voting_id":"12","name":"Rabin Ghising"},"vote_count":1,"created_on":"2020-01-05T23:08:15.337870+05:45"},{"idx":"mYyNWTrCam9ucK8FQqcVYM","contest":"Model Superstar","episode":"Model Superstar","category":null,"contestant":{"voting_id":"12","name":"Rabin Ghising"},"vote_count":1,"created_on":"2020-01-05T23:08:01.698161+05:45"},{"idx":"jsUFK8GqHDrstut3qRzBv9","contest":"Model Superstar","episode":"Model Superstar","category":null,"contestant":{"voting_id":"12","name":"Rabin Ghising"},"vote_count":1,"created_on":"2020-01-05T23:07:46.532559+05:45"},{"idx":"2gS7Cj3sy7aB9EpLSxhzyh","contest":"Model Superstar","episode":"Model Superstar","category":null,"contestant":{"voting_id":"12","name":"Rabin Ghising"},"vote_count":1,"created_on":"2020-01-05T23:07:33.808206+05:45"},{"idx":"VMtijHLFwe33MUfgge3daf","contest":"Model Superstar","episode":"Model Superstar","category":null,"contestant":{"voting_id":"12","name":"Rabin Ghising"},"vote_count":1,"created_on":"2020-01-05T23:07:15.971134+05:45"},{"idx":"zswHjiH5EqBNTPhVw6QYZC","contest":"Model Superstar","episode":"Model Superstar","category":null,"contestant":{"voting_id":"12","name":"Rabin Ghising"},"vote_count":1,"created_on":"2020-01-05T23:06:50.697665+05:45"},{"idx":"zu3mTGQsAfLVqiTJJSvrq7","contest":"Mr. & Miss Teen Sherpa 2020 - S2","episode":"Mr.&Miss Teen Sherpa -S2","category":null,"contestant":{"voting_id":"05","name":"Nima Lhamu sherpa"},"vote_count":1,"created_on":"2020-01-05T22:48:50.943378+05:45"},{"idx":"JdFTQzHFAsG59tkDvrqdnU","contest":"Model Superstar","episode":"Model Superstar","category":null,"contestant":{"voting_id":"31","name":"Aakriti Subedi"},"vote_count":100,"created_on":"2020-01-05T22:36:00.644135+05:45"},{"idx":"TMp6Y9JmAvRjK3BJKJZwPn","contest":"Mr. & Miss Teen Sherpa 2020 - S2","episode":"Mr.&Miss Teen Sherpa -S2","category":null,"contestant":{"voting_id":"08","name":"Angdali Sherpa"},"vote_count":1,"created_on":"2020-01-05T22:23:27.467706+05:45"},{"idx":"aDtBikCZC3DjzGSAV8ZHsU","contest":"Mr. & Miss Teen Sherpa 2020 - S2","episode":"Mr.&Miss Teen Sherpa -S2","category":null,"contestant":{"voting_id":"08","name":"Angdali Sherpa"},"vote_count":1,"created_on":"2020-01-05T22:22:42.257102+05:45"}]}