{"total_pages":275,"total_records":13720,"next":"https://khalti.com/api/v2/vuservote/?page=148","previous":"https://khalti.com/api/v2/vuservote/?page=146","record_range":[7301,7350],"current_page":147,"records":[{"idx":"8uWbmr5Nj7qWZ76gbrwLED","contest":"NEPALBHASA STAR MUSIC VIDEO AWARDS-2019","episode":null,"category":"BEST DEBUT MODEL, FEMALE","contestant":{"voting_id":"14C","name":"Rakshya Shrestha"},"vote_count":1,"created_on":"2020-01-05T22:16:00.439132+05:45"},{"idx":"NF4LzSvWMME5PwEmVeVtpE","contest":"Mr. & Miss Teen Sherpa 2020 - S2","episode":"Mr.&Miss Teen Sherpa -S2","category":null,"contestant":{"voting_id":"24","name":"Mingma Tshering Sherpa"},"vote_count":1,"created_on":"2020-01-05T21:41:53.835424+05:45"},{"idx":"bs3t6ASW3gb6HWfCfQdwRc","contest":"Mr. & Miss Teen Sherpa 2020 - S2","episode":"Mr.&Miss Teen Sherpa -S2","category":null,"contestant":{"voting_id":"24","name":"Mingma Tshering Sherpa"},"vote_count":1,"created_on":"2020-01-05T21:41:34.375346+05:45"},{"idx":"2b9WeoRQ9S6kL5SVr7yYL5","contest":"Mr. & Miss Teen Sherpa 2020 - S2","episode":"Mr.&Miss Teen Sherpa -S2","category":null,"contestant":{"voting_id":"24","name":"Mingma Tshering Sherpa"},"vote_count":1,"created_on":"2020-01-05T21:41:12.991685+05:45"},{"idx":"m8g4dncBDX7NrJR2zutc4L","contest":"Mr. & Miss Teen Sherpa 2020 - S2","episode":"Mr.&Miss Teen Sherpa -S2","category":null,"contestant":{"voting_id":"24","name":"Mingma Tshering Sherpa"},"vote_count":1,"created_on":"2020-01-05T21:40:28.338187+05:45"},{"idx":"eXn6XhM79p25MpLwujZE9Y","contest":"Mr. & Miss Teen Sherpa 2020 - S2","episode":"Mr.&Miss Teen Sherpa -S2","category":null,"contestant":{"voting_id":"24","name":"Mingma Tshering Sherpa"},"vote_count":1,"created_on":"2020-01-05T21:40:08.178812+05:45"},{"idx":"J8nBvtKM5UjFMHteWocTUR","contest":"Mr. & Miss Teen Sherpa 2020 - S2","episode":"Mr.&Miss Teen Sherpa -S2","category":null,"contestant":{"voting_id":"24","name":"Mingma Tshering Sherpa"},"vote_count":1,"created_on":"2020-01-05T21:39:48.390306+05:45"},{"idx":"pfKBM4BMuQXgnUDpHBQ7y3","contest":"Mr. & Miss Teen Sherpa 2020 - S2","episode":"Mr.&Miss Teen Sherpa -S2","category":null,"contestant":{"voting_id":"24","name":"Mingma Tshering Sherpa"},"vote_count":1,"created_on":"2020-01-05T21:39:25.337771+05:45"},{"idx":"DZhEkzvLvUfWqoiADaCrBE","contest":"Mr. & Miss Teen Sherpa 2020 - S2","episode":"Mr.&Miss Teen Sherpa -S2","category":null,"contestant":{"voting_id":"01","name":"Lhamu Sherpa"},"vote_count":1,"created_on":"2020-01-05T21:04:56.594461+05:45"},{"idx":"NyUJ2ZSDQ7PLnu4VjPMyDP","contest":"Mr. & Miss Teen Sherpa 2020 - S2","episode":"Mr.&Miss Teen Sherpa -S2","category":null,"contestant":{"voting_id":"01","name":"Lhamu Sherpa"},"vote_count":1,"created_on":"2020-01-05T21:04:26.927428+05:45"},{"idx":"NtLYyhgyv9ZDMcA3RxvApU","contest":"Mr. & Miss Teen Sherpa 2020 - S2","episode":"Mr.&Miss Teen Sherpa -S2","category":null,"contestant":{"voting_id":"01","name":"Lhamu Sherpa"},"vote_count":1,"created_on":"2020-01-05T21:03:53.939022+05:45"},{"idx":"nD8bd38znmDpnYu27M7fUa","contest":"NEPALBHASA STAR MUSIC VIDEO AWARDS-2019","episode":null,"category":"BEST MODEL, FEMALE","contestant":{"voting_id":"13C","name":"Anjala Nakarmi"},"vote_count":1,"created_on":"2020-01-05T21:03:19.485883+05:45"},{"idx":"SidqBoz9ZQmnpCg53MYKAD","contest":"Mr. & Miss Teen Sherpa 2020 - S2","episode":"Mr.&Miss Teen Sherpa -S2","category":null,"contestant":{"voting_id":"01","name":"Lhamu Sherpa"},"vote_count":1,"created_on":"2020-01-05T21:03:09.002413+05:45"},{"idx":"ntYexA6obcXdSn6Gy3dzJ4","contest":"Model Superstar","episode":"Model Superstar","category":null,"contestant":{"voting_id":"12","name":"Rabin Ghising"},"vote_count":1,"created_on":"2020-01-05T20:44:24.045689+05:45"},{"idx":"cWaUcjacb6Q2aeMeQBpF7K","contest":"Model Superstar","episode":"Model Superstar","category":null,"contestant":{"voting_id":"28","name":"Pujan Tamang"},"vote_count":1,"created_on":"2020-01-05T20:30:03.004361+05:45"},{"idx":"rZhdticgWMNq5jg9bWM4cE","contest":"Mr. & Miss Teen Sherpa 2020 - S2","episode":"Mr.&Miss Teen Sherpa -S2","category":null,"contestant":{"voting_id":"21","name":"Dawa Tsering Sherpa"},"vote_count":1,"created_on":"2020-01-05T20:29:15.187108+05:45"},{"idx":"AdPQoAyPTYSVDEmuRF34F9","contest":"Mr. & Miss Teen Sherpa 2020 - S2","episode":"Mr.&Miss Teen Sherpa -S2","category":null,"contestant":{"voting_id":"02","name":"Pema Yanji sherpa"},"vote_count":1,"created_on":"2020-01-05T20:25:27.916009+05:45"},{"idx":"XoTkNQvTBcsuTGyojFMcVB","contest":"Mr. & Miss Teen Sherpa 2020 - S2","episode":"Mr.&Miss Teen Sherpa -S2","category":null,"contestant":{"voting_id":"02","name":"Pema Yanji sherpa"},"vote_count":1,"created_on":"2020-01-05T20:25:18.682296+05:45"},{"idx":"2gzStrQ4UX7m49JFNFZuU5","contest":"Mr. & Miss Teen Sherpa 2020 - S2","episode":"Mr.&Miss Teen Sherpa -S2","category":null,"contestant":{"voting_id":"02","name":"Pema Yanji sherpa"},"vote_count":1,"created_on":"2020-01-05T20:25:13.035678+05:45"},{"idx":"2t628Ces5pR478bJUBAyuc","contest":"Mr. & Miss Teen Sherpa 2020 - S2","episode":"Mr.&Miss Teen Sherpa -S2","category":null,"contestant":{"voting_id":"02","name":"Pema Yanji sherpa"},"vote_count":1,"created_on":"2020-01-05T20:25:06.439646+05:45"},{"idx":"8DCLKZh7ymWGTNbfutk877","contest":"Mr. & Miss Teen Sherpa 2020 - S2","episode":"Mr.&Miss Teen Sherpa -S2","category":null,"contestant":{"voting_id":"02","name":"Pema Yanji sherpa"},"vote_count":1,"created_on":"2020-01-05T20:24:59.615439+05:45"},{"idx":"fhUaAt44EgnGqBB9qRxLkc","contest":"Mr. & Miss Teen Sherpa 2020 - S2","episode":"Mr.&Miss Teen Sherpa -S2","category":null,"contestant":{"voting_id":"02","name":"Pema Yanji sherpa"},"vote_count":1,"created_on":"2020-01-05T20:24:54.036679+05:45"},{"idx":"rLquzAWjEbaGzgEb5e52rh","contest":"Mr. & Miss Teen Sherpa 2020 - S2","episode":"Mr.&Miss Teen Sherpa -S2","category":null,"contestant":{"voting_id":"02","name":"Pema Yanji sherpa"},"vote_count":1,"created_on":"2020-01-05T20:24:48.264920+05:45"},{"idx":"GQMtHRdeaS6hCY6amoCTRS","contest":"Mr. & Miss Teen Sherpa 2020 - S2","episode":"Mr.&Miss Teen Sherpa -S2","category":null,"contestant":{"voting_id":"02","name":"Pema Yanji sherpa"},"vote_count":1,"created_on":"2020-01-05T20:24:40.889993+05:45"},{"idx":"FLisqZDiVKqJLBsrPWmmxK","contest":"Mr. & Miss Teen Sherpa 2020 - S2","episode":"Mr.&Miss Teen Sherpa -S2","category":null,"contestant":{"voting_id":"02","name":"Pema Yanji sherpa"},"vote_count":1,"created_on":"2020-01-05T20:24:35.661585+05:45"},{"idx":"PdBFhAb55rqAJgHWBss8HF","contest":"Mr. & Miss Teen Sherpa 2020 - S2","episode":"Mr.&Miss Teen Sherpa -S2","category":null,"contestant":{"voting_id":"02","name":"Pema Yanji sherpa"},"vote_count":1,"created_on":"2020-01-05T20:24:27.767327+05:45"},{"idx":"p2jCX8ZDNvGkGDYed8Fr42","contest":"Mr. & Miss Teen Sherpa 2020 - S2","episode":"Mr.&Miss Teen Sherpa -S2","category":null,"contestant":{"voting_id":"08","name":"Angdali Sherpa"},"vote_count":1,"created_on":"2020-01-05T20:24:23.441990+05:45"},{"idx":"V9FfczFtXorFjCSDFBCsmU","contest":"Mr. & Miss Teen Sherpa 2020 - S2","episode":"Mr.&Miss Teen Sherpa -S2","category":null,"contestant":{"voting_id":"02","name":"Pema Yanji sherpa"},"vote_count":1,"created_on":"2020-01-05T20:24:22.894473+05:45"},{"idx":"yw65gWCuAoves2v2v7pmiJ","contest":"Mr. & Miss Teen Sherpa 2020 - S2","episode":"Mr.&Miss Teen Sherpa -S2","category":null,"contestant":{"voting_id":"02","name":"Pema Yanji sherpa"},"vote_count":1,"created_on":"2020-01-05T20:23:41.650208+05:45"},{"idx":"uM3SfRjLFYFbweWRRVUWRa","contest":"Mr. & Miss Teen Sherpa 2020 - S2","episode":"Mr.&Miss Teen Sherpa -S2","category":null,"contestant":{"voting_id":"02","name":"Pema Yanji sherpa"},"vote_count":1,"created_on":"2020-01-05T20:23:34.935535+05:45"},{"idx":"CNHdFex8RSNir9caY5qJH6","contest":"Mr. & Miss Teen Sherpa 2020 - S2","episode":"Mr.&Miss Teen Sherpa -S2","category":null,"contestant":{"voting_id":"02","name":"Pema Yanji sherpa"},"vote_count":1,"created_on":"2020-01-05T20:23:29.023749+05:45"},{"idx":"ewZJJtHCqe7C6X6vu7bwwa","contest":"Mr. & Miss Teen Sherpa 2020 - S2","episode":"Mr.&Miss Teen Sherpa -S2","category":null,"contestant":{"voting_id":"02","name":"Pema Yanji sherpa"},"vote_count":1,"created_on":"2020-01-05T20:23:23.280313+05:45"},{"idx":"cKLW5d9bPpv875YKDWoj64","contest":"Mr. & Miss Teen Sherpa 2020 - S2","episode":"Mr.&Miss Teen Sherpa -S2","category":null,"contestant":{"voting_id":"02","name":"Pema Yanji sherpa"},"vote_count":1,"created_on":"2020-01-05T20:23:16.684983+05:45"},{"idx":"HoH6gGBPguTs2W47motEUd","contest":"Mr. & Miss Teen Sherpa 2020 - S2","episode":"Mr.&Miss Teen Sherpa -S2","category":null,"contestant":{"voting_id":"02","name":"Pema Yanji sherpa"},"vote_count":1,"created_on":"2020-01-05T20:23:11.249295+05:45"},{"idx":"h37tmmiinLUbPU7Cx6zNaf","contest":"Mr. & Miss Teen Sherpa 2020 - S2","episode":"Mr.&Miss Teen Sherpa -S2","category":null,"contestant":{"voting_id":"02","name":"Pema Yanji sherpa"},"vote_count":1,"created_on":"2020-01-05T20:23:04.197851+05:45"},{"idx":"fZikQE7BcgrnokwpVkCWkM","contest":"Mr. & Miss Teen Sherpa 2020 - S2","episode":"Mr.&Miss Teen Sherpa -S2","category":null,"contestant":{"voting_id":"02","name":"Pema Yanji sherpa"},"vote_count":1,"created_on":"2020-01-05T20:22:59.435964+05:45"},{"idx":"4vJfKkpYGmiKDgnv86snJC","contest":"Mr. & Miss Teen Sherpa 2020 - S2","episode":"Mr.&Miss Teen Sherpa -S2","category":null,"contestant":{"voting_id":"02","name":"Pema Yanji sherpa"},"vote_count":1,"created_on":"2020-01-05T20:22:53.798894+05:45"},{"idx":"ZqPmUKHB4JnKFiFq6gAqU8","contest":"Mr. & Miss Teen Sherpa 2020 - S2","episode":"Mr.&Miss Teen Sherpa -S2","category":null,"contestant":{"voting_id":"02","name":"Pema Yanji sherpa"},"vote_count":1,"created_on":"2020-01-05T20:22:48.450118+05:45"},{"idx":"6XpRfNewRE6eUdGsJk5EUN","contest":"Mr. & Miss Teen Sherpa 2020 - S2","episode":"Mr.&Miss Teen Sherpa -S2","category":null,"contestant":{"voting_id":"02","name":"Pema Yanji sherpa"},"vote_count":1,"created_on":"2020-01-05T20:22:42.695602+05:45"},{"idx":"e5vbfPGoF58HAhu4bFfnDf","contest":"Mr. & Miss Teen Sherpa 2020 - S2","episode":"Mr.&Miss Teen Sherpa -S2","category":null,"contestant":{"voting_id":"11","name":"Ang Maya Sherpa"},"vote_count":1,"created_on":"2020-01-05T20:07:46.133531+05:45"},{"idx":"W9yTyTnsT8QVA3ZN5gLb3n","contest":"NEPALBHASA STAR MUSIC VIDEO AWARDS-2019","episode":null,"category":"THE RISING STAR SINGER","contestant":{"voting_id":"21A","name":"Macha Raja Maharjan"},"vote_count":1,"created_on":"2020-01-05T19:50:30.835006+05:45"},{"idx":"kghTLxwj6KyDxenvAeG3QA","contest":"NEPALBHASA STAR MUSIC VIDEO AWARDS-2019","episode":null,"category":"THE RISING STAR SINGER","contestant":{"voting_id":"21A","name":"Macha Raja Maharjan"},"vote_count":1,"created_on":"2020-01-05T19:45:38.237209+05:45"},{"idx":"FNuHwm92sFVXzCqHQjXwk8","contest":"Model Superstar","episode":"Model Superstar","category":null,"contestant":{"voting_id":"11","name":"Rachana Karki"},"vote_count":1,"created_on":"2020-01-05T19:37:32.976079+05:45"},{"idx":"iugWBhHBqj4FUDFbkRGEnb","contest":"Model Superstar","episode":"Model Superstar","category":null,"contestant":{"voting_id":"30","name":"Nikita Shakya"},"vote_count":1,"created_on":"2020-01-05T19:32:34.715133+05:45"},{"idx":"jaELQaS37QYQoy8jSz4VqF","contest":"Mr. & Miss Teen Sherpa 2020 - S2","episode":"Mr.&Miss Teen Sherpa -S2","category":null,"contestant":{"voting_id":"03","name":"Mingma Sherpa"},"vote_count":1,"created_on":"2020-01-05T19:32:23.946229+05:45"},{"idx":"Mnm2EGob3Gz8aixQhHdVAj","contest":"Mr. & Miss Teen Sherpa 2020 - S2","episode":"Mr.&Miss Teen Sherpa -S2","category":null,"contestant":{"voting_id":"03","name":"Mingma Sherpa"},"vote_count":1,"created_on":"2020-01-05T19:32:00.599811+05:45"},{"idx":"tUpfV8omw38kG2EFiTvmNA","contest":"Mr. & Miss Teen Sherpa 2020 - S2","episode":"Mr.&Miss Teen Sherpa -S2","category":null,"contestant":{"voting_id":"03","name":"Mingma Sherpa"},"vote_count":1,"created_on":"2020-01-05T19:31:45.013700+05:45"},{"idx":"4XEHdgCjBLqUP9z5huZJEg","contest":"Mr. & Miss Teen Sherpa 2020 - S2","episode":"Mr.&Miss Teen Sherpa -S2","category":null,"contestant":{"voting_id":"03","name":"Mingma Sherpa"},"vote_count":1,"created_on":"2020-01-05T19:31:31.242529+05:45"},{"idx":"ZQB36y8jCYxFAvpjPg9jZ5","contest":"Mr. & Miss Teen Sherpa 2020 - S2","episode":"Mr.&Miss Teen Sherpa -S2","category":null,"contestant":{"voting_id":"03","name":"Mingma Sherpa"},"vote_count":1,"created_on":"2020-01-05T19:31:17.398248+05:45"},{"idx":"AAqJQhWjagSvzTNntrwwHK","contest":"Mr. & Miss Teen Sherpa 2020 - S2","episode":"Mr.&Miss Teen Sherpa -S2","category":null,"contestant":{"voting_id":"03","name":"Mingma Sherpa"},"vote_count":1,"created_on":"2020-01-05T19:30:53.244300+05:45"}]}