{"total_pages":275,"total_records":13720,"next":"https://khalti.com/api/v2/vuservote/?page=149","previous":"https://khalti.com/api/v2/vuservote/?page=147","record_range":[7351,7400],"current_page":148,"records":[{"idx":"CPxSv7TM9Y5Hf7zjKwUf9f","contest":"Mr. & Miss Teen Sherpa 2020 - S2","episode":"Mr.&Miss Teen Sherpa -S2","category":null,"contestant":{"voting_id":"03","name":"Mingma Sherpa"},"vote_count":1,"created_on":"2020-01-05T19:30:38.114017+05:45"},{"idx":"Vg5jMaRJ6BamJ7jBgrb867","contest":"NEPALBHASA STAR MUSIC VIDEO AWARDS-2019","episode":null,"category":"BEST DANCE DIRECTOR","contestant":{"voting_id":"19B","name":"Srijana Maharjan"},"vote_count":1,"created_on":"2020-01-05T19:30:20.667954+05:45"},{"idx":"vmTLcEkdqWbHUE6bSEqCcG","contest":"Mr. & Miss Teen Sherpa 2020 - S2","episode":"Mr.&Miss Teen Sherpa -S2","category":null,"contestant":{"voting_id":"03","name":"Mingma Sherpa"},"vote_count":1,"created_on":"2020-01-05T19:30:20.333123+05:45"},{"idx":"Kf4XiWRxB9AbMV7pfatye4","contest":"Mr. & Miss Teen Sherpa 2020 - S2","episode":"Mr.&Miss Teen Sherpa -S2","category":null,"contestant":{"voting_id":"03","name":"Mingma Sherpa"},"vote_count":1,"created_on":"2020-01-05T19:29:58.576521+05:45"},{"idx":"Vh32xPeYj4WChdtJaGqVT9","contest":"Mr. & Miss Teen Sherpa 2020 - S2","episode":"Mr.&Miss Teen Sherpa -S2","category":null,"contestant":{"voting_id":"03","name":"Mingma Sherpa"},"vote_count":1,"created_on":"2020-01-05T19:29:30.448118+05:45"},{"idx":"a55DdfoR7NtWtc4TS8KdFY","contest":"Mr. & Miss Teen Sherpa 2020 - S2","episode":"Mr.&Miss Teen Sherpa -S2","category":null,"contestant":{"voting_id":"03","name":"Mingma Sherpa"},"vote_count":1,"created_on":"2020-01-05T19:29:06.947222+05:45"},{"idx":"GfHTSfuGDY4BMqq6AkZDZh","contest":"Mr. & Miss Teen Sherpa 2020 - S2","episode":"Mr.&Miss Teen Sherpa -S2","category":null,"contestant":{"voting_id":"03","name":"Mingma Sherpa"},"vote_count":1,"created_on":"2020-01-05T19:28:33.406480+05:45"},{"idx":"25VmfVYyaR7CLyyYErhT4E","contest":"Mr. & Miss Teen Sherpa 2020 - S2","episode":"Mr.&Miss Teen Sherpa -S2","category":null,"contestant":{"voting_id":"03","name":"Mingma Sherpa"},"vote_count":1,"created_on":"2020-01-05T19:27:43.364678+05:45"},{"idx":"maJ7GgaUyqiAvqbbjKTJSW","contest":"Mr. & Miss Teen Sherpa 2020 - S2","episode":"Mr.&Miss Teen Sherpa -S2","category":null,"contestant":{"voting_id":"03","name":"Mingma Sherpa"},"vote_count":1,"created_on":"2020-01-05T19:27:08.177522+05:45"},{"idx":"V2BbJxwbzvuJFXkrJQwra3","contest":"Mr. & Miss Teen Sherpa 2020 - S2","episode":"Mr.&Miss Teen Sherpa -S2","category":null,"contestant":{"voting_id":"03","name":"Mingma Sherpa"},"vote_count":1,"created_on":"2020-01-05T19:26:44.382621+05:45"},{"idx":"NfX7jGiSaeWmz5KgpppNtg","contest":"NEPALBHASA STAR MUSIC VIDEO AWARDS-2019","episode":null,"category":"BEST MUSIC DIRECTOR","contestant":{"voting_id":"6A","name":"Suman Kapali"},"vote_count":1,"created_on":"2020-01-05T19:20:23.783994+05:45"},{"idx":"Y4eU5XMeNR6W5AAyfS64gV","contest":"Model Superstar","episode":"Model Superstar","category":null,"contestant":{"voting_id":"04","name":"Sabita Maharjan"},"vote_count":1,"created_on":"2020-01-05T19:18:01.363040+05:45"},{"idx":"WZmhzAXdJKykYsEjT8zFp6","contest":"Model Superstar","episode":"Model Superstar","category":null,"contestant":{"voting_id":"04","name":"Sabita Maharjan"},"vote_count":1,"created_on":"2020-01-05T18:45:52.196866+05:45"},{"idx":"BaJbzn2ivtiXGVckD83TC5","contest":"Model Superstar","episode":"Model Superstar","category":null,"contestant":{"voting_id":"04","name":"Sabita Maharjan"},"vote_count":1,"created_on":"2020-01-05T18:45:29.097887+05:45"},{"idx":"WS9FhCmSv8SxrAHErsmRtb","contest":"Mr. & Miss Teen Sherpa 2020 - S2","episode":"Mr.&Miss Teen Sherpa -S2","category":null,"contestant":{"voting_id":"24","name":"Mingma Tshering Sherpa"},"vote_count":1,"created_on":"2020-01-05T18:11:20.186990+05:45"},{"idx":"CVGxSjaUztEibxV8sJKTw6","contest":"Mr. & Miss Teen Sherpa 2020 - S2","episode":"Mr.&Miss Teen Sherpa -S2","category":null,"contestant":{"voting_id":"24","name":"Mingma Tshering Sherpa"},"vote_count":1,"created_on":"2020-01-05T18:10:36.785867+05:45"},{"idx":"Jws6sbixsBEVBFTXazM5KD","contest":"Mr. & Miss Teen Sherpa 2020 - S2","episode":"Mr.&Miss Teen Sherpa -S2","category":null,"contestant":{"voting_id":"24","name":"Mingma Tshering Sherpa"},"vote_count":1,"created_on":"2020-01-05T18:10:12.863701+05:45"},{"idx":"eNRYLnzD52gwvMwNM3JPaY","contest":"Mr. & Miss Teen Sherpa 2020 - S2","episode":"Mr.&Miss Teen Sherpa -S2","category":null,"contestant":{"voting_id":"08","name":"Angdali Sherpa"},"vote_count":5,"created_on":"2020-01-05T16:38:00.666649+05:45"},{"idx":"rGsdvyt6V3FzgXF9YAN9KL","contest":"Model Superstar","episode":"Model Superstar","category":null,"contestant":{"voting_id":"04","name":"Sabita Maharjan"},"vote_count":1,"created_on":"2020-01-05T15:52:53.905472+05:45"},{"idx":"D7sthsDt5eay5BK45XAQTU","contest":"Model Superstar","episode":"Model Superstar","category":null,"contestant":{"voting_id":"04","name":"Sabita Maharjan"},"vote_count":1,"created_on":"2020-01-05T15:52:41.489975+05:45"},{"idx":"NUCv9Limxs5cUqFkUHnoVP","contest":"Model Superstar","episode":"Model Superstar","category":null,"contestant":{"voting_id":"04","name":"Sabita Maharjan"},"vote_count":1,"created_on":"2020-01-05T15:52:28.681891+05:45"},{"idx":"aga3tVnZiiaTjiGuc2X6qW","contest":"Model Superstar","episode":"Model Superstar","category":null,"contestant":{"voting_id":"04","name":"Sabita Maharjan"},"vote_count":1,"created_on":"2020-01-05T15:52:15.103760+05:45"},{"idx":"ofntZ4zaZKrFej5B6LMMKU","contest":"Model Superstar","episode":"Model Superstar","category":null,"contestant":{"voting_id":"04","name":"Sabita Maharjan"},"vote_count":1,"created_on":"2020-01-05T15:52:00.512261+05:45"},{"idx":"CJ3928JZpcSNhYmCwtzz9n","contest":"Model Superstar","episode":"Model Superstar","category":null,"contestant":{"voting_id":"04","name":"Sabita Maharjan"},"vote_count":1,"created_on":"2020-01-05T15:51:37.691363+05:45"},{"idx":"gR4eYjryk7Ax9XfJofiFrG","contest":"Model Superstar","episode":"Model Superstar","category":null,"contestant":{"voting_id":"04","name":"Sabita Maharjan"},"vote_count":1,"created_on":"2020-01-05T15:51:04.258873+05:45"},{"idx":"saxpycuakXvWtXmq2fpttc","contest":"NEPALBHASA STAR MUSIC VIDEO AWARDS-2019","episode":null,"category":"BEST DANCE DIRECTOR","contestant":{"voting_id":"19B","name":"Srijana Maharjan"},"vote_count":1,"created_on":"2020-01-05T15:38:33.537266+05:45"},{"idx":"BoTj85DrQp3azvjxYUNk93","contest":"Mr. & Miss Teen Sherpa 2020 - S2","episode":"Mr.&Miss Teen Sherpa -S2","category":null,"contestant":{"voting_id":"01","name":"Lhamu Sherpa"},"vote_count":1,"created_on":"2020-01-05T15:05:50.666453+05:45"},{"idx":"5ndZfvgJEXv3J5isiKTvrY","contest":"NEPALBHASA STAR MUSIC VIDEO AWARDS-2019","episode":null,"category":"BEST DIRECTOR","contestant":{"voting_id":"20J","name":"Sonam Pakhrin"},"vote_count":1,"created_on":"2020-01-05T14:31:00.617059+05:45"},{"idx":"viNq5g2Bs7xjzkEKUwGwGm","contest":"Model Superstar","episode":"Model Superstar","category":null,"contestant":{"voting_id":"18","name":"Anup Pandey"},"vote_count":1,"created_on":"2020-01-05T13:51:21.085238+05:45"},{"idx":"EJSf3PL4NzgaVbwVQUtgHc","contest":"Mr. & Miss Teen Sherpa 2020 - S2","episode":"Mr.&Miss Teen Sherpa -S2","category":null,"contestant":{"voting_id":"03","name":"Mingma Sherpa"},"vote_count":1,"created_on":"2020-01-05T13:41:33.730618+05:45"},{"idx":"BGpjnDZFCzdkP5Vr8A5RkF","contest":"Mr. & Miss Teen Sherpa 2020 - S2","episode":"Mr.&Miss Teen Sherpa -S2","category":null,"contestant":{"voting_id":"02","name":"Pema Yanji sherpa"},"vote_count":1,"created_on":"2020-01-05T12:36:38.533652+05:45"},{"idx":"B8hBptwC2am2HeC7SVF9hS","contest":"Mr. & Miss Teen Sherpa 2020 - S2","episode":"Mr.&Miss Teen Sherpa -S2","category":null,"contestant":{"voting_id":"02","name":"Pema Yanji sherpa"},"vote_count":1,"created_on":"2020-01-05T12:36:25.224088+05:45"},{"idx":"aFcqjfyCatT9jZXbDKwjXR","contest":"Mr. & Miss Teen Sherpa 2020 - S2","episode":"Mr.&Miss Teen Sherpa -S2","category":null,"contestant":{"voting_id":"02","name":"Pema Yanji sherpa"},"vote_count":1,"created_on":"2020-01-05T12:35:50.889738+05:45"},{"idx":"xiYsJSpyzsFTwjVBEDLTzB","contest":"Mr. & Miss Teen Sherpa 2020 - S2","episode":"Mr.&Miss Teen Sherpa -S2","category":null,"contestant":{"voting_id":"02","name":"Pema Yanji sherpa"},"vote_count":1,"created_on":"2020-01-05T12:35:37.480398+05:45"},{"idx":"XRSTGAyGtz2YyfoipB2jy9","contest":"Mr. & Miss Teen Sherpa 2020 - S2","episode":"Mr.&Miss Teen Sherpa -S2","category":null,"contestant":{"voting_id":"02","name":"Pema Yanji sherpa"},"vote_count":1,"created_on":"2020-01-05T12:35:22.213177+05:45"},{"idx":"pBoypD6b7dnGu9GS33sABm","contest":"Mr. & Miss Teen Sherpa 2020 - S2","episode":"Mr.&Miss Teen Sherpa -S2","category":null,"contestant":{"voting_id":"02","name":"Pema Yanji sherpa"},"vote_count":1,"created_on":"2020-01-05T12:35:08.195504+05:45"},{"idx":"2xtZZyWUqeFNwSoq7PqqzU","contest":"Mr. & Miss Teen Sherpa 2020 - S2","episode":"Mr.&Miss Teen Sherpa -S2","category":null,"contestant":{"voting_id":"02","name":"Pema Yanji sherpa"},"vote_count":1,"created_on":"2020-01-05T12:34:38.268463+05:45"},{"idx":"mL5eBRaaEvipps9DaMnpPW","contest":"Mr. & Miss Teen Sherpa 2020 - S2","episode":"Mr.&Miss Teen Sherpa -S2","category":null,"contestant":{"voting_id":"02","name":"Pema Yanji sherpa"},"vote_count":1,"created_on":"2020-01-05T12:34:04.987467+05:45"},{"idx":"biWXRmdMfXNfQmx6e4dEwj","contest":"Mr. & Miss Teen Sherpa 2020 - S2","episode":"Mr.&Miss Teen Sherpa -S2","category":null,"contestant":{"voting_id":"02","name":"Pema Yanji sherpa"},"vote_count":1,"created_on":"2020-01-05T12:33:16.227312+05:45"},{"idx":"KCGJtErdV6GU2YTsWdXefB","contest":"Mr. & Miss Teen Sherpa 2020 - S2","episode":"Mr.&Miss Teen Sherpa -S2","category":null,"contestant":{"voting_id":"02","name":"Pema Yanji sherpa"},"vote_count":1,"created_on":"2020-01-05T12:33:01.838073+05:45"},{"idx":"PnJ5RVWRunoTvmYxiyHxCA","contest":"Mr. & Miss Teen Sherpa 2020 - S2","episode":"Mr.&Miss Teen Sherpa -S2","category":null,"contestant":{"voting_id":"02","name":"Pema Yanji sherpa"},"vote_count":1,"created_on":"2020-01-05T12:32:43.039118+05:45"},{"idx":"KU6hN4rnnTTazUA4uzxecJ","contest":"Mr. & Miss Teen Sherpa 2020 - S2","episode":"Mr.&Miss Teen Sherpa -S2","category":null,"contestant":{"voting_id":"02","name":"Pema Yanji sherpa"},"vote_count":1,"created_on":"2020-01-05T12:28:55.935674+05:45"},{"idx":"8jb9M4MjCfuVtXoKuQdsy4","contest":"Mr. & Miss Teen Sherpa 2020 - S2","episode":"Mr.&Miss Teen Sherpa -S2","category":null,"contestant":{"voting_id":"02","name":"Pema Yanji sherpa"},"vote_count":1,"created_on":"2020-01-05T12:27:16.672395+05:45"},{"idx":"YyNWbudLYBc9oRQ27WVf5U","contest":"Mr. & Miss Teen Sherpa 2020 - S2","episode":"Mr.&Miss Teen Sherpa -S2","category":null,"contestant":{"voting_id":"02","name":"Pema Yanji sherpa"},"vote_count":1,"created_on":"2020-01-05T12:26:40.243344+05:45"},{"idx":"KWcC8FAux6KEqsvKwEwVQb","contest":"Mr. & Miss Teen Sherpa 2020 - S2","episode":"Mr.&Miss Teen Sherpa -S2","category":null,"contestant":{"voting_id":"02","name":"Pema Yanji sherpa"},"vote_count":1,"created_on":"2020-01-05T12:26:20.724612+05:45"},{"idx":"mPbDdhFSXqfbRzJAzaM6fY","contest":"Mr. & Miss Teen Sherpa 2020 - S2","episode":"Mr.&Miss Teen Sherpa -S2","category":null,"contestant":{"voting_id":"02","name":"Pema Yanji sherpa"},"vote_count":1,"created_on":"2020-01-05T12:26:05.555455+05:45"},{"idx":"PiSozGeYsPtcrWmcFiubqJ","contest":"Mr. & Miss Teen Sherpa 2020 - S2","episode":"Mr.&Miss Teen Sherpa -S2","category":null,"contestant":{"voting_id":"02","name":"Pema Yanji sherpa"},"vote_count":1,"created_on":"2020-01-05T12:25:50.879048+05:45"},{"idx":"ubFDZPt3NWJjNdkFt3y92U","contest":"Mr. & Miss Teen Sherpa 2020 - S2","episode":"Mr.&Miss Teen Sherpa -S2","category":null,"contestant":{"voting_id":"02","name":"Pema Yanji sherpa"},"vote_count":1,"created_on":"2020-01-05T12:25:33.063397+05:45"},{"idx":"ywbLRFzJyfaoRzbGzVBr2Q","contest":"Mr. & Miss Teen Sherpa 2020 - S2","episode":"Mr.&Miss Teen Sherpa -S2","category":null,"contestant":{"voting_id":"02","name":"Pema Yanji sherpa"},"vote_count":1,"created_on":"2020-01-05T12:25:15.156202+05:45"},{"idx":"SkSGUV2QwPxqFU9xpHk4X4","contest":"Mr. & Miss Teen Sherpa 2020 - S2","episode":"Mr.&Miss Teen Sherpa -S2","category":null,"contestant":{"voting_id":"02","name":"Pema Yanji sherpa"},"vote_count":1,"created_on":"2020-01-05T12:24:32.330763+05:45"}]}