{"total_pages":275,"total_records":13720,"next":"https://khalti.com/api/v2/vuservote/?page=150","previous":"https://khalti.com/api/v2/vuservote/?page=148","record_range":[7401,7450],"current_page":149,"records":[{"idx":"HjNe8JQSzFwPj6BiBGBnkM","contest":"Mr. & Miss Teen Sherpa 2020 - S2","episode":"Mr.&Miss Teen Sherpa -S2","category":null,"contestant":{"voting_id":"02","name":"Pema Yanji sherpa"},"vote_count":1,"created_on":"2020-01-05T12:24:14.059549+05:45"},{"idx":"RTipNg2UATCpsQ9nSZCmFn","contest":"Mr. & Miss Teen Sherpa 2020 - S2","episode":"Mr.&Miss Teen Sherpa -S2","category":null,"contestant":{"voting_id":"02","name":"Pema Yanji sherpa"},"vote_count":1,"created_on":"2020-01-05T12:23:59.026135+05:45"},{"idx":"BJeB7GjbTJQFfpSMad5b8o","contest":"Mr. & Miss Teen Sherpa 2020 - S2","episode":"Mr.&Miss Teen Sherpa -S2","category":null,"contestant":{"voting_id":"02","name":"Pema Yanji sherpa"},"vote_count":1,"created_on":"2020-01-05T12:23:43.516310+05:45"},{"idx":"muB4dZD6gTVB9WGvhvSH2o","contest":"Mr. & Miss Teen Sherpa 2020 - S2","episode":"Mr.&Miss Teen Sherpa -S2","category":null,"contestant":{"voting_id":"02","name":"Pema Yanji sherpa"},"vote_count":1,"created_on":"2020-01-05T12:23:20.538197+05:45"},{"idx":"TPGqRSuSe7jXFRcYEaWqSh","contest":"Mr. & Miss Teen Sherpa 2020 - S2","episode":"Mr.&Miss Teen Sherpa -S2","category":null,"contestant":{"voting_id":"02","name":"Pema Yanji sherpa"},"vote_count":1,"created_on":"2020-01-05T12:22:56.145706+05:45"},{"idx":"YsW524HZTQ22QwLTiF7Ach","contest":"Mr. & Miss Teen Sherpa 2020 - S2","episode":"Mr.&Miss Teen Sherpa -S2","category":null,"contestant":{"voting_id":"02","name":"Pema Yanji sherpa"},"vote_count":1,"created_on":"2020-01-05T12:22:42.956097+05:45"},{"idx":"TBQJySk46SdCWSBNJjsnvC","contest":"Mr. & Miss Teen Sherpa 2020 - S2","episode":"Mr.&Miss Teen Sherpa -S2","category":null,"contestant":{"voting_id":"02","name":"Pema Yanji sherpa"},"vote_count":1,"created_on":"2020-01-05T12:22:28.576094+05:45"},{"idx":"7nVqrSmic3SFehhzBbZBBn","contest":"Mr. & Miss Teen Sherpa 2020 - S2","episode":"Mr.&Miss Teen Sherpa -S2","category":null,"contestant":{"voting_id":"02","name":"Pema Yanji sherpa"},"vote_count":1,"created_on":"2020-01-05T12:22:12.965920+05:45"},{"idx":"fYh9aVTzN7qBQE46Aoey9Q","contest":"Mr. & Miss Teen Sherpa 2020 - S2","episode":"Mr.&Miss Teen Sherpa -S2","category":null,"contestant":{"voting_id":"02","name":"Pema Yanji sherpa"},"vote_count":1,"created_on":"2020-01-05T12:21:52.563791+05:45"},{"idx":"JinCpYEe5gTgDLtmj6arQF","contest":"Mr. & Miss Teen Sherpa 2020 - S2","episode":"Mr.&Miss Teen Sherpa -S2","category":null,"contestant":{"voting_id":"02","name":"Pema Yanji sherpa"},"vote_count":1,"created_on":"2020-01-05T12:21:39.164852+05:45"},{"idx":"arm3bigpzGfSGWGnu5Lm2X","contest":"Mr. & Miss Teen Sherpa 2020 - S2","episode":"Mr.&Miss Teen Sherpa -S2","category":null,"contestant":{"voting_id":"02","name":"Pema Yanji sherpa"},"vote_count":1,"created_on":"2020-01-05T12:21:24.491690+05:45"},{"idx":"WAzgzEYRgQj6y6aYcX8jDd","contest":"Mr. & Miss Teen Sherpa 2020 - S2","episode":"Mr.&Miss Teen Sherpa -S2","category":null,"contestant":{"voting_id":"02","name":"Pema Yanji sherpa"},"vote_count":1,"created_on":"2020-01-05T12:20:44.166263+05:45"},{"idx":"T8cybKmQ4rDDYApiRbtysJ","contest":"Mr. & Miss Teen Sherpa 2020 - S2","episode":"Mr.&Miss Teen Sherpa -S2","category":null,"contestant":{"voting_id":"02","name":"Pema Yanji sherpa"},"vote_count":1,"created_on":"2020-01-05T12:20:29.704288+05:45"},{"idx":"pPvAb7VmmhFU6xh7VzP3bD","contest":"Mr. & Miss Teen Sherpa 2020 - S2","episode":"Mr.&Miss Teen Sherpa -S2","category":null,"contestant":{"voting_id":"02","name":"Pema Yanji sherpa"},"vote_count":1,"created_on":"2020-01-05T12:20:14.155747+05:45"},{"idx":"ijgopxChixSGbfQXLtsCKj","contest":"Mr. & Miss Teen Sherpa 2020 - S2","episode":"Mr.&Miss Teen Sherpa -S2","category":null,"contestant":{"voting_id":"02","name":"Pema Yanji sherpa"},"vote_count":1,"created_on":"2020-01-05T12:19:46.283254+05:45"},{"idx":"YxuJnBDkazCwtZCwVqZT9k","contest":"Mr. & Miss Teen Sherpa 2020 - S2","episode":"Mr.&Miss Teen Sherpa -S2","category":null,"contestant":{"voting_id":"02","name":"Pema Yanji sherpa"},"vote_count":1,"created_on":"2020-01-05T12:19:30.006576+05:45"},{"idx":"HehwYnJ4pL8YE2GZS7XvTh","contest":"Mr. & Miss Teen Sherpa 2020 - S2","episode":"Mr.&Miss Teen Sherpa -S2","category":null,"contestant":{"voting_id":"02","name":"Pema Yanji sherpa"},"vote_count":1,"created_on":"2020-01-05T12:19:07.594691+05:45"},{"idx":"sdXmWEwh2Ady4EewZ9GnwH","contest":"Mr. & Miss Teen Sherpa 2020 - S2","episode":"Mr.&Miss Teen Sherpa -S2","category":null,"contestant":{"voting_id":"02","name":"Pema Yanji sherpa"},"vote_count":1,"created_on":"2020-01-05T12:18:50.692861+05:45"},{"idx":"UxuB4QFzUPCj7uVpTH8nwa","contest":"Mr. & Miss Teen Sherpa 2020 - S2","episode":"Mr.&Miss Teen Sherpa -S2","category":null,"contestant":{"voting_id":"02","name":"Pema Yanji sherpa"},"vote_count":1,"created_on":"2020-01-05T12:18:28.381238+05:45"},{"idx":"mBoFmxsUae45iU5jAVr5na","contest":"Mr. & Miss Teen Sherpa 2020 - S2","episode":"Mr.&Miss Teen Sherpa -S2","category":null,"contestant":{"voting_id":"02","name":"Pema Yanji sherpa"},"vote_count":1,"created_on":"2020-01-05T12:18:13.215382+05:45"},{"idx":"TFS9a2gsakJAEbTrkmy47X","contest":"Mr. & Miss Teen Sherpa 2020 - S2","episode":"Mr.&Miss Teen Sherpa -S2","category":null,"contestant":{"voting_id":"02","name":"Pema Yanji sherpa"},"vote_count":1,"created_on":"2020-01-05T12:17:32.438284+05:45"},{"idx":"ErfEVhDYyZVUXPinxje4yP","contest":"Mr. & Miss Teen Sherpa 2020 - S2","episode":"Mr.&Miss Teen Sherpa -S2","category":null,"contestant":{"voting_id":"02","name":"Pema Yanji sherpa"},"vote_count":1,"created_on":"2020-01-05T12:17:18.557731+05:45"},{"idx":"uiwBKDwV8x9GgYLr3YFZFh","contest":"Mr. & Miss Teen Sherpa 2020 - S2","episode":"Mr.&Miss Teen Sherpa -S2","category":null,"contestant":{"voting_id":"02","name":"Pema Yanji sherpa"},"vote_count":1,"created_on":"2020-01-05T12:17:03.658299+05:45"},{"idx":"xfq5xQM9Yq6V5dUr9yNnCk","contest":"Mr. & Miss Teen Sherpa 2020 - S2","episode":"Mr.&Miss Teen Sherpa -S2","category":null,"contestant":{"voting_id":"02","name":"Pema Yanji sherpa"},"vote_count":1,"created_on":"2020-01-05T12:16:48.470956+05:45"},{"idx":"PoUCxkdbL6WaL897uGEbeb","contest":"Mr. & Miss Teen Sherpa 2020 - S2","episode":"Mr.&Miss Teen Sherpa -S2","category":null,"contestant":{"voting_id":"02","name":"Pema Yanji sherpa"},"vote_count":1,"created_on":"2020-01-05T12:16:30.801722+05:45"},{"idx":"9d6HGNkMqCEVHsovydqJP7","contest":"Mr. & Miss Teen Sherpa 2020 - S2","episode":"Mr.&Miss Teen Sherpa -S2","category":null,"contestant":{"voting_id":"02","name":"Pema Yanji sherpa"},"vote_count":1,"created_on":"2020-01-05T12:16:15.024587+05:45"},{"idx":"aaTJVpjTQVvxMHU37iCpUH","contest":"Mr. & Miss Teen Sherpa 2020 - S2","episode":"Mr.&Miss Teen Sherpa -S2","category":null,"contestant":{"voting_id":"02","name":"Pema Yanji sherpa"},"vote_count":1,"created_on":"2020-01-05T12:15:55.028968+05:45"},{"idx":"uKTdw44ZBMehppB7RXp7D6","contest":"Mr. & Miss Teen Sherpa 2020 - S2","episode":"Mr.&Miss Teen Sherpa -S2","category":null,"contestant":{"voting_id":"02","name":"Pema Yanji sherpa"},"vote_count":1,"created_on":"2020-01-05T12:15:09.423515+05:45"},{"idx":"JnMN7kSwSjqdfJireSG7ek","contest":"Mr. & Miss Teen Sherpa 2020 - S2","episode":"Mr.&Miss Teen Sherpa -S2","category":null,"contestant":{"voting_id":"02","name":"Pema Yanji sherpa"},"vote_count":1,"created_on":"2020-01-05T12:14:48.951837+05:45"},{"idx":"n94GeHgJXYD9n4gAvnPuGG","contest":"Mr. & Miss Teen Sherpa 2020 - S2","episode":"Mr.&Miss Teen Sherpa -S2","category":null,"contestant":{"voting_id":"02","name":"Pema Yanji sherpa"},"vote_count":1,"created_on":"2020-01-05T12:14:23.744740+05:45"},{"idx":"8efCXE4XUTiVi3i8L8SvSn","contest":"Mr. & Miss Teen Sherpa 2020 - S2","episode":"Mr.&Miss Teen Sherpa -S2","category":null,"contestant":{"voting_id":"06","name":"Tenzin Pema Sherpa"},"vote_count":1,"created_on":"2020-01-05T11:40:40.497397+05:45"},{"idx":"fiyM3tDscYr6VbKZM8De8A","contest":"Mr. & Miss Teen Sherpa 2020 - S2","episode":"Mr.&Miss Teen Sherpa -S2","category":null,"contestant":{"voting_id":"06","name":"Tenzin Pema Sherpa"},"vote_count":1,"created_on":"2020-01-05T11:39:29.471201+05:45"},{"idx":"CLaahkCAJPCzofK8JsyBye","contest":"Mr. & Miss Teen Sherpa 2020 - S2","episode":"Mr.&Miss Teen Sherpa -S2","category":null,"contestant":{"voting_id":"06","name":"Tenzin Pema Sherpa"},"vote_count":1,"created_on":"2020-01-05T11:39:06.411465+05:45"},{"idx":"FtRUD7chfxNSvZWb3reaon","contest":"Mr. & Miss Teen Sherpa 2020 - S2","episode":"Mr.&Miss Teen Sherpa -S2","category":null,"contestant":{"voting_id":"06","name":"Tenzin Pema Sherpa"},"vote_count":1,"created_on":"2020-01-05T11:32:24.290807+05:45"},{"idx":"mr25Sb3qsscfb7bSJ6AZCa","contest":"Mr. & Miss Teen Sherpa 2020 - S2","episode":"Mr.&Miss Teen Sherpa -S2","category":null,"contestant":{"voting_id":"06","name":"Tenzin Pema Sherpa"},"vote_count":1,"created_on":"2020-01-05T11:30:28.436156+05:45"},{"idx":"U6AM6rScVsQbgv6SAsSVpa","contest":"NEPALBHASA STAR MUSIC VIDEO AWARDS-2019","episode":null,"category":"BEST MODEL, FEMALE","contestant":{"voting_id":"13D","name":"Shova Maharjan"},"vote_count":1,"created_on":"2020-01-05T11:28:15.805837+05:45"},{"idx":"Q5HULKigHNJ8wRfbNUHyjU","contest":"Mr. & Miss Teen Sherpa 2020 - S2","episode":"Mr.&Miss Teen Sherpa -S2","category":null,"contestant":{"voting_id":"05","name":"Nima Lhamu sherpa"},"vote_count":1,"created_on":"2020-01-05T11:21:47.945661+05:45"},{"idx":"x3XVpjhCxQyXi7yY8EBEQW","contest":"Mr. & Miss Teen Sherpa 2020 - S2","episode":"Mr.&Miss Teen Sherpa -S2","category":null,"contestant":{"voting_id":"02","name":"Pema Yanji sherpa"},"vote_count":1,"created_on":"2020-01-05T09:24:19.982194+05:45"},{"idx":"vGS6hXNGo2N5tVJCD3XLNY","contest":"Mr. & Miss Teen Sherpa 2020 - S2","episode":"Mr.&Miss Teen Sherpa -S2","category":null,"contestant":{"voting_id":"02","name":"Pema Yanji sherpa"},"vote_count":1,"created_on":"2020-01-05T09:17:20.776190+05:45"},{"idx":"A9FgCtfDNzA6eLZMxHE6AP","contest":"Mr. & Miss Teen Sherpa 2020 - S2","episode":"Mr.&Miss Teen Sherpa -S2","category":null,"contestant":{"voting_id":"02","name":"Pema Yanji sherpa"},"vote_count":1,"created_on":"2020-01-05T09:16:52.977194+05:45"},{"idx":"LaPQvjg5HT83DUKQUT4CQR","contest":"Model Superstar","episode":"Model Superstar","category":null,"contestant":{"voting_id":"13","name":"Prashant Shah"},"vote_count":1,"created_on":"2020-01-05T09:11:26.757506+05:45"},{"idx":"STJqAP5ag3KGbwntYnBTLY","contest":"Model Superstar","episode":"Model Superstar","category":null,"contestant":{"voting_id":"02","name":"Srijana Basnet"},"vote_count":1,"created_on":"2020-01-05T08:31:03.223813+05:45"},{"idx":"eG7DvbtifTvGXUvTf7kELh","contest":"Model Superstar","episode":"Model Superstar","category":null,"contestant":{"voting_id":"02","name":"Srijana Basnet"},"vote_count":1,"created_on":"2020-01-05T08:30:29.466793+05:45"},{"idx":"YsYbc4JfS2QNcU87NrEfoe","contest":"Mr. & Miss Teen Sherpa 2020 - S2","episode":"Mr.&Miss Teen Sherpa -S2","category":null,"contestant":{"voting_id":"06","name":"Tenzin Pema Sherpa"},"vote_count":1,"created_on":"2020-01-05T07:20:02.546305+05:45"},{"idx":"uVjKYMWLMNVDzM9EhhqYXf","contest":"Model Superstar","episode":"Model Superstar","category":null,"contestant":{"voting_id":"02","name":"Srijana Basnet"},"vote_count":1,"created_on":"2020-01-05T07:18:24.455181+05:45"},{"idx":"KkceYWKAGEANJppE5TCqA3","contest":"NEPALBHASA STAR MUSIC VIDEO AWARDS-2019","episode":null,"category":"BEST MODEL, MALE","contestant":{"voting_id":"11G","name":"Dhiren Shakya"},"vote_count":1,"created_on":"2020-01-05T07:16:43.472506+05:45"},{"idx":"smrRkFJpmBxiomuPqDx6FP","contest":"NEPALBHASA STAR MUSIC VIDEO AWARDS-2019","episode":null,"category":"THE RISING STAR SINGER","contestant":{"voting_id":"21B","name":"Ves Maharjan"},"vote_count":1,"created_on":"2020-01-05T07:08:38.008007+05:45"},{"idx":"urVgugSAVLpqYR8DTagmzL","contest":"Model Superstar","episode":"Model Superstar","category":null,"contestant":{"voting_id":"04","name":"Sabita Maharjan"},"vote_count":1,"created_on":"2020-01-04T22:49:30.991594+05:45"},{"idx":"3Zqu3tSFhgQ4pyvcc5NyJm","contest":"Model Superstar","episode":"Model Superstar","category":null,"contestant":{"voting_id":"31","name":"Aakriti Subedi"},"vote_count":1,"created_on":"2020-01-04T21:43:03.539893+05:45"},{"idx":"XRvnK4qqC9xk93Y9b7zJ6k","contest":"Model Superstar","episode":"Model Superstar","category":null,"contestant":{"voting_id":"31","name":"Aakriti Subedi"},"vote_count":1,"created_on":"2020-01-04T21:42:49.142595+05:45"}]}