{"total_pages":275,"total_records":13717,"next":"https://khalti.com/api/v2/vuservote/?page=16","previous":"https://khalti.com/api/v2/vuservote/?page=14","record_range":[701,750],"current_page":15,"records":[{"idx":"XFTEsmnaXFoYwSb2pRtmgZ","contest":"Locus 2020","episode":"Locus 2020","category":null,"contestant":{"voting_id":"17","name":"Project EN SAT"},"vote_count":1,"created_on":"2020-02-01T20:26:09.742542+05:45"},{"idx":"eEHtvEmLwS9z5xKTntmdMc","contest":"Locus 2020","episode":"Locus 2020","category":null,"contestant":{"voting_id":"31","name":"Project 3 in 1 Cartesian 3D Printer"},"vote_count":1,"created_on":"2020-02-01T20:26:07.348573+05:45"},{"idx":"8q2aQ6xhr8omSKc6cxUTaB","contest":"Locus 2020","episode":"Locus 2020","category":null,"contestant":{"voting_id":"01","name":"Project Fire Robo"},"vote_count":1,"created_on":"2020-02-01T20:25:55.065043+05:45"},{"idx":"kiFjuAAeTs4boDMEKnpjiP","contest":"Locus 2020","episode":"Locus 2020","category":null,"contestant":{"voting_id":"80","name":"Project Hexapod"},"vote_count":1,"created_on":"2020-02-01T20:23:18.826047+05:45"},{"idx":"38UQrgcabSGB6gAEdpLUjM","contest":"Locus 2020","episode":"Locus 2020","category":null,"contestant":{"voting_id":"29","name":"Project Accident Alert System"},"vote_count":1,"created_on":"2020-02-01T20:23:02.717399+05:45"},{"idx":"QjfLMXVvZ9bvU8DsJvA49G","contest":"Locus 2020","episode":"Locus 2020","category":null,"contestant":{"voting_id":"07","name":"Project Automatic Irrigation System"},"vote_count":1,"created_on":"2020-02-01T20:21:23.729849+05:45"},{"idx":"tRA2gSk6FzLSq7K5qGGgyE","contest":"Locus 2020","episode":"Locus 2020","category":null,"contestant":{"voting_id":"29","name":"Project Accident Alert System"},"vote_count":1,"created_on":"2020-02-01T20:20:32.467541+05:45"},{"idx":"S9BBL2Rb663XdNH5KuRTzW","contest":"Locus 2020","episode":"Locus 2020","category":null,"contestant":{"voting_id":"81","name":"Project Self Balancing Platform"},"vote_count":1,"created_on":"2020-02-01T20:20:28.024619+05:45"},{"idx":"M8FWBkjFiF8zUX7MUt74ZF","contest":"Locus 2020","episode":"Locus 2020","category":null,"contestant":{"voting_id":"08","name":"Project A Smart Approach Towards Lifestyle in Nepal"},"vote_count":1,"created_on":"2020-02-01T20:20:11.329227+05:45"},{"idx":"pikYRQY4QaNk9BRVHF33YX","contest":"Model Superstar","episode":"Model Superstar Finale","category":null,"contestant":{"voting_id":"11","name":"Rachana Karki"},"vote_count":1,"created_on":"2020-02-01T20:19:21.776698+05:45"},{"idx":"ovGS6PwYf9sh755GNQnGAd","contest":"Model Superstar","episode":"Model Superstar Finale","category":null,"contestant":{"voting_id":"02","name":"Srijana Basnet"},"vote_count":1,"created_on":"2020-02-01T20:18:51.272843+05:45"},{"idx":"3aQMczdcQDL4o8DwXx7Krf","contest":"Model Superstar","episode":"Model Superstar Finale","category":null,"contestant":{"voting_id":"11","name":"Rachana Karki"},"vote_count":1,"created_on":"2020-02-01T20:18:22.325459+05:45"},{"idx":"NhYXzGdgZK7rSbzJC2s275","contest":"Locus 2020","episode":"Locus 2020","category":null,"contestant":{"voting_id":"42","name":"Project P.I.M.P."},"vote_count":1,"created_on":"2020-02-01T20:18:20.147767+05:45"},{"idx":"CVkcGzwcbTozyfaADnsKUh","contest":"Locus 2020","episode":"Locus 2020","category":null,"contestant":{"voting_id":"46","name":"Project Immune"},"vote_count":1,"created_on":"2020-02-01T20:17:58.117183+05:45"},{"idx":"to6L4D8TYMcqifqAwnkQmY","contest":"Locus 2020","episode":"Locus 2020","category":null,"contestant":{"voting_id":"04","name":"Project IRB -Robo Arm"},"vote_count":1,"created_on":"2020-02-01T20:17:03.290287+05:45"},{"idx":"f8raT57uGFe4jJ4p7k8dz9","contest":"Locus 2020","episode":"Locus 2020","category":null,"contestant":{"voting_id":"32","name":"Project Health and Environment Checker"},"vote_count":1,"created_on":"2020-02-01T20:16:41.313387+05:45"},{"idx":"Um3g9p2zjLDWQe5e8N9AoK","contest":"Locus 2020","episode":"Locus 2020","category":null,"contestant":{"voting_id":"32","name":"Project Health and Environment Checker"},"vote_count":1,"created_on":"2020-02-01T20:12:04.777590+05:45"},{"idx":"LZ4pMnp53kzSmLzCDsd7Pe","contest":"Locus 2020","episode":"Locus 2020","category":null,"contestant":{"voting_id":"31","name":"Project 3 in 1 Cartesian 3D Printer"},"vote_count":1,"created_on":"2020-02-01T20:11:57.370449+05:45"},{"idx":"E5tRPDjUjxmxGFPF2yFntm","contest":"Locus 2020","episode":"Locus 2020","category":null,"contestant":{"voting_id":"46","name":"Project Immune"},"vote_count":1,"created_on":"2020-02-01T20:11:16.859458+05:45"},{"idx":"ieHeHF7MjYEFbyj2j4eHTV","contest":"Locus 2020","episode":"Locus 2020","category":null,"contestant":{"voting_id":"16","name":"Project IOT Based Smart Agriculture System"},"vote_count":1,"created_on":"2020-02-01T20:09:43.356605+05:45"},{"idx":"zNprcPV2YvyGUAnxAeUZhT","contest":"Locus 2020","episode":"Locus 2020","category":null,"contestant":{"voting_id":"24","name":"Project Library App"},"vote_count":1,"created_on":"2020-02-01T20:09:23.891504+05:45"},{"idx":"qTbthSbstcRt5eGe4zeRcn","contest":"Locus 2020","episode":"Locus 2020","category":null,"contestant":{"voting_id":"36","name":"Project CNC Router"},"vote_count":1,"created_on":"2020-02-01T20:08:19.025544+05:45"},{"idx":"Y4izbkbYrE5TkUo3KnP677","contest":"Locus 2020","episode":"Locus 2020","category":null,"contestant":{"voting_id":"15","name":"Project Residential Drainage Water Purification System"},"vote_count":5,"created_on":"2020-02-01T20:08:10.456657+05:45"},{"idx":"kYyDSYiM4eJwuaHSodKmpQ","contest":"Locus 2020","episode":"Locus 2020","category":null,"contestant":{"voting_id":"92","name":"Project Bhakari Shopping Nepal"},"vote_count":1,"created_on":"2020-02-01T20:08:00.469606+05:45"},{"idx":"TCaLYzS3EmimXsbTDBh3tL","contest":"Locus 2020","episode":"Locus 2020","category":null,"contestant":{"voting_id":"46","name":"Project Immune"},"vote_count":1,"created_on":"2020-02-01T20:07:09.294836+05:45"},{"idx":"Q5Rps98UUxZ5fLJyWhCzz2","contest":"Locus 2020","episode":"Locus 2020","category":null,"contestant":{"voting_id":"29","name":"Project Accident Alert System"},"vote_count":1,"created_on":"2020-02-01T20:06:18.985387+05:45"},{"idx":"XrTVF4dZERfbityW9nQ5u2","contest":"Locus 2020","episode":"Locus 2020","category":null,"contestant":{"voting_id":"12","name":"Project Green City"},"vote_count":1,"created_on":"2020-02-01T20:06:15.085518+05:45"},{"idx":"EzCgxevdfmWrzRFxEF4Jb2","contest":"Locus 2020","episode":"Locus 2020","category":null,"contestant":{"voting_id":"12","name":"Project Green City"},"vote_count":5,"created_on":"2020-02-01T20:06:11.717314+05:45"},{"idx":"H5y9qTXaQiBio9hS2w5XDj","contest":"Locus 2020","episode":"Locus 2020","category":null,"contestant":{"voting_id":"17","name":"Project EN SAT"},"vote_count":1,"created_on":"2020-02-01T20:05:55.250977+05:45"},{"idx":"BTk4yt4xVC6DXR5Tvcb7T3","contest":"Locus 2020","episode":"Locus 2020","category":null,"contestant":{"voting_id":"46","name":"Project Immune"},"vote_count":1,"created_on":"2020-02-01T20:05:54.849056+05:45"},{"idx":"BdXEbSF2KbKxr5A8tYnv72","contest":"Locus 2020","episode":"Locus 2020","category":null,"contestant":{"voting_id":"92","name":"Project Bhakari Shopping Nepal"},"vote_count":1,"created_on":"2020-02-01T20:05:39.276338+05:45"},{"idx":"T4AoyVpvYpGw6EouJmFJw5","contest":"Locus 2020","episode":"Locus 2020","category":null,"contestant":{"voting_id":"12","name":"Project Green City"},"vote_count":1,"created_on":"2020-02-01T20:05:33.501985+05:45"},{"idx":"gU4ayErVnRCmP2dw3k68uV","contest":"Locus 2020","episode":"Locus 2020","category":null,"contestant":{"voting_id":"36","name":"Project CNC Router"},"vote_count":1,"created_on":"2020-02-01T20:05:02.892825+05:45"},{"idx":"cxeRTPLimR8tRvz3DK6qBj","contest":"Music Eve 2020","episode":"Music Eve 2020 IOE","category":null,"contestant":{"voting_id":"11","name":"Nitesh subedi"},"vote_count":1,"created_on":"2020-02-01T20:04:00.967239+05:45"},{"idx":"XDxU3gF93UDvWk8AFgCNxh","contest":"Locus 2020","episode":"Locus 2020","category":null,"contestant":{"voting_id":"17","name":"Project EN SAT"},"vote_count":1,"created_on":"2020-02-01T20:00:18.810184+05:45"},{"idx":"NLzwNjMrAjkWUqcQbszt9R","contest":"Locus 2020","episode":"Locus 2020","category":null,"contestant":{"voting_id":"02","name":"Project Plant -e"},"vote_count":1,"created_on":"2020-02-01T19:58:33.570405+05:45"},{"idx":"ASFRm2ExUAYDjKFkFsrkN5","contest":"Model Superstar","episode":"Model Superstar Finale","category":null,"contestant":{"voting_id":"02","name":"Srijana Basnet"},"vote_count":1,"created_on":"2020-02-01T19:58:07.185846+05:45"},{"idx":"ESjmrvythFJ4dPmmKVTTDf","contest":"Locus 2020","episode":"Locus 2020","category":null,"contestant":{"voting_id":"36","name":"Project CNC Router"},"vote_count":1,"created_on":"2020-02-01T19:56:26.727023+05:45"},{"idx":"hT4dV3PxYAgipJoHXbekLb","contest":"Locus 2020","episode":"Locus 2020","category":null,"contestant":{"voting_id":"36","name":"Project CNC Router"},"vote_count":1,"created_on":"2020-02-01T19:55:39.175046+05:45"},{"idx":"yGSWen8WW537p4DZ7sGhke","contest":"Locus 2020","episode":"Locus 2020","category":null,"contestant":{"voting_id":"17","name":"Project EN SAT"},"vote_count":1,"created_on":"2020-02-01T19:54:09.163828+05:45"},{"idx":"ML7ogeE8UhZuAzr8GGaZ4M","contest":"Locus 2020","episode":"Locus 2020","category":null,"contestant":{"voting_id":"29","name":"Project Accident Alert System"},"vote_count":1,"created_on":"2020-02-01T19:51:50.659004+05:45"},{"idx":"NF7SLpDa5ThDQHhpqTVYvc","contest":"Locus 2020","episode":"Locus 2020","category":null,"contestant":{"voting_id":"92","name":"Project Bhakari Shopping Nepal"},"vote_count":1,"created_on":"2020-02-01T19:51:49.395948+05:45"},{"idx":"Qx7ZyxXQNHtq3Utp9VSEZS","contest":"Locus 2020","episode":"Locus 2020","category":null,"contestant":{"voting_id":"46","name":"Project Immune"},"vote_count":1,"created_on":"2020-02-01T19:50:44.864551+05:45"},{"idx":"2KdLxbkFwCFGpcrfgXFGKB","contest":"Locus 2020","episode":"Locus 2020","category":null,"contestant":{"voting_id":"31","name":"Project 3 in 1 Cartesian 3D Printer"},"vote_count":1,"created_on":"2020-02-01T19:50:25.234804+05:45"},{"idx":"4CLam6y3hgcjBhp5ttg9JY","contest":"Locus 2020","episode":"Locus 2020","category":null,"contestant":{"voting_id":"36","name":"Project CNC Router"},"vote_count":1,"created_on":"2020-02-01T19:49:46.859876+05:45"},{"idx":"yhb5hPPzsBbiNSuwpH3NfJ","contest":"Music Eve 2020","episode":"Music Eve 2020 IOE","category":null,"contestant":{"voting_id":"02","name":"abinash acharya"},"vote_count":1,"created_on":"2020-02-01T19:49:07.111475+05:45"},{"idx":"J3znvNcgiYYodnYnutEoqH","contest":"Locus 2020","episode":"Locus 2020","category":null,"contestant":{"voting_id":"92","name":"Project Bhakari Shopping Nepal"},"vote_count":1,"created_on":"2020-02-01T19:47:25.436365+05:45"},{"idx":"vKrvxDhkLh57yvf52FPkqF","contest":"Locus 2020","episode":"Locus 2020","category":null,"contestant":{"voting_id":"17","name":"Project EN SAT"},"vote_count":1,"created_on":"2020-02-01T19:47:18.002244+05:45"},{"idx":"ENjhZ9yGWDnb8FmYgjSWFg","contest":"Locus 2020","episode":"Locus 2020","category":null,"contestant":{"voting_id":"36","name":"Project CNC Router"},"vote_count":1,"created_on":"2020-02-01T19:46:57.493484+05:45"},{"idx":"BLPL96aQxED23XuHuLfi7n","contest":"Locus 2020","episode":"Locus 2020","category":null,"contestant":{"voting_id":"42","name":"Project P.I.M.P."},"vote_count":1,"created_on":"2020-02-01T19:46:19.958575+05:45"}]}