{"total_pages":275,"total_records":13720,"next":"https://khalti.com/api/v2/vuservote/?page=151","previous":"https://khalti.com/api/v2/vuservote/?page=149","record_range":[7451,7500],"current_page":150,"records":[{"idx":"eMBQGy23XFjFv6udcxeYbm","contest":"Model Superstar","episode":"Model Superstar","category":null,"contestant":{"voting_id":"31","name":"Aakriti Subedi"},"vote_count":1,"created_on":"2020-01-04T21:42:34.064639+05:45"},{"idx":"aExcesTRp5B69AJLotgTUa","contest":"Model Superstar","episode":"Model Superstar","category":null,"contestant":{"voting_id":"31","name":"Aakriti Subedi"},"vote_count":1,"created_on":"2020-01-04T21:42:19.319274+05:45"},{"idx":"4qUEycuzBL7KKkRoTu9x7j","contest":"Model Superstar","episode":"Model Superstar","category":null,"contestant":{"voting_id":"31","name":"Aakriti Subedi"},"vote_count":1,"created_on":"2020-01-04T21:42:02.579211+05:45"},{"idx":"FfuraAx8B48EzhkaLYzf2C","contest":"Model Superstar","episode":"Model Superstar","category":null,"contestant":{"voting_id":"31","name":"Aakriti Subedi"},"vote_count":1,"created_on":"2020-01-04T21:41:45.102146+05:45"},{"idx":"k2JxkimGKRhR5aA8MT2mkR","contest":"Model Superstar","episode":"Model Superstar","category":null,"contestant":{"voting_id":"31","name":"Aakriti Subedi"},"vote_count":1,"created_on":"2020-01-04T21:41:26.399189+05:45"},{"idx":"f6WWFPP2bDhZXpq45NKA83","contest":"Model Superstar","episode":"Model Superstar","category":null,"contestant":{"voting_id":"31","name":"Aakriti Subedi"},"vote_count":1,"created_on":"2020-01-04T21:40:26.444931+05:45"},{"idx":"iJFmhYavxyxZomkMWxQJrF","contest":"Model Superstar","episode":"Model Superstar","category":null,"contestant":{"voting_id":"31","name":"Aakriti Subedi"},"vote_count":1,"created_on":"2020-01-04T21:40:07.410291+05:45"},{"idx":"7hCrHqjBBYbSEmxnpyWGdR","contest":"Model Superstar","episode":"Model Superstar","category":null,"contestant":{"voting_id":"31","name":"Aakriti Subedi"},"vote_count":1,"created_on":"2020-01-04T21:39:47.111900+05:45"},{"idx":"eqvcv4dH2NrR5aNNw9T7KX","contest":"Model Superstar","episode":"Model Superstar","category":null,"contestant":{"voting_id":"31","name":"Aakriti Subedi"},"vote_count":1,"created_on":"2020-01-04T21:39:29.075839+05:45"},{"idx":"TuwQFRtymdyfiQT8mRjSiQ","contest":"Model Superstar","episode":"Model Superstar","category":null,"contestant":{"voting_id":"31","name":"Aakriti Subedi"},"vote_count":1,"created_on":"2020-01-04T21:39:11.536696+05:45"},{"idx":"HqKNSppkPFxrY4ZDhd6GHB","contest":"Model Superstar","episode":"Model Superstar","category":null,"contestant":{"voting_id":"31","name":"Aakriti Subedi"},"vote_count":1,"created_on":"2020-01-04T21:38:50.610465+05:45"},{"idx":"P4QC7ofu9DgXiiT2P3zPwb","contest":"Model Superstar","episode":"Model Superstar","category":null,"contestant":{"voting_id":"31","name":"Aakriti Subedi"},"vote_count":1,"created_on":"2020-01-04T21:38:31.711376+05:45"},{"idx":"MpTKq3uZrc4nXkF7ZZcg3N","contest":"Model Superstar","episode":"Model Superstar","category":null,"contestant":{"voting_id":"31","name":"Aakriti Subedi"},"vote_count":1,"created_on":"2020-01-04T21:38:09.485791+05:45"},{"idx":"phSYhKcmPZ4neD2FucBiFP","contest":"Model Superstar","episode":"Model Superstar","category":null,"contestant":{"voting_id":"31","name":"Aakriti Subedi"},"vote_count":1,"created_on":"2020-01-04T21:37:54.647443+05:45"},{"idx":"fDD5dND62wZMonjpUCuRjn","contest":"Model Superstar","episode":"Model Superstar","category":null,"contestant":{"voting_id":"31","name":"Aakriti Subedi"},"vote_count":1,"created_on":"2020-01-04T21:37:36.231880+05:45"},{"idx":"nBEfqQynuQ9zUADCWzfuuT","contest":"Model Superstar","episode":"Model Superstar","category":null,"contestant":{"voting_id":"31","name":"Aakriti Subedi"},"vote_count":1,"created_on":"2020-01-04T21:37:20.313143+05:45"},{"idx":"WeHUJ58WYQuHw2TDBiyLpd","contest":"Model Superstar","episode":"Model Superstar","category":null,"contestant":{"voting_id":"31","name":"Aakriti Subedi"},"vote_count":1,"created_on":"2020-01-04T21:37:00.365950+05:45"},{"idx":"2yUbKDs8SE4DzxdHXAktvE","contest":"Model Superstar","episode":"Model Superstar","category":null,"contestant":{"voting_id":"31","name":"Aakriti Subedi"},"vote_count":1,"created_on":"2020-01-04T21:36:43.932394+05:45"},{"idx":"zovXM7sf7VsnBQvNEMNrjM","contest":"Model Superstar","episode":"Model Superstar","category":null,"contestant":{"voting_id":"31","name":"Aakriti Subedi"},"vote_count":1,"created_on":"2020-01-04T21:36:11.715933+05:45"},{"idx":"RvUrsv23zaTdqXgeuxAV9j","contest":"Model Superstar","episode":"Model Superstar","category":null,"contestant":{"voting_id":"31","name":"Aakriti Subedi"},"vote_count":1,"created_on":"2020-01-04T21:35:13.137405+05:45"},{"idx":"Aq83VMKbqwXJZWnC6NRE5M","contest":"Mr. & Miss Teen Sherpa 2020 - S2","episode":"Mr.&Miss Teen Sherpa -S2","category":null,"contestant":{"voting_id":"24","name":"Mingma Tshering Sherpa"},"vote_count":1,"created_on":"2020-01-04T21:34:52.666553+05:45"},{"idx":"axPdhP32iq7zEd3E4j9baH","contest":"Model Superstar","episode":"Model Superstar","category":null,"contestant":{"voting_id":"31","name":"Aakriti Subedi"},"vote_count":1,"created_on":"2020-01-04T21:34:52.303911+05:45"},{"idx":"ZCXeYMXb3e5jk7oNKCb54a","contest":"Model Superstar","episode":"Model Superstar","category":null,"contestant":{"voting_id":"31","name":"Aakriti Subedi"},"vote_count":1,"created_on":"2020-01-04T21:34:33.623778+05:45"},{"idx":"yoD42mrgaoR2emNZoKwSkb","contest":"Mr. & Miss Teen Sherpa 2020 - S2","episode":"Mr.&Miss Teen Sherpa -S2","category":null,"contestant":{"voting_id":"24","name":"Mingma Tshering Sherpa"},"vote_count":1,"created_on":"2020-01-04T21:34:21.067264+05:45"},{"idx":"hyrsTcq6R9hcJWv3ZKASuR","contest":"Model Superstar","episode":"Model Superstar","category":null,"contestant":{"voting_id":"31","name":"Aakriti Subedi"},"vote_count":1,"created_on":"2020-01-04T21:34:14.217264+05:45"},{"idx":"ciHCpVqYyFbA7GdktPmb4T","contest":"Model Superstar","episode":"Model Superstar","category":null,"contestant":{"voting_id":"31","name":"Aakriti Subedi"},"vote_count":1,"created_on":"2020-01-04T21:33:54.504575+05:45"},{"idx":"9uHNrsrtsJXsjWgpiLkBa8","contest":"Model Superstar","episode":"Model Superstar","category":null,"contestant":{"voting_id":"31","name":"Aakriti Subedi"},"vote_count":1,"created_on":"2020-01-04T21:33:37.587784+05:45"},{"idx":"3stm7mC4wh9SRitMbZq8Cm","contest":"Model Superstar","episode":"Model Superstar","category":null,"contestant":{"voting_id":"31","name":"Aakriti Subedi"},"vote_count":1,"created_on":"2020-01-04T21:33:20.348378+05:45"},{"idx":"HE99AzZbf4YMyP6G32pDuH","contest":"Model Superstar","episode":"Model Superstar","category":null,"contestant":{"voting_id":"31","name":"Aakriti Subedi"},"vote_count":1,"created_on":"2020-01-04T21:32:52.049289+05:45"},{"idx":"WJzgiF2aACieVPuZikaoea","contest":"Model Superstar","episode":"Model Superstar","category":null,"contestant":{"voting_id":"31","name":"Aakriti Subedi"},"vote_count":1,"created_on":"2020-01-04T21:32:29.549180+05:45"},{"idx":"EEhEGxpZvkDDiXoaVie5eg","contest":"Model Superstar","episode":"Model Superstar","category":null,"contestant":{"voting_id":"31","name":"Aakriti Subedi"},"vote_count":1,"created_on":"2020-01-04T21:32:12.614342+05:45"},{"idx":"LkoGKmLrtLJH7cenhaWMBn","contest":"Model Superstar","episode":"Model Superstar","category":null,"contestant":{"voting_id":"31","name":"Aakriti Subedi"},"vote_count":1,"created_on":"2020-01-04T21:31:56.957645+05:45"},{"idx":"3Dc3AHcKEPFSqWRk4Sub72","contest":"Model Superstar","episode":"Model Superstar","category":null,"contestant":{"voting_id":"31","name":"Aakriti Subedi"},"vote_count":1,"created_on":"2020-01-04T21:31:39.053570+05:45"},{"idx":"RjA5GDysB2xdZSrry7xQpb","contest":"Model Superstar","episode":"Model Superstar","category":null,"contestant":{"voting_id":"31","name":"Aakriti Subedi"},"vote_count":1,"created_on":"2020-01-04T21:31:20.509174+05:45"},{"idx":"QRHuZstcL7H5UjRLSXAZaa","contest":"Model Superstar","episode":"Model Superstar","category":null,"contestant":{"voting_id":"31","name":"Aakriti Subedi"},"vote_count":1,"created_on":"2020-01-04T21:31:01.900568+05:45"},{"idx":"JkVpsFPp4n6Zom65xc4Le7","contest":"Model Superstar","episode":"Model Superstar","category":null,"contestant":{"voting_id":"31","name":"Aakriti Subedi"},"vote_count":1,"created_on":"2020-01-04T21:30:03.989861+05:45"},{"idx":"DKFG54PHMJU2UM7eN2SYLf","contest":"Model Superstar","episode":"Model Superstar","category":null,"contestant":{"voting_id":"31","name":"Aakriti Subedi"},"vote_count":1,"created_on":"2020-01-04T21:29:38.167791+05:45"},{"idx":"P6v2QcT3qKpgXBZLdLHZjN","contest":"Model Superstar","episode":"Model Superstar","category":null,"contestant":{"voting_id":"31","name":"Aakriti Subedi"},"vote_count":1,"created_on":"2020-01-04T21:29:19.723421+05:45"},{"idx":"vrn6msywp6psiEkix5djDd","contest":"Model Superstar","episode":"Model Superstar","category":null,"contestant":{"voting_id":"31","name":"Aakriti Subedi"},"vote_count":1,"created_on":"2020-01-04T21:28:57.449376+05:45"},{"idx":"AhALSxgtPshGRqAR4v76xe","contest":"Model Superstar","episode":"Model Superstar","category":null,"contestant":{"voting_id":"31","name":"Aakriti Subedi"},"vote_count":1,"created_on":"2020-01-04T21:28:38.189394+05:45"},{"idx":"5nC4kpgXrBz67GsdAfo6pY","contest":"Model Superstar","episode":"Model Superstar","category":null,"contestant":{"voting_id":"31","name":"Aakriti Subedi"},"vote_count":1,"created_on":"2020-01-04T21:28:15.945257+05:45"},{"idx":"otAuqpYR9Y6JDhR8V6SHL5","contest":"Model Superstar","episode":"Model Superstar","category":null,"contestant":{"voting_id":"31","name":"Aakriti Subedi"},"vote_count":1,"created_on":"2020-01-04T21:27:56.569565+05:45"},{"idx":"mHnoMMoWbGxAEfKrDGBMeN","contest":"Model Superstar","episode":"Model Superstar","category":null,"contestant":{"voting_id":"31","name":"Aakriti Subedi"},"vote_count":1,"created_on":"2020-01-04T21:27:31.910113+05:45"},{"idx":"ugkGbPaiJMbm6TW65KRyek","contest":"Model Superstar","episode":"Model Superstar","category":null,"contestant":{"voting_id":"31","name":"Aakriti Subedi"},"vote_count":1,"created_on":"2020-01-04T21:27:14.055371+05:45"},{"idx":"Aa26FvmdG9ZKJ6oBQakhoK","contest":"Model Superstar","episode":"Model Superstar","category":null,"contestant":{"voting_id":"31","name":"Aakriti Subedi"},"vote_count":1,"created_on":"2020-01-04T21:26:58.036186+05:45"},{"idx":"PJLftBZckYvSauz7kJzELS","contest":"Model Superstar","episode":"Model Superstar","category":null,"contestant":{"voting_id":"31","name":"Aakriti Subedi"},"vote_count":1,"created_on":"2020-01-04T21:26:37.144021+05:45"},{"idx":"A3iGuidUoxXrJaTBwhg4Pj","contest":"Model Superstar","episode":"Model Superstar","category":null,"contestant":{"voting_id":"31","name":"Aakriti Subedi"},"vote_count":1,"created_on":"2020-01-04T21:26:05.470053+05:45"},{"idx":"63wRyu5MQR2j6uPnG8KhQd","contest":"Model Superstar","episode":"Model Superstar","category":null,"contestant":{"voting_id":"31","name":"Aakriti Subedi"},"vote_count":1,"created_on":"2020-01-04T21:25:45.086400+05:45"},{"idx":"4BPXM4uQSk3G7NZ7or5HyY","contest":"Model Superstar","episode":"Model Superstar","category":null,"contestant":{"voting_id":"31","name":"Aakriti Subedi"},"vote_count":1,"created_on":"2020-01-04T21:25:25.679966+05:45"},{"idx":"CGxwtUieq3uxinYUKqy9zR","contest":"Model Superstar","episode":"Model Superstar","category":null,"contestant":{"voting_id":"27","name":"Suweta Shrestha"},"vote_count":1,"created_on":"2020-01-04T21:18:31.464125+05:45"}]}