{"total_pages":275,"total_records":13720,"next":"https://khalti.com/api/v2/vuservote/?page=152","previous":"https://khalti.com/api/v2/vuservote/?page=150","record_range":[7501,7550],"current_page":151,"records":[{"idx":"9hFQrEu4UyjBXQf6DPod27","contest":"NEPALBHASA STAR MUSIC VIDEO AWARDS-2019","episode":null,"category":"BEST DANCE DIRECTOR","contestant":{"voting_id":"19B","name":"Srijana Maharjan"},"vote_count":1,"created_on":"2020-01-04T21:16:05.018996+05:45"},{"idx":"oqKy8XJMTidLB3H7RQcCq3","contest":"Mr. & Miss Teen Sherpa 2020 - S2","episode":"Mr.&Miss Teen Sherpa -S2","category":null,"contestant":{"voting_id":"24","name":"Mingma Tshering Sherpa"},"vote_count":1,"created_on":"2020-01-04T21:03:55.100467+05:45"},{"idx":"Bou6VV4TVRpBS4Ey2bjBt2","contest":"Mr. & Miss Teen Sherpa 2020 - S2","episode":"Mr.&Miss Teen Sherpa -S2","category":null,"contestant":{"voting_id":"24","name":"Mingma Tshering Sherpa"},"vote_count":1,"created_on":"2020-01-04T21:03:18.039396+05:45"},{"idx":"gnmz5wVgi8iyvSWnLwdA5D","contest":"Mr. & Miss Teen Sherpa 2020 - S2","episode":"Mr.&Miss Teen Sherpa -S2","category":null,"contestant":{"voting_id":"01","name":"Lhamu Sherpa"},"vote_count":1,"created_on":"2020-01-04T20:56:31.528310+05:45"},{"idx":"iGgjzaCswjkfJibtSLy9AW","contest":"Mr. & Miss Teen Sherpa 2020 - S2","episode":"Mr.&Miss Teen Sherpa -S2","category":null,"contestant":{"voting_id":"24","name":"Mingma Tshering Sherpa"},"vote_count":1,"created_on":"2020-01-04T20:54:08.430749+05:45"},{"idx":"YA6pv5dnGxorZoDksvdbWA","contest":"Mr. & Miss Teen Sherpa 2020 - S2","episode":"Mr.&Miss Teen Sherpa -S2","category":null,"contestant":{"voting_id":"24","name":"Mingma Tshering Sherpa"},"vote_count":1,"created_on":"2020-01-04T20:52:26.194197+05:45"},{"idx":"uayaCYqXC3QMYHh9qq2Kdk","contest":"Mr. & Miss Teen Sherpa 2020 - S2","episode":"Mr.&Miss Teen Sherpa -S2","category":null,"contestant":{"voting_id":"08","name":"Angdali Sherpa"},"vote_count":1,"created_on":"2020-01-04T20:43:20.384357+05:45"},{"idx":"hCetAUGhX8hWbs3oNZiuAc","contest":"NEPALBHASA STAR MUSIC VIDEO AWARDS-2019","episode":null,"category":"BEST DIRECTOR","contestant":{"voting_id":"20B","name":"Rajesh Man Singh"},"vote_count":1,"created_on":"2020-01-04T20:15:19.179095+05:45"},{"idx":"4RWtRKtRTTtWa9VyvxtUwn","contest":"Model Superstar","episode":"Model Superstar","category":null,"contestant":{"voting_id":"01","name":"Sajina Subba"},"vote_count":1,"created_on":"2020-01-04T19:11:09.954111+05:45"},{"idx":"j5AQZDHs7wG3kevcZAnqtm","contest":"Mr. & Miss Teen Sherpa 2020 - S2","episode":"Mr.&Miss Teen Sherpa -S2","category":null,"contestant":{"voting_id":"06","name":"Tenzin Pema Sherpa"},"vote_count":1,"created_on":"2020-01-04T18:25:17.699772+05:45"},{"idx":"8pQuHe8W8QvhW2kGE9DaHk","contest":"Mr. & Miss Teen Sherpa 2020 - S2","episode":"Mr.&Miss Teen Sherpa -S2","category":null,"contestant":{"voting_id":"06","name":"Tenzin Pema Sherpa"},"vote_count":1,"created_on":"2020-01-04T18:24:22.872192+05:45"},{"idx":"r5CruNq8XgmmfhQnjAEi3b","contest":"Mr. & Miss Teen Sherpa 2020 - S2","episode":"Mr.&Miss Teen Sherpa -S2","category":null,"contestant":{"voting_id":"06","name":"Tenzin Pema Sherpa"},"vote_count":1,"created_on":"2020-01-04T18:22:09.181173+05:45"},{"idx":"4vo9nirV5t93DcFT4AyVVW","contest":"Mr. & Miss Teen Sherpa 2020 - S2","episode":"Mr.&Miss Teen Sherpa -S2","category":null,"contestant":{"voting_id":"24","name":"Mingma Tshering Sherpa"},"vote_count":1,"created_on":"2020-01-04T18:21:07.473556+05:45"},{"idx":"AQiZXCsigJVQkBY8w3QLjb","contest":"Mr. & Miss Teen Sherpa 2020 - S2","episode":"Mr.&Miss Teen Sherpa -S2","category":null,"contestant":{"voting_id":"06","name":"Tenzin Pema Sherpa"},"vote_count":1,"created_on":"2020-01-04T18:20:19.843814+05:45"},{"idx":"8RVVfSsQTiDBxhwpLRuHpA","contest":"Mr. & Miss Teen Sherpa 2020 - S2","episode":"Mr.&Miss Teen Sherpa -S2","category":null,"contestant":{"voting_id":"06","name":"Tenzin Pema Sherpa"},"vote_count":1,"created_on":"2020-01-04T18:19:06.505625+05:45"},{"idx":"EaatzrdDDsSTBf9HpMzSfd","contest":"Mr. & Miss Teen Sherpa 2020 - S2","episode":"Mr.&Miss Teen Sherpa -S2","category":null,"contestant":{"voting_id":"06","name":"Tenzin Pema Sherpa"},"vote_count":1,"created_on":"2020-01-04T18:18:48.585849+05:45"},{"idx":"RgwtGh6yUJKDoXHjvhfQSZ","contest":"Mr. & Miss Teen Sherpa 2020 - S2","episode":"Mr.&Miss Teen Sherpa -S2","category":null,"contestant":{"voting_id":"06","name":"Tenzin Pema Sherpa"},"vote_count":1,"created_on":"2020-01-04T18:18:32.647596+05:45"},{"idx":"Y8sQcYwBov6FReqXaSm7X7","contest":"Mr. & Miss Teen Sherpa 2020 - S2","episode":"Mr.&Miss Teen Sherpa -S2","category":null,"contestant":{"voting_id":"06","name":"Tenzin Pema Sherpa"},"vote_count":1,"created_on":"2020-01-04T18:18:09.751578+05:45"},{"idx":"LEYoTQ2HcvvQRRiCuiZNt4","contest":"Mr. & Miss Teen Sherpa 2020 - S2","episode":"Mr.&Miss Teen Sherpa -S2","category":null,"contestant":{"voting_id":"02","name":"Pema Yanji sherpa"},"vote_count":1,"created_on":"2020-01-04T17:42:24.863038+05:45"},{"idx":"R8hkKS5PjjddaNTiGwGQ6G","contest":"Mr. & Miss Teen Sherpa 2020 - S2","episode":"Mr.&Miss Teen Sherpa -S2","category":null,"contestant":{"voting_id":"02","name":"Pema Yanji sherpa"},"vote_count":1,"created_on":"2020-01-04T17:42:15.877183+05:45"},{"idx":"rdaxmddG2vTN9WXg8y38Ki","contest":"Mr. & Miss Teen Sherpa 2020 - S2","episode":"Mr.&Miss Teen Sherpa -S2","category":null,"contestant":{"voting_id":"02","name":"Pema Yanji sherpa"},"vote_count":1,"created_on":"2020-01-04T17:42:10.623700+05:45"},{"idx":"n3xNZRF45e9gTKoPGamDCH","contest":"Mr. & Miss Teen Sherpa 2020 - S2","episode":"Mr.&Miss Teen Sherpa -S2","category":null,"contestant":{"voting_id":"02","name":"Pema Yanji sherpa"},"vote_count":1,"created_on":"2020-01-04T17:42:03.714126+05:45"},{"idx":"9CsdwRZrqquBQf5uLLQT5V","contest":"Mr. & Miss Teen Sherpa 2020 - S2","episode":"Mr.&Miss Teen Sherpa -S2","category":null,"contestant":{"voting_id":"02","name":"Pema Yanji sherpa"},"vote_count":1,"created_on":"2020-01-04T17:41:57.864779+05:45"},{"idx":"ixmFBNmaJJeeTmC89xdAgj","contest":"Mr. & Miss Teen Sherpa 2020 - S2","episode":"Mr.&Miss Teen Sherpa -S2","category":null,"contestant":{"voting_id":"02","name":"Pema Yanji sherpa"},"vote_count":1,"created_on":"2020-01-04T17:41:51.089908+05:45"},{"idx":"emeBfY4dsBP5kiB7gXcqPC","contest":"Mr. & Miss Teen Sherpa 2020 - S2","episode":"Mr.&Miss Teen Sherpa -S2","category":null,"contestant":{"voting_id":"02","name":"Pema Yanji sherpa"},"vote_count":1,"created_on":"2020-01-04T17:41:38.520669+05:45"},{"idx":"kAC8hyWP5KJCLTJ5tMoGhZ","contest":"Mr. & Miss Teen Sherpa 2020 - S2","episode":"Mr.&Miss Teen Sherpa -S2","category":null,"contestant":{"voting_id":"02","name":"Pema Yanji sherpa"},"vote_count":1,"created_on":"2020-01-04T17:41:33.207512+05:45"},{"idx":"uBvxiNBS3xR3shP7iiTaZk","contest":"Mr. & Miss Teen Sherpa 2020 - S2","episode":"Mr.&Miss Teen Sherpa -S2","category":null,"contestant":{"voting_id":"02","name":"Pema Yanji sherpa"},"vote_count":1,"created_on":"2020-01-04T17:41:21.919859+05:45"},{"idx":"LxJ9gTVyLvJjgn7xLREJob","contest":"Mr. & Miss Teen Sherpa 2020 - S2","episode":"Mr.&Miss Teen Sherpa -S2","category":null,"contestant":{"voting_id":"02","name":"Pema Yanji sherpa"},"vote_count":1,"created_on":"2020-01-04T17:41:15.738520+05:45"},{"idx":"HvFDJaYBUGafmhKneKkT6F","contest":"Mr. & Miss Teen Sherpa 2020 - S2","episode":"Mr.&Miss Teen Sherpa -S2","category":null,"contestant":{"voting_id":"02","name":"Pema Yanji sherpa"},"vote_count":1,"created_on":"2020-01-04T17:41:10.485957+05:45"},{"idx":"hPht5YmnWFfmBH6vhWeg7k","contest":"Mr. & Miss Teen Sherpa 2020 - S2","episode":"Mr.&Miss Teen Sherpa -S2","category":null,"contestant":{"voting_id":"02","name":"Pema Yanji sherpa"},"vote_count":1,"created_on":"2020-01-04T17:41:04.048475+05:45"},{"idx":"LSQYQNJTcf9wz5aHC8Riw2","contest":"Mr. & Miss Teen Sherpa 2020 - S2","episode":"Mr.&Miss Teen Sherpa -S2","category":null,"contestant":{"voting_id":"02","name":"Pema Yanji sherpa"},"vote_count":1,"created_on":"2020-01-04T17:40:58.343831+05:45"},{"idx":"WxSdQ6Pg6dmQidWWLNnEuN","contest":"Mr. & Miss Teen Sherpa 2020 - S2","episode":"Mr.&Miss Teen Sherpa -S2","category":null,"contestant":{"voting_id":"02","name":"Pema Yanji sherpa"},"vote_count":1,"created_on":"2020-01-04T17:40:51.016058+05:45"},{"idx":"VxxkXTbBc2yzoALHydU3Tf","contest":"Mr. & Miss Teen Sherpa 2020 - S2","episode":"Mr.&Miss Teen Sherpa -S2","category":null,"contestant":{"voting_id":"02","name":"Pema Yanji sherpa"},"vote_count":1,"created_on":"2020-01-04T17:40:44.067925+05:45"},{"idx":"DRPnbPxx9nxnvnkbKTqqii","contest":"Mr. & Miss Teen Sherpa 2020 - S2","episode":"Mr.&Miss Teen Sherpa -S2","category":null,"contestant":{"voting_id":"02","name":"Pema Yanji sherpa"},"vote_count":1,"created_on":"2020-01-04T17:40:37.911758+05:45"},{"idx":"HAtBydN8aWZQBhBZ4LMSYk","contest":"Mr. & Miss Teen Sherpa 2020 - S2","episode":"Mr.&Miss Teen Sherpa -S2","category":null,"contestant":{"voting_id":"02","name":"Pema Yanji sherpa"},"vote_count":1,"created_on":"2020-01-04T17:40:32.828103+05:45"},{"idx":"hxSNWbadCWZWSSoF7hjk95","contest":"Mr. & Miss Teen Sherpa 2020 - S2","episode":"Mr.&Miss Teen Sherpa -S2","category":null,"contestant":{"voting_id":"02","name":"Pema Yanji sherpa"},"vote_count":1,"created_on":"2020-01-04T17:40:27.120097+05:45"},{"idx":"HKFMhrszijG76mqBijgpi9","contest":"Mr. & Miss Teen Sherpa 2020 - S2","episode":"Mr.&Miss Teen Sherpa -S2","category":null,"contestant":{"voting_id":"02","name":"Pema Yanji sherpa"},"vote_count":1,"created_on":"2020-01-04T17:40:22.078302+05:45"},{"idx":"jE9b9t4MoPFYYsjHUQqRUa","contest":"Mr. & Miss Teen Sherpa 2020 - S2","episode":"Mr.&Miss Teen Sherpa -S2","category":null,"contestant":{"voting_id":"02","name":"Pema Yanji sherpa"},"vote_count":1,"created_on":"2020-01-04T17:40:16.044771+05:45"},{"idx":"jQjMUH29aTZ3fHgwNLRfZF","contest":"Mr. & Miss Teen Sherpa 2020 - S2","episode":"Mr.&Miss Teen Sherpa -S2","category":null,"contestant":{"voting_id":"02","name":"Pema Yanji sherpa"},"vote_count":1,"created_on":"2020-01-04T17:40:09.012748+05:45"},{"idx":"w6xCtrJntuzYYfNBEsJBhm","contest":"Mr. & Miss Teen Sherpa 2020 - S2","episode":"Mr.&Miss Teen Sherpa -S2","category":null,"contestant":{"voting_id":"02","name":"Pema Yanji sherpa"},"vote_count":1,"created_on":"2020-01-04T17:39:59.896571+05:45"},{"idx":"5TiY9h4SJevDGPnQqxUs2m","contest":"Mr. & Miss Teen Sherpa 2020 - S2","episode":"Mr.&Miss Teen Sherpa -S2","category":null,"contestant":{"voting_id":"02","name":"Pema Yanji sherpa"},"vote_count":1,"created_on":"2020-01-04T17:39:52.188037+05:45"},{"idx":"wZN3vcZn6cE2izyYnJAvbf","contest":"Mr. & Miss Teen Sherpa 2020 - S2","episode":"Mr.&Miss Teen Sherpa -S2","category":null,"contestant":{"voting_id":"02","name":"Pema Yanji sherpa"},"vote_count":1,"created_on":"2020-01-04T17:39:43.570279+05:45"},{"idx":"VhxN4zejaXnbTaFPggQZuW","contest":"Mr. & Miss Teen Sherpa 2020 - S2","episode":"Mr.&Miss Teen Sherpa -S2","category":null,"contestant":{"voting_id":"02","name":"Pema Yanji sherpa"},"vote_count":1,"created_on":"2020-01-04T17:39:38.736011+05:45"},{"idx":"sRtoiUj6EAnwzKo64UUFZ5","contest":"Mr. & Miss Teen Sherpa 2020 - S2","episode":"Mr.&Miss Teen Sherpa -S2","category":null,"contestant":{"voting_id":"02","name":"Pema Yanji sherpa"},"vote_count":1,"created_on":"2020-01-04T17:39:32.582306+05:45"},{"idx":"Yu32WbXJRPf4nbRhBtaAYo","contest":"Mr. & Miss Teen Sherpa 2020 - S2","episode":"Mr.&Miss Teen Sherpa -S2","category":null,"contestant":{"voting_id":"02","name":"Pema Yanji sherpa"},"vote_count":1,"created_on":"2020-01-04T17:39:26.914113+05:45"},{"idx":"4joUJEbJygheSFAvYMdb2H","contest":"Mr. & Miss Teen Sherpa 2020 - S2","episode":"Mr.&Miss Teen Sherpa -S2","category":null,"contestant":{"voting_id":"02","name":"Pema Yanji sherpa"},"vote_count":1,"created_on":"2020-01-04T17:39:20.712453+05:45"},{"idx":"9eAAPNAWVV7LcCsTbW77FJ","contest":"Mr. & Miss Teen Sherpa 2020 - S2","episode":"Mr.&Miss Teen Sherpa -S2","category":null,"contestant":{"voting_id":"02","name":"Pema Yanji sherpa"},"vote_count":1,"created_on":"2020-01-04T17:39:15.846965+05:45"},{"idx":"a9SagHDNBtHdJngKGu99i6","contest":"Mr. & Miss Teen Sherpa 2020 - S2","episode":"Mr.&Miss Teen Sherpa -S2","category":null,"contestant":{"voting_id":"02","name":"Pema Yanji sherpa"},"vote_count":1,"created_on":"2020-01-04T17:39:10.237617+05:45"},{"idx":"tDh9MYFJzoJWj6m3yatuQk","contest":"Mr. & Miss Teen Sherpa 2020 - S2","episode":"Mr.&Miss Teen Sherpa -S2","category":null,"contestant":{"voting_id":"02","name":"Pema Yanji sherpa"},"vote_count":1,"created_on":"2020-01-04T17:39:04.324231+05:45"},{"idx":"W2zrEGoAQpUkXCLx95smkJ","contest":"Mr. & Miss Teen Sherpa 2020 - S2","episode":"Mr.&Miss Teen Sherpa -S2","category":null,"contestant":{"voting_id":"02","name":"Pema Yanji sherpa"},"vote_count":1,"created_on":"2020-01-04T17:38:54.883873+05:45"}]}