{"total_pages":275,"total_records":13720,"next":"https://khalti.com/api/v2/vuservote/?page=154","previous":"https://khalti.com/api/v2/vuservote/?page=152","record_range":[7601,7650],"current_page":153,"records":[{"idx":"w55XEfUrH8VbXP9v8FLq4W","contest":"NEPALBHASA STAR MUSIC VIDEO AWARDS-2019","episode":null,"category":"BEST MODEL, FEMALE","contestant":{"voting_id":"13G","name":"Bhintuna Joshi"},"vote_count":1,"created_on":"2020-01-04T16:07:43.251126+05:45"},{"idx":"kwhiByxfuU8wvHrWgV62Yk","contest":"Mr. & Miss Teen Sherpa 2020 - S2","episode":"Mr.&Miss Teen Sherpa -S2","category":null,"contestant":{"voting_id":"02","name":"Pema Yanji sherpa"},"vote_count":1,"created_on":"2020-01-04T15:49:23.199055+05:45"},{"idx":"vXRugt6yixQPESncY94nQn","contest":"Model Superstar","episode":"Model Superstar","category":null,"contestant":{"voting_id":"02","name":"Srijana Basnet"},"vote_count":1,"created_on":"2020-01-04T15:49:03.443645+05:45"},{"idx":"FDwVxAcND2xgxGtDzDcbMV","contest":"NEPALBHASA STAR MUSIC VIDEO AWARDS-2019","episode":null,"category":"THE RISING STAR SINGER","contestant":{"voting_id":"21D","name":"Krishna Maharjan"},"vote_count":1,"created_on":"2020-01-04T15:46:38.206377+05:45"},{"idx":"bQXZK9nVpc9o8dmfgMCBG5","contest":"Model Superstar","episode":"Model Superstar","category":null,"contestant":{"voting_id":"14","name":"Ashish Shakya"},"vote_count":1,"created_on":"2020-01-04T13:45:08.061155+05:45"},{"idx":"v8WZWs3joqUwS53aYbe6oh","contest":"Mr. & Miss Teen Sherpa 2020 - S2","episode":"Mr.&Miss Teen Sherpa -S2","category":null,"contestant":{"voting_id":"02","name":"Pema Yanji sherpa"},"vote_count":1,"created_on":"2020-01-04T13:24:00.746066+05:45"},{"idx":"KhWWeFY5Jv4phCnZS6FvFD","contest":"NEPALBHASA STAR MUSIC VIDEO AWARDS-2019","episode":null,"category":"BEST DANCE DIRECTOR","contestant":{"voting_id":"19I","name":"Rajan Shahi"},"vote_count":1,"created_on":"2020-01-04T13:11:44.034327+05:45"},{"idx":"VgzMzMf2KFWt97fmkryWjj","contest":"Model Superstar","episode":"Model Superstar","category":null,"contestant":{"voting_id":"01","name":"Sajina Subba"},"vote_count":1,"created_on":"2020-01-04T13:10:30.477210+05:45"},{"idx":"7PUExJ422ayR5kFfcFPf58","contest":"Mr. & Miss Teen Sherpa 2020 - S2","episode":"Mr.&Miss Teen Sherpa -S2","category":null,"contestant":{"voting_id":"01","name":"Lhamu Sherpa"},"vote_count":1,"created_on":"2020-01-04T11:24:30.353418+05:45"},{"idx":"YSMjGeBbEhQVXeEWg3o5pQ","contest":"Model Superstar","episode":"Model Superstar","category":null,"contestant":{"voting_id":"14","name":"Ashish Shakya"},"vote_count":1,"created_on":"2020-01-04T11:19:38.766208+05:45"},{"idx":"eHSeJozf7m5aP4teWdq6xc","contest":"Mr. & Miss Teen Sherpa 2020 - S2","episode":"Mr.&Miss Teen Sherpa -S2","category":null,"contestant":{"voting_id":"11","name":"Ang Maya Sherpa"},"vote_count":1,"created_on":"2020-01-04T11:19:29.994516+05:45"},{"idx":"XYr5npEGA9RJreqneewKFB","contest":"Model Superstar","episode":"Model Superstar","category":null,"contestant":{"voting_id":"05","name":"Asmita Thapa Magar"},"vote_count":1,"created_on":"2020-01-04T11:18:46.153447+05:45"},{"idx":"nms6ceySJh64EmvJzhnQri","contest":"Model Superstar","episode":"Model Superstar","category":null,"contestant":{"voting_id":"04","name":"Sabita Maharjan"},"vote_count":1,"created_on":"2020-01-04T10:45:22.912273+05:45"},{"idx":"mmqwTB7p2VZMiZ5hi3KjJe","contest":"Model Superstar","episode":"Model Superstar","category":null,"contestant":{"voting_id":"04","name":"Sabita Maharjan"},"vote_count":1,"created_on":"2020-01-04T10:44:31.879316+05:45"},{"idx":"f5ZJmRtDzspFDJoK5p984X","contest":"Model Superstar","episode":"Model Superstar","category":null,"contestant":{"voting_id":"02","name":"Srijana Basnet"},"vote_count":1,"created_on":"2020-01-04T10:28:45.754208+05:45"},{"idx":"Ybti4btJtLLghFc8G3FKEh","contest":"Model Superstar","episode":"Model Superstar","category":null,"contestant":{"voting_id":"05","name":"Asmita Thapa Magar"},"vote_count":1,"created_on":"2020-01-04T10:24:47.378209+05:45"},{"idx":"BWrXYJTNwVpiUFf8bXj3AH","contest":"NEPALBHASA STAR MUSIC VIDEO AWARDS-2019","episode":null,"category":"THE RISING STAR SINGER","contestant":{"voting_id":"21C","name":"Jack Maharjan"},"vote_count":1,"created_on":"2020-01-04T10:16:08.376468+05:45"},{"idx":"iGx7R6uVqS9P79kjBj8KHm","contest":"Mr. & Miss Teen Sherpa 2020 - S2","episode":"Mr.&Miss Teen Sherpa -S2","category":null,"contestant":{"voting_id":"03","name":"Mingma Sherpa"},"vote_count":1,"created_on":"2020-01-04T09:55:48.433229+05:45"},{"idx":"5PmCZ7caeDwXFiMEuYCKhT","contest":"NEPALBHASA STAR MUSIC VIDEO AWARDS-2019","episode":null,"category":"BEST SINGER, MALE","contestant":{"voting_id":"15E","name":" Prabesh Man Shakya"},"vote_count":1,"created_on":"2020-01-04T09:51:33.893377+05:45"},{"idx":"XFvu8ikuk9YRe3oo8bPSUU","contest":"Mr. & Miss Teen Sherpa 2020 - S2","episode":"Mr.&Miss Teen Sherpa -S2","category":null,"contestant":{"voting_id":"23","name":"Chhiri Sherpa"},"vote_count":1,"created_on":"2020-01-04T09:33:16.320042+05:45"},{"idx":"4gYQa7uepyrXHwxqkybA38","contest":"Mr. & Miss Teen Sherpa 2020 - S2","episode":"Mr.&Miss Teen Sherpa -S2","category":null,"contestant":{"voting_id":"05","name":"Nima Lhamu sherpa"},"vote_count":1,"created_on":"2020-01-04T09:32:08.504027+05:45"},{"idx":"7EDfiYVujyu5SX2eu6khP3","contest":"Mr. & Miss Teen Sherpa 2020 - S2","episode":"Mr.&Miss Teen Sherpa -S2","category":null,"contestant":{"voting_id":"24","name":"Mingma Tshering Sherpa"},"vote_count":1,"created_on":"2020-01-04T09:30:48.294461+05:45"},{"idx":"refCiRjQuAXDgqkNXdcfPW","contest":"Mr. & Miss Teen Sherpa 2020 - S2","episode":"Mr.&Miss Teen Sherpa -S2","category":null,"contestant":{"voting_id":"24","name":"Mingma Tshering Sherpa"},"vote_count":1,"created_on":"2020-01-04T07:34:09.842273+05:45"},{"idx":"j7e8fLhnkDcDmSCrgKVch7","contest":"Mr. & Miss Teen Sherpa 2020 - S2","episode":"Mr.&Miss Teen Sherpa -S2","category":null,"contestant":{"voting_id":"24","name":"Mingma Tshering Sherpa"},"vote_count":1,"created_on":"2020-01-04T07:33:39.121194+05:45"},{"idx":"shVMSUKv3RvahaUQj3JLnC","contest":"Mr. & Miss Teen Sherpa 2020 - S2","episode":"Mr.&Miss Teen Sherpa -S2","category":null,"contestant":{"voting_id":"06","name":"Tenzin Pema Sherpa"},"vote_count":1,"created_on":"2020-01-04T07:33:12.982639+05:45"},{"idx":"eGs99hGGPEm9rzMeyE8v74","contest":"Model Superstar","episode":"Model Superstar","category":null,"contestant":{"voting_id":"04","name":"Sabita Maharjan"},"vote_count":1,"created_on":"2020-01-04T05:11:53.112854+05:45"},{"idx":"9C6xvRiJVKxY3WeFqpSX2S","contest":"Model Superstar","episode":"Model Superstar","category":null,"contestant":{"voting_id":"04","name":"Sabita Maharjan"},"vote_count":1,"created_on":"2020-01-04T05:11:43.927232+05:45"},{"idx":"nCo3rNXtHPkubztSDS23CV","contest":"Model Superstar","episode":"Model Superstar","category":null,"contestant":{"voting_id":"04","name":"Sabita Maharjan"},"vote_count":1,"created_on":"2020-01-04T05:11:35.181811+05:45"},{"idx":"CkNFXp9cUfeY74KeryXx4N","contest":"Model Superstar","episode":"Model Superstar","category":null,"contestant":{"voting_id":"04","name":"Sabita Maharjan"},"vote_count":1,"created_on":"2020-01-04T05:11:26.206203+05:45"},{"idx":"FqDLx8z65mSYegXnEZjRiR","contest":"Model Superstar","episode":"Model Superstar","category":null,"contestant":{"voting_id":"04","name":"Sabita Maharjan"},"vote_count":1,"created_on":"2020-01-04T05:11:16.885514+05:45"},{"idx":"MQ4RrshfVCPKDExZEJdDz7","contest":"Model Superstar","episode":"Model Superstar","category":null,"contestant":{"voting_id":"04","name":"Sabita Maharjan"},"vote_count":1,"created_on":"2020-01-04T05:11:06.857230+05:45"},{"idx":"2gtDbEXgp2FQ3WUTkue2TG","contest":"Model Superstar","episode":"Model Superstar","category":null,"contestant":{"voting_id":"04","name":"Sabita Maharjan"},"vote_count":1,"created_on":"2020-01-04T05:10:58.517814+05:45"},{"idx":"mgNpmb24UeM6vcNvi4E7nM","contest":"Model Superstar","episode":"Model Superstar","category":null,"contestant":{"voting_id":"04","name":"Sabita Maharjan"},"vote_count":1,"created_on":"2020-01-04T05:10:47.772831+05:45"},{"idx":"Ye6QrXxhCbyWnPcZpVo9Aa","contest":"Model Superstar","episode":"Model Superstar","category":null,"contestant":{"voting_id":"04","name":"Sabita Maharjan"},"vote_count":1,"created_on":"2020-01-04T05:10:38.210202+05:45"},{"idx":"N93WFMbCtgUXCUqnpdigJi","contest":"Model Superstar","episode":"Model Superstar","category":null,"contestant":{"voting_id":"04","name":"Sabita Maharjan"},"vote_count":1,"created_on":"2020-01-04T05:10:28.781499+05:45"},{"idx":"XDZg7bw6byx4Wk9qBVCq9J","contest":"Model Superstar","episode":"Model Superstar","category":null,"contestant":{"voting_id":"04","name":"Sabita Maharjan"},"vote_count":1,"created_on":"2020-01-04T05:10:19.632559+05:45"},{"idx":"Gejrehfm29K6p5LSSFHXkc","contest":"Model Superstar","episode":"Model Superstar","category":null,"contestant":{"voting_id":"04","name":"Sabita Maharjan"},"vote_count":1,"created_on":"2020-01-04T05:10:00.560886+05:45"},{"idx":"7zU4utqsogid2VpgLS653V","contest":"Model Superstar","episode":"Model Superstar","category":null,"contestant":{"voting_id":"04","name":"Sabita Maharjan"},"vote_count":1,"created_on":"2020-01-04T05:09:48.659231+05:45"},{"idx":"sioeDaFwckKYitXi9jg3aV","contest":"Model Superstar","episode":"Model Superstar","category":null,"contestant":{"voting_id":"04","name":"Sabita Maharjan"},"vote_count":1,"created_on":"2020-01-04T05:09:37.676549+05:45"},{"idx":"Lp9RDRJzYeB4GuySAt6Zi9","contest":"Model Superstar","episode":"Model Superstar","category":null,"contestant":{"voting_id":"04","name":"Sabita Maharjan"},"vote_count":1,"created_on":"2020-01-04T05:09:26.846435+05:45"},{"idx":"eeN7KEBLLYGkhr7c9QtbYH","contest":"Model Superstar","episode":"Model Superstar","category":null,"contestant":{"voting_id":"04","name":"Sabita Maharjan"},"vote_count":1,"created_on":"2020-01-04T05:09:15.842525+05:45"},{"idx":"knGVGfLThgthyVdAnKFFfZ","contest":"Model Superstar","episode":"Model Superstar","category":null,"contestant":{"voting_id":"04","name":"Sabita Maharjan"},"vote_count":1,"created_on":"2020-01-04T05:09:06.483405+05:45"},{"idx":"jztkg6WGx3Th3g7nnseAa5","contest":"Model Superstar","episode":"Model Superstar","category":null,"contestant":{"voting_id":"04","name":"Sabita Maharjan"},"vote_count":1,"created_on":"2020-01-04T05:08:53.671447+05:45"},{"idx":"U8xqF6UCBoDGTvvpmtSUWS","contest":"Model Superstar","episode":"Model Superstar","category":null,"contestant":{"voting_id":"04","name":"Sabita Maharjan"},"vote_count":1,"created_on":"2020-01-04T05:08:43.320910+05:45"},{"idx":"qdANtrSfvgzaZXSrMa3ZeW","contest":"Model Superstar","episode":"Model Superstar","category":null,"contestant":{"voting_id":"04","name":"Sabita Maharjan"},"vote_count":1,"created_on":"2020-01-04T05:08:33.510983+05:45"},{"idx":"gLqXiBDne9it7vkApgNowE","contest":"Model Superstar","episode":"Model Superstar","category":null,"contestant":{"voting_id":"04","name":"Sabita Maharjan"},"vote_count":1,"created_on":"2020-01-04T05:08:21.922470+05:45"},{"idx":"C8Pu49kdXAwAFBXopi6CuA","contest":"Model Superstar","episode":"Model Superstar","category":null,"contestant":{"voting_id":"04","name":"Sabita Maharjan"},"vote_count":1,"created_on":"2020-01-04T05:08:11.583900+05:45"},{"idx":"zXt2ycYULheApnqyJJ8Swh","contest":"Model Superstar","episode":"Model Superstar","category":null,"contestant":{"voting_id":"04","name":"Sabita Maharjan"},"vote_count":1,"created_on":"2020-01-04T05:07:59.756527+05:45"},{"idx":"Em3P9g4NRWmhb8bMc6Wh6B","contest":"Model Superstar","episode":"Model Superstar","category":null,"contestant":{"voting_id":"04","name":"Sabita Maharjan"},"vote_count":1,"created_on":"2020-01-04T05:07:45.043959+05:45"},{"idx":"SFrmMiC5Buryp46ACZVwin","contest":"Model Superstar","episode":"Model Superstar","category":null,"contestant":{"voting_id":"04","name":"Sabita Maharjan"},"vote_count":1,"created_on":"2020-01-04T05:07:31.068583+05:45"}]}