{"total_pages":275,"total_records":13720,"next":"https://khalti.com/api/v2/vuservote/?page=155","previous":"https://khalti.com/api/v2/vuservote/?page=153","record_range":[7651,7700],"current_page":154,"records":[{"idx":"V7oj5XRspyANokkp5aEX3Y","contest":"Model Superstar","episode":"Model Superstar","category":null,"contestant":{"voting_id":"04","name":"Sabita Maharjan"},"vote_count":1,"created_on":"2020-01-04T05:07:18.593786+05:45"},{"idx":"dZSMAfZCheS28YftuCxa7N","contest":"Model Superstar","episode":"Model Superstar","category":null,"contestant":{"voting_id":"04","name":"Sabita Maharjan"},"vote_count":1,"created_on":"2020-01-04T05:07:05.502781+05:45"},{"idx":"xtfsEFmto2eN9WGvKXGSAg","contest":"Model Superstar","episode":"Model Superstar","category":null,"contestant":{"voting_id":"04","name":"Sabita Maharjan"},"vote_count":1,"created_on":"2020-01-04T05:06:51.705079+05:45"},{"idx":"Dn6LeTHRQN5UBVfUHWn2Sf","contest":"Model Superstar","episode":"Model Superstar","category":null,"contestant":{"voting_id":"04","name":"Sabita Maharjan"},"vote_count":1,"created_on":"2020-01-04T05:06:42.155990+05:45"},{"idx":"MUvFMh3AQKkA2ZnuFPqzeK","contest":"Model Superstar","episode":"Model Superstar","category":null,"contestant":{"voting_id":"04","name":"Sabita Maharjan"},"vote_count":1,"created_on":"2020-01-04T05:06:32.255106+05:45"},{"idx":"L3ALE8QAdkEyX9CedGWWrM","contest":"Model Superstar","episode":"Model Superstar","category":null,"contestant":{"voting_id":"04","name":"Sabita Maharjan"},"vote_count":1,"created_on":"2020-01-04T05:06:22.856062+05:45"},{"idx":"VZVExjYryqPKArhgSHH7Ja","contest":"Model Superstar","episode":"Model Superstar","category":null,"contestant":{"voting_id":"04","name":"Sabita Maharjan"},"vote_count":1,"created_on":"2020-01-04T05:06:11.473235+05:45"},{"idx":"cZa9ZWFAgVhXYbsThnoxnj","contest":"Model Superstar","episode":"Model Superstar","category":null,"contestant":{"voting_id":"04","name":"Sabita Maharjan"},"vote_count":1,"created_on":"2020-01-04T05:06:00.278127+05:45"},{"idx":"mMmwfkYg27HdV3eNLr9TRE","contest":"Model Superstar","episode":"Model Superstar","category":null,"contestant":{"voting_id":"04","name":"Sabita Maharjan"},"vote_count":1,"created_on":"2020-01-04T05:05:47.843144+05:45"},{"idx":"3mAkCv8SWrbrBcaxwTR72V","contest":"Model Superstar","episode":"Model Superstar","category":null,"contestant":{"voting_id":"04","name":"Sabita Maharjan"},"vote_count":1,"created_on":"2020-01-04T05:05:38.445629+05:45"},{"idx":"yKanaSCHRGonRjfrUcvBd5","contest":"Model Superstar","episode":"Model Superstar","category":null,"contestant":{"voting_id":"04","name":"Sabita Maharjan"},"vote_count":1,"created_on":"2020-01-04T05:05:06.885997+05:45"},{"idx":"pujDJjtRpCBockQs8J4C4f","contest":"Model Superstar","episode":"Model Superstar","category":null,"contestant":{"voting_id":"04","name":"Sabita Maharjan"},"vote_count":1,"created_on":"2020-01-04T05:04:48.709550+05:45"},{"idx":"yiAQSrFyo4hK3svu7T9JQ3","contest":"Model Superstar","episode":"Model Superstar","category":null,"contestant":{"voting_id":"31","name":"Aakriti Subedi"},"vote_count":1,"created_on":"2020-01-04T05:01:33.628877+05:45"},{"idx":"Ua6XVQQpGe96FSCTyosmWF","contest":"Mr. & Miss Teen Sherpa 2020 - S2","episode":"Mr.&Miss Teen Sherpa -S2","category":null,"contestant":{"voting_id":"08","name":"Angdali Sherpa"},"vote_count":1,"created_on":"2020-01-04T02:53:19.093844+05:45"},{"idx":"ETQWjnRmzEdf37SCEFQtie","contest":"Mr. & Miss Teen Sherpa 2020 - S2","episode":"Mr.&Miss Teen Sherpa -S2","category":null,"contestant":{"voting_id":"08","name":"Angdali Sherpa"},"vote_count":1,"created_on":"2020-01-04T02:52:49.586767+05:45"},{"idx":"okLh44xCjWJfELJzTEyiBP","contest":"Mr. & Miss Teen Sherpa 2020 - S2","episode":"Mr.&Miss Teen Sherpa -S2","category":null,"contestant":{"voting_id":"08","name":"Angdali Sherpa"},"vote_count":1,"created_on":"2020-01-04T02:52:04.948884+05:45"},{"idx":"QJv93f9bMLNDVhtzCtWnd2","contest":"Model Superstar","episode":"Model Superstar","category":null,"contestant":{"voting_id":"03","name":"Smriti Shah"},"vote_count":1,"created_on":"2020-01-04T01:04:19.688269+05:45"},{"idx":"zJZtPLHS4243LDqTKeUMZ9","contest":"Model Superstar","episode":"Model Superstar","category":null,"contestant":{"voting_id":"22","name":"Sunil Laudrey"},"vote_count":1,"created_on":"2020-01-04T00:17:48.752817+05:45"},{"idx":"2fLiUao7RgX6cvQAnLQUVi","contest":"Model Superstar","episode":"Model Superstar","category":null,"contestant":{"voting_id":"31","name":"Aakriti Subedi"},"vote_count":1,"created_on":"2020-01-04T00:03:17.567272+05:45"},{"idx":"FFfBGUZVwMArnSg5745Xfd","contest":"Model Superstar","episode":"Model Superstar","category":null,"contestant":{"voting_id":"31","name":"Aakriti Subedi"},"vote_count":1,"created_on":"2020-01-04T00:03:04.680839+05:45"},{"idx":"oYh9zHw6YBAjhTREgziVNc","contest":"Model Superstar","episode":"Model Superstar","category":null,"contestant":{"voting_id":"31","name":"Aakriti Subedi"},"vote_count":1,"created_on":"2020-01-04T00:02:48.272883+05:45"},{"idx":"eCXg8SdYoQXU7ht3P4mSCF","contest":"Model Superstar","episode":"Model Superstar","category":null,"contestant":{"voting_id":"31","name":"Aakriti Subedi"},"vote_count":1,"created_on":"2020-01-04T00:02:23.671412+05:45"},{"idx":"APfKeS93fa7uKthkVr9smD","contest":"Model Superstar","episode":"Model Superstar","category":null,"contestant":{"voting_id":"31","name":"Aakriti Subedi"},"vote_count":1,"created_on":"2020-01-04T00:02:19.539234+05:45"},{"idx":"77vUKt9FdwdLD73FZktfza","contest":"Model Superstar","episode":"Model Superstar","category":null,"contestant":{"voting_id":"31","name":"Aakriti Subedi"},"vote_count":1,"created_on":"2020-01-04T00:01:31.987619+05:45"},{"idx":"doi4cuvRMMGQe9ZGBWU2AB","contest":"Model Superstar","episode":"Model Superstar","category":null,"contestant":{"voting_id":"31","name":"Aakriti Subedi"},"vote_count":1,"created_on":"2020-01-04T00:01:16.639661+05:45"},{"idx":"vSLjWzq8e4jNkdCKoxv6EV","contest":"Model Superstar","episode":"Model Superstar","category":null,"contestant":{"voting_id":"31","name":"Aakriti Subedi"},"vote_count":1,"created_on":"2020-01-04T00:01:13.672363+05:45"},{"idx":"iVufRpkFiyGp6ysMjRwqmC","contest":"Model Superstar","episode":"Model Superstar","category":null,"contestant":{"voting_id":"31","name":"Aakriti Subedi"},"vote_count":1,"created_on":"2020-01-04T00:00:54.324978+05:45"},{"idx":"8zCU4kuyMtkTsFRkrTLQdX","contest":"Model Superstar","episode":"Model Superstar","category":null,"contestant":{"voting_id":"31","name":"Aakriti Subedi"},"vote_count":1,"created_on":"2020-01-04T00:00:42.683513+05:45"},{"idx":"NsyfAeyFiwJy4SrzXYCpug","contest":"Model Superstar","episode":"Model Superstar","category":null,"contestant":{"voting_id":"31","name":"Aakriti Subedi"},"vote_count":1,"created_on":"2020-01-04T00:00:29.417625+05:45"},{"idx":"8qcVjJuEwc6poommS5u7Eg","contest":"Model Superstar","episode":"Model Superstar","category":null,"contestant":{"voting_id":"31","name":"Aakriti Subedi"},"vote_count":1,"created_on":"2020-01-04T00:00:15.392733+05:45"},{"idx":"mAPT59M9GhXRNXF8aZoTf6","contest":"Model Superstar","episode":"Model Superstar","category":null,"contestant":{"voting_id":"31","name":"Aakriti Subedi"},"vote_count":1,"created_on":"2020-01-04T00:00:12.557047+05:45"},{"idx":"AVgjbjXKfX9xEnkh8b2zcb","contest":"Model Superstar","episode":"Model Superstar","category":null,"contestant":{"voting_id":"31","name":"Aakriti Subedi"},"vote_count":1,"created_on":"2020-01-03T23:59:57.767083+05:45"},{"idx":"UD68uT4ceTjJge5PNgUEj4","contest":"Mr. & Miss Teen Sherpa 2020 - S2","episode":"Mr.&Miss Teen Sherpa -S2","category":null,"contestant":{"voting_id":"08","name":"Angdali Sherpa"},"vote_count":1,"created_on":"2020-01-03T23:44:56.554457+05:45"},{"idx":"2YvdnP5WcqU2MWVsDczAGG","contest":"Mr. & Miss Teen Sherpa 2020 - S2","episode":"Mr.&Miss Teen Sherpa -S2","category":null,"contestant":{"voting_id":"02","name":"Pema Yanji sherpa"},"vote_count":1,"created_on":"2020-01-03T23:15:01.792212+05:45"},{"idx":"5uLMHTYVw6TwxL7YQud3RH","contest":"Model Superstar","episode":"Model Superstar","category":null,"contestant":{"voting_id":"31","name":"Aakriti Subedi"},"vote_count":1,"created_on":"2020-01-03T23:14:34.639586+05:45"},{"idx":"bvTTtHssyXKAjHyao27gBP","contest":"Model Superstar","episode":"Model Superstar","category":null,"contestant":{"voting_id":"31","name":"Aakriti Subedi"},"vote_count":1,"created_on":"2020-01-03T23:14:31.595718+05:45"},{"idx":"pxtH4p7TRiJA365A3eZ2jb","contest":"Model Superstar","episode":"Model Superstar","category":null,"contestant":{"voting_id":"31","name":"Aakriti Subedi"},"vote_count":1,"created_on":"2020-01-03T23:12:32.003172+05:45"},{"idx":"jFi6ak3iYgq5PW9Y7RwRcH","contest":"Model Superstar","episode":"Model Superstar","category":null,"contestant":{"voting_id":"31","name":"Aakriti Subedi"},"vote_count":1,"created_on":"2020-01-03T23:12:16.422261+05:45"},{"idx":"3ZNTuK7ZLtaFevfi6RootQ","contest":"Model Superstar","episode":"Model Superstar","category":null,"contestant":{"voting_id":"31","name":"Aakriti Subedi"},"vote_count":1,"created_on":"2020-01-03T23:12:13.502610+05:45"},{"idx":"ZmKYP4hQJkPrhtxsuTxmuY","contest":"Model Superstar","episode":"Model Superstar","category":null,"contestant":{"voting_id":"31","name":"Aakriti Subedi"},"vote_count":1,"created_on":"2020-01-03T23:11:54.042999+05:45"},{"idx":"vhUygFYVcbzErWrdwtQE83","contest":"Model Superstar","episode":"Model Superstar","category":null,"contestant":{"voting_id":"31","name":"Aakriti Subedi"},"vote_count":1,"created_on":"2020-01-03T23:11:41.743816+05:45"},{"idx":"7DpXupn8izFJgvsXyfMeRf","contest":"Model Superstar","episode":"Model Superstar","category":null,"contestant":{"voting_id":"31","name":"Aakriti Subedi"},"vote_count":1,"created_on":"2020-01-03T23:11:28.299280+05:45"},{"idx":"Xz44JYKkDexzYRkKRux8pd","contest":"Model Superstar","episode":"Model Superstar","category":null,"contestant":{"voting_id":"31","name":"Aakriti Subedi"},"vote_count":1,"created_on":"2020-01-03T23:11:16.944442+05:45"},{"idx":"qp8pPPFHrnm89osMjLi9GZ","contest":"Model Superstar","episode":"Model Superstar","category":null,"contestant":{"voting_id":"31","name":"Aakriti Subedi"},"vote_count":1,"created_on":"2020-01-03T23:11:03.726039+05:45"},{"idx":"CUuAt8ZvQTrukqcKmyYnEd","contest":"Model Superstar","episode":"Model Superstar","category":null,"contestant":{"voting_id":"31","name":"Aakriti Subedi"},"vote_count":1,"created_on":"2020-01-03T23:11:00.804504+05:45"},{"idx":"gDfNWRSstSHcGkrSv3Sbha","contest":"Model Superstar","episode":"Model Superstar","category":null,"contestant":{"voting_id":"31","name":"Aakriti Subedi"},"vote_count":1,"created_on":"2020-01-03T23:10:46.206011+05:45"},{"idx":"SXfMS2y6QUv6X2cm2daCsU","contest":"Model Superstar","episode":"Model Superstar","category":null,"contestant":{"voting_id":"31","name":"Aakriti Subedi"},"vote_count":1,"created_on":"2020-01-03T23:10:31.325906+05:45"},{"idx":"L4yRtwgqFfQ87pChHjsdQ6","contest":"Model Superstar","episode":"Model Superstar","category":null,"contestant":{"voting_id":"31","name":"Aakriti Subedi"},"vote_count":1,"created_on":"2020-01-03T23:10:16.522245+05:45"},{"idx":"UJRJJETymVbYiZcaBs2C2G","contest":"Model Superstar","episode":"Model Superstar","category":null,"contestant":{"voting_id":"31","name":"Aakriti Subedi"},"vote_count":1,"created_on":"2020-01-03T23:10:05.359090+05:45"},{"idx":"y4VduTjJwyrhgx5QmQaE2M","contest":"Model Superstar","episode":"Model Superstar","category":null,"contestant":{"voting_id":"31","name":"Aakriti Subedi"},"vote_count":1,"created_on":"2020-01-03T23:10:01.444607+05:45"}]}