{"total_pages":275,"total_records":13720,"next":"https://khalti.com/api/v2/vuservote/?page=156","previous":"https://khalti.com/api/v2/vuservote/?page=154","record_range":[7701,7750],"current_page":155,"records":[{"idx":"DDLZ5ncRjVdYHfiG7vK5Ym","contest":"Model Superstar","episode":"Model Superstar","category":null,"contestant":{"voting_id":"31","name":"Aakriti Subedi"},"vote_count":1,"created_on":"2020-01-03T23:09:45.061797+05:45"},{"idx":"gsr364kGvySgBvZtXXVcB4","contest":"Model Superstar","episode":"Model Superstar","category":null,"contestant":{"voting_id":"31","name":"Aakriti Subedi"},"vote_count":1,"created_on":"2020-01-03T23:09:31.029422+05:45"},{"idx":"ohTnrQcze5sK7KkPCimFfW","contest":"Mr. & Miss Teen Sherpa 2020 - S2","episode":"Mr.&Miss Teen Sherpa -S2","category":null,"contestant":{"voting_id":"24","name":"Mingma Tshering Sherpa"},"vote_count":1,"created_on":"2020-01-03T23:08:24.398209+05:45"},{"idx":"CFRzxumRsMnnUcNYSMLaGE","contest":"Model Superstar","episode":"Model Superstar","category":null,"contestant":{"voting_id":"31","name":"Aakriti Subedi"},"vote_count":1,"created_on":"2020-01-03T23:08:18.613409+05:45"},{"idx":"ffbMaSBkqmei8spV7wJmzT","contest":"Model Superstar","episode":"Model Superstar","category":null,"contestant":{"voting_id":"31","name":"Aakriti Subedi"},"vote_count":1,"created_on":"2020-01-03T23:08:15.895071+05:45"},{"idx":"XvGC4ZwfoJPAfc86qUWQtg","contest":"Mr. & Miss Teen Sherpa 2020 - S2","episode":"Mr.&Miss Teen Sherpa -S2","category":null,"contestant":{"voting_id":"02","name":"Pema Yanji sherpa"},"vote_count":1,"created_on":"2020-01-03T22:50:51.267748+05:45"},{"idx":"Sdj8mDCqngE9SLLsQahLVo","contest":"Mr. & Miss Teen Sherpa 2020 - S2","episode":"Mr.&Miss Teen Sherpa -S2","category":null,"contestant":{"voting_id":"02","name":"Pema Yanji sherpa"},"vote_count":1,"created_on":"2020-01-03T22:50:36.267875+05:45"},{"idx":"LpDugSBwHx6WUFuVxAQ8HB","contest":"Mr. & Miss Teen Sherpa 2020 - S2","episode":"Mr.&Miss Teen Sherpa -S2","category":null,"contestant":{"voting_id":"02","name":"Pema Yanji sherpa"},"vote_count":1,"created_on":"2020-01-03T22:50:09.540337+05:45"},{"idx":"2UU5r3pfQ7QnsdHQnyUvpf","contest":"Model Superstar","episode":"Model Superstar","category":null,"contestant":{"voting_id":"04","name":"Sabita Maharjan"},"vote_count":1,"created_on":"2020-01-03T22:33:15.600473+05:45"},{"idx":"WyXX2wyYzmFciM9EjZxM4E","contest":"Model Superstar","episode":"Model Superstar","category":null,"contestant":{"voting_id":"04","name":"Sabita Maharjan"},"vote_count":1,"created_on":"2020-01-03T22:33:08.127859+05:45"},{"idx":"jEgWRXcnL3oaWvVND4VeFW","contest":"Model Superstar","episode":"Model Superstar","category":null,"contestant":{"voting_id":"05","name":"Asmita Thapa Magar"},"vote_count":1,"created_on":"2020-01-03T22:33:07.528688+05:45"},{"idx":"T8HDmyh6DNHW32sGgedhgQ","contest":"Model Superstar","episode":"Model Superstar","category":null,"contestant":{"voting_id":"04","name":"Sabita Maharjan"},"vote_count":1,"created_on":"2020-01-03T22:33:00.073619+05:45"},{"idx":"n6QYzGDxefYwvVVc3VtL95","contest":"Model Superstar","episode":"Model Superstar","category":null,"contestant":{"voting_id":"04","name":"Sabita Maharjan"},"vote_count":1,"created_on":"2020-01-03T22:32:50.862684+05:45"},{"idx":"4NHrUVZAkjZVDrziHRpZwK","contest":"Model Superstar","episode":"Model Superstar","category":null,"contestant":{"voting_id":"04","name":"Sabita Maharjan"},"vote_count":1,"created_on":"2020-01-03T22:32:42.434129+05:45"},{"idx":"FnhSJ4ob4cbWgbrk35GPvT","contest":"Model Superstar","episode":"Model Superstar","category":null,"contestant":{"voting_id":"04","name":"Sabita Maharjan"},"vote_count":1,"created_on":"2020-01-03T22:32:32.364810+05:45"},{"idx":"GYihEMAtux42ZEbU2MjUCS","contest":"Model Superstar","episode":"Model Superstar","category":null,"contestant":{"voting_id":"04","name":"Sabita Maharjan"},"vote_count":1,"created_on":"2020-01-03T22:32:03.538981+05:45"},{"idx":"x7TdYXZNyDCpYLPzpuUETB","contest":"Model Superstar","episode":"Model Superstar","category":null,"contestant":{"voting_id":"04","name":"Sabita Maharjan"},"vote_count":1,"created_on":"2020-01-03T22:31:26.941015+05:45"},{"idx":"f7pNicDsD5NaBrWqvAK6qG","contest":"Model Superstar","episode":"Model Superstar","category":null,"contestant":{"voting_id":"04","name":"Sabita Maharjan"},"vote_count":1,"created_on":"2020-01-03T22:31:10.657255+05:45"},{"idx":"aythT5sCXdnRh6huDtJENi","contest":"Mr. & Miss Teen Sherpa 2020 - S2","episode":"Mr.&Miss Teen Sherpa -S2","category":null,"contestant":{"voting_id":"02","name":"Pema Yanji sherpa"},"vote_count":1,"created_on":"2020-01-03T22:31:10.502241+05:45"},{"idx":"SDih87cx3VubHgRCvuLH92","contest":"Model Superstar","episode":"Model Superstar","category":null,"contestant":{"voting_id":"04","name":"Sabita Maharjan"},"vote_count":1,"created_on":"2020-01-03T22:30:58.469607+05:45"},{"idx":"QVXW4e7AiWtWV9CM7v7D5E","contest":"Model Superstar","episode":"Model Superstar","category":null,"contestant":{"voting_id":"04","name":"Sabita Maharjan"},"vote_count":1,"created_on":"2020-01-03T22:30:33.545117+05:45"},{"idx":"eBGG3ZMdTZjhwFTZo3cy4L","contest":"Model Superstar","episode":"Model Superstar","category":null,"contestant":{"voting_id":"04","name":"Sabita Maharjan"},"vote_count":1,"created_on":"2020-01-03T22:30:23.941655+05:45"},{"idx":"fiBw4JN3frfeXSgFAdvVGQ","contest":"Model Superstar","episode":"Model Superstar","category":null,"contestant":{"voting_id":"04","name":"Sabita Maharjan"},"vote_count":1,"created_on":"2020-01-03T22:29:39.159660+05:45"},{"idx":"ykBzMc2CEVZbHGTy668BdM","contest":"Model Superstar","episode":"Model Superstar","category":null,"contestant":{"voting_id":"04","name":"Sabita Maharjan"},"vote_count":1,"created_on":"2020-01-03T22:29:29.507565+05:45"},{"idx":"MvBePqEodbxWueJaiwcama","contest":"Model Superstar","episode":"Model Superstar","category":null,"contestant":{"voting_id":"04","name":"Sabita Maharjan"},"vote_count":1,"created_on":"2020-01-03T22:29:20.493744+05:45"},{"idx":"xCSG7w98HPsL9ezj5YrGTB","contest":"Model Superstar","episode":"Model Superstar","category":null,"contestant":{"voting_id":"04","name":"Sabita Maharjan"},"vote_count":1,"created_on":"2020-01-03T22:29:09.664562+05:45"},{"idx":"Gses7cq6idyQbn5on7hGXK","contest":"Model Superstar","episode":"Model Superstar","category":null,"contestant":{"voting_id":"04","name":"Sabita Maharjan"},"vote_count":1,"created_on":"2020-01-03T22:28:40.249305+05:45"},{"idx":"uyPf9mc4akNwz9CBwWcXTf","contest":"Model Superstar","episode":"Model Superstar","category":null,"contestant":{"voting_id":"04","name":"Sabita Maharjan"},"vote_count":1,"created_on":"2020-01-03T22:28:26.893845+05:45"},{"idx":"tyKYSmGnasPcbAAKLcS6Wh","contest":"Model Superstar","episode":"Model Superstar","category":null,"contestant":{"voting_id":"04","name":"Sabita Maharjan"},"vote_count":1,"created_on":"2020-01-03T22:28:15.643659+05:45"},{"idx":"rwr252VGpJ3aXsKz9zUHv6","contest":"Model Superstar","episode":"Model Superstar","category":null,"contestant":{"voting_id":"04","name":"Sabita Maharjan"},"vote_count":1,"created_on":"2020-01-03T22:27:40.944641+05:45"},{"idx":"dyDDsoP9XammrQ79iXH4nT","contest":"Model Superstar","episode":"Model Superstar","category":null,"contestant":{"voting_id":"04","name":"Sabita Maharjan"},"vote_count":1,"created_on":"2020-01-03T22:27:24.636443+05:45"},{"idx":"YvcJ2Csyr5gCfLR7f3BEj6","contest":"Mr. & Miss Teen Sherpa 2020 - S2","episode":"Mr.&Miss Teen Sherpa -S2","category":null,"contestant":{"voting_id":"03","name":"Mingma Sherpa"},"vote_count":1,"created_on":"2020-01-03T22:26:20.113893+05:45"},{"idx":"9AXYjdQ3CKSSpxFERU8eBA","contest":"Mr. & Miss Teen Sherpa 2020 - S2","episode":"Mr.&Miss Teen Sherpa -S2","category":null,"contestant":{"voting_id":"03","name":"Mingma Sherpa"},"vote_count":1,"created_on":"2020-01-03T22:26:12.091113+05:45"},{"idx":"A4jiFV9brxhDhpeVavv3De","contest":"Mr. & Miss Teen Sherpa 2020 - S2","episode":"Mr.&Miss Teen Sherpa -S2","category":null,"contestant":{"voting_id":"02","name":"Pema Yanji sherpa"},"vote_count":1,"created_on":"2020-01-03T22:12:28.055793+05:45"},{"idx":"KfBPkBPoX7qnCQxgCJxEeD","contest":"Mr. & Miss Teen Sherpa 2020 - S2","episode":"Mr.&Miss Teen Sherpa -S2","category":null,"contestant":{"voting_id":"02","name":"Pema Yanji sherpa"},"vote_count":1,"created_on":"2020-01-03T22:11:43.579743+05:45"},{"idx":"Nf48p7pDfPwciyq9exREhg","contest":"Model Superstar","episode":"Model Superstar","category":null,"contestant":{"voting_id":"02","name":"Srijana Basnet"},"vote_count":1,"created_on":"2020-01-03T22:06:39.260114+05:45"},{"idx":"8Mz2DhPKnChip9uMK4Hr3X","contest":"Mr. & Miss Teen Sherpa 2020 - S2","episode":"Mr.&Miss Teen Sherpa -S2","category":null,"contestant":{"voting_id":"21","name":"Dawa Tsering Sherpa"},"vote_count":1,"created_on":"2020-01-03T22:05:56.036281+05:45"},{"idx":"BSZtZGcGbPfwQfkumXfddk","contest":"Mr. & Miss Teen Sherpa 2020 - S2","episode":"Mr.&Miss Teen Sherpa -S2","category":null,"contestant":{"voting_id":"06","name":"Tenzin Pema Sherpa"},"vote_count":1,"created_on":"2020-01-03T22:05:11.525210+05:45"},{"idx":"fqB3ePe832JGj52zaKaqs9","contest":"Model Superstar","episode":"Model Superstar","category":null,"contestant":{"voting_id":"07","name":"Narman Malla"},"vote_count":5,"created_on":"2020-01-03T21:39:58.978152+05:45"},{"idx":"BHQrUdpaxM4ifTvj9rdXiV","contest":"Model Superstar","episode":"Model Superstar","category":null,"contestant":{"voting_id":"07","name":"Narman Malla"},"vote_count":5,"created_on":"2020-01-03T21:39:35.167278+05:45"},{"idx":"a79nPc6RNZ7sUgkAcPrufk","contest":"Model Superstar","episode":"Model Superstar","category":null,"contestant":{"voting_id":"07","name":"Narman Malla"},"vote_count":5,"created_on":"2020-01-03T21:39:05.209323+05:45"},{"idx":"jFvD3hjnjfpFpLvWEqoQL5","contest":"Model Superstar","episode":"Model Superstar","category":null,"contestant":{"voting_id":"31","name":"Aakriti Subedi"},"vote_count":1,"created_on":"2020-01-03T21:36:52.693656+05:45"},{"idx":"W44TxSJ7ZxSMJU2u35Hkni","contest":"Model Superstar","episode":"Model Superstar","category":null,"contestant":{"voting_id":"31","name":"Aakriti Subedi"},"vote_count":1,"created_on":"2020-01-03T21:36:48.019593+05:45"},{"idx":"k4T38odsPFMJ7vv2RQ8HNa","contest":"Model Superstar","episode":"Model Superstar","category":null,"contestant":{"voting_id":"31","name":"Aakriti Subedi"},"vote_count":1,"created_on":"2020-01-03T21:36:47.647316+05:45"},{"idx":"Qeg5ncy7RoRZAsenQKMeMV","contest":"Model Superstar","episode":"Model Superstar","category":null,"contestant":{"voting_id":"31","name":"Aakriti Subedi"},"vote_count":1,"created_on":"2020-01-03T21:35:45.422588+05:45"},{"idx":"EHguCs3upNjo5E5UDv2QRV","contest":"Model Superstar","episode":"Model Superstar","category":null,"contestant":{"voting_id":"31","name":"Aakriti Subedi"},"vote_count":1,"created_on":"2020-01-03T21:35:40.010991+05:45"},{"idx":"xDieF2ACsGLNCqVKCuuxCV","contest":"Model Superstar","episode":"Model Superstar","category":null,"contestant":{"voting_id":"31","name":"Aakriti Subedi"},"vote_count":1,"created_on":"2020-01-03T21:35:17.375776+05:45"},{"idx":"qk7JirMrT5n2DWmREaVoDD","contest":"Model Superstar","episode":"Model Superstar","category":null,"contestant":{"voting_id":"31","name":"Aakriti Subedi"},"vote_count":1,"created_on":"2020-01-03T21:35:14.641793+05:45"},{"idx":"Zh4ZmKoSc5XXJFz4LnzBEn","contest":"Model Superstar","episode":"Model Superstar","category":null,"contestant":{"voting_id":"31","name":"Aakriti Subedi"},"vote_count":1,"created_on":"2020-01-03T21:34:34.125159+05:45"},{"idx":"KZc7phDYw85uqbRAn45qb9","contest":"Model Superstar","episode":"Model Superstar","category":null,"contestant":{"voting_id":"31","name":"Aakriti Subedi"},"vote_count":1,"created_on":"2020-01-03T21:34:30.694382+05:45"}]}