{"total_pages":275,"total_records":13720,"next":"https://khalti.com/api/v2/vuservote/?page=157","previous":"https://khalti.com/api/v2/vuservote/?page=155","record_range":[7751,7800],"current_page":156,"records":[{"idx":"Que5PLBdySerG8uxk5ay48","contest":"Model Superstar","episode":"Model Superstar","category":null,"contestant":{"voting_id":"31","name":"Aakriti Subedi"},"vote_count":1,"created_on":"2020-01-03T21:34:29.389586+05:45"},{"idx":"SFNcP8hAag3WLENmXJfGNh","contest":"Model Superstar","episode":"Model Superstar","category":null,"contestant":{"voting_id":"31","name":"Aakriti Subedi"},"vote_count":1,"created_on":"2020-01-03T21:34:29.386988+05:45"},{"idx":"RBFNfKYxBjjc3CQg5p7CqV","contest":"Model Superstar","episode":"Model Superstar","category":null,"contestant":{"voting_id":"31","name":"Aakriti Subedi"},"vote_count":1,"created_on":"2020-01-03T21:34:29.350570+05:45"},{"idx":"jProtLDuzhVRTDRd9qxwKh","contest":"Model Superstar","episode":"Model Superstar","category":null,"contestant":{"voting_id":"31","name":"Aakriti Subedi"},"vote_count":1,"created_on":"2020-01-03T21:30:12.414949+05:45"},{"idx":"aBTx2siVpJt26mydgAYKfF","contest":"Model Superstar","episode":"Model Superstar","category":null,"contestant":{"voting_id":"31","name":"Aakriti Subedi"},"vote_count":1,"created_on":"2020-01-03T21:27:53.038662+05:45"},{"idx":"T84DdEneGHEpf6JDGLgrmK","contest":"Model Superstar","episode":"Model Superstar","category":null,"contestant":{"voting_id":"31","name":"Aakriti Subedi"},"vote_count":1,"created_on":"2020-01-03T21:27:32.657405+05:45"},{"idx":"Ne83SSnWJAvWT3xqnfmPCU","contest":"Model Superstar","episode":"Model Superstar","category":null,"contestant":{"voting_id":"31","name":"Aakriti Subedi"},"vote_count":1,"created_on":"2020-01-03T21:27:12.516167+05:45"},{"idx":"K9tSYTmxaoeSffe7aoDL6b","contest":"Model Superstar","episode":"Model Superstar","category":null,"contestant":{"voting_id":"31","name":"Aakriti Subedi"},"vote_count":1,"created_on":"2020-01-03T21:27:08.573602+05:45"},{"idx":"oAgteaDHfVFNbnNUbTR5aS","contest":"Model Superstar","episode":"Model Superstar","category":null,"contestant":{"voting_id":"31","name":"Aakriti Subedi"},"vote_count":1,"created_on":"2020-01-03T21:26:35.283255+05:45"},{"idx":"CP8oEF5bwdVFBQmQUXFXdV","contest":"Model Superstar","episode":"Model Superstar","category":null,"contestant":{"voting_id":"31","name":"Aakriti Subedi"},"vote_count":1,"created_on":"2020-01-03T21:26:16.133057+05:45"},{"idx":"HcxooxjJjUBhDvenUkBE3G","contest":"Model Superstar","episode":"Model Superstar","category":null,"contestant":{"voting_id":"31","name":"Aakriti Subedi"},"vote_count":1,"created_on":"2020-01-03T21:25:57.275146+05:45"},{"idx":"2vVn2vB9UBpZPJoxFgp5df","contest":"Model Superstar","episode":"Model Superstar","category":null,"contestant":{"voting_id":"31","name":"Aakriti Subedi"},"vote_count":1,"created_on":"2020-01-03T21:25:43.607112+05:45"},{"idx":"vNXbsrRq9xLAJ2howsc9dL","contest":"Mr. & Miss Teen Sherpa 2020 - S2","episode":"Mr.&Miss Teen Sherpa -S2","category":null,"contestant":{"voting_id":"04","name":"Chhewang Sherpa"},"vote_count":1,"created_on":"2020-01-03T21:24:44.567066+05:45"},{"idx":"vJAwsiPvu7EZPrGk9ATB9S","contest":"Model Superstar","episode":"Model Superstar","category":null,"contestant":{"voting_id":"31","name":"Aakriti Subedi"},"vote_count":1,"created_on":"2020-01-03T21:24:34.114316+05:45"},{"idx":"aJP9eDZEYwaryerY4KxoNd","contest":"Model Superstar","episode":"Model Superstar","category":null,"contestant":{"voting_id":"31","name":"Aakriti Subedi"},"vote_count":1,"created_on":"2020-01-03T21:23:35.124659+05:45"},{"idx":"jYSFGaGLtoBrVWTWnKCSPJ","contest":"Model Superstar","episode":"Model Superstar","category":null,"contestant":{"voting_id":"31","name":"Aakriti Subedi"},"vote_count":1,"created_on":"2020-01-03T21:23:31.051147+05:45"},{"idx":"K2YbDW7RerCVij8cqzSMVN","contest":"Model Superstar","episode":"Model Superstar","category":null,"contestant":{"voting_id":"31","name":"Aakriti Subedi"},"vote_count":1,"created_on":"2020-01-03T21:23:13.131932+05:45"},{"idx":"VFriwhmVxpsKYujDSnVEp2","contest":"Model Superstar","episode":"Model Superstar","category":null,"contestant":{"voting_id":"31","name":"Aakriti Subedi"},"vote_count":1,"created_on":"2020-01-03T21:23:09.663007+05:45"},{"idx":"ximKaJX2MPzibpkit2W6L8","contest":"Model Superstar","episode":"Model Superstar","category":null,"contestant":{"voting_id":"31","name":"Aakriti Subedi"},"vote_count":1,"created_on":"2020-01-03T21:22:39.578641+05:45"},{"idx":"HCG5s46ALwMdTC65tc3p2c","contest":"Model Superstar","episode":"Model Superstar","category":null,"contestant":{"voting_id":"31","name":"Aakriti Subedi"},"vote_count":1,"created_on":"2020-01-03T21:20:52.847982+05:45"},{"idx":"eQ5hhzcwDN5fRwsvvcRGWd","contest":"Model Superstar","episode":"Model Superstar","category":null,"contestant":{"voting_id":"31","name":"Aakriti Subedi"},"vote_count":1,"created_on":"2020-01-03T21:20:48.953305+05:45"},{"idx":"AfJS2QnuG3K2ZGE3y4DHsS","contest":"Model Superstar","episode":"Model Superstar","category":null,"contestant":{"voting_id":"31","name":"Aakriti Subedi"},"vote_count":1,"created_on":"2020-01-03T21:20:27.826638+05:45"},{"idx":"fi4SiWDbECPwbb2RJdLwBb","contest":"Model Superstar","episode":"Model Superstar","category":null,"contestant":{"voting_id":"31","name":"Aakriti Subedi"},"vote_count":1,"created_on":"2020-01-03T21:20:27.790622+05:45"},{"idx":"kvUXj3g369hkURgCvWXsue","contest":"Model Superstar","episode":"Model Superstar","category":null,"contestant":{"voting_id":"31","name":"Aakriti Subedi"},"vote_count":1,"created_on":"2020-01-03T21:20:27.427626+05:45"},{"idx":"wGhWYArekjVsnNhCY262mf","contest":"Model Superstar","episode":"Model Superstar","category":null,"contestant":{"voting_id":"31","name":"Aakriti Subedi"},"vote_count":1,"created_on":"2020-01-03T21:19:40.887877+05:45"},{"idx":"WW6EYr4a3pEiio35CFJTkn","contest":"Model Superstar","episode":"Model Superstar","category":null,"contestant":{"voting_id":"31","name":"Aakriti Subedi"},"vote_count":1,"created_on":"2020-01-03T21:19:18.325206+05:45"},{"idx":"KFceZxtKX7qsCdGeYYMH2Z","contest":"Model Superstar","episode":"Model Superstar","category":null,"contestant":{"voting_id":"31","name":"Aakriti Subedi"},"vote_count":1,"created_on":"2020-01-03T21:19:13.263899+05:45"},{"idx":"dKkEyJPwv69vHNjTdQBDzE","contest":"Model Superstar","episode":"Model Superstar","category":null,"contestant":{"voting_id":"31","name":"Aakriti Subedi"},"vote_count":1,"created_on":"2020-01-03T21:19:10.627842+05:45"},{"idx":"WzVXZ4wcm56yxYpipzgCh4","contest":"Model Superstar","episode":"Model Superstar","category":null,"contestant":{"voting_id":"31","name":"Aakriti Subedi"},"vote_count":1,"created_on":"2020-01-03T21:18:43.088986+05:45"},{"idx":"qt3p9Nsqyvcg6qh4UUjsDK","contest":"Model Superstar","episode":"Model Superstar","category":null,"contestant":{"voting_id":"31","name":"Aakriti Subedi"},"vote_count":1,"created_on":"2020-01-03T21:18:39.119837+05:45"},{"idx":"mEEgYSaEd4tyv8M6S6F4o9","contest":"Model Superstar","episode":"Model Superstar","category":null,"contestant":{"voting_id":"31","name":"Aakriti Subedi"},"vote_count":1,"created_on":"2020-01-03T21:18:22.917390+05:45"},{"idx":"gDJFEHNF8eUV4V7MuWCS9E","contest":"Model Superstar","episode":"Model Superstar","category":null,"contestant":{"voting_id":"31","name":"Aakriti Subedi"},"vote_count":1,"created_on":"2020-01-03T21:17:22.407820+05:45"},{"idx":"Frda9ARYZxBFNePAP6LCMJ","contest":"Model Superstar","episode":"Model Superstar","category":null,"contestant":{"voting_id":"31","name":"Aakriti Subedi"},"vote_count":1,"created_on":"2020-01-03T21:17:19.245572+05:45"},{"idx":"6rw6r5is53TuyEh3HzMf93","contest":"Model Superstar","episode":"Model Superstar","category":null,"contestant":{"voting_id":"22","name":"Sunil Laudrey"},"vote_count":1,"created_on":"2020-01-03T21:17:13.791940+05:45"},{"idx":"Qqr28MNJrt9wCwtSf4TigN","contest":"Model Superstar","episode":"Model Superstar","category":null,"contestant":{"voting_id":"31","name":"Aakriti Subedi"},"vote_count":1,"created_on":"2020-01-03T21:17:02.858372+05:45"},{"idx":"NtD9c6nvzkeonS58q2k7K7","contest":"Model Superstar","episode":"Model Superstar","category":null,"contestant":{"voting_id":"31","name":"Aakriti Subedi"},"vote_count":1,"created_on":"2020-01-03T21:13:58.699522+05:45"},{"idx":"u6LgJTa88PLUh8XZgAvzBW","contest":"Model Superstar","episode":"Model Superstar","category":null,"contestant":{"voting_id":"31","name":"Aakriti Subedi"},"vote_count":1,"created_on":"2020-01-03T21:13:58.502266+05:45"},{"idx":"P5zguu353N3AvXyFas52TB","contest":"Model Superstar","episode":"Model Superstar","category":null,"contestant":{"voting_id":"31","name":"Aakriti Subedi"},"vote_count":1,"created_on":"2020-01-03T21:13:58.407988+05:45"},{"idx":"JGdymh2JBRDycRhmv97vmn","contest":"Model Superstar","episode":"Model Superstar","category":null,"contestant":{"voting_id":"31","name":"Aakriti Subedi"},"vote_count":1,"created_on":"2020-01-03T21:13:58.331712+05:45"},{"idx":"M4UCtjGWghECxdrzpAWY3X","contest":"Model Superstar","episode":"Model Superstar","category":null,"contestant":{"voting_id":"31","name":"Aakriti Subedi"},"vote_count":1,"created_on":"2020-01-03T21:13:58.315693+05:45"},{"idx":"w35JNqzrYgTYRPeymszNhM","contest":"Mr. & Miss Teen Sherpa 2020 - S2","episode":"Mr.&Miss Teen Sherpa -S2","category":null,"contestant":{"voting_id":"02","name":"Pema Yanji sherpa"},"vote_count":1,"created_on":"2020-01-03T21:07:53.997594+05:45"},{"idx":"iajfAcK5HhML9UMdzTcwWX","contest":"Mr. & Miss Teen Sherpa 2020 - S2","episode":"Mr.&Miss Teen Sherpa -S2","category":null,"contestant":{"voting_id":"02","name":"Pema Yanji sherpa"},"vote_count":1,"created_on":"2020-01-03T21:02:08.237431+05:45"},{"idx":"4Ed8cHU4nDHN6mJYvFgMFg","contest":"Mr. & Miss Teen Sherpa 2020 - S2","episode":"Mr.&Miss Teen Sherpa -S2","category":null,"contestant":{"voting_id":"02","name":"Pema Yanji sherpa"},"vote_count":1,"created_on":"2020-01-03T21:01:58.353619+05:45"},{"idx":"Xbhxk4qiFSN5MnjpJXRE5U","contest":"Mr. & Miss Teen Sherpa 2020 - S2","episode":"Mr.&Miss Teen Sherpa -S2","category":null,"contestant":{"voting_id":"02","name":"Pema Yanji sherpa"},"vote_count":1,"created_on":"2020-01-03T21:01:43.936684+05:45"},{"idx":"Jy5GatepnoBsgVCugR64j5","contest":"Mr. & Miss Teen Sherpa 2020 - S2","episode":"Mr.&Miss Teen Sherpa -S2","category":null,"contestant":{"voting_id":"02","name":"Pema Yanji sherpa"},"vote_count":1,"created_on":"2020-01-03T21:01:33.429771+05:45"},{"idx":"VKKbonuum9DatweooS49pN","contest":"Model Superstar","episode":"Model Superstar","category":null,"contestant":{"voting_id":"05","name":"Asmita Thapa Magar"},"vote_count":1,"created_on":"2020-01-03T20:54:33.097954+05:45"},{"idx":"vEMM9dzaPCBgxMpexvPyfh","contest":"Model Superstar","episode":"Model Superstar","category":null,"contestant":{"voting_id":"17","name":"Sajana Panta"},"vote_count":1,"created_on":"2020-01-03T20:53:48.793106+05:45"},{"idx":"DAoDmwRSkppzVBAvyqodsn","contest":"Mr. & Miss Teen Sherpa 2020 - S2","episode":"Mr.&Miss Teen Sherpa -S2","category":null,"contestant":{"voting_id":"02","name":"Pema Yanji sherpa"},"vote_count":1,"created_on":"2020-01-03T20:31:39.994093+05:45"},{"idx":"dN5GS2J5cixssAbaKmZgoi","contest":"Mr. & Miss Teen Sherpa 2020 - S2","episode":"Mr.&Miss Teen Sherpa -S2","category":null,"contestant":{"voting_id":"05","name":"Nima Lhamu sherpa"},"vote_count":1,"created_on":"2020-01-03T20:23:29.752722+05:45"},{"idx":"hV9xd4FdAvtEg5VtXG5Jnd","contest":"Mr. & Miss Teen Sherpa 2020 - S2","episode":"Mr.&Miss Teen Sherpa -S2","category":null,"contestant":{"voting_id":"02","name":"Pema Yanji sherpa"},"vote_count":1,"created_on":"2020-01-03T19:53:25.046521+05:45"}]}