{"total_pages":275,"total_records":13720,"next":"https://khalti.com/api/v2/vuservote/?page=158","previous":"https://khalti.com/api/v2/vuservote/?page=156","record_range":[7801,7850],"current_page":157,"records":[{"idx":"9Pv9NpNHGTkMYgFn3bprCF","contest":"Mr. & Miss Teen Sherpa 2020 - S2","episode":"Mr.&Miss Teen Sherpa -S2","category":null,"contestant":{"voting_id":"02","name":"Pema Yanji sherpa"},"vote_count":1,"created_on":"2020-01-03T19:53:03.670273+05:45"},{"idx":"zwrmXxGdrP6rA55cQQdWzT","contest":"Mr. & Miss Teen Sherpa 2020 - S2","episode":"Mr.&Miss Teen Sherpa -S2","category":null,"contestant":{"voting_id":"02","name":"Pema Yanji sherpa"},"vote_count":1,"created_on":"2020-01-03T19:52:43.569543+05:45"},{"idx":"YiJC7iEALWrheHXzC8Yqz3","contest":"Mr. & Miss Teen Sherpa 2020 - S2","episode":"Mr.&Miss Teen Sherpa -S2","category":null,"contestant":{"voting_id":"02","name":"Pema Yanji sherpa"},"vote_count":1,"created_on":"2020-01-03T19:52:17.868639+05:45"},{"idx":"q3BtMgvpWKZn83MeVxrEgF","contest":"Mr. & Miss Teen Sherpa 2020 - S2","episode":"Mr.&Miss Teen Sherpa -S2","category":null,"contestant":{"voting_id":"02","name":"Pema Yanji sherpa"},"vote_count":1,"created_on":"2020-01-03T19:51:55.520428+05:45"},{"idx":"FsTkSgvXmRzn4k85aMjJwj","contest":"Mr. & Miss Teen Sherpa 2020 - S2","episode":"Mr.&Miss Teen Sherpa -S2","category":null,"contestant":{"voting_id":"12","name":"Tshering Dolkar Sherpa"},"vote_count":1,"created_on":"2020-01-03T19:42:11.136548+05:45"},{"idx":"cn6yRSMKRdtkRkYUsBgwBa","contest":"Mr. & Miss Teen Sherpa 2020 - S2","episode":"Mr.&Miss Teen Sherpa -S2","category":null,"contestant":{"voting_id":"12","name":"Tshering Dolkar Sherpa"},"vote_count":1,"created_on":"2020-01-03T19:41:17.672222+05:45"},{"idx":"r8dQXVUaoHLP8k2np6TGwn","contest":"Mr. & Miss Teen Sherpa 2020 - S2","episode":"Mr.&Miss Teen Sherpa -S2","category":null,"contestant":{"voting_id":"12","name":"Tshering Dolkar Sherpa"},"vote_count":1,"created_on":"2020-01-03T19:40:36.410506+05:45"},{"idx":"vxwfS8AZVH6cnYWic2ysJc","contest":"Mr. & Miss Teen Sherpa 2020 - S2","episode":"Mr.&Miss Teen Sherpa -S2","category":null,"contestant":{"voting_id":"12","name":"Tshering Dolkar Sherpa"},"vote_count":1,"created_on":"2020-01-03T19:39:50.059551+05:45"},{"idx":"kjzA9L29mQz8C63fZESwDe","contest":"Mr. & Miss Teen Sherpa 2020 - S2","episode":"Mr.&Miss Teen Sherpa -S2","category":null,"contestant":{"voting_id":"12","name":"Tshering Dolkar Sherpa"},"vote_count":1,"created_on":"2020-01-03T19:39:01.443559+05:45"},{"idx":"5rM87KCVmD8VhfaqnwKZDN","contest":"Mr. & Miss Teen Sherpa 2020 - S2","episode":"Mr.&Miss Teen Sherpa -S2","category":null,"contestant":{"voting_id":"01","name":"Lhamu Sherpa"},"vote_count":1,"created_on":"2020-01-03T18:36:12.719902+05:45"},{"idx":"acT2jc9C9iJZKNuy3nxGm8","contest":"Mr. & Miss Teen Sherpa 2020 - S2","episode":"Mr.&Miss Teen Sherpa -S2","category":null,"contestant":{"voting_id":"02","name":"Pema Yanji sherpa"},"vote_count":1,"created_on":"2020-01-03T18:25:48.573782+05:45"},{"idx":"GjAiba5Eguo729V9pQUA5o","contest":"Mr. & Miss Teen Sherpa 2020 - S2","episode":"Mr.&Miss Teen Sherpa -S2","category":null,"contestant":{"voting_id":"02","name":"Pema Yanji sherpa"},"vote_count":1,"created_on":"2020-01-03T18:25:40.717032+05:45"},{"idx":"KbD2kfmEseXvvj5F5ZsREH","contest":"Mr. & Miss Teen Sherpa 2020 - S2","episode":"Mr.&Miss Teen Sherpa -S2","category":null,"contestant":{"voting_id":"02","name":"Pema Yanji sherpa"},"vote_count":1,"created_on":"2020-01-03T18:25:34.219268+05:45"},{"idx":"MZG8uGpXAUvmk9wQR46JdQ","contest":"Mr. & Miss Teen Sherpa 2020 - S2","episode":"Mr.&Miss Teen Sherpa -S2","category":null,"contestant":{"voting_id":"02","name":"Pema Yanji sherpa"},"vote_count":1,"created_on":"2020-01-03T18:25:28.086913+05:45"},{"idx":"haqcSt3uuYipjLhvUAiUr6","contest":"Mr. & Miss Teen Sherpa 2020 - S2","episode":"Mr.&Miss Teen Sherpa -S2","category":null,"contestant":{"voting_id":"02","name":"Pema Yanji sherpa"},"vote_count":1,"created_on":"2020-01-03T18:25:22.912838+05:45"},{"idx":"uUBGTUGPU75CbAVZLREgTP","contest":"Mr. & Miss Teen Sherpa 2020 - S2","episode":"Mr.&Miss Teen Sherpa -S2","category":null,"contestant":{"voting_id":"02","name":"Pema Yanji sherpa"},"vote_count":1,"created_on":"2020-01-03T18:25:17.469837+05:45"},{"idx":"6SuMvR3Bvqiv3Z3afTZswg","contest":"Mr. & Miss Teen Sherpa 2020 - S2","episode":"Mr.&Miss Teen Sherpa -S2","category":null,"contestant":{"voting_id":"02","name":"Pema Yanji sherpa"},"vote_count":1,"created_on":"2020-01-03T18:25:12.353513+05:45"},{"idx":"QXaPmfadzWkdn8AY48h4cL","contest":"Mr. & Miss Teen Sherpa 2020 - S2","episode":"Mr.&Miss Teen Sherpa -S2","category":null,"contestant":{"voting_id":"02","name":"Pema Yanji sherpa"},"vote_count":1,"created_on":"2020-01-03T18:25:06.848452+05:45"},{"idx":"ciFtm9kVvMQUrkd7YwJ3Fh","contest":"Mr. & Miss Teen Sherpa 2020 - S2","episode":"Mr.&Miss Teen Sherpa -S2","category":null,"contestant":{"voting_id":"02","name":"Pema Yanji sherpa"},"vote_count":1,"created_on":"2020-01-03T18:25:00.984055+05:45"},{"idx":"qLEaLdmhCYEMQ6w5zoASeX","contest":"Mr. & Miss Teen Sherpa 2020 - S2","episode":"Mr.&Miss Teen Sherpa -S2","category":null,"contestant":{"voting_id":"02","name":"Pema Yanji sherpa"},"vote_count":1,"created_on":"2020-01-03T18:24:55.705719+05:45"},{"idx":"GEyRqBFhp4HmvEjnyEWPXo","contest":"Mr. & Miss Teen Sherpa 2020 - S2","episode":"Mr.&Miss Teen Sherpa -S2","category":null,"contestant":{"voting_id":"02","name":"Pema Yanji sherpa"},"vote_count":1,"created_on":"2020-01-03T18:24:49.693023+05:45"},{"idx":"BmyqbfPmUSoLDVz5nGM2iK","contest":"Mr. & Miss Teen Sherpa 2020 - S2","episode":"Mr.&Miss Teen Sherpa -S2","category":null,"contestant":{"voting_id":"02","name":"Pema Yanji sherpa"},"vote_count":1,"created_on":"2020-01-03T18:24:43.475328+05:45"},{"idx":"LfwCwQpym5p88Qy92YX4Je","contest":"Mr. & Miss Teen Sherpa 2020 - S2","episode":"Mr.&Miss Teen Sherpa -S2","category":null,"contestant":{"voting_id":"02","name":"Pema Yanji sherpa"},"vote_count":1,"created_on":"2020-01-03T18:24:35.680153+05:45"},{"idx":"FfcKb8nhrzsyooFtfxqEQ2","contest":"Mr. & Miss Teen Sherpa 2020 - S2","episode":"Mr.&Miss Teen Sherpa -S2","category":null,"contestant":{"voting_id":"02","name":"Pema Yanji sherpa"},"vote_count":1,"created_on":"2020-01-03T18:24:30.097421+05:45"},{"idx":"ewKXxai6HuiDAYF9sFG5SN","contest":"Mr. & Miss Teen Sherpa 2020 - S2","episode":"Mr.&Miss Teen Sherpa -S2","category":null,"contestant":{"voting_id":"02","name":"Pema Yanji sherpa"},"vote_count":1,"created_on":"2020-01-03T18:24:24.988969+05:45"},{"idx":"GibNRCCWUHKzLzUfoYbog5","contest":"Mr. & Miss Teen Sherpa 2020 - S2","episode":"Mr.&Miss Teen Sherpa -S2","category":null,"contestant":{"voting_id":"02","name":"Pema Yanji sherpa"},"vote_count":1,"created_on":"2020-01-03T18:24:18.301241+05:45"},{"idx":"rKA45EkCsrMzfnVvJygUUY","contest":"Mr. & Miss Teen Sherpa 2020 - S2","episode":"Mr.&Miss Teen Sherpa -S2","category":null,"contestant":{"voting_id":"02","name":"Pema Yanji sherpa"},"vote_count":1,"created_on":"2020-01-03T18:24:12.468113+05:45"},{"idx":"2cMS5e4njc7qStRc2H9CTZ","contest":"Mr. & Miss Teen Sherpa 2020 - S2","episode":"Mr.&Miss Teen Sherpa -S2","category":null,"contestant":{"voting_id":"02","name":"Pema Yanji sherpa"},"vote_count":1,"created_on":"2020-01-03T18:24:06.798117+05:45"},{"idx":"a3VAANrs4fUEgG7qt3p7f9","contest":"Mr. & Miss Teen Sherpa 2020 - S2","episode":"Mr.&Miss Teen Sherpa -S2","category":null,"contestant":{"voting_id":"02","name":"Pema Yanji sherpa"},"vote_count":1,"created_on":"2020-01-03T18:24:01.362727+05:45"},{"idx":"f76fwaHWU4e8QTUH7KZyW2","contest":"Mr. & Miss Teen Sherpa 2020 - S2","episode":"Mr.&Miss Teen Sherpa -S2","category":null,"contestant":{"voting_id":"02","name":"Pema Yanji sherpa"},"vote_count":1,"created_on":"2020-01-03T18:23:53.919154+05:45"},{"idx":"QS8VuJv33u2bNC9JvgGLaD","contest":"Model Superstar","episode":"Model Superstar","category":null,"contestant":{"voting_id":"04","name":"Sabita Maharjan"},"vote_count":1,"created_on":"2020-01-03T18:22:34.566172+05:45"},{"idx":"jcH4XYwuKsCtBgr3aWsvXi","contest":"Model Superstar","episode":"Model Superstar","category":null,"contestant":{"voting_id":"13","name":"Prashant Shah"},"vote_count":1,"created_on":"2020-01-03T18:22:16.382463+05:45"},{"idx":"mVQJFHATNaKFtuZFDSRPc8","contest":"Model Superstar","episode":"Model Superstar","category":null,"contestant":{"voting_id":"04","name":"Sabita Maharjan"},"vote_count":1,"created_on":"2020-01-03T18:22:12.487079+05:45"},{"idx":"4YVRfMm5sgMViCcLAwmgCS","contest":"Model Superstar","episode":"Model Superstar","category":null,"contestant":{"voting_id":"04","name":"Sabita Maharjan"},"vote_count":1,"created_on":"2020-01-03T18:21:58.149445+05:45"},{"idx":"gPNMHqzvyj6cRT7jc9nL8X","contest":"Model Superstar","episode":"Model Superstar","category":null,"contestant":{"voting_id":"04","name":"Sabita Maharjan"},"vote_count":1,"created_on":"2020-01-03T18:21:39.749222+05:45"},{"idx":"ECN6nyF8TuKDqB4D7iUkZP","contest":"Model Superstar","episode":"Model Superstar","category":null,"contestant":{"voting_id":"04","name":"Sabita Maharjan"},"vote_count":1,"created_on":"2020-01-03T18:21:15.956594+05:45"},{"idx":"XEabEe22gqGuXsun6gyDKa","contest":"Model Superstar","episode":"Model Superstar","category":null,"contestant":{"voting_id":"04","name":"Sabita Maharjan"},"vote_count":1,"created_on":"2020-01-03T18:21:02.087252+05:45"},{"idx":"otV6VWVVupm97dPFmR6jnm","contest":"Model Superstar","episode":"Model Superstar","category":null,"contestant":{"voting_id":"04","name":"Sabita Maharjan"},"vote_count":1,"created_on":"2020-01-03T18:20:50.103416+05:45"},{"idx":"sdoYzE69UjYFwtBqx4y2Db","contest":"NEPALBHASA STAR MUSIC VIDEO AWARDS-2019","episode":null,"category":"BEST MUSIC VIDEO","contestant":{"voting_id":"1J","name":"Ashok Maharjan"},"vote_count":1,"created_on":"2020-01-03T18:20:30.522192+05:45"},{"idx":"eRbPeP8FrpPYm8cmbZzW65","contest":"Model Superstar","episode":"Model Superstar","category":null,"contestant":{"voting_id":"04","name":"Sabita Maharjan"},"vote_count":1,"created_on":"2020-01-03T18:19:14.858543+05:45"},{"idx":"6fDdowsL4ig5QwNXa95FHe","contest":"Model Superstar","episode":"Model Superstar","category":null,"contestant":{"voting_id":"04","name":"Sabita Maharjan"},"vote_count":1,"created_on":"2020-01-03T18:19:01.463496+05:45"},{"idx":"gmZdAcgUhnwoirqXHBAc4c","contest":"Model Superstar","episode":"Model Superstar","category":null,"contestant":{"voting_id":"04","name":"Sabita Maharjan"},"vote_count":1,"created_on":"2020-01-03T18:18:46.121742+05:45"},{"idx":"Ey243bZPB2UijfcHe8nzdM","contest":"Model Superstar","episode":"Model Superstar","category":null,"contestant":{"voting_id":"04","name":"Sabita Maharjan"},"vote_count":1,"created_on":"2020-01-03T18:18:34.129770+05:45"},{"idx":"PRhD9xuAhTwNv8dt7Ke9iG","contest":"Model Superstar","episode":"Model Superstar","category":null,"contestant":{"voting_id":"04","name":"Sabita Maharjan"},"vote_count":1,"created_on":"2020-01-03T18:18:07.132587+05:45"},{"idx":"Ngwek4N4pPNdYSgH8HtxSG","contest":"Model Superstar","episode":"Model Superstar","category":null,"contestant":{"voting_id":"04","name":"Sabita Maharjan"},"vote_count":1,"created_on":"2020-01-03T18:17:54.310967+05:45"},{"idx":"s8abwN6FguequfYTqYoihk","contest":"Model Superstar","episode":"Model Superstar","category":null,"contestant":{"voting_id":"04","name":"Sabita Maharjan"},"vote_count":1,"created_on":"2020-01-03T18:17:41.587083+05:45"},{"idx":"ZtypNv727HNFafWrNW7n3f","contest":"Model Superstar","episode":"Model Superstar","category":null,"contestant":{"voting_id":"04","name":"Sabita Maharjan"},"vote_count":1,"created_on":"2020-01-03T18:17:28.760710+05:45"},{"idx":"MedWckP8H2PbQxmUvZ8F2i","contest":"Model Superstar","episode":"Model Superstar","category":null,"contestant":{"voting_id":"04","name":"Sabita Maharjan"},"vote_count":1,"created_on":"2020-01-03T18:17:13.157603+05:45"},{"idx":"aVLoEwquCRGspRoVLFfXyD","contest":"Model Superstar","episode":"Model Superstar","category":null,"contestant":{"voting_id":"04","name":"Sabita Maharjan"},"vote_count":1,"created_on":"2020-01-03T18:16:59.464440+05:45"},{"idx":"uwzVQqR3reJafzJGAQ6tuC","contest":"Model Superstar","episode":"Model Superstar","category":null,"contestant":{"voting_id":"04","name":"Sabita Maharjan"},"vote_count":1,"created_on":"2020-01-03T18:16:47.770254+05:45"}]}