{"total_pages":275,"total_records":13720,"next":"https://khalti.com/api/v2/vuservote/?page=159","previous":"https://khalti.com/api/v2/vuservote/?page=157","record_range":[7851,7900],"current_page":158,"records":[{"idx":"4RfQDsK52f2oGpphQEhsCa","contest":"Model Superstar","episode":"Model Superstar","category":null,"contestant":{"voting_id":"04","name":"Sabita Maharjan"},"vote_count":1,"created_on":"2020-01-03T18:16:35.092279+05:45"},{"idx":"fCfbVuHbwfCwNUKXJLXjbP","contest":"Model Superstar","episode":"Model Superstar","category":null,"contestant":{"voting_id":"04","name":"Sabita Maharjan"},"vote_count":1,"created_on":"2020-01-03T18:16:22.184340+05:45"},{"idx":"VPdUMpSEpZ3xwwz5juUna9","contest":"Model Superstar","episode":"Model Superstar","category":null,"contestant":{"voting_id":"04","name":"Sabita Maharjan"},"vote_count":1,"created_on":"2020-01-03T18:16:09.720460+05:45"},{"idx":"GZh3pasSeJbTRFW8XAUKNY","contest":"Model Superstar","episode":"Model Superstar","category":null,"contestant":{"voting_id":"04","name":"Sabita Maharjan"},"vote_count":1,"created_on":"2020-01-03T18:15:57.316066+05:45"},{"idx":"d2pUvczTeNBpBeLtKTFGa4","contest":"Model Superstar","episode":"Model Superstar","category":null,"contestant":{"voting_id":"04","name":"Sabita Maharjan"},"vote_count":1,"created_on":"2020-01-03T18:06:29.664720+05:45"},{"idx":"JPtRAdmh73EKKC8UvnYesB","contest":"NEPALBHASA STAR MUSIC VIDEO AWARDS-2019","episode":null,"category":"THE RISING STAR SINGER","contestant":{"voting_id":"21A","name":"Macha Raja Maharjan"},"vote_count":1,"created_on":"2020-01-03T17:52:53.750149+05:45"},{"idx":"aiWoVjYcamv6MDiuCLPKWP","contest":"Mr. & Miss Teen Sherpa 2020 - S2","episode":"Mr.&Miss Teen Sherpa -S2","category":null,"contestant":{"voting_id":"02","name":"Pema Yanji sherpa"},"vote_count":1,"created_on":"2020-01-03T17:32:40.769768+05:45"},{"idx":"pfXHAMCuwaiJBKezgaNyJc","contest":"Mr. & Miss Teen Sherpa 2020 - S2","episode":"Mr.&Miss Teen Sherpa -S2","category":null,"contestant":{"voting_id":"02","name":"Pema Yanji sherpa"},"vote_count":1,"created_on":"2020-01-03T17:32:35.850449+05:45"},{"idx":"H776Jf3LLPefmkUdaTJV7V","contest":"Mr. & Miss Teen Sherpa 2020 - S2","episode":"Mr.&Miss Teen Sherpa -S2","category":null,"contestant":{"voting_id":"02","name":"Pema Yanji sherpa"},"vote_count":1,"created_on":"2020-01-03T17:32:30.294452+05:45"},{"idx":"ng7qvjBiBJFcFoEZADwYg3","contest":"Mr. & Miss Teen Sherpa 2020 - S2","episode":"Mr.&Miss Teen Sherpa -S2","category":null,"contestant":{"voting_id":"02","name":"Pema Yanji sherpa"},"vote_count":1,"created_on":"2020-01-03T17:32:24.767473+05:45"},{"idx":"ZEeLrJpEqQMstjxREn72Ze","contest":"Mr. & Miss Teen Sherpa 2020 - S2","episode":"Mr.&Miss Teen Sherpa -S2","category":null,"contestant":{"voting_id":"02","name":"Pema Yanji sherpa"},"vote_count":1,"created_on":"2020-01-03T17:32:18.906541+05:45"},{"idx":"uieBWj6qN8mb5FgQZfqxkd","contest":"Mr. & Miss Teen Sherpa 2020 - S2","episode":"Mr.&Miss Teen Sherpa -S2","category":null,"contestant":{"voting_id":"02","name":"Pema Yanji sherpa"},"vote_count":1,"created_on":"2020-01-03T17:32:13.662505+05:45"},{"idx":"S4csVXz4crSK8UEa5RTu8h","contest":"Mr. & Miss Teen Sherpa 2020 - S2","episode":"Mr.&Miss Teen Sherpa -S2","category":null,"contestant":{"voting_id":"02","name":"Pema Yanji sherpa"},"vote_count":1,"created_on":"2020-01-03T17:32:08.578932+05:45"},{"idx":"9ohctbVqMLNpR39jtvfKLX","contest":"Mr. & Miss Teen Sherpa 2020 - S2","episode":"Mr.&Miss Teen Sherpa -S2","category":null,"contestant":{"voting_id":"02","name":"Pema Yanji sherpa"},"vote_count":1,"created_on":"2020-01-03T17:32:03.111343+05:45"},{"idx":"LBNNPaJgDmHKJwvCurWb6B","contest":"Mr. & Miss Teen Sherpa 2020 - S2","episode":"Mr.&Miss Teen Sherpa -S2","category":null,"contestant":{"voting_id":"02","name":"Pema Yanji sherpa"},"vote_count":1,"created_on":"2020-01-03T17:31:58.185419+05:45"},{"idx":"Jx484nfGFXGEzQHbV4GKMi","contest":"Mr. & Miss Teen Sherpa 2020 - S2","episode":"Mr.&Miss Teen Sherpa -S2","category":null,"contestant":{"voting_id":"02","name":"Pema Yanji sherpa"},"vote_count":1,"created_on":"2020-01-03T17:31:53.314281+05:45"},{"idx":"rr2ixkE3gfP4twxR3dc4EV","contest":"Mr. & Miss Teen Sherpa 2020 - S2","episode":"Mr.&Miss Teen Sherpa -S2","category":null,"contestant":{"voting_id":"02","name":"Pema Yanji sherpa"},"vote_count":1,"created_on":"2020-01-03T17:31:47.938164+05:45"},{"idx":"ytekrwwTcX7nxSN7YLyPiN","contest":"Mr. & Miss Teen Sherpa 2020 - S2","episode":"Mr.&Miss Teen Sherpa -S2","category":null,"contestant":{"voting_id":"02","name":"Pema Yanji sherpa"},"vote_count":1,"created_on":"2020-01-03T17:31:09.851491+05:45"},{"idx":"vAMYWGMZWNkDxUDwDPJvdA","contest":"Mr. & Miss Teen Sherpa 2020 - S2","episode":"Mr.&Miss Teen Sherpa -S2","category":null,"contestant":{"voting_id":"02","name":"Pema Yanji sherpa"},"vote_count":1,"created_on":"2020-01-03T17:31:04.372307+05:45"},{"idx":"kQTB5jtQ8sJLcvBTqmHF9c","contest":"Mr. & Miss Teen Sherpa 2020 - S2","episode":"Mr.&Miss Teen Sherpa -S2","category":null,"contestant":{"voting_id":"02","name":"Pema Yanji sherpa"},"vote_count":1,"created_on":"2020-01-03T17:30:58.103768+05:45"},{"idx":"ZQdXKA9NwtTKNhq9EMDPeL","contest":"Mr. & Miss Teen Sherpa 2020 - S2","episode":"Mr.&Miss Teen Sherpa -S2","category":null,"contestant":{"voting_id":"02","name":"Pema Yanji sherpa"},"vote_count":1,"created_on":"2020-01-03T17:30:53.605069+05:45"},{"idx":"5Jb6KNBYaZJ7nvgMhHXzR5","contest":"Mr. & Miss Teen Sherpa 2020 - S2","episode":"Mr.&Miss Teen Sherpa -S2","category":null,"contestant":{"voting_id":"02","name":"Pema Yanji sherpa"},"vote_count":1,"created_on":"2020-01-03T17:30:48.872897+05:45"},{"idx":"gqXSYcDCqY8VRcmtG3fiHo","contest":"Mr. & Miss Teen Sherpa 2020 - S2","episode":"Mr.&Miss Teen Sherpa -S2","category":null,"contestant":{"voting_id":"02","name":"Pema Yanji sherpa"},"vote_count":1,"created_on":"2020-01-03T17:30:43.039304+05:45"},{"idx":"2nzyR9oQyDio2HSpr5LL4Y","contest":"Mr. & Miss Teen Sherpa 2020 - S2","episode":"Mr.&Miss Teen Sherpa -S2","category":null,"contestant":{"voting_id":"02","name":"Pema Yanji sherpa"},"vote_count":1,"created_on":"2020-01-03T17:30:37.956105+05:45"},{"idx":"T967jbNsuTPBLsMTZZ2mSc","contest":"Mr. & Miss Teen Sherpa 2020 - S2","episode":"Mr.&Miss Teen Sherpa -S2","category":null,"contestant":{"voting_id":"02","name":"Pema Yanji sherpa"},"vote_count":1,"created_on":"2020-01-03T17:30:32.702265+05:45"},{"idx":"Rt7ZiBNm3bbDkPxZaF6Gz2","contest":"Mr. & Miss Teen Sherpa 2020 - S2","episode":"Mr.&Miss Teen Sherpa -S2","category":null,"contestant":{"voting_id":"02","name":"Pema Yanji sherpa"},"vote_count":1,"created_on":"2020-01-03T17:30:26.801061+05:45"},{"idx":"qixoEkyc6cyqEddP9rGzr4","contest":"Mr. & Miss Teen Sherpa 2020 - S2","episode":"Mr.&Miss Teen Sherpa -S2","category":null,"contestant":{"voting_id":"02","name":"Pema Yanji sherpa"},"vote_count":1,"created_on":"2020-01-03T17:30:21.624181+05:45"},{"idx":"gYQdPuBYbTnCWgedcnete7","contest":"Mr. & Miss Teen Sherpa 2020 - S2","episode":"Mr.&Miss Teen Sherpa -S2","category":null,"contestant":{"voting_id":"02","name":"Pema Yanji sherpa"},"vote_count":1,"created_on":"2020-01-03T17:30:16.436362+05:45"},{"idx":"2CVQqyfz2dg863YdBsCEpS","contest":"Mr. & Miss Teen Sherpa 2020 - S2","episode":"Mr.&Miss Teen Sherpa -S2","category":null,"contestant":{"voting_id":"02","name":"Pema Yanji sherpa"},"vote_count":1,"created_on":"2020-01-03T17:30:11.092851+05:45"},{"idx":"kDqDgtTQpSY6USBGDnwt2i","contest":"Mr. & Miss Teen Sherpa 2020 - S2","episode":"Mr.&Miss Teen Sherpa -S2","category":null,"contestant":{"voting_id":"02","name":"Pema Yanji sherpa"},"vote_count":1,"created_on":"2020-01-03T17:30:05.888920+05:45"},{"idx":"Atj6sGa7XY6jtBveztJFM9","contest":"Mr. & Miss Teen Sherpa 2020 - S2","episode":"Mr.&Miss Teen Sherpa -S2","category":null,"contestant":{"voting_id":"02","name":"Pema Yanji sherpa"},"vote_count":1,"created_on":"2020-01-03T17:30:00.598332+05:45"},{"idx":"JeVWHCvYoUzbA2MtY3LkFK","contest":"Mr. & Miss Teen Sherpa 2020 - S2","episode":"Mr.&Miss Teen Sherpa -S2","category":null,"contestant":{"voting_id":"02","name":"Pema Yanji sherpa"},"vote_count":1,"created_on":"2020-01-03T17:29:01.352500+05:45"},{"idx":"LwGwzmRfVduLCQoRc47cai","contest":"Mr. & Miss Teen Sherpa 2020 - S2","episode":"Mr.&Miss Teen Sherpa -S2","category":null,"contestant":{"voting_id":"02","name":"Pema Yanji sherpa"},"vote_count":1,"created_on":"2020-01-03T17:28:54.324103+05:45"},{"idx":"SyNTUojxY44jbTZJrdp75Y","contest":"Mr. & Miss Teen Sherpa 2020 - S2","episode":"Mr.&Miss Teen Sherpa -S2","category":null,"contestant":{"voting_id":"02","name":"Pema Yanji sherpa"},"vote_count":1,"created_on":"2020-01-03T17:28:47.911806+05:45"},{"idx":"SzYkEnzE8yRtDWXgiQnmNi","contest":"Mr. & Miss Teen Sherpa 2020 - S2","episode":"Mr.&Miss Teen Sherpa -S2","category":null,"contestant":{"voting_id":"02","name":"Pema Yanji sherpa"},"vote_count":1,"created_on":"2020-01-03T17:28:41.656439+05:45"},{"idx":"6w35XJgMSdxcQyUWd7ZAxH","contest":"Model Superstar","episode":"Model Superstar","category":null,"contestant":{"voting_id":"02","name":"Srijana Basnet"},"vote_count":1,"created_on":"2020-01-03T17:23:31.097605+05:45"},{"idx":"Y8tRtnYJMFGuNKAbhMEhN4","contest":"Mr. & Miss Teen Sherpa 2020 - S2","episode":"Mr.&Miss Teen Sherpa -S2","category":null,"contestant":{"voting_id":"01","name":"Lhamu Sherpa"},"vote_count":1,"created_on":"2020-01-03T16:47:28.467571+05:45"},{"idx":"HVeBrYsS8aqWWz9LGkCCFJ","contest":"Mr. & Miss Teen Sherpa 2020 - S2","episode":"Mr.&Miss Teen Sherpa -S2","category":null,"contestant":{"voting_id":"01","name":"Lhamu Sherpa"},"vote_count":1,"created_on":"2020-01-03T16:47:01.104842+05:45"},{"idx":"GaxpKde8iSCi9EjPQuYpbE","contest":"NEPALBHASA STAR MUSIC VIDEO AWARDS-2019","episode":null,"category":"BEST MODEL, MALE","contestant":{"voting_id":"11I","name":"Laxmi Kumar Maharjan"},"vote_count":1,"created_on":"2020-01-03T16:30:57.802675+05:45"},{"idx":"e9BNdtM99Vb6rXwCnZLUAe","contest":"NEPALBHASA STAR MUSIC VIDEO AWARDS-2019","episode":null,"category":"BEST DEBUT MODEL, FEMALE","contestant":{"voting_id":"14C","name":"Rakshya Shrestha"},"vote_count":1,"created_on":"2020-01-03T16:30:08.101277+05:45"},{"idx":"Rn2P2hny9hvaGdPboY9Eu5","contest":"Model Superstar","episode":"Model Superstar","category":null,"contestant":{"voting_id":"03","name":"Smriti Shah"},"vote_count":1,"created_on":"2020-01-03T16:29:34.001925+05:45"},{"idx":"Jg8RXPKtHNxDVmdHDPHz5C","contest":"NEPALBHASA STAR MUSIC VIDEO AWARDS-2019","episode":null,"category":"BEST MODEL, FEMALE","contestant":{"voting_id":"13C","name":"Anjala Nakarmi"},"vote_count":1,"created_on":"2020-01-03T16:28:04.115298+05:45"},{"idx":"uViept4jacp2oQaBaEEKR6","contest":"Mr. & Miss Teen Sherpa 2020 - S2","episode":"Mr.&Miss Teen Sherpa -S2","category":null,"contestant":{"voting_id":"24","name":"Mingma Tshering Sherpa"},"vote_count":1,"created_on":"2020-01-03T16:27:18.224722+05:45"},{"idx":"vzGAS5wXWNJahFTqksNw8P","contest":"Model Superstar","episode":"Model Superstar","category":null,"contestant":{"voting_id":"02","name":"Srijana Basnet"},"vote_count":1,"created_on":"2020-01-03T15:51:34.554219+05:45"},{"idx":"QAxWRc4NnuqCc8Ptf2r4oU","contest":"Model Superstar","episode":"Model Superstar","category":null,"contestant":{"voting_id":"05","name":"Asmita Thapa Magar"},"vote_count":1,"created_on":"2020-01-03T15:51:00.167524+05:45"},{"idx":"vAzzVikUiuhveDevobyAd8","contest":"Mr. & Miss Teen Sherpa 2020 - S2","episode":"Mr.&Miss Teen Sherpa -S2","category":null,"contestant":{"voting_id":"03","name":"Mingma Sherpa"},"vote_count":1,"created_on":"2020-01-03T15:50:18.205816+05:45"},{"idx":"PCHhwGjGaYgaixKqYfEsoU","contest":"NEPALBHASA STAR MUSIC VIDEO AWARDS-2019","episode":null,"category":"THE RISING STAR SINGER","contestant":{"voting_id":"21E","name":"Purna Man Maharjan"},"vote_count":1,"created_on":"2020-01-03T15:49:35.234889+05:45"},{"idx":"jM5pqx6PXCFrrPf7YbxFP5","contest":"Model Superstar","episode":"Model Superstar","category":null,"contestant":{"voting_id":"09","name":"Sagar Ghimire"},"vote_count":1,"created_on":"2020-01-03T15:43:29.566868+05:45"},{"idx":"oSRcHCahELJT7yrYfvCgoC","contest":"NEPALBHASA STAR MUSIC VIDEO AWARDS-2019","episode":null,"category":"THE RISING STAR SINGER","contestant":{"voting_id":"21B","name":"Ves Maharjan"},"vote_count":1,"created_on":"2020-01-03T15:20:54.869141+05:45"},{"idx":"EWyrd9ACo7VS8aDvYDhpuW","contest":"Mr. & Miss Teen Sherpa 2020 - S2","episode":"Mr.&Miss Teen Sherpa -S2","category":null,"contestant":{"voting_id":"12","name":"Tshering Dolkar Sherpa"},"vote_count":1,"created_on":"2020-01-03T15:11:35.372974+05:45"}]}