{"total_pages":275,"total_records":13720,"next":"https://khalti.com/api/v2/vuservote/?page=160","previous":"https://khalti.com/api/v2/vuservote/?page=158","record_range":[7901,7950],"current_page":159,"records":[{"idx":"pcXUjb6CmBGAY4meQ2DoSD","contest":"Model Superstar","episode":"Model Superstar","category":null,"contestant":{"voting_id":"31","name":"Aakriti Subedi"},"vote_count":1,"created_on":"2020-01-03T14:58:58.931058+05:45"},{"idx":"UcUZ4zGhx9iqxrz6cHB7Jf","contest":"Model Superstar","episode":"Model Superstar","category":null,"contestant":{"voting_id":"31","name":"Aakriti Subedi"},"vote_count":1,"created_on":"2020-01-03T14:58:45.015661+05:45"},{"idx":"W5DbBbQYgxVTMrtoFi5YzK","contest":"Model Superstar","episode":"Model Superstar","category":null,"contestant":{"voting_id":"31","name":"Aakriti Subedi"},"vote_count":1,"created_on":"2020-01-03T14:58:31.270913+05:45"},{"idx":"LhPQanH62eZMt8M4aFpQzK","contest":"Model Superstar","episode":"Model Superstar","category":null,"contestant":{"voting_id":"31","name":"Aakriti Subedi"},"vote_count":1,"created_on":"2020-01-03T14:58:16.302806+05:45"},{"idx":"yTXAmJJq5f9PtU69hw6rq7","contest":"Model Superstar","episode":"Model Superstar","category":null,"contestant":{"voting_id":"31","name":"Aakriti Subedi"},"vote_count":1,"created_on":"2020-01-03T14:57:54.058378+05:45"},{"idx":"CwcvkcT3yjeBjS8LWquo7U","contest":"Model Superstar","episode":"Model Superstar","category":null,"contestant":{"voting_id":"31","name":"Aakriti Subedi"},"vote_count":1,"created_on":"2020-01-03T14:57:37.973427+05:45"},{"idx":"eopn4VSopq8xQXAFU6dR8d","contest":"Model Superstar","episode":"Model Superstar","category":null,"contestant":{"voting_id":"31","name":"Aakriti Subedi"},"vote_count":1,"created_on":"2020-01-03T14:57:16.937136+05:45"},{"idx":"vohGgDMJLKCBPCRXuqkrSX","contest":"Model Superstar","episode":"Model Superstar","category":null,"contestant":{"voting_id":"31","name":"Aakriti Subedi"},"vote_count":1,"created_on":"2020-01-03T14:56:58.274682+05:45"},{"idx":"xhMc7UpgbfBphBine88gi5","contest":"Model Superstar","episode":"Model Superstar","category":null,"contestant":{"voting_id":"31","name":"Aakriti Subedi"},"vote_count":1,"created_on":"2020-01-03T14:56:52.314429+05:45"},{"idx":"zPaFMpUSEXQTrtCNp2V8KF","contest":"Model Superstar","episode":"Model Superstar","category":null,"contestant":{"voting_id":"31","name":"Aakriti Subedi"},"vote_count":1,"created_on":"2020-01-03T14:56:36.790220+05:45"},{"idx":"XNDLjWhDMPZxaSebkBNA2W","contest":"Model Superstar","episode":"Model Superstar","category":null,"contestant":{"voting_id":"31","name":"Aakriti Subedi"},"vote_count":1,"created_on":"2020-01-03T14:56:23.445502+05:45"},{"idx":"rTZpgHN4rSf5JWaP77kcZe","contest":"Model Superstar","episode":"Model Superstar","category":null,"contestant":{"voting_id":"31","name":"Aakriti Subedi"},"vote_count":1,"created_on":"2020-01-03T14:56:09.860139+05:45"},{"idx":"EirD48gRtjGUGi3Pb2z5PN","contest":"Model Superstar","episode":"Model Superstar","category":null,"contestant":{"voting_id":"31","name":"Aakriti Subedi"},"vote_count":1,"created_on":"2020-01-03T14:55:54.275339+05:45"},{"idx":"HFPvEbZHm8T7h56GgQcaRP","contest":"Model Superstar","episode":"Model Superstar","category":null,"contestant":{"voting_id":"31","name":"Aakriti Subedi"},"vote_count":1,"created_on":"2020-01-03T14:55:33.403946+05:45"},{"idx":"md59ioDXskrgdo5E8WjGFd","contest":"Model Superstar","episode":"Model Superstar","category":null,"contestant":{"voting_id":"31","name":"Aakriti Subedi"},"vote_count":1,"created_on":"2020-01-03T14:55:16.522128+05:45"},{"idx":"nww4fVkpe4UeySr3rWSVm6","contest":"Mr. & Miss Teen Sherpa 2020 - S2","episode":"Mr.&Miss Teen Sherpa -S2","category":null,"contestant":{"voting_id":"12","name":"Tshering Dolkar Sherpa"},"vote_count":5,"created_on":"2020-01-03T14:52:11.748490+05:45"},{"idx":"rn39sjprVPWTRLFoohUWD9","contest":"Model Superstar","episode":"Model Superstar","category":null,"contestant":{"voting_id":"31","name":"Aakriti Subedi"},"vote_count":1,"created_on":"2020-01-03T14:34:46.519723+05:45"},{"idx":"fYBAZNBHkz56eVHw3sdg2R","contest":"Model Superstar","episode":"Model Superstar","category":null,"contestant":{"voting_id":"31","name":"Aakriti Subedi"},"vote_count":1,"created_on":"2020-01-03T14:29:16.575877+05:45"},{"idx":"mFgB3VwfDb5KDDXkt3SbFY","contest":"Model Superstar","episode":"Model Superstar","category":null,"contestant":{"voting_id":"22","name":"Sunil Laudrey"},"vote_count":1,"created_on":"2020-01-03T14:21:00.299890+05:45"},{"idx":"MTJbTTQHnNiMNGjj43epwP","contest":"Model Superstar","episode":"Model Superstar","category":null,"contestant":{"voting_id":"05","name":"Asmita Thapa Magar"},"vote_count":1,"created_on":"2020-01-03T14:14:27.907284+05:45"},{"idx":"WErrY88AKdHyWKGzGdLrRi","contest":"NEPALBHASA STAR MUSIC VIDEO AWARDS-2019","episode":null,"category":"BEST MODEL, FEMALE","contestant":{"voting_id":"13G","name":"Bhintuna Joshi"},"vote_count":1,"created_on":"2020-01-03T14:13:39.472998+05:45"},{"idx":"6mrbbxaNNdpPyqSXu6PDuF","contest":"Mr. & Miss Teen Sherpa 2020 - S2","episode":"Mr.&Miss Teen Sherpa -S2","category":null,"contestant":{"voting_id":"01","name":"Lhamu Sherpa"},"vote_count":1,"created_on":"2020-01-03T14:12:36.577438+05:45"},{"idx":"QKD3RKc5ADBA8vptk2e6i6","contest":"Model Superstar","episode":"Model Superstar","category":null,"contestant":{"voting_id":"28","name":"Pujan Tamang"},"vote_count":1,"created_on":"2020-01-03T14:02:38.203463+05:45"},{"idx":"RpwsXmY5yTFJvqmHUjKjMH","contest":"Mr. & Miss Teen Sherpa 2020 - S2","episode":"Mr.&Miss Teen Sherpa -S2","category":null,"contestant":{"voting_id":"11","name":"Ang Maya Sherpa"},"vote_count":1,"created_on":"2020-01-03T13:58:12.851194+05:45"},{"idx":"hgztxTyKZJCPMZo2MK9LeD","contest":"Mr. & Miss Teen Sherpa 2020 - S2","episode":"Mr.&Miss Teen Sherpa -S2","category":null,"contestant":{"voting_id":"06","name":"Tenzin Pema Sherpa"},"vote_count":1,"created_on":"2020-01-03T13:14:39.348879+05:45"},{"idx":"PLMVyQyyix49KVdzqfcxog","contest":"Model Superstar","episode":"Model Superstar","category":null,"contestant":{"voting_id":"31","name":"Aakriti Subedi"},"vote_count":1,"created_on":"2020-01-03T11:56:48.022709+05:45"},{"idx":"HFZCzFSBZaK2pg6J8tsQcQ","contest":"NEPALBHASA STAR MUSIC VIDEO AWARDS-2019","episode":null,"category":"THE RISING STAR SINGER","contestant":{"voting_id":"21D","name":"Krishna Maharjan"},"vote_count":1,"created_on":"2020-01-03T11:51:41.092890+05:45"},{"idx":"HwX7FdbmbSBrLYJbtexZbP","contest":"NEPALBHASA STAR MUSIC VIDEO AWARDS-2019","episode":null,"category":"BEST MUSIC VIDEO","contestant":{"voting_id":"1F","name":"Shova Maharjan"},"vote_count":1,"created_on":"2020-01-03T11:49:29.156257+05:45"},{"idx":"zscRM2hRrLLc6dJpyWfzga","contest":"NEPALBHASA STAR MUSIC VIDEO AWARDS-2019","episode":null,"category":"BEST MODEL, FEMALE","contestant":{"voting_id":"13H","name":"Sarita Bajracharya"},"vote_count":1,"created_on":"2020-01-03T11:48:19.296772+05:45"},{"idx":"MDr9omTDeToN9BCZAo6bXc","contest":"Mr. & Miss Teen Sherpa 2020 - S2","episode":"Mr.&Miss Teen Sherpa -S2","category":null,"contestant":{"voting_id":"05","name":"Nima Lhamu sherpa"},"vote_count":1,"created_on":"2020-01-03T11:47:07.238639+05:45"},{"idx":"fVGN9QXbeXi9ScyuSsJQmD","contest":"NEPALBHASA STAR MUSIC VIDEO AWARDS-2019","episode":null,"category":"BEST DEBUT MODEL, FEMALE","contestant":{"voting_id":"14D","name":"Anjali Shahi"},"vote_count":1,"created_on":"2020-01-03T11:44:39.756238+05:45"},{"idx":"b2JWvqQXk99QuXynP2yTYE","contest":"Model Superstar","episode":"Model Superstar","category":null,"contestant":{"voting_id":"11","name":"Rachana Karki"},"vote_count":1,"created_on":"2020-01-03T11:41:15.856901+05:45"},{"idx":"sKgNz8NUtawhkYk7Foui3Q","contest":"Model Superstar","episode":"Model Superstar","category":null,"contestant":{"voting_id":"31","name":"Aakriti Subedi"},"vote_count":1,"created_on":"2020-01-03T11:19:54.783117+05:45"},{"idx":"upoF2cHKdKzYhmTU7F8Lkd","contest":"Model Superstar","episode":"Model Superstar","category":null,"contestant":{"voting_id":"31","name":"Aakriti Subedi"},"vote_count":1,"created_on":"2020-01-03T11:19:21.583056+05:45"},{"idx":"LQJbMxc8HKMCGkBqLzVg4b","contest":"Model Superstar","episode":"Model Superstar","category":null,"contestant":{"voting_id":"31","name":"Aakriti Subedi"},"vote_count":1,"created_on":"2020-01-03T11:18:19.493659+05:45"},{"idx":"9LncaX5gDvJ2pzXackKuW3","contest":"Model Superstar","episode":"Model Superstar","category":null,"contestant":{"voting_id":"31","name":"Aakriti Subedi"},"vote_count":1,"created_on":"2020-01-03T11:17:57.200195+05:45"},{"idx":"AQCSFjY4ozFdRCeqDJpnBJ","contest":"Model Superstar","episode":"Model Superstar","category":null,"contestant":{"voting_id":"31","name":"Aakriti Subedi"},"vote_count":1,"created_on":"2020-01-03T11:17:34.009138+05:45"},{"idx":"c5kUrQ6rRhTQHeLFcKjyyU","contest":"Model Superstar","episode":"Model Superstar","category":null,"contestant":{"voting_id":"31","name":"Aakriti Subedi"},"vote_count":1,"created_on":"2020-01-03T11:17:04.285386+05:45"},{"idx":"ZueFrSLw37CUhGGK7fJdzM","contest":"Model Superstar","episode":"Model Superstar","category":null,"contestant":{"voting_id":"31","name":"Aakriti Subedi"},"vote_count":1,"created_on":"2020-01-03T11:16:24.325633+05:45"},{"idx":"LcQH7Uq2xZBWAVY8BcjZYb","contest":"Model Superstar","episode":"Model Superstar","category":null,"contestant":{"voting_id":"31","name":"Aakriti Subedi"},"vote_count":1,"created_on":"2020-01-03T11:05:56.415292+05:45"},{"idx":"aur49xJAmnhcdUduedA2Gc","contest":"Model Superstar","episode":"Model Superstar","category":null,"contestant":{"voting_id":"31","name":"Aakriti Subedi"},"vote_count":1,"created_on":"2020-01-03T11:05:21.317422+05:45"},{"idx":"AmMmEvxLMcGFdsFx6hzukZ","contest":"Model Superstar","episode":"Model Superstar","category":null,"contestant":{"voting_id":"31","name":"Aakriti Subedi"},"vote_count":1,"created_on":"2020-01-03T11:05:03.117358+05:45"},{"idx":"j4eHzgreridTCawpJic4xK","contest":"Model Superstar","episode":"Model Superstar","category":null,"contestant":{"voting_id":"31","name":"Aakriti Subedi"},"vote_count":1,"created_on":"2020-01-03T11:04:24.717010+05:45"},{"idx":"e8qHnhAnhW7FDnRWsjbHsD","contest":"Model Superstar","episode":"Model Superstar","category":null,"contestant":{"voting_id":"31","name":"Aakriti Subedi"},"vote_count":1,"created_on":"2020-01-03T10:53:51.787728+05:45"},{"idx":"srnBUkfJnNSdQR4iQzHW3f","contest":"Model Superstar","episode":"Model Superstar","category":null,"contestant":{"voting_id":"31","name":"Aakriti Subedi"},"vote_count":1,"created_on":"2020-01-03T10:53:35.814909+05:45"},{"idx":"JN3QLtrDkRAdMehwsZiD7C","contest":"Model Superstar","episode":"Model Superstar","category":null,"contestant":{"voting_id":"31","name":"Aakriti Subedi"},"vote_count":1,"created_on":"2020-01-03T10:53:22.957106+05:45"},{"idx":"RvmBmjwPNxvKQ6HSbvYe4c","contest":"Model Superstar","episode":"Model Superstar","category":null,"contestant":{"voting_id":"31","name":"Aakriti Subedi"},"vote_count":1,"created_on":"2020-01-03T10:53:02.792105+05:45"},{"idx":"S7sTdsvGEiVLpgb7zQauEo","contest":"Model Superstar","episode":"Model Superstar","category":null,"contestant":{"voting_id":"31","name":"Aakriti Subedi"},"vote_count":1,"created_on":"2020-01-03T10:52:48.122486+05:45"},{"idx":"2TxbDH7uhZXSowTnCYvo6c","contest":"Model Superstar","episode":"Model Superstar","category":null,"contestant":{"voting_id":"31","name":"Aakriti Subedi"},"vote_count":1,"created_on":"2020-01-03T10:52:32.860479+05:45"},{"idx":"cxZh9MqBxfK8N89k6XvCiL","contest":"Model Superstar","episode":"Model Superstar","category":null,"contestant":{"voting_id":"31","name":"Aakriti Subedi"},"vote_count":1,"created_on":"2020-01-03T10:51:52.108667+05:45"}]}