{"total_pages":275,"total_records":13717,"next":"https://khalti.com/api/v2/vuservote/?page=17","previous":"https://khalti.com/api/v2/vuservote/?page=15","record_range":[751,800],"current_page":16,"records":[{"idx":"nRBzbtUzFLPs6h84hTyhq2","contest":"Locus 2020","episode":"Locus 2020","category":null,"contestant":{"voting_id":"29","name":"Project Accident Alert System"},"vote_count":1,"created_on":"2020-02-01T19:45:37.112509+05:45"},{"idx":"GzAHjncm3fUbKhpb4CgR97","contest":"Locus 2020","episode":"Locus 2020","category":null,"contestant":{"voting_id":"15","name":"Project Residential Drainage Water Purification System"},"vote_count":1,"created_on":"2020-02-01T19:43:44.814624+05:45"},{"idx":"xcahDkSx5p4urvSFr3hSsC","contest":"Locus 2020","episode":"Locus 2020","category":null,"contestant":{"voting_id":"29","name":"Project Accident Alert System"},"vote_count":1,"created_on":"2020-02-01T19:41:53.584888+05:45"},{"idx":"p4VvFbTUowNvMcBonNr28Z","contest":"Locus 2020","episode":"Locus 2020","category":null,"contestant":{"voting_id":"19","name":"Project CNC Drawing Machine"},"vote_count":1,"created_on":"2020-02-01T19:41:21.872021+05:45"},{"idx":"FEAC7NwkhR4givJXinfHkH","contest":"Locus 2020","episode":"Locus 2020","category":null,"contestant":{"voting_id":"17","name":"Project EN SAT"},"vote_count":1,"created_on":"2020-02-01T19:40:54.478976+05:45"},{"idx":"Gdx6BDuMBCPdUVPveSukUC","contest":"Locus 2020","episode":"Locus 2020","category":null,"contestant":{"voting_id":"15","name":"Project Residential Drainage Water Purification System"},"vote_count":1,"created_on":"2020-02-01T19:37:47.476092+05:45"},{"idx":"K3titEt3o2VtFDqXE6YMcX","contest":"Locus 2020","episode":"Locus 2020","category":null,"contestant":{"voting_id":"46","name":"Project Immune"},"vote_count":1,"created_on":"2020-02-01T19:36:54.693260+05:45"},{"idx":"RhAg6Ub5ypDqAh869qQAyk","contest":"Locus 2020","episode":"Locus 2020","category":null,"contestant":{"voting_id":"12","name":"Project Green City"},"vote_count":1,"created_on":"2020-02-01T19:35:55.019970+05:45"},{"idx":"WQZgujFfELCcnLtSJ9EsXC","contest":"Locus 2020","episode":"Locus 2020","category":null,"contestant":{"voting_id":"32","name":"Project Health and Environment Checker"},"vote_count":1,"created_on":"2020-02-01T19:35:33.715157+05:45"},{"idx":"MuSP4ht58QqRfQ6TdhPVe6","contest":"Locus 2020","episode":"Locus 2020","category":null,"contestant":{"voting_id":"12","name":"Project Green City"},"vote_count":1,"created_on":"2020-02-01T19:32:50.342226+05:45"},{"idx":"GWFmDwunCdD5qJou3rMZCm","contest":"Locus 2020","episode":"Locus 2020","category":null,"contestant":{"voting_id":"36","name":"Project CNC Router"},"vote_count":1,"created_on":"2020-02-01T19:32:43.213879+05:45"},{"idx":"rLRTByQqeMirfoWB3u66b5","contest":"Locus 2020","episode":"Locus 2020","category":null,"contestant":{"voting_id":"66","name":"Project Alexa Pi"},"vote_count":1,"created_on":"2020-02-01T19:32:39.552325+05:45"},{"idx":"JTF6kbNAb2Ru6tSPA2mmGa","contest":"Locus 2020","episode":"Locus 2020","category":null,"contestant":{"voting_id":"17","name":"Project EN SAT"},"vote_count":1,"created_on":"2020-02-01T19:32:20.893049+05:45"},{"idx":"p6uNzZshFHAj7QQzHcDCe4","contest":"Model Superstar","episode":"Model Superstar Finale","category":null,"contestant":{"voting_id":"18","name":"Anup Pandey"},"vote_count":1,"created_on":"2020-02-01T19:29:20.363033+05:45"},{"idx":"Cbi59neNgMirkCdbx8m4DF","contest":"Locus 2020","episode":"Locus 2020","category":null,"contestant":{"voting_id":"27","name":"Project Online Entrance System ( IOE Entrance)"},"vote_count":1,"created_on":"2020-02-01T19:29:12.128385+05:45"},{"idx":"TiLbbT3uHuGA6Lawoz3v9f","contest":"Music Eve 2020","episode":"Music Eve 2020 IOE","category":null,"contestant":{"voting_id":"03","name":"Abishek Aryal"},"vote_count":25,"created_on":"2020-02-01T19:28:35.473899+05:45"},{"idx":"rgfQR2QJ8k7bhw62GMjuP2","contest":"Locus 2020","episode":"Locus 2020","category":null,"contestant":{"voting_id":"15","name":"Project Residential Drainage Water Purification System"},"vote_count":1,"created_on":"2020-02-01T19:28:22.149079+05:45"},{"idx":"j94LzP2rVziaQMH7kCrjpJ","contest":"Locus 2020","episode":"Locus 2020","category":null,"contestant":{"voting_id":"17","name":"Project EN SAT"},"vote_count":1,"created_on":"2020-02-01T19:27:52.887680+05:45"},{"idx":"rHJhGxBpL8swtc4ZdUGyMK","contest":"Locus 2020","episode":"Locus 2020","category":null,"contestant":{"voting_id":"92","name":"Project Bhakari Shopping Nepal"},"vote_count":1,"created_on":"2020-02-01T19:26:55.687237+05:45"},{"idx":"X8PpzvuW8TuSnLQRbjbFVa","contest":"Music Eve 2020","episode":"Music Eve 2020 IOE","category":null,"contestant":{"voting_id":"25","name":"Turbo Band"},"vote_count":1,"created_on":"2020-02-01T19:25:21.542040+05:45"},{"idx":"R5RKRJKaefiXbZGsqF4zGN","contest":"Locus 2020","episode":"Locus 2020","category":null,"contestant":{"voting_id":"42","name":"Project P.I.M.P."},"vote_count":1,"created_on":"2020-02-01T19:25:02.511654+05:45"},{"idx":"w4qQFYKN4Rs4Noqh49L9ok","contest":"Locus 2020","episode":"Locus 2020","category":null,"contestant":{"voting_id":"80","name":"Project Hexapod"},"vote_count":1,"created_on":"2020-02-01T19:24:56.108980+05:45"},{"idx":"w87JCnT7aU2BYmVZGZRvhg","contest":"Locus 2020","episode":"Locus 2020","category":null,"contestant":{"voting_id":"26","name":"Project Automatic Rechargaeble Stove"},"vote_count":1,"created_on":"2020-02-01T19:24:09.984803+05:45"},{"idx":"cBZvx5YWVc5vfRpCZQs8CC","contest":"Locus 2020","episode":"Locus 2020","category":null,"contestant":{"voting_id":"46","name":"Project Immune"},"vote_count":1,"created_on":"2020-02-01T19:23:43.750406+05:45"},{"idx":"myfZyMC7xYFmqjYm25UvtN","contest":"Locus 2020","episode":"Locus 2020","category":null,"contestant":{"voting_id":"15","name":"Project Residential Drainage Water Purification System"},"vote_count":1,"created_on":"2020-02-01T19:23:41.041614+05:45"},{"idx":"f4AUfpVRj5LcHnZnnkUXZZ","contest":"Locus 2020","episode":"Locus 2020","category":null,"contestant":{"voting_id":"42","name":"Project P.I.M.P."},"vote_count":1,"created_on":"2020-02-01T19:22:01.905705+05:45"},{"idx":"jYEgokBnFVjqNYD8vC2BmH","contest":"Locus 2020","episode":"Locus 2020","category":null,"contestant":{"voting_id":"17","name":"Project EN SAT"},"vote_count":1,"created_on":"2020-02-01T19:21:30.616549+05:45"},{"idx":"nGeGiG5fX4XBBTDwmLWNkj","contest":"Locus 2020","episode":"Locus 2020","category":null,"contestant":{"voting_id":"36","name":"Project CNC Router"},"vote_count":1,"created_on":"2020-02-01T19:21:25.192894+05:45"},{"idx":"3vFtwyMXN5NAEKZYPnHz7Q","contest":"Locus 2020","episode":"Locus 2020","category":null,"contestant":{"voting_id":"12","name":"Project Green City"},"vote_count":1,"created_on":"2020-02-01T19:21:12.892498+05:45"},{"idx":"WRnnMVtTXCfRL6RxfvS2HM","contest":"Locus 2020","episode":"Locus 2020","category":null,"contestant":{"voting_id":"17","name":"Project EN SAT"},"vote_count":1,"created_on":"2020-02-01T19:19:07.254339+05:45"},{"idx":"6hNM7VBcKwp5Mv28RVzbbK","contest":"Locus 2020","episode":"Locus 2020","category":null,"contestant":{"voting_id":"32","name":"Project Health and Environment Checker"},"vote_count":1,"created_on":"2020-02-01T19:18:23.059460+05:45"},{"idx":"VJcoRFSfh23sSwSVd2QnC2","contest":"Locus 2020","episode":"Locus 2020","category":null,"contestant":{"voting_id":"36","name":"Project CNC Router"},"vote_count":1,"created_on":"2020-02-01T19:12:43.750433+05:45"},{"idx":"xkX7gHGGqwG2iY4FDpcvwj","contest":"Locus 2020","episode":"Locus 2020","category":null,"contestant":{"voting_id":"46","name":"Project Immune"},"vote_count":1,"created_on":"2020-02-01T19:12:08.781492+05:45"},{"idx":"h2M2HtxnrgndFP4bkG4yJ3","contest":"Locus 2020","episode":"Locus 2020","category":null,"contestant":{"voting_id":"02","name":"Project Plant -e"},"vote_count":1,"created_on":"2020-02-01T19:10:45.177375+05:45"},{"idx":"ZEKZY8pTkNKxD5kT2DsyS7","contest":"Music Eve 2020","episode":"Music Eve 2020 IOE","category":null,"contestant":{"voting_id":"04","name":"Asmit Timalsina"},"vote_count":1,"created_on":"2020-02-01T19:10:16.109960+05:45"},{"idx":"Hp5nQtFohgHHst6Jjw9LxC","contest":"Model Superstar","episode":"Model Superstar Finale","category":null,"contestant":{"voting_id":"02","name":"Srijana Basnet"},"vote_count":1,"created_on":"2020-02-01T19:08:57.659156+05:45"},{"idx":"G3waNDVwP2gNe2TsKSbUGP","contest":"Locus 2020","episode":"Locus 2020","category":null,"contestant":{"voting_id":"62","name":"Project 2D CNC Plotter"},"vote_count":1,"created_on":"2020-02-01T19:08:48.725862+05:45"},{"idx":"cEwKBkDcSaJBAmpt7uXnNB","contest":"Locus 2020","episode":"Locus 2020","category":null,"contestant":{"voting_id":"80","name":"Project Hexapod"},"vote_count":1,"created_on":"2020-02-01T19:07:56.930494+05:45"},{"idx":"Dre7GrSLqDGbnDs3WoujXU","contest":"Locus 2020","episode":"Locus 2020","category":null,"contestant":{"voting_id":"08","name":"Project A Smart Approach Towards Lifestyle in Nepal"},"vote_count":1,"created_on":"2020-02-01T19:07:17.791832+05:45"},{"idx":"AjgCHCPRctxdssTL85v58A","contest":"Locus 2020","episode":"Locus 2020","category":null,"contestant":{"voting_id":"92","name":"Project Bhakari Shopping Nepal"},"vote_count":1,"created_on":"2020-02-01T19:07:09.749879+05:45"},{"idx":"GLSN8EV8p9ngN5ig3egvWV","contest":"Locus 2020","episode":"Locus 2020","category":null,"contestant":{"voting_id":"38","name":"Project Project -N"},"vote_count":1,"created_on":"2020-02-01T19:05:39.916141+05:45"},{"idx":"PZWG7YUfW5QvmQ99VkyZXT","contest":"Locus 2020","episode":"Locus 2020","category":null,"contestant":{"voting_id":"17","name":"Project EN SAT"},"vote_count":1,"created_on":"2020-02-01T19:05:00.804434+05:45"},{"idx":"2FCNodd3n3PvU3jBVFiwkd","contest":"Locus 2020","episode":"Locus 2020","category":null,"contestant":{"voting_id":"36","name":"Project CNC Router"},"vote_count":1,"created_on":"2020-02-01T19:04:43.403871+05:45"},{"idx":"XhoDNqbTiXh3LDdWYSKEXH","contest":"Locus 2020","episode":"Locus 2020","category":null,"contestant":{"voting_id":"92","name":"Project Bhakari Shopping Nepal"},"vote_count":1,"created_on":"2020-02-01T19:03:34.987529+05:45"},{"idx":"BccrUbKbjhKL9zNMDhrywD","contest":"Locus 2020","episode":"Locus 2020","category":null,"contestant":{"voting_id":"13","name":"Project Smart Fire Detector"},"vote_count":1,"created_on":"2020-02-01T19:02:18.716759+05:45"},{"idx":"sqdT9VQuCmyRBkPxW8YV3P","contest":"Locus 2020","episode":"Locus 2020","category":null,"contestant":{"voting_id":"80","name":"Project Hexapod"},"vote_count":1,"created_on":"2020-02-01T18:59:55.310765+05:45"},{"idx":"7sBPD9pRzH5DGsK3bDff4k","contest":"Locus 2020","episode":"Locus 2020","category":null,"contestant":{"voting_id":"42","name":"Project P.I.M.P."},"vote_count":1,"created_on":"2020-02-01T18:58:44.978285+05:45"},{"idx":"hv88UMRTiTfRo8wM6zv9yK","contest":"Locus 2020","episode":"Locus 2020","category":null,"contestant":{"voting_id":"57","name":"Project Classroom Attendance using facial recognition"},"vote_count":1,"created_on":"2020-02-01T18:51:02.584955+05:45"},{"idx":"n8FLiv8Hmho9J42Wp5mzES","contest":"Model Superstar","episode":"Model Superstar Finale","category":null,"contestant":{"voting_id":"02","name":"Srijana Basnet"},"vote_count":1,"created_on":"2020-02-01T18:48:58.697051+05:45"},{"idx":"vSowvhWAMCeTFStcwC9Lh3","contest":"Locus 2020","episode":"Locus 2020","category":null,"contestant":{"voting_id":"46","name":"Project Immune"},"vote_count":1,"created_on":"2020-02-01T18:47:42.356494+05:45"}]}