{"total_pages":275,"total_records":13720,"next":"https://khalti.com/api/v2/vuservote/?page=161","previous":"https://khalti.com/api/v2/vuservote/?page=159","record_range":[7951,8000],"current_page":160,"records":[{"idx":"t5HWrnqwaMaRLZuPSj4Z2o","contest":"Model Superstar","episode":"Model Superstar","category":null,"contestant":{"voting_id":"31","name":"Aakriti Subedi"},"vote_count":1,"created_on":"2020-01-03T10:51:37.793725+05:45"},{"idx":"RnBZWbLVKBLiybYxEbAHjM","contest":"Model Superstar","episode":"Model Superstar","category":null,"contestant":{"voting_id":"31","name":"Aakriti Subedi"},"vote_count":1,"created_on":"2020-01-03T10:51:22.096100+05:45"},{"idx":"3fazBjdDHEXq4NMExNizom","contest":"Model Superstar","episode":"Model Superstar","category":null,"contestant":{"voting_id":"31","name":"Aakriti Subedi"},"vote_count":1,"created_on":"2020-01-03T10:51:00.987524+05:45"},{"idx":"QzcRnZm3d8fNp2eRTmroEV","contest":"Model Superstar","episode":"Model Superstar","category":null,"contestant":{"voting_id":"31","name":"Aakriti Subedi"},"vote_count":1,"created_on":"2020-01-03T10:50:47.249282+05:45"},{"idx":"tWJvM2Mcgr4CXRdkddim7E","contest":"Model Superstar","episode":"Model Superstar","category":null,"contestant":{"voting_id":"31","name":"Aakriti Subedi"},"vote_count":1,"created_on":"2020-01-03T10:50:08.457878+05:45"},{"idx":"nyPToEXipj6BX5AbGUtA2M","contest":"Model Superstar","episode":"Model Superstar","category":null,"contestant":{"voting_id":"31","name":"Aakriti Subedi"},"vote_count":1,"created_on":"2020-01-03T10:48:30.811937+05:45"},{"idx":"wqWZ8WP7LjX3gPSMZurUbj","contest":"Model Superstar","episode":"Model Superstar","category":null,"contestant":{"voting_id":"31","name":"Aakriti Subedi"},"vote_count":1,"created_on":"2020-01-03T10:46:58.423866+05:45"},{"idx":"cfuQzqSbFgT2Df5bzVvLzd","contest":"NEPALBHASA STAR MUSIC VIDEO AWARDS-2019","episode":null,"category":"BEST DANCE DIRECTOR","contestant":{"voting_id":"19A","name":"Gautam Tandukar"},"vote_count":1,"created_on":"2020-01-03T10:46:11.002043+05:45"},{"idx":"pHtGCgM7BowYEkvwkhziwG","contest":"Model Superstar","episode":"Model Superstar","category":null,"contestant":{"voting_id":"31","name":"Aakriti Subedi"},"vote_count":1,"created_on":"2020-01-03T10:45:32.747143+05:45"},{"idx":"SPkMjCFf4vnX7zeVkykfJK","contest":"Model Superstar","episode":"Model Superstar","category":null,"contestant":{"voting_id":"12","name":"Rabin Ghising"},"vote_count":1,"created_on":"2020-01-03T10:33:10.325503+05:45"},{"idx":"sDa7CzZ488gPwixX7dYRV8","contest":"Model Superstar","episode":"Model Superstar","category":null,"contestant":{"voting_id":"14","name":"Ashish Shakya"},"vote_count":1,"created_on":"2020-01-03T10:32:46.097433+05:45"},{"idx":"9V6SxL3wkMbhg5DMt2VaCo","contest":"Model Superstar","episode":"Model Superstar","category":null,"contestant":{"voting_id":"31","name":"Aakriti Subedi"},"vote_count":1,"created_on":"2020-01-03T10:24:53.308915+05:45"},{"idx":"2QKbNB5Yv2oHWSERKaB3iD","contest":"Model Superstar","episode":"Model Superstar","category":null,"contestant":{"voting_id":"02","name":"Srijana Basnet"},"vote_count":1,"created_on":"2020-01-03T10:23:14.209248+05:45"},{"idx":"pz6YJigfYM5yZ9UgRcZ9wJ","contest":"Mr. & Miss Teen Sherpa 2020 - S2","episode":"Mr.&Miss Teen Sherpa -S2","category":null,"contestant":{"voting_id":"08","name":"Angdali Sherpa"},"vote_count":1,"created_on":"2020-01-03T10:10:50.898752+05:45"},{"idx":"uuF9pHSz4Cvxmjvbr93qc8","contest":"Mr. & Miss Teen Sherpa 2020 - S2","episode":"Mr.&Miss Teen Sherpa -S2","category":null,"contestant":{"voting_id":"06","name":"Tenzin Pema Sherpa"},"vote_count":1,"created_on":"2020-01-03T10:06:26.444713+05:45"},{"idx":"xsTAkzdECYFk66CjTSvEwi","contest":"Model Superstar","episode":"Model Superstar","category":null,"contestant":{"voting_id":"13","name":"Prashant Shah"},"vote_count":1,"created_on":"2020-01-03T10:05:20.832124+05:45"},{"idx":"SXodUdsZ8npwSTy9ixTjmQ","contest":"Mr. & Miss Teen Sherpa 2020 - S2","episode":"Mr.&Miss Teen Sherpa -S2","category":null,"contestant":{"voting_id":"08","name":"Angdali Sherpa"},"vote_count":1,"created_on":"2020-01-03T09:54:05.836856+05:45"},{"idx":"95QL4HE76VHNGvLKUot2n3","contest":"Mr. & Miss Teen Sherpa 2020 - S2","episode":"Mr.&Miss Teen Sherpa -S2","category":null,"contestant":{"voting_id":"08","name":"Angdali Sherpa"},"vote_count":1,"created_on":"2020-01-03T09:52:45.248862+05:45"},{"idx":"cSCCLaicf7sJvNBgq3CR7A","contest":"Mr. & Miss Teen Sherpa 2020 - S2","episode":"Mr.&Miss Teen Sherpa -S2","category":null,"contestant":{"voting_id":"08","name":"Angdali Sherpa"},"vote_count":1,"created_on":"2020-01-03T09:51:02.682191+05:45"},{"idx":"YmimFtzxNdy4dSHr87NfnB","contest":"Mr. & Miss Teen Sherpa 2020 - S2","episode":"Mr.&Miss Teen Sherpa -S2","category":null,"contestant":{"voting_id":"08","name":"Angdali Sherpa"},"vote_count":1,"created_on":"2020-01-03T09:50:13.272486+05:45"},{"idx":"PYxtgxmSa4XY4LRtbL6qRV","contest":"Model Superstar","episode":"Model Superstar","category":null,"contestant":{"voting_id":"07","name":"Narman Malla"},"vote_count":5,"created_on":"2020-01-03T09:45:30.577888+05:45"},{"idx":"ha3zuJYJeianNNwFpt2p92","contest":"NEPALBHASA STAR MUSIC VIDEO AWARDS-2019","episode":null,"category":"THE RISING STAR SINGER","contestant":{"voting_id":"21D","name":"Krishna Maharjan"},"vote_count":1,"created_on":"2020-01-03T09:44:42.261038+05:45"},{"idx":"SXxGGhrHdXPAkKw4aWXAo6","contest":"Model Superstar","episode":"Model Superstar","category":null,"contestant":{"voting_id":"07","name":"Narman Malla"},"vote_count":1,"created_on":"2020-01-03T09:34:03.547696+05:45"},{"idx":"rimgqZ2gf7nGg8Fd5E6Rwh","contest":"Mr. & Miss Teen Sherpa 2020 - S2","episode":"Mr.&Miss Teen Sherpa -S2","category":null,"contestant":{"voting_id":"02","name":"Pema Yanji sherpa"},"vote_count":1,"created_on":"2020-01-03T09:33:15.926460+05:45"},{"idx":"MNWGZ5hSscdqTTheZrjWuf","contest":"Mr. & Miss Teen Sherpa 2020 - S2","episode":"Mr.&Miss Teen Sherpa -S2","category":null,"contestant":{"voting_id":"08","name":"Angdali Sherpa"},"vote_count":1,"created_on":"2020-01-03T09:25:05.914580+05:45"},{"idx":"aQiKRv4afQvBh7ngN5gPDf","contest":"Mr. & Miss Teen Sherpa 2020 - S2","episode":"Mr.&Miss Teen Sherpa -S2","category":null,"contestant":{"voting_id":"08","name":"Angdali Sherpa"},"vote_count":1,"created_on":"2020-01-03T09:22:50.393801+05:45"},{"idx":"26hmJRv8KVkPohzzmSu6eG","contest":"NEPALBHASA STAR MUSIC VIDEO AWARDS-2019","episode":null,"category":"BEST DIRECTOR","contestant":{"voting_id":"20A","name":"Bhuwan Shrestha"},"vote_count":1,"created_on":"2020-01-03T09:16:23.102817+05:45"},{"idx":"pmgB3sSrDPXEF5SwGgtJ9Y","contest":"NEPALBHASA STAR MUSIC VIDEO AWARDS-2019","episode":null,"category":"BEST DEBUT MODEL, MALE","contestant":{"voting_id":"12J","name":"Sanjay Maharjan"},"vote_count":1,"created_on":"2020-01-03T09:03:49.982627+05:45"},{"idx":"nM2bFF7vgK5NpbazykXELn","contest":"Mr. & Miss Teen Sherpa 2020 - S2","episode":"Mr.&Miss Teen Sherpa -S2","category":null,"contestant":{"voting_id":"02","name":"Pema Yanji sherpa"},"vote_count":1,"created_on":"2020-01-03T08:51:43.458796+05:45"},{"idx":"fxRL4qUTpAYJpXmRNqDuv4","contest":"Mr. & Miss Teen Sherpa 2020 - S2","episode":"Mr.&Miss Teen Sherpa -S2","category":null,"contestant":{"voting_id":"02","name":"Pema Yanji sherpa"},"vote_count":1,"created_on":"2020-01-03T08:51:33.956596+05:45"},{"idx":"UMKXkCcDVmGNJkftqo9DTo","contest":"Mr. & Miss Teen Sherpa 2020 - S2","episode":"Mr.&Miss Teen Sherpa -S2","category":null,"contestant":{"voting_id":"02","name":"Pema Yanji sherpa"},"vote_count":1,"created_on":"2020-01-03T08:51:28.579210+05:45"},{"idx":"fpQDgywBak56g4UaAauijD","contest":"Mr. & Miss Teen Sherpa 2020 - S2","episode":"Mr.&Miss Teen Sherpa -S2","category":null,"contestant":{"voting_id":"02","name":"Pema Yanji sherpa"},"vote_count":1,"created_on":"2020-01-03T08:51:22.965510+05:45"},{"idx":"jn2x3ViEk2Gi7rWoW2hkW4","contest":"Mr. & Miss Teen Sherpa 2020 - S2","episode":"Mr.&Miss Teen Sherpa -S2","category":null,"contestant":{"voting_id":"02","name":"Pema Yanji sherpa"},"vote_count":1,"created_on":"2020-01-03T08:51:13.540544+05:45"},{"idx":"mxZbwV5wKTDNpQe9GM4wn7","contest":"Model Superstar","episode":"Model Superstar","category":null,"contestant":{"voting_id":"12","name":"Rabin Ghising"},"vote_count":1,"created_on":"2020-01-03T08:49:18.072517+05:45"},{"idx":"6Vyeas58JQ8EtdKDEvSnxA","contest":"Mr. & Miss Teen Sherpa 2020 - S2","episode":"Mr.&Miss Teen Sherpa -S2","category":null,"contestant":{"voting_id":"03","name":"Mingma Sherpa"},"vote_count":1,"created_on":"2020-01-03T08:31:19.880903+05:45"},{"idx":"i4JE9se5HvRQDnp35hBqB6","contest":"Model Superstar","episode":"Model Superstar","category":null,"contestant":{"voting_id":"27","name":"Suweta Shrestha"},"vote_count":1,"created_on":"2020-01-03T08:19:20.312194+05:45"},{"idx":"Z9ZLjKZY5PpPJroTtfFWBS","contest":"Model Superstar","episode":"Model Superstar","category":null,"contestant":{"voting_id":"04","name":"Sabita Maharjan"},"vote_count":1,"created_on":"2020-01-03T08:17:47.504328+05:45"},{"idx":"U64KGWTLvpUjByd4zbdWHc","contest":"Mr. & Miss Teen Sherpa 2020 - S2","episode":"Mr.&Miss Teen Sherpa -S2","category":null,"contestant":{"voting_id":"02","name":"Pema Yanji sherpa"},"vote_count":1,"created_on":"2020-01-03T08:06:53.427224+05:45"},{"idx":"QChecLxiPQxWFNUKUizEB8","contest":"Mr. & Miss Teen Sherpa 2020 - S2","episode":"Mr.&Miss Teen Sherpa -S2","category":null,"contestant":{"voting_id":"02","name":"Pema Yanji sherpa"},"vote_count":1,"created_on":"2020-01-03T08:06:47.191786+05:45"},{"idx":"Ps93bmYmZvG8rEeBQ34hkQ","contest":"Mr. & Miss Teen Sherpa 2020 - S2","episode":"Mr.&Miss Teen Sherpa -S2","category":null,"contestant":{"voting_id":"02","name":"Pema Yanji sherpa"},"vote_count":1,"created_on":"2020-01-03T08:06:42.178163+05:45"},{"idx":"nmsSixhRLL9utmzeb7C4Q4","contest":"Mr. & Miss Teen Sherpa 2020 - S2","episode":"Mr.&Miss Teen Sherpa -S2","category":null,"contestant":{"voting_id":"02","name":"Pema Yanji sherpa"},"vote_count":1,"created_on":"2020-01-03T08:06:37.071576+05:45"},{"idx":"qud5WZs6nHG5dR4fzYxt7b","contest":"Mr. & Miss Teen Sherpa 2020 - S2","episode":"Mr.&Miss Teen Sherpa -S2","category":null,"contestant":{"voting_id":"02","name":"Pema Yanji sherpa"},"vote_count":1,"created_on":"2020-01-03T08:06:31.372144+05:45"},{"idx":"HHMGuSuzUiFSmXHAYssqgP","contest":"Mr. & Miss Teen Sherpa 2020 - S2","episode":"Mr.&Miss Teen Sherpa -S2","category":null,"contestant":{"voting_id":"02","name":"Pema Yanji sherpa"},"vote_count":1,"created_on":"2020-01-03T08:06:26.273184+05:45"},{"idx":"VniNCosipSPoqcGFpQUDbW","contest":"Mr. & Miss Teen Sherpa 2020 - S2","episode":"Mr.&Miss Teen Sherpa -S2","category":null,"contestant":{"voting_id":"02","name":"Pema Yanji sherpa"},"vote_count":1,"created_on":"2020-01-03T08:06:21.428166+05:45"},{"idx":"AHv9JYAjxfr8keDyXdjD5E","contest":"Mr. & Miss Teen Sherpa 2020 - S2","episode":"Mr.&Miss Teen Sherpa -S2","category":null,"contestant":{"voting_id":"02","name":"Pema Yanji sherpa"},"vote_count":1,"created_on":"2020-01-03T08:06:16.438790+05:45"},{"idx":"MahocqKDrQWuzDKxEbQ3ZQ","contest":"Mr. & Miss Teen Sherpa 2020 - S2","episode":"Mr.&Miss Teen Sherpa -S2","category":null,"contestant":{"voting_id":"02","name":"Pema Yanji sherpa"},"vote_count":1,"created_on":"2020-01-03T08:06:11.282631+05:45"},{"idx":"JdB6Nd7RUqkZKGo6EChwqW","contest":"Mr. & Miss Teen Sherpa 2020 - S2","episode":"Mr.&Miss Teen Sherpa -S2","category":null,"contestant":{"voting_id":"02","name":"Pema Yanji sherpa"},"vote_count":1,"created_on":"2020-01-03T08:06:05.696141+05:45"},{"idx":"TRXp5QDAXnAGKwrMThaLYA","contest":"Mr. & Miss Teen Sherpa 2020 - S2","episode":"Mr.&Miss Teen Sherpa -S2","category":null,"contestant":{"voting_id":"02","name":"Pema Yanji sherpa"},"vote_count":1,"created_on":"2020-01-03T08:05:59.225131+05:45"},{"idx":"FvJ4P7ovZfxsJRkqt64f2P","contest":"Mr. & Miss Teen Sherpa 2020 - S2","episode":"Mr.&Miss Teen Sherpa -S2","category":null,"contestant":{"voting_id":"02","name":"Pema Yanji sherpa"},"vote_count":1,"created_on":"2020-01-03T08:05:53.343823+05:45"},{"idx":"aqs6WKZWktWYERiso6fGfP","contest":"Mr. & Miss Teen Sherpa 2020 - S2","episode":"Mr.&Miss Teen Sherpa -S2","category":null,"contestant":{"voting_id":"02","name":"Pema Yanji sherpa"},"vote_count":1,"created_on":"2020-01-03T08:05:47.337616+05:45"}]}