{"total_pages":275,"total_records":13720,"next":"https://khalti.com/api/v2/vuservote/?page=162","previous":"https://khalti.com/api/v2/vuservote/?page=160","record_range":[8001,8050],"current_page":161,"records":[{"idx":"7fW22CqYSkrHR9qAhGGVxm","contest":"Mr. & Miss Teen Sherpa 2020 - S2","episode":"Mr.&Miss Teen Sherpa -S2","category":null,"contestant":{"voting_id":"02","name":"Pema Yanji sherpa"},"vote_count":1,"created_on":"2020-01-03T08:05:42.274861+05:45"},{"idx":"a4Xe4TLRkueBKzaawNXQde","contest":"Mr. & Miss Teen Sherpa 2020 - S2","episode":"Mr.&Miss Teen Sherpa -S2","category":null,"contestant":{"voting_id":"02","name":"Pema Yanji sherpa"},"vote_count":1,"created_on":"2020-01-03T08:05:37.190561+05:45"},{"idx":"Z2SnDYjnvkh5ySvvaQn6yV","contest":"Mr. & Miss Teen Sherpa 2020 - S2","episode":"Mr.&Miss Teen Sherpa -S2","category":null,"contestant":{"voting_id":"02","name":"Pema Yanji sherpa"},"vote_count":1,"created_on":"2020-01-03T08:05:31.792712+05:45"},{"idx":"VEgZjXsbpK4z384AmmQqBV","contest":"Mr. & Miss Teen Sherpa 2020 - S2","episode":"Mr.&Miss Teen Sherpa -S2","category":null,"contestant":{"voting_id":"02","name":"Pema Yanji sherpa"},"vote_count":1,"created_on":"2020-01-03T08:05:26.181714+05:45"},{"idx":"NC4MJWcaZ2HJbdsSbkyfCf","contest":"Mr. & Miss Teen Sherpa 2020 - S2","episode":"Mr.&Miss Teen Sherpa -S2","category":null,"contestant":{"voting_id":"02","name":"Pema Yanji sherpa"},"vote_count":1,"created_on":"2020-01-03T08:05:18.689726+05:45"},{"idx":"wSjoxjgbhNexFeYNj3uDkX","contest":"Mr. & Miss Teen Sherpa 2020 - S2","episode":"Mr.&Miss Teen Sherpa -S2","category":null,"contestant":{"voting_id":"02","name":"Pema Yanji sherpa"},"vote_count":1,"created_on":"2020-01-03T08:05:11.593673+05:45"},{"idx":"8fCkgbnfLPE26AaEWpysam","contest":"Mr. & Miss Teen Sherpa 2020 - S2","episode":"Mr.&Miss Teen Sherpa -S2","category":null,"contestant":{"voting_id":"02","name":"Pema Yanji sherpa"},"vote_count":1,"created_on":"2020-01-03T08:05:03.301491+05:45"},{"idx":"RnY6xDHbpE7oLwVgw8TQcf","contest":"Mr. & Miss Teen Sherpa 2020 - S2","episode":"Mr.&Miss Teen Sherpa -S2","category":null,"contestant":{"voting_id":"02","name":"Pema Yanji sherpa"},"vote_count":1,"created_on":"2020-01-03T08:04:33.250669+05:45"},{"idx":"RbHYXgJq5hSEtBQDCJPVfJ","contest":"Mr. & Miss Teen Sherpa 2020 - S2","episode":"Mr.&Miss Teen Sherpa -S2","category":null,"contestant":{"voting_id":"02","name":"Pema Yanji sherpa"},"vote_count":1,"created_on":"2020-01-03T08:04:26.231287+05:45"},{"idx":"WLg3jmtskHmQywKqw85AuQ","contest":"Mr. & Miss Teen Sherpa 2020 - S2","episode":"Mr.&Miss Teen Sherpa -S2","category":null,"contestant":{"voting_id":"02","name":"Pema Yanji sherpa"},"vote_count":1,"created_on":"2020-01-03T08:04:21.305632+05:45"},{"idx":"PoU5EB4ybCS4F7f3Xy4NM4","contest":"Mr. & Miss Teen Sherpa 2020 - S2","episode":"Mr.&Miss Teen Sherpa -S2","category":null,"contestant":{"voting_id":"02","name":"Pema Yanji sherpa"},"vote_count":1,"created_on":"2020-01-03T08:04:16.254102+05:45"},{"idx":"WuW3ueGQmpHyrRRkRHM7bC","contest":"Mr. & Miss Teen Sherpa 2020 - S2","episode":"Mr.&Miss Teen Sherpa -S2","category":null,"contestant":{"voting_id":"02","name":"Pema Yanji sherpa"},"vote_count":1,"created_on":"2020-01-03T08:04:09.903165+05:45"},{"idx":"nQYmLHP4nekeriSimUK32D","contest":"Mr. & Miss Teen Sherpa 2020 - S2","episode":"Mr.&Miss Teen Sherpa -S2","category":null,"contestant":{"voting_id":"02","name":"Pema Yanji sherpa"},"vote_count":1,"created_on":"2020-01-03T08:04:04.351050+05:45"},{"idx":"gcjNNSpBJUKK4q3d4FtjN3","contest":"Mr. & Miss Teen Sherpa 2020 - S2","episode":"Mr.&Miss Teen Sherpa -S2","category":null,"contestant":{"voting_id":"02","name":"Pema Yanji sherpa"},"vote_count":1,"created_on":"2020-01-03T08:03:57.922595+05:45"},{"idx":"Ni5z85zbFMStA7mwTrvpQG","contest":"Mr. & Miss Teen Sherpa 2020 - S2","episode":"Mr.&Miss Teen Sherpa -S2","category":null,"contestant":{"voting_id":"02","name":"Pema Yanji sherpa"},"vote_count":1,"created_on":"2020-01-03T08:03:50.275325+05:45"},{"idx":"3tVEvzfe8NoWn34CpYb55J","contest":"Mr. & Miss Teen Sherpa 2020 - S2","episode":"Mr.&Miss Teen Sherpa -S2","category":null,"contestant":{"voting_id":"02","name":"Pema Yanji sherpa"},"vote_count":1,"created_on":"2020-01-03T08:03:44.377167+05:45"},{"idx":"FoxhNkcrFkVnyr7c8kSH96","contest":"Mr. & Miss Teen Sherpa 2020 - S2","episode":"Mr.&Miss Teen Sherpa -S2","category":null,"contestant":{"voting_id":"02","name":"Pema Yanji sherpa"},"vote_count":1,"created_on":"2020-01-03T08:03:38.869857+05:45"},{"idx":"TCX5G93YqxMPjF6utCVrtc","contest":"Mr. & Miss Teen Sherpa 2020 - S2","episode":"Mr.&Miss Teen Sherpa -S2","category":null,"contestant":{"voting_id":"02","name":"Pema Yanji sherpa"},"vote_count":1,"created_on":"2020-01-03T08:03:34.666519+05:45"},{"idx":"4BoTV2ReehR4sW8yNQMAx5","contest":"Mr. & Miss Teen Sherpa 2020 - S2","episode":"Mr.&Miss Teen Sherpa -S2","category":null,"contestant":{"voting_id":"02","name":"Pema Yanji sherpa"},"vote_count":1,"created_on":"2020-01-03T08:03:30.130707+05:45"},{"idx":"PZx2eQi6aaNp7GTFc3k2VU","contest":"Mr. & Miss Teen Sherpa 2020 - S2","episode":"Mr.&Miss Teen Sherpa -S2","category":null,"contestant":{"voting_id":"02","name":"Pema Yanji sherpa"},"vote_count":1,"created_on":"2020-01-03T08:03:24.982109+05:45"},{"idx":"TDcT2LeNBoVkVZdDTsR7sT","contest":"Mr. & Miss Teen Sherpa 2020 - S2","episode":"Mr.&Miss Teen Sherpa -S2","category":null,"contestant":{"voting_id":"02","name":"Pema Yanji sherpa"},"vote_count":1,"created_on":"2020-01-03T08:03:19.205628+05:45"},{"idx":"uofshanLukXzsXFV4xpfXQ","contest":"Mr. & Miss Teen Sherpa 2020 - S2","episode":"Mr.&Miss Teen Sherpa -S2","category":null,"contestant":{"voting_id":"02","name":"Pema Yanji sherpa"},"vote_count":1,"created_on":"2020-01-03T08:03:11.062383+05:45"},{"idx":"ZuVokSb9sw4CH77i89rQGX","contest":"Mr. & Miss Teen Sherpa 2020 - S2","episode":"Mr.&Miss Teen Sherpa -S2","category":null,"contestant":{"voting_id":"02","name":"Pema Yanji sherpa"},"vote_count":1,"created_on":"2020-01-03T08:03:05.232256+05:45"},{"idx":"mfWXUc9cvdLj69v3DwM4bA","contest":"Mr. & Miss Teen Sherpa 2020 - S2","episode":"Mr.&Miss Teen Sherpa -S2","category":null,"contestant":{"voting_id":"02","name":"Pema Yanji sherpa"},"vote_count":1,"created_on":"2020-01-03T08:02:58.969314+05:45"},{"idx":"XDkesEKLcofN4PEfpV7iLU","contest":"Mr. & Miss Teen Sherpa 2020 - S2","episode":"Mr.&Miss Teen Sherpa -S2","category":null,"contestant":{"voting_id":"02","name":"Pema Yanji sherpa"},"vote_count":1,"created_on":"2020-01-03T08:02:53.739776+05:45"},{"idx":"cfVGEKCWBvmeHaU4bwqbwn","contest":"Mr. & Miss Teen Sherpa 2020 - S2","episode":"Mr.&Miss Teen Sherpa -S2","category":null,"contestant":{"voting_id":"02","name":"Pema Yanji sherpa"},"vote_count":1,"created_on":"2020-01-03T08:02:48.569923+05:45"},{"idx":"XvTBk8Phhu3pdnRyqRKRg2","contest":"Mr. & Miss Teen Sherpa 2020 - S2","episode":"Mr.&Miss Teen Sherpa -S2","category":null,"contestant":{"voting_id":"02","name":"Pema Yanji sherpa"},"vote_count":1,"created_on":"2020-01-03T08:02:42.725014+05:45"},{"idx":"FBXV2ArMWMFXPQrWWpz8tG","contest":"Mr. & Miss Teen Sherpa 2020 - S2","episode":"Mr.&Miss Teen Sherpa -S2","category":null,"contestant":{"voting_id":"02","name":"Pema Yanji sherpa"},"vote_count":1,"created_on":"2020-01-03T08:02:37.570663+05:45"},{"idx":"M9nhSAPDDsECH96iW8pghV","contest":"Mr. & Miss Teen Sherpa 2020 - S2","episode":"Mr.&Miss Teen Sherpa -S2","category":null,"contestant":{"voting_id":"02","name":"Pema Yanji sherpa"},"vote_count":1,"created_on":"2020-01-03T08:02:31.664451+05:45"},{"idx":"btWfofzirkLFb7RRu7HT6k","contest":"Mr. & Miss Teen Sherpa 2020 - S2","episode":"Mr.&Miss Teen Sherpa -S2","category":null,"contestant":{"voting_id":"02","name":"Pema Yanji sherpa"},"vote_count":1,"created_on":"2020-01-03T08:02:26.510335+05:45"},{"idx":"avxRSdMZk4bGnwT8QGv9Wg","contest":"Mr. & Miss Teen Sherpa 2020 - S2","episode":"Mr.&Miss Teen Sherpa -S2","category":null,"contestant":{"voting_id":"02","name":"Pema Yanji sherpa"},"vote_count":1,"created_on":"2020-01-03T08:02:18.610678+05:45"},{"idx":"Wtw3g47eXayp8m9X6kLHLW","contest":"Model Superstar","episode":"Model Superstar","category":null,"contestant":{"voting_id":"04","name":"Sabita Maharjan"},"vote_count":1,"created_on":"2020-01-03T07:48:31.907180+05:45"},{"idx":"LCWibcENQyb2U6va2pP3RV","contest":"Model Superstar","episode":"Model Superstar","category":null,"contestant":{"voting_id":"04","name":"Sabita Maharjan"},"vote_count":1,"created_on":"2020-01-03T07:48:08.444999+05:45"},{"idx":"D4FpTq3uw4hxK5XX7G2csm","contest":"Model Superstar","episode":"Model Superstar","category":null,"contestant":{"voting_id":"02","name":"Srijana Basnet"},"vote_count":5,"created_on":"2020-01-03T07:35:55.917220+05:45"},{"idx":"5JGifiXAkEci8G7RmktXcY","contest":"Mr. & Miss Teen Sherpa 2020 - S2","episode":"Mr.&Miss Teen Sherpa -S2","category":null,"contestant":{"voting_id":"23","name":"Chhiri Sherpa"},"vote_count":25,"created_on":"2020-01-03T06:56:03.056045+05:45"},{"idx":"DsxSF7jUc5gzWnpEf32vAU","contest":"Mr. & Miss Teen Sherpa 2020 - S2","episode":"Mr.&Miss Teen Sherpa -S2","category":null,"contestant":{"voting_id":"03","name":"Mingma Sherpa"},"vote_count":1,"created_on":"2020-01-03T04:53:06.839298+05:45"},{"idx":"HetxBaAhrLLca6HKGWGA22","contest":"Mr. & Miss Teen Sherpa 2020 - S2","episode":"Mr.&Miss Teen Sherpa -S2","category":null,"contestant":{"voting_id":"05","name":"Nima Lhamu sherpa"},"vote_count":1,"created_on":"2020-01-03T01:35:22.856340+05:45"},{"idx":"dwAQ9bpKCCHfnVZNokThJG","contest":"Model Superstar","episode":"Model Superstar","category":null,"contestant":{"voting_id":"04","name":"Sabita Maharjan"},"vote_count":1,"created_on":"2020-01-03T01:14:23.498771+05:45"},{"idx":"hoUoyNB4fKL2W4HbpHtFF3","contest":"Mr. & Miss Teen Sherpa 2020 - S2","episode":"Mr.&Miss Teen Sherpa -S2","category":null,"contestant":{"voting_id":"01","name":"Lhamu Sherpa"},"vote_count":1,"created_on":"2020-01-03T00:00:57.888330+05:45"},{"idx":"BCdhJBb2uS6tZffg93DYTa","contest":"Mr. & Miss Teen Sherpa 2020 - S2","episode":"Mr.&Miss Teen Sherpa -S2","category":null,"contestant":{"voting_id":"26","name":"Tengin Sherpa"},"vote_count":1,"created_on":"2020-01-02T23:54:21.653081+05:45"},{"idx":"iLcFkvMJPargY4bXGa7zEM","contest":"Mr. & Miss Teen Sherpa 2020 - S2","episode":"Mr.&Miss Teen Sherpa -S2","category":null,"contestant":{"voting_id":"24","name":"Mingma Tshering Sherpa"},"vote_count":1,"created_on":"2020-01-02T23:32:24.096777+05:45"},{"idx":"MdqHY9SBD8HUR9FLxK2mkE","contest":"Mr. & Miss Teen Sherpa 2020 - S2","episode":"Mr.&Miss Teen Sherpa -S2","category":null,"contestant":{"voting_id":"02","name":"Pema Yanji sherpa"},"vote_count":1,"created_on":"2020-01-02T23:08:32.027297+05:45"},{"idx":"sfWwDfL7jCWySatu4fzJWN","contest":"NEPALBHASA STAR MUSIC VIDEO AWARDS-2019","episode":null,"category":"BEST MUSIC ARRANGER","contestant":{"voting_id":"5I","name":"Suman Kapali "},"vote_count":1,"created_on":"2020-01-02T22:31:15.325013+05:45"},{"idx":"4P5MAgQrJZP6weCXa2Fs6Q","contest":"NEPALBHASA STAR MUSIC VIDEO AWARDS-2019","episode":null,"category":"BEST CAMERAPERSON","contestant":{"voting_id":"10B","name":"Shailesh Dangol"},"vote_count":1,"created_on":"2020-01-02T22:30:08.695818+05:45"},{"idx":"rKd5xGddTajawkGpzZokY4","contest":"NEPALBHASA STAR MUSIC VIDEO AWARDS-2019","episode":null,"category":"BEST LYRICIST","contestant":{"voting_id":"4D","name":"Mohan Krishna Shrestha "},"vote_count":1,"created_on":"2020-01-02T22:27:19.428388+05:45"},{"idx":"tg99vGGoDrWYWtXXUgsZMd","contest":"Mr. & Miss Teen Sherpa 2020 - S2","episode":"Mr.&Miss Teen Sherpa -S2","category":null,"contestant":{"voting_id":"24","name":"Mingma Tshering Sherpa"},"vote_count":1,"created_on":"2020-01-02T22:25:26.099574+05:45"},{"idx":"jxGfvrxGsRfPZNA8Xpg9Ff","contest":"Mr. & Miss Teen Sherpa 2020 - S2","episode":"Mr.&Miss Teen Sherpa -S2","category":null,"contestant":{"voting_id":"23","name":"Chhiri Sherpa"},"vote_count":1,"created_on":"2020-01-02T22:10:49.627428+05:45"},{"idx":"LD9Rj6ZZLEaKdLbwVS3FvS","contest":"NEPALBHASA STAR MUSIC VIDEO AWARDS-2019","episode":null,"category":"BEST MODEL, MALE","contestant":{"voting_id":"11E","name":"Surendra Maharjan"},"vote_count":1,"created_on":"2020-01-02T22:02:09.281769+05:45"},{"idx":"LDRnYSbnaosiyhZFsM2W9j","contest":"NEPALBHASA STAR MUSIC VIDEO AWARDS-2019","episode":null,"category":"BEST MAKE UP ARTIST","contestant":{"voting_id":"2E","name":"Jibandra Shahi"},"vote_count":1,"created_on":"2020-01-02T21:56:34.012378+05:45"},{"idx":"w4S5AVJGcRB5B8psihZ8rK","contest":"Mr. & Miss Teen Sherpa 2020 - S2","episode":"Mr.&Miss Teen Sherpa -S2","category":null,"contestant":{"voting_id":"02","name":"Pema Yanji sherpa"},"vote_count":1,"created_on":"2020-01-02T21:27:14.033517+05:45"}]}