{"total_pages":275,"total_records":13720,"next":"https://khalti.com/api/v2/vuservote/?page=163","previous":"https://khalti.com/api/v2/vuservote/?page=161","record_range":[8051,8100],"current_page":162,"records":[{"idx":"xjeJcDLxngGCNd4uf84Uzb","contest":"Mr. & Miss Teen Sherpa 2020 - S2","episode":"Mr.&Miss Teen Sherpa -S2","category":null,"contestant":{"voting_id":"02","name":"Pema Yanji sherpa"},"vote_count":1,"created_on":"2020-01-02T21:27:04.226737+05:45"},{"idx":"RGUYmmwfnjYqtacFrgCGZZ","contest":"Mr. & Miss Teen Sherpa 2020 - S2","episode":"Mr.&Miss Teen Sherpa -S2","category":null,"contestant":{"voting_id":"02","name":"Pema Yanji sherpa"},"vote_count":1,"created_on":"2020-01-02T21:26:54.074190+05:45"},{"idx":"FzJaKsomoJHzrDhWYSw4yh","contest":"Mr. & Miss Teen Sherpa 2020 - S2","episode":"Mr.&Miss Teen Sherpa -S2","category":null,"contestant":{"voting_id":"02","name":"Pema Yanji sherpa"},"vote_count":1,"created_on":"2020-01-02T21:20:12.288208+05:45"},{"idx":"kgJ5Regtv9vSwjpjz7CCvh","contest":"Mr. & Miss Teen Sherpa 2020 - S2","episode":"Mr.&Miss Teen Sherpa -S2","category":null,"contestant":{"voting_id":"02","name":"Pema Yanji sherpa"},"vote_count":1,"created_on":"2020-01-02T21:03:10.367664+05:45"},{"idx":"YqHtVmfedxCyjbBzaos2g8","contest":"Mr. & Miss Teen Sherpa 2020 - S2","episode":"Mr.&Miss Teen Sherpa -S2","category":null,"contestant":{"voting_id":"02","name":"Pema Yanji sherpa"},"vote_count":1,"created_on":"2020-01-02T21:01:56.482859+05:45"},{"idx":"CwyYvZX4WZDfmomTtfap65","contest":"Mr. & Miss Teen Sherpa 2020 - S2","episode":"Mr.&Miss Teen Sherpa -S2","category":null,"contestant":{"voting_id":"02","name":"Pema Yanji sherpa"},"vote_count":1,"created_on":"2020-01-02T21:00:48.300489+05:45"},{"idx":"wXk8PqFsbVZwt7F28zxwsW","contest":"Mr. & Miss Teen Sherpa 2020 - S2","episode":"Mr.&Miss Teen Sherpa -S2","category":null,"contestant":{"voting_id":"01","name":"Lhamu Sherpa"},"vote_count":5,"created_on":"2020-01-02T20:51:56.968457+05:45"},{"idx":"wM5JnfmPdQkc6aYwaTvybS","contest":"Mr. & Miss Teen Sherpa 2020 - S2","episode":"Mr.&Miss Teen Sherpa -S2","category":null,"contestant":{"voting_id":"01","name":"Lhamu Sherpa"},"vote_count":1,"created_on":"2020-01-02T20:51:34.899833+05:45"},{"idx":"QWVjd5ZhNmbLr7uS3DFB35","contest":"Mr. & Miss Teen Sherpa 2020 - S2","episode":"Mr.&Miss Teen Sherpa -S2","category":null,"contestant":{"voting_id":"04","name":"Chhewang Sherpa"},"vote_count":1,"created_on":"2020-01-02T20:49:22.400945+05:45"},{"idx":"v3rtAa4JzyNZkJuEhaSCNL","contest":"Mr. & Miss Teen Sherpa 2020 - S2","episode":"Mr.&Miss Teen Sherpa -S2","category":null,"contestant":{"voting_id":"24","name":"Mingma Tshering Sherpa"},"vote_count":1,"created_on":"2020-01-02T20:44:39.253399+05:45"},{"idx":"WxCASxgTdE2gVttvBPktoc","contest":"Mr. & Miss Teen Sherpa 2020 - S2","episode":"Mr.&Miss Teen Sherpa -S2","category":null,"contestant":{"voting_id":"02","name":"Pema Yanji sherpa"},"vote_count":1,"created_on":"2020-01-02T20:30:52.518145+05:45"},{"idx":"7YcMMSHYUQtpw3Fqrg5EGP","contest":"Mr. & Miss Teen Sherpa 2020 - S2","episode":"Mr.&Miss Teen Sherpa -S2","category":null,"contestant":{"voting_id":"02","name":"Pema Yanji sherpa"},"vote_count":1,"created_on":"2020-01-02T20:30:13.952985+05:45"},{"idx":"8Q5HkKXj8VLoewg9may9wK","contest":"Mr. & Miss Teen Sherpa 2020 - S2","episode":"Mr.&Miss Teen Sherpa -S2","category":null,"contestant":{"voting_id":"02","name":"Pema Yanji sherpa"},"vote_count":1,"created_on":"2020-01-02T20:30:05.009329+05:45"},{"idx":"A4CoqqVmX9q4AHLP7thDqY","contest":"Mr. & Miss Teen Sherpa 2020 - S2","episode":"Mr.&Miss Teen Sherpa -S2","category":null,"contestant":{"voting_id":"02","name":"Pema Yanji sherpa"},"vote_count":1,"created_on":"2020-01-02T20:29:58.717734+05:45"},{"idx":"FQnRbDbCn3Ycc9k9bE8nzi","contest":"Mr. & Miss Teen Sherpa 2020 - S2","episode":"Mr.&Miss Teen Sherpa -S2","category":null,"contestant":{"voting_id":"02","name":"Pema Yanji sherpa"},"vote_count":1,"created_on":"2020-01-02T20:29:51.537164+05:45"},{"idx":"XVJ2e5ejGEggsUuiVH9Bpi","contest":"Mr. & Miss Teen Sherpa 2020 - S2","episode":"Mr.&Miss Teen Sherpa -S2","category":null,"contestant":{"voting_id":"02","name":"Pema Yanji sherpa"},"vote_count":1,"created_on":"2020-01-02T20:29:45.662956+05:45"},{"idx":"YbdSwZeR4RzUfGUN4xx2H7","contest":"Mr. & Miss Teen Sherpa 2020 - S2","episode":"Mr.&Miss Teen Sherpa -S2","category":null,"contestant":{"voting_id":"02","name":"Pema Yanji sherpa"},"vote_count":1,"created_on":"2020-01-02T20:29:39.611223+05:45"},{"idx":"SiU8xtc7XEBYZN3xVTzadY","contest":"Mr. & Miss Teen Sherpa 2020 - S2","episode":"Mr.&Miss Teen Sherpa -S2","category":null,"contestant":{"voting_id":"02","name":"Pema Yanji sherpa"},"vote_count":1,"created_on":"2020-01-02T20:29:34.176618+05:45"},{"idx":"cwtq5jvT2XdF92ANaEpLWG","contest":"Mr. & Miss Teen Sherpa 2020 - S2","episode":"Mr.&Miss Teen Sherpa -S2","category":null,"contestant":{"voting_id":"02","name":"Pema Yanji sherpa"},"vote_count":1,"created_on":"2020-01-02T20:29:28.480175+05:45"},{"idx":"jt8QqLL4RgRMLzg8ij2Jr5","contest":"Mr. & Miss Teen Sherpa 2020 - S2","episode":"Mr.&Miss Teen Sherpa -S2","category":null,"contestant":{"voting_id":"02","name":"Pema Yanji sherpa"},"vote_count":1,"created_on":"2020-01-02T20:29:23.122085+05:45"},{"idx":"nDxkbswWkJc4wzTCFDBcgg","contest":"Mr. & Miss Teen Sherpa 2020 - S2","episode":"Mr.&Miss Teen Sherpa -S2","category":null,"contestant":{"voting_id":"02","name":"Pema Yanji sherpa"},"vote_count":1,"created_on":"2020-01-02T20:29:17.478184+05:45"},{"idx":"QRD6LvXN8gu3GMytvEqAc6","contest":"Mr. & Miss Teen Sherpa 2020 - S2","episode":"Mr.&Miss Teen Sherpa -S2","category":null,"contestant":{"voting_id":"02","name":"Pema Yanji sherpa"},"vote_count":1,"created_on":"2020-01-02T20:29:11.788933+05:45"},{"idx":"4nZAUbnJfX6LVLwgQFpveD","contest":"Mr. & Miss Teen Sherpa 2020 - S2","episode":"Mr.&Miss Teen Sherpa -S2","category":null,"contestant":{"voting_id":"02","name":"Pema Yanji sherpa"},"vote_count":1,"created_on":"2020-01-02T20:29:05.897777+05:45"},{"idx":"wjC5EXmhvJWzm58zPjPJY2","contest":"Mr. & Miss Teen Sherpa 2020 - S2","episode":"Mr.&Miss Teen Sherpa -S2","category":null,"contestant":{"voting_id":"04","name":"Chhewang Sherpa"},"vote_count":1,"created_on":"2020-01-02T20:28:35.597421+05:45"},{"idx":"WivVVEEoQuXFmXXx9rjLdZ","contest":"Mr. & Miss Teen Sherpa 2020 - S2","episode":"Mr.&Miss Teen Sherpa -S2","category":null,"contestant":{"voting_id":"02","name":"Pema Yanji sherpa"},"vote_count":1,"created_on":"2020-01-02T20:28:00.682479+05:45"},{"idx":"hVdPzsUxmDwqQyyjEUXNg6","contest":"Mr. & Miss Teen Sherpa 2020 - S2","episode":"Mr.&Miss Teen Sherpa -S2","category":null,"contestant":{"voting_id":"02","name":"Pema Yanji sherpa"},"vote_count":1,"created_on":"2020-01-02T20:27:54.909843+05:45"},{"idx":"s2E3yqc9anSVzwTQBeZsmM","contest":"Mr. & Miss Teen Sherpa 2020 - S2","episode":"Mr.&Miss Teen Sherpa -S2","category":null,"contestant":{"voting_id":"02","name":"Pema Yanji sherpa"},"vote_count":1,"created_on":"2020-01-02T20:27:48.127457+05:45"},{"idx":"HWhe7a7un6wyNFJPpuEkwn","contest":"Model Superstar","episode":"Model Superstar","category":null,"contestant":{"voting_id":"04","name":"Sabita Maharjan"},"vote_count":1,"created_on":"2020-01-02T20:27:24.359308+05:45"},{"idx":"EiSDRzacLFYWmqR8AnRVhb","contest":"Mr. & Miss Teen Sherpa 2020 - S2","episode":"Mr.&Miss Teen Sherpa -S2","category":null,"contestant":{"voting_id":"02","name":"Pema Yanji sherpa"},"vote_count":1,"created_on":"2020-01-02T20:26:13.011709+05:45"},{"idx":"WDEuTTSFwNhPqabBHj7NvQ","contest":"Mr. & Miss Teen Sherpa 2020 - S2","episode":"Mr.&Miss Teen Sherpa -S2","category":null,"contestant":{"voting_id":"02","name":"Pema Yanji sherpa"},"vote_count":1,"created_on":"2020-01-02T20:26:07.199816+05:45"},{"idx":"7cYXo8rNyLtPppT6MrAuxZ","contest":"Mr. & Miss Teen Sherpa 2020 - S2","episode":"Mr.&Miss Teen Sherpa -S2","category":null,"contestant":{"voting_id":"02","name":"Pema Yanji sherpa"},"vote_count":1,"created_on":"2020-01-02T20:24:39.648914+05:45"},{"idx":"b6KXcB3CsGYyLcdTUSYrR4","contest":"Mr. & Miss Teen Sherpa 2020 - S2","episode":"Mr.&Miss Teen Sherpa -S2","category":null,"contestant":{"voting_id":"02","name":"Pema Yanji sherpa"},"vote_count":1,"created_on":"2020-01-02T20:24:31.398154+05:45"},{"idx":"wqsLemCbepcM8Mn8jh4qfB","contest":"Mr. & Miss Teen Sherpa 2020 - S2","episode":"Mr.&Miss Teen Sherpa -S2","category":null,"contestant":{"voting_id":"02","name":"Pema Yanji sherpa"},"vote_count":1,"created_on":"2020-01-02T20:24:23.153227+05:45"},{"idx":"ApJKq56GuDaCsqrV2Q7tTf","contest":"Mr. & Miss Teen Sherpa 2020 - S2","episode":"Mr.&Miss Teen Sherpa -S2","category":null,"contestant":{"voting_id":"02","name":"Pema Yanji sherpa"},"vote_count":1,"created_on":"2020-01-02T20:24:14.840382+05:45"},{"idx":"CLD5t7aNkwaA63SerJ3mHS","contest":"Mr. & Miss Teen Sherpa 2020 - S2","episode":"Mr.&Miss Teen Sherpa -S2","category":null,"contestant":{"voting_id":"02","name":"Pema Yanji sherpa"},"vote_count":1,"created_on":"2020-01-02T20:24:06.360767+05:45"},{"idx":"VdTWCjfnJN4TmE55vYMxz3","contest":"Mr. & Miss Teen Sherpa 2020 - S2","episode":"Mr.&Miss Teen Sherpa -S2","category":null,"contestant":{"voting_id":"02","name":"Pema Yanji sherpa"},"vote_count":1,"created_on":"2020-01-02T20:23:57.711592+05:45"},{"idx":"dGTHgCxTeViJ2iiTfyvqhm","contest":"Mr. & Miss Teen Sherpa 2020 - S2","episode":"Mr.&Miss Teen Sherpa -S2","category":null,"contestant":{"voting_id":"02","name":"Pema Yanji sherpa"},"vote_count":1,"created_on":"2020-01-02T20:23:50.406602+05:45"},{"idx":"VTjTDNbJrQmS7tWxx4hSV3","contest":"Mr. & Miss Teen Sherpa 2020 - S2","episode":"Mr.&Miss Teen Sherpa -S2","category":null,"contestant":{"voting_id":"02","name":"Pema Yanji sherpa"},"vote_count":1,"created_on":"2020-01-02T20:23:43.973941+05:45"},{"idx":"iaUs4z3nbJZqWk7xmWLhTn","contest":"Mr. & Miss Teen Sherpa 2020 - S2","episode":"Mr.&Miss Teen Sherpa -S2","category":null,"contestant":{"voting_id":"01","name":"Lhamu Sherpa"},"vote_count":1,"created_on":"2020-01-02T20:22:27.137207+05:45"},{"idx":"bgyxANMqmUkyPj2bain9BA","contest":"Model Superstar","episode":"Model Superstar","category":null,"contestant":{"voting_id":"06","name":"Sujan Basnet"},"vote_count":1,"created_on":"2020-01-02T20:22:24.400649+05:45"},{"idx":"hHtTxfeMQDgFLNRXQerg8d","contest":"Model Superstar","episode":"Model Superstar","category":null,"contestant":{"voting_id":"02","name":"Srijana Basnet"},"vote_count":1,"created_on":"2020-01-02T20:21:35.124529+05:45"},{"idx":"GbqSnsaCbB59rUGyTAMprX","contest":"Mr. & Miss Teen Sherpa 2020 - S2","episode":"Mr.&Miss Teen Sherpa -S2","category":null,"contestant":{"voting_id":"02","name":"Pema Yanji sherpa"},"vote_count":1,"created_on":"2020-01-02T19:33:20.688419+05:45"},{"idx":"LmwNiifnFHXZ5x3nqygByh","contest":"Mr. & Miss Teen Sherpa 2020 - S2","episode":"Mr.&Miss Teen Sherpa -S2","category":null,"contestant":{"voting_id":"12","name":"Tshering Dolkar Sherpa"},"vote_count":5,"created_on":"2020-01-02T19:33:00.657447+05:45"},{"idx":"diPTGegg3HLU7CW6J4U8xd","contest":"Mr. & Miss Teen Sherpa 2020 - S2","episode":"Mr.&Miss Teen Sherpa -S2","category":null,"contestant":{"voting_id":"12","name":"Tshering Dolkar Sherpa"},"vote_count":1,"created_on":"2020-01-02T19:32:25.597839+05:45"},{"idx":"FkpPuQFmUTWV72k8UTwzJg","contest":"Model Superstar","episode":"Model Superstar","category":null,"contestant":{"voting_id":"01","name":"Sajina Subba"},"vote_count":1,"created_on":"2020-01-02T19:29:15.730360+05:45"},{"idx":"dSvR5YfroAu82Wy5DHHVTd","contest":"Model Superstar","episode":"Model Superstar","category":null,"contestant":{"voting_id":"04","name":"Sabita Maharjan"},"vote_count":1,"created_on":"2020-01-02T19:27:31.562016+05:45"},{"idx":"vY4oSTwdUkFVmzXugJpvf3","contest":"Mr. & Miss Teen Sherpa 2020 - S2","episode":"Mr.&Miss Teen Sherpa -S2","category":null,"contestant":{"voting_id":"02","name":"Pema Yanji sherpa"},"vote_count":1,"created_on":"2020-01-02T19:18:00.964507+05:45"},{"idx":"nPf8ymkwixiHV2Dg27omwG","contest":"Model Superstar","episode":"Model Superstar","category":null,"contestant":{"voting_id":"07","name":"Narman Malla"},"vote_count":1,"created_on":"2020-01-02T18:47:30.566251+05:45"},{"idx":"znsEh6e4dAnZR3UbfRJgUQ","contest":"Model Superstar","episode":"Model Superstar","category":null,"contestant":{"voting_id":"07","name":"Narman Malla"},"vote_count":1,"created_on":"2020-01-02T18:47:16.413772+05:45"},{"idx":"YM6hBbrW53a9FBHo8yvjfC","contest":"Model Superstar","episode":"Model Superstar","category":null,"contestant":{"voting_id":"07","name":"Narman Malla"},"vote_count":1,"created_on":"2020-01-02T18:47:04.368458+05:45"}]}