{"total_pages":275,"total_records":13720,"next":"https://khalti.com/api/v2/vuservote/?page=164","previous":"https://khalti.com/api/v2/vuservote/?page=162","record_range":[8101,8150],"current_page":163,"records":[{"idx":"p6xVyxRkUsC3CB3zEMpveV","contest":"Model Superstar","episode":"Model Superstar","category":null,"contestant":{"voting_id":"31","name":"Aakriti Subedi"},"vote_count":1,"created_on":"2020-01-02T18:46:53.654049+05:45"},{"idx":"LjeeFmSbeHXcaCqi78qzM3","contest":"Model Superstar","episode":"Model Superstar","category":null,"contestant":{"voting_id":"07","name":"Narman Malla"},"vote_count":1,"created_on":"2020-01-02T18:46:49.970368+05:45"},{"idx":"Zk4oyvSsTRbXGvVoPJfFTd","contest":"Model Superstar","episode":"Model Superstar","category":null,"contestant":{"voting_id":"07","name":"Narman Malla"},"vote_count":1,"created_on":"2020-01-02T18:46:36.444612+05:45"},{"idx":"r4MLpfZvRdJomwpvFy4Ycn","contest":"Model Superstar","episode":"Model Superstar","category":null,"contestant":{"voting_id":"07","name":"Narman Malla"},"vote_count":1,"created_on":"2020-01-02T18:45:24.985338+05:45"},{"idx":"WJsuDHUwqvAEjaAytGEBf3","contest":"Model Superstar","episode":"Model Superstar","category":null,"contestant":{"voting_id":"07","name":"Narman Malla"},"vote_count":1,"created_on":"2020-01-02T18:45:03.988006+05:45"},{"idx":"MpAVKuMkmcAPiBum4hKsti","contest":"Model Superstar","episode":"Model Superstar","category":null,"contestant":{"voting_id":"07","name":"Narman Malla"},"vote_count":1,"created_on":"2020-01-02T18:44:51.073967+05:45"},{"idx":"a6gaNS8DPP7cqofCqRYhxF","contest":"Model Superstar","episode":"Model Superstar","category":null,"contestant":{"voting_id":"07","name":"Narman Malla"},"vote_count":1,"created_on":"2020-01-02T18:44:39.781594+05:45"},{"idx":"86eKuP8xbACZi2ogEjgEjd","contest":"Model Superstar","episode":"Model Superstar","category":null,"contestant":{"voting_id":"07","name":"Narman Malla"},"vote_count":1,"created_on":"2020-01-02T18:44:26.500223+05:45"},{"idx":"HrUu94AJG7vP3gFH2fngiP","contest":"Model Superstar","episode":"Model Superstar","category":null,"contestant":{"voting_id":"07","name":"Narman Malla"},"vote_count":1,"created_on":"2020-01-02T18:44:13.347316+05:45"},{"idx":"r7Hh3xcCbB28WAfmSigqLN","contest":"Model Superstar","episode":"Model Superstar","category":null,"contestant":{"voting_id":"07","name":"Narman Malla"},"vote_count":1,"created_on":"2020-01-02T18:43:55.211758+05:45"},{"idx":"A2tJKX8gKUuKcfu5zocdXF","contest":"Model Superstar","episode":"Model Superstar","category":null,"contestant":{"voting_id":"07","name":"Narman Malla"},"vote_count":1,"created_on":"2020-01-02T18:43:42.479600+05:45"},{"idx":"6BdHFHdCyCz6LdqPALucDj","contest":"Model Superstar","episode":"Model Superstar","category":null,"contestant":{"voting_id":"07","name":"Narman Malla"},"vote_count":1,"created_on":"2020-01-02T18:43:27.496309+05:45"},{"idx":"rG8uGFV6tsrHPaXXhs6JwE","contest":"Model Superstar","episode":"Model Superstar","category":null,"contestant":{"voting_id":"07","name":"Narman Malla"},"vote_count":1,"created_on":"2020-01-02T18:43:12.743393+05:45"},{"idx":"u3VeRxBfAvm88TWpojFiEj","contest":"Model Superstar","episode":"Model Superstar","category":null,"contestant":{"voting_id":"07","name":"Narman Malla"},"vote_count":1,"created_on":"2020-01-02T18:42:58.578886+05:45"},{"idx":"CtVNAu5sHJkCBxgsha7EcC","contest":"Mr. & Miss Teen Sherpa 2020 - S2","episode":"Mr.&Miss Teen Sherpa -S2","category":null,"contestant":{"voting_id":"02","name":"Pema Yanji sherpa"},"vote_count":1,"created_on":"2020-01-02T18:42:45.941544+05:45"},{"idx":"ehbVTJexqcTXZ8SNKdXnP2","contest":"Mr. & Miss Teen Sherpa 2020 - S2","episode":"Mr.&Miss Teen Sherpa -S2","category":null,"contestant":{"voting_id":"02","name":"Pema Yanji sherpa"},"vote_count":1,"created_on":"2020-01-02T18:42:39.649893+05:45"},{"idx":"qfmhRJMzvje2MwUC3cabUD","contest":"Mr. & Miss Teen Sherpa 2020 - S2","episode":"Mr.&Miss Teen Sherpa -S2","category":null,"contestant":{"voting_id":"02","name":"Pema Yanji sherpa"},"vote_count":1,"created_on":"2020-01-02T18:42:33.606661+05:45"},{"idx":"GCnJsgR43JbK6AgkeVD3Kc","contest":"Mr. & Miss Teen Sherpa 2020 - S2","episode":"Mr.&Miss Teen Sherpa -S2","category":null,"contestant":{"voting_id":"02","name":"Pema Yanji sherpa"},"vote_count":1,"created_on":"2020-01-02T18:42:26.822792+05:45"},{"idx":"E9mKoWQSXCv7qHemWTafEh","contest":"Mr. & Miss Teen Sherpa 2020 - S2","episode":"Mr.&Miss Teen Sherpa -S2","category":null,"contestant":{"voting_id":"02","name":"Pema Yanji sherpa"},"vote_count":1,"created_on":"2020-01-02T18:42:20.384220+05:45"},{"idx":"t3vUPRcU2W8tJLZhvNs9Qa","contest":"Mr. & Miss Teen Sherpa 2020 - S2","episode":"Mr.&Miss Teen Sherpa -S2","category":null,"contestant":{"voting_id":"02","name":"Pema Yanji sherpa"},"vote_count":1,"created_on":"2020-01-02T18:42:14.748432+05:45"},{"idx":"ESQ7LfSTi26aFmrBgEd2Z8","contest":"Mr. & Miss Teen Sherpa 2020 - S2","episode":"Mr.&Miss Teen Sherpa -S2","category":null,"contestant":{"voting_id":"02","name":"Pema Yanji sherpa"},"vote_count":1,"created_on":"2020-01-02T18:42:07.635508+05:45"},{"idx":"sqRxf2UvVz4saTBKaEsuzT","contest":"Mr. & Miss Teen Sherpa 2020 - S2","episode":"Mr.&Miss Teen Sherpa -S2","category":null,"contestant":{"voting_id":"02","name":"Pema Yanji sherpa"},"vote_count":1,"created_on":"2020-01-02T18:42:02.003329+05:45"},{"idx":"wKfLgwtPRK2QFFW7h5hqPQ","contest":"Mr. & Miss Teen Sherpa 2020 - S2","episode":"Mr.&Miss Teen Sherpa -S2","category":null,"contestant":{"voting_id":"02","name":"Pema Yanji sherpa"},"vote_count":1,"created_on":"2020-01-02T18:41:55.694131+05:45"},{"idx":"QpfUHLyABGesCy59U6V2LG","contest":"Mr. & Miss Teen Sherpa 2020 - S2","episode":"Mr.&Miss Teen Sherpa -S2","category":null,"contestant":{"voting_id":"02","name":"Pema Yanji sherpa"},"vote_count":1,"created_on":"2020-01-02T18:41:49.725448+05:45"},{"idx":"WMGKu7gj4hqQuiPRKCYz2W","contest":"Mr. & Miss Teen Sherpa 2020 - S2","episode":"Mr.&Miss Teen Sherpa -S2","category":null,"contestant":{"voting_id":"02","name":"Pema Yanji sherpa"},"vote_count":1,"created_on":"2020-01-02T18:41:43.261267+05:45"},{"idx":"MSfCEYQbMmgyWUrvD9LDNZ","contest":"Mr. & Miss Teen Sherpa 2020 - S2","episode":"Mr.&Miss Teen Sherpa -S2","category":null,"contestant":{"voting_id":"03","name":"Mingma Sherpa"},"vote_count":1,"created_on":"2020-01-02T18:39:40.119753+05:45"},{"idx":"g9Q7hyLNQU9LkyYtMG37nn","contest":"NEPALBHASA STAR MUSIC VIDEO AWARDS-2019","episode":null,"category":"BEST DEBUT SINGER, MALE","contestant":{"voting_id":"16B","name":"Raj Kumar Manandhar"},"vote_count":200,"created_on":"2020-01-02T18:25:00.448533+05:45"},{"idx":"qj7qyxwEkngFLFLnwWDUgX","contest":"Model Superstar","episode":"Model Superstar","category":null,"contestant":{"voting_id":"16","name":"Anil Karki"},"vote_count":1,"created_on":"2020-01-02T18:22:20.763156+05:45"},{"idx":"y6W4arjoNiTAPE8kAgaN7K","contest":"Model Superstar","episode":"Model Superstar","category":null,"contestant":{"voting_id":"27","name":"Suweta Shrestha"},"vote_count":1,"created_on":"2020-01-02T18:19:50.818287+05:45"},{"idx":"biz5TfLtTps3eM3RVRhiqS","contest":"NEPALBHASA STAR MUSIC VIDEO AWARDS-2019","episode":null,"category":"THE RISING STAR SINGER","contestant":{"voting_id":"21B","name":"Ves Maharjan"},"vote_count":1,"created_on":"2020-01-02T18:01:13.163854+05:45"},{"idx":"9UE4MMZjDdmnXd4n2be5AL","contest":"Model Superstar","episode":"Model Superstar","category":null,"contestant":{"voting_id":"04","name":"Sabita Maharjan"},"vote_count":1,"created_on":"2020-01-02T17:00:43.648021+05:45"},{"idx":"Dg8dgQRLmsx4wb4Qm2g7UW","contest":"Model Superstar","episode":"Model Superstar","category":null,"contestant":{"voting_id":"04","name":"Sabita Maharjan"},"vote_count":1,"created_on":"2020-01-02T17:00:31.656939+05:45"},{"idx":"4aEz3NoRTPvP6xR9kdqiiR","contest":"Model Superstar","episode":"Model Superstar","category":null,"contestant":{"voting_id":"04","name":"Sabita Maharjan"},"vote_count":1,"created_on":"2020-01-02T17:00:19.200102+05:45"},{"idx":"t7ZZbFUaAWY52KdKC9XcKk","contest":"Model Superstar","episode":"Model Superstar","category":null,"contestant":{"voting_id":"04","name":"Sabita Maharjan"},"vote_count":1,"created_on":"2020-01-02T17:00:07.324697+05:45"},{"idx":"o3E8GZh5oWgFLyYmoHxajb","contest":"Model Superstar","episode":"Model Superstar","category":null,"contestant":{"voting_id":"04","name":"Sabita Maharjan"},"vote_count":1,"created_on":"2020-01-02T16:59:56.137908+05:45"},{"idx":"6vsjWfKAkrK3CJnCRntCNo","contest":"Model Superstar","episode":"Model Superstar","category":null,"contestant":{"voting_id":"04","name":"Sabita Maharjan"},"vote_count":1,"created_on":"2020-01-02T16:59:45.568742+05:45"},{"idx":"9ZArJ3pCDRqbN4AT7oEbe9","contest":"Model Superstar","episode":"Model Superstar","category":null,"contestant":{"voting_id":"04","name":"Sabita Maharjan"},"vote_count":1,"created_on":"2020-01-02T16:59:33.592715+05:45"},{"idx":"L3wPgvjVtSFfQBtLqrcNbV","contest":"Model Superstar","episode":"Model Superstar","category":null,"contestant":{"voting_id":"04","name":"Sabita Maharjan"},"vote_count":1,"created_on":"2020-01-02T16:59:22.432885+05:45"},{"idx":"zzvrCnpgBT9awFdKXzUVBZ","contest":"Model Superstar","episode":"Model Superstar","category":null,"contestant":{"voting_id":"04","name":"Sabita Maharjan"},"vote_count":1,"created_on":"2020-01-02T16:59:09.386277+05:45"},{"idx":"NLPtGG4xf4XNDNHnU9aULG","contest":"Model Superstar","episode":"Model Superstar","category":null,"contestant":{"voting_id":"04","name":"Sabita Maharjan"},"vote_count":1,"created_on":"2020-01-02T16:58:57.626442+05:45"},{"idx":"s2xstYSZniMEaDBPvQdQDg","contest":"Model Superstar","episode":"Model Superstar","category":null,"contestant":{"voting_id":"04","name":"Sabita Maharjan"},"vote_count":1,"created_on":"2020-01-02T16:57:26.271229+05:45"},{"idx":"ZeHXVQwUyv68D2htqTRPMc","contest":"Model Superstar","episode":"Model Superstar","category":null,"contestant":{"voting_id":"04","name":"Sabita Maharjan"},"vote_count":1,"created_on":"2020-01-02T16:57:14.342547+05:45"},{"idx":"Af79NkWFoXaTqAEBMvMURY","contest":"Model Superstar","episode":"Model Superstar","category":null,"contestant":{"voting_id":"04","name":"Sabita Maharjan"},"vote_count":1,"created_on":"2020-01-02T16:56:59.161157+05:45"},{"idx":"CUksHxvA9ZvtJMQ3V5mxEG","contest":"Model Superstar","episode":"Model Superstar","category":null,"contestant":{"voting_id":"04","name":"Sabita Maharjan"},"vote_count":1,"created_on":"2020-01-02T16:56:47.030493+05:45"},{"idx":"8b9kp2QkJNr64p9GqEjvmA","contest":"Model Superstar","episode":"Model Superstar","category":null,"contestant":{"voting_id":"04","name":"Sabita Maharjan"},"vote_count":1,"created_on":"2020-01-02T16:56:34.165958+05:45"},{"idx":"ENXyGSbDAComieZnmoiYhM","contest":"Model Superstar","episode":"Model Superstar","category":null,"contestant":{"voting_id":"04","name":"Sabita Maharjan"},"vote_count":1,"created_on":"2020-01-02T16:56:23.255881+05:45"},{"idx":"bJu5vBUkQJCnh7PuWLtz6g","contest":"Model Superstar","episode":"Model Superstar","category":null,"contestant":{"voting_id":"04","name":"Sabita Maharjan"},"vote_count":1,"created_on":"2020-01-02T16:56:11.814267+05:45"},{"idx":"RgSxGyd8YePwftS7aCuFc6","contest":"Model Superstar","episode":"Model Superstar","category":null,"contestant":{"voting_id":"04","name":"Sabita Maharjan"},"vote_count":1,"created_on":"2020-01-02T16:55:59.439946+05:45"},{"idx":"EtLrx8pyZUatorgQk9MoUo","contest":"Model Superstar","episode":"Model Superstar","category":null,"contestant":{"voting_id":"04","name":"Sabita Maharjan"},"vote_count":1,"created_on":"2020-01-02T16:55:46.082518+05:45"},{"idx":"2bXrqCrVUVw4VVaKbSoTqf","contest":"Model Superstar","episode":"Model Superstar","category":null,"contestant":{"voting_id":"04","name":"Sabita Maharjan"},"vote_count":1,"created_on":"2020-01-02T16:55:34.969378+05:45"}]}