{"total_pages":275,"total_records":13721,"next":"https://khalti.com/api/v2/vuservote/?page=165","previous":"https://khalti.com/api/v2/vuservote/?page=163","record_range":[8151,8200],"current_page":164,"records":[{"idx":"2bXrqCrVUVw4VVaKbSoTqf","contest":"Model Superstar","episode":"Model Superstar","category":null,"contestant":{"voting_id":"04","name":"Sabita Maharjan"},"vote_count":1,"created_on":"2020-01-02T16:55:34.969378+05:45"},{"idx":"dWNMoo3vULsRi4p5zuaLb6","contest":"Model Superstar","episode":"Model Superstar","category":null,"contestant":{"voting_id":"04","name":"Sabita Maharjan"},"vote_count":1,"created_on":"2020-01-02T16:55:23.975498+05:45"},{"idx":"68ebKwc25KSQBP9GRh3zb3","contest":"Model Superstar","episode":"Model Superstar","category":null,"contestant":{"voting_id":"04","name":"Sabita Maharjan"},"vote_count":1,"created_on":"2020-01-02T16:55:12.116762+05:45"},{"idx":"MrHCDwUfnn6qxdgRMzeB5i","contest":"Model Superstar","episode":"Model Superstar","category":null,"contestant":{"voting_id":"04","name":"Sabita Maharjan"},"vote_count":1,"created_on":"2020-01-02T16:54:59.314069+05:45"},{"idx":"jujtcpurX4C5o8NWqTvpVZ","contest":"Model Superstar","episode":"Model Superstar","category":null,"contestant":{"voting_id":"04","name":"Sabita Maharjan"},"vote_count":1,"created_on":"2020-01-02T16:54:45.012594+05:45"},{"idx":"xVxw4x58JJw3S7EJzTr4nS","contest":"Model Superstar","episode":"Model Superstar","category":null,"contestant":{"voting_id":"04","name":"Sabita Maharjan"},"vote_count":1,"created_on":"2020-01-02T16:54:33.211627+05:45"},{"idx":"YcitC4G5H6Rj79zFG9a794","contest":"Model Superstar","episode":"Model Superstar","category":null,"contestant":{"voting_id":"04","name":"Sabita Maharjan"},"vote_count":1,"created_on":"2020-01-02T16:54:20.770297+05:45"},{"idx":"gNF8qnEWEeaBFgVBfB5zrd","contest":"Model Superstar","episode":"Model Superstar","category":null,"contestant":{"voting_id":"04","name":"Sabita Maharjan"},"vote_count":1,"created_on":"2020-01-02T16:54:09.503932+05:45"},{"idx":"hRpTsXpertmLKym9LynhaU","contest":"Model Superstar","episode":"Model Superstar","category":null,"contestant":{"voting_id":"04","name":"Sabita Maharjan"},"vote_count":1,"created_on":"2020-01-02T16:53:58.318691+05:45"},{"idx":"wbbqxwVLQ5zj97ayeXtt2D","contest":"Model Superstar","episode":"Model Superstar","category":null,"contestant":{"voting_id":"04","name":"Sabita Maharjan"},"vote_count":1,"created_on":"2020-01-02T16:53:47.428812+05:45"},{"idx":"3TxQFi2iT4xDsnVVDnLuDm","contest":"Model Superstar","episode":"Model Superstar","category":null,"contestant":{"voting_id":"04","name":"Sabita Maharjan"},"vote_count":1,"created_on":"2020-01-02T16:53:25.478052+05:45"},{"idx":"96yrNrZFo3o5pH5HjYJrGh","contest":"Model Superstar","episode":"Model Superstar","category":null,"contestant":{"voting_id":"04","name":"Sabita Maharjan"},"vote_count":1,"created_on":"2020-01-02T16:53:13.360255+05:45"},{"idx":"qtasAamYQ97b4VD9cz8VMA","contest":"Model Superstar","episode":"Model Superstar","category":null,"contestant":{"voting_id":"04","name":"Sabita Maharjan"},"vote_count":1,"created_on":"2020-01-02T16:52:55.254905+05:45"},{"idx":"N4CthoCwzAgYpLgGg5H2QF","contest":"Model Superstar","episode":"Model Superstar","category":null,"contestant":{"voting_id":"04","name":"Sabita Maharjan"},"vote_count":1,"created_on":"2020-01-02T16:52:40.740392+05:45"},{"idx":"EngdiZrquqtgYHRfFNHPqk","contest":"Model Superstar","episode":"Model Superstar","category":null,"contestant":{"voting_id":"04","name":"Sabita Maharjan"},"vote_count":1,"created_on":"2020-01-02T16:52:28.276176+05:45"},{"idx":"LAt4k4DZQXkWYs5AWSpARe","contest":"Model Superstar","episode":"Model Superstar","category":null,"contestant":{"voting_id":"04","name":"Sabita Maharjan"},"vote_count":1,"created_on":"2020-01-02T16:52:15.934379+05:45"},{"idx":"3fbMXzbDSzrwhtaeZJSaCf","contest":"Model Superstar","episode":"Model Superstar","category":null,"contestant":{"voting_id":"04","name":"Sabita Maharjan"},"vote_count":1,"created_on":"2020-01-02T16:52:02.968816+05:45"},{"idx":"emoM9w9Ej6BCtmUjJu9gPQ","contest":"Model Superstar","episode":"Model Superstar","category":null,"contestant":{"voting_id":"04","name":"Sabita Maharjan"},"vote_count":1,"created_on":"2020-01-02T16:51:50.765011+05:45"},{"idx":"sWxCB29R5PNFVSXAUfVpw7","contest":"Model Superstar","episode":"Model Superstar","category":null,"contestant":{"voting_id":"04","name":"Sabita Maharjan"},"vote_count":1,"created_on":"2020-01-02T16:51:37.753809+05:45"},{"idx":"2BoQqxAJ8xPzm67FYEBfUf","contest":"Model Superstar","episode":"Model Superstar","category":null,"contestant":{"voting_id":"04","name":"Sabita Maharjan"},"vote_count":1,"created_on":"2020-01-02T16:51:22.956381+05:45"},{"idx":"rmgcBgUfNUkFvAcMH6UhvT","contest":"Model Superstar","episode":"Model Superstar","category":null,"contestant":{"voting_id":"04","name":"Sabita Maharjan"},"vote_count":1,"created_on":"2020-01-02T16:51:09.753253+05:45"},{"idx":"GnFWuBy6iN4Ap2oy2ZjB5Z","contest":"Model Superstar","episode":"Model Superstar","category":null,"contestant":{"voting_id":"04","name":"Sabita Maharjan"},"vote_count":1,"created_on":"2020-01-02T16:50:48.934191+05:45"},{"idx":"kG3RkrwQM5Si4yv82zRZRe","contest":"Model Superstar","episode":"Model Superstar","category":null,"contestant":{"voting_id":"04","name":"Sabita Maharjan"},"vote_count":1,"created_on":"2020-01-02T16:50:35.838552+05:45"},{"idx":"wzGtm86Mo6Ctn7NTDSaoEn","contest":"Model Superstar","episode":"Model Superstar","category":null,"contestant":{"voting_id":"04","name":"Sabita Maharjan"},"vote_count":1,"created_on":"2020-01-02T16:50:15.940187+05:45"},{"idx":"hR3y6ZBQ62bmhrYNmV7yy8","contest":"Model Superstar","episode":"Model Superstar","category":null,"contestant":{"voting_id":"12","name":"Rabin Ghising"},"vote_count":1,"created_on":"2020-01-02T16:15:49.279487+05:45"},{"idx":"xy6goLPBcM6XUEyyK2gMJ6","contest":"Mr. & Miss Teen Sherpa 2020 - S2","episode":"Mr.&Miss Teen Sherpa -S2","category":null,"contestant":{"voting_id":"24","name":"Mingma Tshering Sherpa"},"vote_count":1,"created_on":"2020-01-02T16:15:03.362997+05:45"},{"idx":"ujtpWbdhmLEU7STmviPbiU","contest":"Mr. & Miss Teen Sherpa 2020 - S2","episode":"Mr.&Miss Teen Sherpa -S2","category":null,"contestant":{"voting_id":"24","name":"Mingma Tshering Sherpa"},"vote_count":1,"created_on":"2020-01-02T16:14:50.484410+05:45"},{"idx":"NvTGwzVoaQFSisT9rydcUZ","contest":"Mr. & Miss Teen Sherpa 2020 - S2","episode":"Mr.&Miss Teen Sherpa -S2","category":null,"contestant":{"voting_id":"24","name":"Mingma Tshering Sherpa"},"vote_count":1,"created_on":"2020-01-02T16:14:36.262105+05:45"},{"idx":"UVmYzgq5EZBi6SCcUehRx2","contest":"Mr. & Miss Teen Sherpa 2020 - S2","episode":"Mr.&Miss Teen Sherpa -S2","category":null,"contestant":{"voting_id":"24","name":"Mingma Tshering Sherpa"},"vote_count":1,"created_on":"2020-01-02T16:14:19.293045+05:45"},{"idx":"QMWqKP9QFnW8DoXtnmivSB","contest":"Mr. & Miss Teen Sherpa 2020 - S2","episode":"Mr.&Miss Teen Sherpa -S2","category":null,"contestant":{"voting_id":"24","name":"Mingma Tshering Sherpa"},"vote_count":1,"created_on":"2020-01-02T16:14:00.231004+05:45"},{"idx":"dmPbaw7K4iJ7ixrJELozzU","contest":"Mr. & Miss Teen Sherpa 2020 - S2","episode":"Mr.&Miss Teen Sherpa -S2","category":null,"contestant":{"voting_id":"24","name":"Mingma Tshering Sherpa"},"vote_count":1,"created_on":"2020-01-02T16:13:38.843937+05:45"},{"idx":"3t5PVFaAswH6Peg8P8CBLM","contest":"NEPALBHASA STAR MUSIC VIDEO AWARDS-2019","episode":null,"category":"BEST MODEL, FEMALE","contestant":{"voting_id":"13C","name":"Anjala Nakarmi"},"vote_count":1,"created_on":"2020-01-02T16:12:55.812881+05:45"},{"idx":"xEaBRwXg4cH36qqiZiyum3","contest":"Mr. & Miss Teen Sherpa 2020 - S2","episode":"Mr.&Miss Teen Sherpa -S2","category":null,"contestant":{"voting_id":"08","name":"Angdali Sherpa"},"vote_count":1,"created_on":"2020-01-02T16:11:22.666690+05:45"},{"idx":"ynoCmfNTYzkMY9uoTe8WaU","contest":"Mr. & Miss Teen Sherpa 2020 - S2","episode":"Mr.&Miss Teen Sherpa -S2","category":null,"contestant":{"voting_id":"08","name":"Angdali Sherpa"},"vote_count":1,"created_on":"2020-01-02T16:11:11.861274+05:45"},{"idx":"mSwYUghiEjYXH7YEwWe3Q2","contest":"Mr. & Miss Teen Sherpa 2020 - S2","episode":"Mr.&Miss Teen Sherpa -S2","category":null,"contestant":{"voting_id":"08","name":"Angdali Sherpa"},"vote_count":1,"created_on":"2020-01-02T16:10:58.972565+05:45"},{"idx":"w99FHNSfiz2XcYyyE2BiU3","contest":"Mr. & Miss Teen Sherpa 2020 - S2","episode":"Mr.&Miss Teen Sherpa -S2","category":null,"contestant":{"voting_id":"08","name":"Angdali Sherpa"},"vote_count":1,"created_on":"2020-01-02T16:10:49.004301+05:45"},{"idx":"FZYajdV4AzEFRhN4pVUsHR","contest":"Mr. & Miss Teen Sherpa 2020 - S2","episode":"Mr.&Miss Teen Sherpa -S2","category":null,"contestant":{"voting_id":"08","name":"Angdali Sherpa"},"vote_count":1,"created_on":"2020-01-02T16:10:37.525428+05:45"},{"idx":"wqBAJ66zeLFJHYrtRpQLrQ","contest":"NEPALBHASA STAR MUSIC VIDEO AWARDS-2019","episode":null,"category":"BEST DEBUT MODEL, FEMALE","contestant":{"voting_id":"14D","name":"Anjali Shahi"},"vote_count":1,"created_on":"2020-01-02T16:10:35.745754+05:45"},{"idx":"zLbQ2Ko4s4NKEXmA6unBK3","contest":"Model Superstar","episode":"Model Superstar","category":null,"contestant":{"voting_id":"07","name":"Narman Malla"},"vote_count":1,"created_on":"2020-01-02T15:55:15.001906+05:45"},{"idx":"xBqiQhSkcN99sXVjSXUbr5","contest":"Model Superstar","episode":"Model Superstar","category":null,"contestant":{"voting_id":"07","name":"Narman Malla"},"vote_count":100,"created_on":"2020-01-02T15:54:18.842390+05:45"},{"idx":"WrL39tE4SmHs4nKkgYE4t2","contest":"Mr. & Miss Teen Sherpa 2020 - S2","episode":"Mr.&Miss Teen Sherpa -S2","category":null,"contestant":{"voting_id":"02","name":"Pema Yanji sherpa"},"vote_count":1,"created_on":"2020-01-02T15:54:17.877335+05:45"},{"idx":"JorHuYsbbdfgGV6T4XWBa3","contest":"Mr. & Miss Teen Sherpa 2020 - S2","episode":"Mr.&Miss Teen Sherpa -S2","category":null,"contestant":{"voting_id":"02","name":"Pema Yanji sherpa"},"vote_count":1,"created_on":"2020-01-02T15:54:10.604290+05:45"},{"idx":"ZvdVGbtDciXHR4oMUy2SqZ","contest":"Mr. & Miss Teen Sherpa 2020 - S2","episode":"Mr.&Miss Teen Sherpa -S2","category":null,"contestant":{"voting_id":"02","name":"Pema Yanji sherpa"},"vote_count":1,"created_on":"2020-01-02T15:54:04.954244+05:45"},{"idx":"xbNEApjbSiKeVHuFrg6TP9","contest":"Mr. & Miss Teen Sherpa 2020 - S2","episode":"Mr.&Miss Teen Sherpa -S2","category":null,"contestant":{"voting_id":"02","name":"Pema Yanji sherpa"},"vote_count":1,"created_on":"2020-01-02T15:53:59.059961+05:45"},{"idx":"cTVKhWgukgRHVyF7Qmu5TQ","contest":"Mr. & Miss Teen Sherpa 2020 - S2","episode":"Mr.&Miss Teen Sherpa -S2","category":null,"contestant":{"voting_id":"02","name":"Pema Yanji sherpa"},"vote_count":1,"created_on":"2020-01-02T15:53:53.352610+05:45"},{"idx":"mhVHLxjuMTe66L5vyP5Drn","contest":"Mr. & Miss Teen Sherpa 2020 - S2","episode":"Mr.&Miss Teen Sherpa -S2","category":null,"contestant":{"voting_id":"02","name":"Pema Yanji sherpa"},"vote_count":1,"created_on":"2020-01-02T15:53:46.765497+05:45"},{"idx":"5FxXPfN2zkf9VqwUfm6HyT","contest":"Mr. & Miss Teen Sherpa 2020 - S2","episode":"Mr.&Miss Teen Sherpa -S2","category":null,"contestant":{"voting_id":"02","name":"Pema Yanji sherpa"},"vote_count":1,"created_on":"2020-01-02T15:53:41.213638+05:45"},{"idx":"t7tnqZHHJrBUkQbanBBWv3","contest":"Mr. & Miss Teen Sherpa 2020 - S2","episode":"Mr.&Miss Teen Sherpa -S2","category":null,"contestant":{"voting_id":"02","name":"Pema Yanji sherpa"},"vote_count":1,"created_on":"2020-01-02T15:53:35.736019+05:45"},{"idx":"mPgpaK7uuetkMs7ULHJAk2","contest":"Mr. & Miss Teen Sherpa 2020 - S2","episode":"Mr.&Miss Teen Sherpa -S2","category":null,"contestant":{"voting_id":"02","name":"Pema Yanji sherpa"},"vote_count":1,"created_on":"2020-01-02T15:53:30.199733+05:45"},{"idx":"rUqDomKyXCVDdbqcpkmaFa","contest":"Mr. & Miss Teen Sherpa 2020 - S2","episode":"Mr.&Miss Teen Sherpa -S2","category":null,"contestant":{"voting_id":"02","name":"Pema Yanji sherpa"},"vote_count":1,"created_on":"2020-01-02T15:53:23.063259+05:45"}]}