{"total_pages":275,"total_records":13721,"next":"https://khalti.com/api/v2/vuservote/?page=166","previous":"https://khalti.com/api/v2/vuservote/?page=164","record_range":[8201,8250],"current_page":165,"records":[{"idx":"5bJkzbKVZWxGZcHCeUFbmn","contest":"Mr. & Miss Teen Sherpa 2020 - S2","episode":"Mr.&Miss Teen Sherpa -S2","category":null,"contestant":{"voting_id":"02","name":"Pema Yanji sherpa"},"vote_count":1,"created_on":"2020-01-02T15:53:16.106176+05:45"},{"idx":"sdV4MC4NLvcndwh3jRASZN","contest":"Mr. & Miss Teen Sherpa 2020 - S2","episode":"Mr.&Miss Teen Sherpa -S2","category":null,"contestant":{"voting_id":"02","name":"Pema Yanji sherpa"},"vote_count":1,"created_on":"2020-01-02T15:53:09.758907+05:45"},{"idx":"rSpcAGTydPN543JFkPPFBf","contest":"Mr. & Miss Teen Sherpa 2020 - S2","episode":"Mr.&Miss Teen Sherpa -S2","category":null,"contestant":{"voting_id":"02","name":"Pema Yanji sherpa"},"vote_count":1,"created_on":"2020-01-02T15:53:03.597108+05:45"},{"idx":"2z85ecf3pACw29APEoggxZ","contest":"Mr. & Miss Teen Sherpa 2020 - S2","episode":"Mr.&Miss Teen Sherpa -S2","category":null,"contestant":{"voting_id":"02","name":"Pema Yanji sherpa"},"vote_count":1,"created_on":"2020-01-02T15:52:54.356561+05:45"},{"idx":"YuDAZ9MViCUynS7uY9Kyfk","contest":"Mr. & Miss Teen Sherpa 2020 - S2","episode":"Mr.&Miss Teen Sherpa -S2","category":null,"contestant":{"voting_id":"02","name":"Pema Yanji sherpa"},"vote_count":1,"created_on":"2020-01-02T15:52:46.311648+05:45"},{"idx":"F3XcsL8ugjhjdpH7SVBD9A","contest":"Mr. & Miss Teen Sherpa 2020 - S2","episode":"Mr.&Miss Teen Sherpa -S2","category":null,"contestant":{"voting_id":"02","name":"Pema Yanji sherpa"},"vote_count":1,"created_on":"2020-01-02T15:52:41.311297+05:45"},{"idx":"GfBFqFGic9UdJotmGtGRsH","contest":"Mr. & Miss Teen Sherpa 2020 - S2","episode":"Mr.&Miss Teen Sherpa -S2","category":null,"contestant":{"voting_id":"02","name":"Pema Yanji sherpa"},"vote_count":1,"created_on":"2020-01-02T15:52:35.777153+05:45"},{"idx":"Y9D2fw27Vuyk2MwQENb4RL","contest":"Mr. & Miss Teen Sherpa 2020 - S2","episode":"Mr.&Miss Teen Sherpa -S2","category":null,"contestant":{"voting_id":"02","name":"Pema Yanji sherpa"},"vote_count":1,"created_on":"2020-01-02T15:52:27.554979+05:45"},{"idx":"LgCwvGVinPwqCQusdxZUCF","contest":"Mr. & Miss Teen Sherpa 2020 - S2","episode":"Mr.&Miss Teen Sherpa -S2","category":null,"contestant":{"voting_id":"02","name":"Pema Yanji sherpa"},"vote_count":1,"created_on":"2020-01-02T15:52:21.829448+05:45"},{"idx":"55Nt6bE25aB6XFox8KvQVi","contest":"Mr. & Miss Teen Sherpa 2020 - S2","episode":"Mr.&Miss Teen Sherpa -S2","category":null,"contestant":{"voting_id":"02","name":"Pema Yanji sherpa"},"vote_count":1,"created_on":"2020-01-02T15:52:16.425035+05:45"},{"idx":"RdTvsvWHjnGh7JAiYshZH5","contest":"Mr. & Miss Teen Sherpa 2020 - S2","episode":"Mr.&Miss Teen Sherpa -S2","category":null,"contestant":{"voting_id":"02","name":"Pema Yanji sherpa"},"vote_count":1,"created_on":"2020-01-02T15:52:10.581770+05:45"},{"idx":"8HF2NDfUWSUoEoq3xPZu6T","contest":"Mr. & Miss Teen Sherpa 2020 - S2","episode":"Mr.&Miss Teen Sherpa -S2","category":null,"contestant":{"voting_id":"02","name":"Pema Yanji sherpa"},"vote_count":1,"created_on":"2020-01-02T15:52:04.346557+05:45"},{"idx":"8knYjPVK8DuXkYAhjMYTmA","contest":"Mr. & Miss Teen Sherpa 2020 - S2","episode":"Mr.&Miss Teen Sherpa -S2","category":null,"contestant":{"voting_id":"02","name":"Pema Yanji sherpa"},"vote_count":1,"created_on":"2020-01-02T15:51:57.801466+05:45"},{"idx":"HRUjUhCHGNUWZe5KKv7RSM","contest":"Mr. & Miss Teen Sherpa 2020 - S2","episode":"Mr.&Miss Teen Sherpa -S2","category":null,"contestant":{"voting_id":"02","name":"Pema Yanji sherpa"},"vote_count":1,"created_on":"2020-01-02T15:51:51.640830+05:45"},{"idx":"2yrqwabGUxFtSdDdGvPGXW","contest":"Mr. & Miss Teen Sherpa 2020 - S2","episode":"Mr.&Miss Teen Sherpa -S2","category":null,"contestant":{"voting_id":"02","name":"Pema Yanji sherpa"},"vote_count":1,"created_on":"2020-01-02T15:51:45.964641+05:45"},{"idx":"VPnFtkfsAF46Y8fPas6dJ8","contest":"Mr. & Miss Teen Sherpa 2020 - S2","episode":"Mr.&Miss Teen Sherpa -S2","category":null,"contestant":{"voting_id":"02","name":"Pema Yanji sherpa"},"vote_count":1,"created_on":"2020-01-02T15:51:40.265807+05:45"},{"idx":"2LzwtmCJRL4VQtJrNNLRZH","contest":"Mr. & Miss Teen Sherpa 2020 - S2","episode":"Mr.&Miss Teen Sherpa -S2","category":null,"contestant":{"voting_id":"02","name":"Pema Yanji sherpa"},"vote_count":1,"created_on":"2020-01-02T15:51:34.523256+05:45"},{"idx":"wqoFRvwkFYVAU2LPxto824","contest":"Mr. & Miss Teen Sherpa 2020 - S2","episode":"Mr.&Miss Teen Sherpa -S2","category":null,"contestant":{"voting_id":"02","name":"Pema Yanji sherpa"},"vote_count":1,"created_on":"2020-01-02T15:51:27.400499+05:45"},{"idx":"buXpchBfE5cuSvr32hbdxA","contest":"Mr. & Miss Teen Sherpa 2020 - S2","episode":"Mr.&Miss Teen Sherpa -S2","category":null,"contestant":{"voting_id":"02","name":"Pema Yanji sherpa"},"vote_count":1,"created_on":"2020-01-02T15:51:20.858956+05:45"},{"idx":"R9EiLuEeVAbHt78R58MuvB","contest":"Mr. & Miss Teen Sherpa 2020 - S2","episode":"Mr.&Miss Teen Sherpa -S2","category":null,"contestant":{"voting_id":"02","name":"Pema Yanji sherpa"},"vote_count":1,"created_on":"2020-01-02T15:51:14.552334+05:45"},{"idx":"BMKKapPajvotWefvGCXWYE","contest":"Mr. & Miss Teen Sherpa 2020 - S2","episode":"Mr.&Miss Teen Sherpa -S2","category":null,"contestant":{"voting_id":"02","name":"Pema Yanji sherpa"},"vote_count":1,"created_on":"2020-01-02T15:51:07.893810+05:45"},{"idx":"vJ4vSkMADUN8W5hgB64UPj","contest":"Mr. & Miss Teen Sherpa 2020 - S2","episode":"Mr.&Miss Teen Sherpa -S2","category":null,"contestant":{"voting_id":"02","name":"Pema Yanji sherpa"},"vote_count":1,"created_on":"2020-01-02T15:51:01.854227+05:45"},{"idx":"daBgEK6oudJYNyJrnTWENF","contest":"Mr. & Miss Teen Sherpa 2020 - S2","episode":"Mr.&Miss Teen Sherpa -S2","category":null,"contestant":{"voting_id":"02","name":"Pema Yanji sherpa"},"vote_count":1,"created_on":"2020-01-02T15:50:55.626958+05:45"},{"idx":"YD8NRv6REnzfF9DTLFg9uX","contest":"Mr. & Miss Teen Sherpa 2020 - S2","episode":"Mr.&Miss Teen Sherpa -S2","category":null,"contestant":{"voting_id":"02","name":"Pema Yanji sherpa"},"vote_count":1,"created_on":"2020-01-02T15:50:49.745270+05:45"},{"idx":"gkzWp6RetqwM7LLnT29DRn","contest":"Mr. & Miss Teen Sherpa 2020 - S2","episode":"Mr.&Miss Teen Sherpa -S2","category":null,"contestant":{"voting_id":"02","name":"Pema Yanji sherpa"},"vote_count":1,"created_on":"2020-01-02T15:50:42.631913+05:45"},{"idx":"MvFMN7wcbLGh7Y7ZEnoKij","contest":"Mr. & Miss Teen Sherpa 2020 - S2","episode":"Mr.&Miss Teen Sherpa -S2","category":null,"contestant":{"voting_id":"10","name":"Kaljang Lhamu Sherpa"},"vote_count":1,"created_on":"2020-01-02T14:58:27.185143+05:45"},{"idx":"Lac3Ci9YW4em5aRgCYn7KL","contest":"NEPALBHASA STAR MUSIC VIDEO AWARDS-2019","episode":null,"category":"BEST DRESS DESIGNER","contestant":{"voting_id":"3h","name":"Sunita Rajbhandari"},"vote_count":1,"created_on":"2020-01-02T14:44:04.233077+05:45"},{"idx":"q7Rj6JumNV8ctS4FBHoxXh","contest":"NEPALBHASA STAR MUSIC VIDEO AWARDS-2019","episode":null,"category":"BEST SINGER, MALE","contestant":{"voting_id":"15I","name":"Suraj Bir Bajracharya"},"vote_count":1,"created_on":"2020-01-02T14:41:04.621991+05:45"},{"idx":"7d4ako4HaDyERNKiY2MqP8","contest":"NEPALBHASA STAR MUSIC VIDEO AWARDS-2019","episode":null,"category":"THE RISING STAR SINGER","contestant":{"voting_id":"21C","name":"Jack Maharjan"},"vote_count":1,"created_on":"2020-01-02T14:39:02.010757+05:45"},{"idx":"qnVv8xCbKxF3xdiCziYuMe","contest":"Mr. & Miss Teen Sherpa 2020 - S2","episode":"Mr.&Miss Teen Sherpa -S2","category":null,"contestant":{"voting_id":"11","name":"Ang Maya Sherpa"},"vote_count":1,"created_on":"2020-01-02T14:09:08.677223+05:45"},{"idx":"mNeqsg9H9NxbSqhYPVVrCh","contest":"NEPALBHASA STAR MUSIC VIDEO AWARDS-2019","episode":null,"category":"THE RISING STAR SINGER","contestant":{"voting_id":"21A","name":"Macha Raja Maharjan"},"vote_count":1,"created_on":"2020-01-02T13:59:47.904044+05:45"},{"idx":"53VhCxVUCpSTj9Zi5cJ6pf","contest":"Model Superstar","episode":"Model Superstar","category":null,"contestant":{"voting_id":"04","name":"Sabita Maharjan"},"vote_count":1,"created_on":"2020-01-02T13:34:35.287985+05:45"},{"idx":"AsgWDyYJbh3e9e7mXqFmBL","contest":"Model Superstar","episode":"Model Superstar","category":null,"contestant":{"voting_id":"04","name":"Sabita Maharjan"},"vote_count":1,"created_on":"2020-01-02T13:33:53.551867+05:45"},{"idx":"C3vmaD9JRzaZH3rShjqYBD","contest":"Model Superstar","episode":"Model Superstar","category":null,"contestant":{"voting_id":"04","name":"Sabita Maharjan"},"vote_count":1,"created_on":"2020-01-02T13:33:36.015420+05:45"},{"idx":"pcw4mJBrDvhEznvJqa7Q4L","contest":"Model Superstar","episode":"Model Superstar","category":null,"contestant":{"voting_id":"04","name":"Sabita Maharjan"},"vote_count":1,"created_on":"2020-01-02T13:32:55.879910+05:45"},{"idx":"382bSVq4qa2WL4Pi5oCRrE","contest":"Model Superstar","episode":"Model Superstar","category":null,"contestant":{"voting_id":"04","name":"Sabita Maharjan"},"vote_count":1,"created_on":"2020-01-02T13:32:45.016387+05:45"},{"idx":"xPirrQDcKZQzFQxX947q9U","contest":"Model Superstar","episode":"Model Superstar","category":null,"contestant":{"voting_id":"04","name":"Sabita Maharjan"},"vote_count":1,"created_on":"2020-01-02T13:32:34.214141+05:45"},{"idx":"xgCv2WVTVgEzbVcVdDLmAe","contest":"Model Superstar","episode":"Model Superstar","category":null,"contestant":{"voting_id":"04","name":"Sabita Maharjan"},"vote_count":1,"created_on":"2020-01-02T13:32:23.599275+05:45"},{"idx":"KGjBoqdr49UPALG567ixWF","contest":"Model Superstar","episode":"Model Superstar","category":null,"contestant":{"voting_id":"04","name":"Sabita Maharjan"},"vote_count":1,"created_on":"2020-01-02T13:32:09.907774+05:45"},{"idx":"DeUPuAJUYaBaxQEj6jxKon","contest":"Model Superstar","episode":"Model Superstar","category":null,"contestant":{"voting_id":"04","name":"Sabita Maharjan"},"vote_count":1,"created_on":"2020-01-02T13:31:58.170207+05:45"},{"idx":"RUkuknstrzXWbZh62rJLC3","contest":"Model Superstar","episode":"Model Superstar","category":null,"contestant":{"voting_id":"04","name":"Sabita Maharjan"},"vote_count":1,"created_on":"2020-01-02T13:31:45.562843+05:45"},{"idx":"3FsAVUvstaJXpLWVSeQMpj","contest":"Model Superstar","episode":"Model Superstar","category":null,"contestant":{"voting_id":"04","name":"Sabita Maharjan"},"vote_count":1,"created_on":"2020-01-02T13:31:34.064624+05:45"},{"idx":"6JyRh4XNKinwrR6zJM6JU5","contest":"Model Superstar","episode":"Model Superstar","category":null,"contestant":{"voting_id":"04","name":"Sabita Maharjan"},"vote_count":1,"created_on":"2020-01-02T13:31:15.850871+05:45"},{"idx":"wBbupHaHVKwFVkYNBSJ87G","contest":"Model Superstar","episode":"Model Superstar","category":null,"contestant":{"voting_id":"04","name":"Sabita Maharjan"},"vote_count":1,"created_on":"2020-01-02T13:30:46.546182+05:45"},{"idx":"4tmj9VWiBsRyCn5VXgetfa","contest":"Model Superstar","episode":"Model Superstar","category":null,"contestant":{"voting_id":"04","name":"Sabita Maharjan"},"vote_count":1,"created_on":"2020-01-02T13:30:18.890229+05:45"},{"idx":"XDAomUCw2jha9Qijwd6hNS","contest":"Model Superstar","episode":"Model Superstar","category":null,"contestant":{"voting_id":"22","name":"Sunil Laudrey"},"vote_count":1,"created_on":"2020-01-02T12:35:18.001751+05:45"},{"idx":"kXEYgbDyB9KaHJnnpHpw5U","contest":"Model Superstar","episode":"Model Superstar","category":null,"contestant":{"voting_id":"22","name":"Sunil Laudrey"},"vote_count":1,"created_on":"2020-01-02T12:35:12.262812+05:45"},{"idx":"D3DynE459ymNBTvuqT8fTm","contest":"Mr. & Miss Teen Sherpa 2020 - S2","episode":"Mr.&Miss Teen Sherpa -S2","category":null,"contestant":{"voting_id":"02","name":"Pema Yanji sherpa"},"vote_count":1,"created_on":"2020-01-02T12:33:13.440096+05:45"},{"idx":"T8z92trkzT9KJsDmihmqok","contest":"Model Superstar","episode":"Model Superstar","category":null,"contestant":{"voting_id":"04","name":"Sabita Maharjan"},"vote_count":1,"created_on":"2020-01-02T12:32:40.560277+05:45"},{"idx":"B7SjCYiFPWzmdZV6PhvSUL","contest":"Model Superstar","episode":"Model Superstar","category":null,"contestant":{"voting_id":"04","name":"Sabita Maharjan"},"vote_count":1,"created_on":"2020-01-02T12:32:01.543400+05:45"}]}