{"total_pages":275,"total_records":13721,"next":"https://khalti.com/api/v2/vuservote/?page=167","previous":"https://khalti.com/api/v2/vuservote/?page=165","record_range":[8251,8300],"current_page":166,"records":[{"idx":"L2GiZwKm7YWvHxg5Bi2fkg","contest":"Model Superstar","episode":"Model Superstar","category":null,"contestant":{"voting_id":"04","name":"Sabita Maharjan"},"vote_count":1,"created_on":"2020-01-02T12:31:46.862554+05:45"},{"idx":"piwJ2QFg3fGU6zGUa9SfoR","contest":"Model Superstar","episode":"Model Superstar","category":null,"contestant":{"voting_id":"04","name":"Sabita Maharjan"},"vote_count":1,"created_on":"2020-01-02T12:31:31.658998+05:45"},{"idx":"FoBiDSUyTCXACisd8vmd5M","contest":"Model Superstar","episode":"Model Superstar","category":null,"contestant":{"voting_id":"04","name":"Sabita Maharjan"},"vote_count":1,"created_on":"2020-01-02T12:31:19.563000+05:45"},{"idx":"R93dnofKh2qdADXegx4rqh","contest":"Model Superstar","episode":"Model Superstar","category":null,"contestant":{"voting_id":"04","name":"Sabita Maharjan"},"vote_count":1,"created_on":"2020-01-02T12:31:07.788652+05:45"},{"idx":"VCcWjfYVwanA9PbCfW3kfD","contest":"Model Superstar","episode":"Model Superstar","category":null,"contestant":{"voting_id":"04","name":"Sabita Maharjan"},"vote_count":1,"created_on":"2020-01-02T12:30:54.750934+05:45"},{"idx":"ZTFMpfLRuBQCe7fqDdphX4","contest":"Model Superstar","episode":"Model Superstar","category":null,"contestant":{"voting_id":"04","name":"Sabita Maharjan"},"vote_count":1,"created_on":"2020-01-02T12:30:38.431961+05:45"},{"idx":"WZfEqgCYKvuxMvmfWQMBRk","contest":"Mr. & Miss Teen Sherpa 2020 - S2","episode":"Mr.&Miss Teen Sherpa -S2","category":null,"contestant":{"voting_id":"08","name":"Angdali Sherpa"},"vote_count":1,"created_on":"2020-01-02T12:09:14.132579+05:45"},{"idx":"Qe8KLPVtJUG42M7kegBVCm","contest":"Mr. & Miss Teen Sherpa 2020 - S2","episode":"Mr.&Miss Teen Sherpa -S2","category":null,"contestant":{"voting_id":"08","name":"Angdali Sherpa"},"vote_count":1,"created_on":"2020-01-02T12:09:04.014561+05:45"},{"idx":"va9h3ShgyhLsKLvWY6qa7P","contest":"Mr. & Miss Teen Sherpa 2020 - S2","episode":"Mr.&Miss Teen Sherpa -S2","category":null,"contestant":{"voting_id":"08","name":"Angdali Sherpa"},"vote_count":1,"created_on":"2020-01-02T12:08:30.274630+05:45"},{"idx":"uMbYwaorFWVBkH6H9Sn5XD","contest":"Mr. & Miss Teen Sherpa 2020 - S2","episode":"Mr.&Miss Teen Sherpa -S2","category":null,"contestant":{"voting_id":"08","name":"Angdali Sherpa"},"vote_count":1,"created_on":"2020-01-02T12:08:03.866318+05:45"},{"idx":"2dnkvCMPnFsUYWBYdVWf4Y","contest":"Mr. & Miss Teen Sherpa 2020 - S2","episode":"Mr.&Miss Teen Sherpa -S2","category":null,"contestant":{"voting_id":"08","name":"Angdali Sherpa"},"vote_count":1,"created_on":"2020-01-02T12:07:51.607480+05:45"},{"idx":"WsHJGdSuGJUfkmCZahPeDd","contest":"Mr. & Miss Teen Sherpa 2020 - S2","episode":"Mr.&Miss Teen Sherpa -S2","category":null,"contestant":{"voting_id":"08","name":"Angdali Sherpa"},"vote_count":1,"created_on":"2020-01-02T12:07:30.464377+05:45"},{"idx":"dpFsqQGYUGcjec3tPsSFEV","contest":"Mr. & Miss Teen Sherpa 2020 - S2","episode":"Mr.&Miss Teen Sherpa -S2","category":null,"contestant":{"voting_id":"08","name":"Angdali Sherpa"},"vote_count":1,"created_on":"2020-01-02T12:07:19.281598+05:45"},{"idx":"FxqZm7nHViFk3Nwani2oAU","contest":"Mr. & Miss Teen Sherpa 2020 - S2","episode":"Mr.&Miss Teen Sherpa -S2","category":null,"contestant":{"voting_id":"08","name":"Angdali Sherpa"},"vote_count":1,"created_on":"2020-01-02T12:07:07.270794+05:45"},{"idx":"xmE7m84tCdShSJJGeuLMqU","contest":"Mr. & Miss Teen Sherpa 2020 - S2","episode":"Mr.&Miss Teen Sherpa -S2","category":null,"contestant":{"voting_id":"08","name":"Angdali Sherpa"},"vote_count":1,"created_on":"2020-01-02T12:06:57.509623+05:45"},{"idx":"ZSruDioo3bbBBapWN6sdUY","contest":"Mr. & Miss Teen Sherpa 2020 - S2","episode":"Mr.&Miss Teen Sherpa -S2","category":null,"contestant":{"voting_id":"08","name":"Angdali Sherpa"},"vote_count":1,"created_on":"2020-01-02T12:06:44.675919+05:45"},{"idx":"vYtRjZJgNSatgtg3rH4SDi","contest":"Mr. & Miss Teen Sherpa 2020 - S2","episode":"Mr.&Miss Teen Sherpa -S2","category":null,"contestant":{"voting_id":"08","name":"Angdali Sherpa"},"vote_count":1,"created_on":"2020-01-02T12:06:34.500515+05:45"},{"idx":"gqeJPCSeqF5GWvS7hUtuwZ","contest":"Mr. & Miss Teen Sherpa 2020 - S2","episode":"Mr.&Miss Teen Sherpa -S2","category":null,"contestant":{"voting_id":"08","name":"Angdali Sherpa"},"vote_count":1,"created_on":"2020-01-02T12:06:24.479455+05:45"},{"idx":"VaCjKotzW9c4rDHQKcof4V","contest":"Mr. & Miss Teen Sherpa 2020 - S2","episode":"Mr.&Miss Teen Sherpa -S2","category":null,"contestant":{"voting_id":"08","name":"Angdali Sherpa"},"vote_count":1,"created_on":"2020-01-02T12:06:13.382913+05:45"},{"idx":"4zL5SeAza4VpxnvhGfjTR5","contest":"Mr. & Miss Teen Sherpa 2020 - S2","episode":"Mr.&Miss Teen Sherpa -S2","category":null,"contestant":{"voting_id":"08","name":"Angdali Sherpa"},"vote_count":1,"created_on":"2020-01-02T12:06:02.520733+05:45"},{"idx":"Dn5DFiE8gNgi6BPEQL8odW","contest":"Mr. & Miss Teen Sherpa 2020 - S2","episode":"Mr.&Miss Teen Sherpa -S2","category":null,"contestant":{"voting_id":"08","name":"Angdali Sherpa"},"vote_count":1,"created_on":"2020-01-02T12:05:51.246559+05:45"},{"idx":"xtL6Ex3PEPxULEcRt9w6bY","contest":"Mr. & Miss Teen Sherpa 2020 - S2","episode":"Mr.&Miss Teen Sherpa -S2","category":null,"contestant":{"voting_id":"08","name":"Angdali Sherpa"},"vote_count":1,"created_on":"2020-01-02T12:05:31.110339+05:45"},{"idx":"pSh67pWM4jVbedM2Z8VBna","contest":"Mr. & Miss Teen Sherpa 2020 - S2","episode":"Mr.&Miss Teen Sherpa -S2","category":null,"contestant":{"voting_id":"08","name":"Angdali Sherpa"},"vote_count":1,"created_on":"2020-01-02T12:04:59.622107+05:45"},{"idx":"WLRYxNCKfSLiTj9HzzaYeR","contest":"Mr. & Miss Teen Sherpa 2020 - S2","episode":"Mr.&Miss Teen Sherpa -S2","category":null,"contestant":{"voting_id":"08","name":"Angdali Sherpa"},"vote_count":1,"created_on":"2020-01-02T12:04:45.711652+05:45"},{"idx":"2qgAZcXJminKCA5LUGTEjj","contest":"Mr. & Miss Teen Sherpa 2020 - S2","episode":"Mr.&Miss Teen Sherpa -S2","category":null,"contestant":{"voting_id":"08","name":"Angdali Sherpa"},"vote_count":1,"created_on":"2020-01-02T12:04:32.454228+05:45"},{"idx":"Z8iEQEPgzYXABpmsP85BuB","contest":"Mr. & Miss Teen Sherpa 2020 - S2","episode":"Mr.&Miss Teen Sherpa -S2","category":null,"contestant":{"voting_id":"08","name":"Angdali Sherpa"},"vote_count":1,"created_on":"2020-01-02T12:04:21.547403+05:45"},{"idx":"5gSz3UBon7tAyQ3LrtZd7V","contest":"Mr. & Miss Teen Sherpa 2020 - S2","episode":"Mr.&Miss Teen Sherpa -S2","category":null,"contestant":{"voting_id":"08","name":"Angdali Sherpa"},"vote_count":1,"created_on":"2020-01-02T12:04:10.371103+05:45"},{"idx":"rkozLPdaET9UGCdBnXsEhg","contest":"Mr. & Miss Teen Sherpa 2020 - S2","episode":"Mr.&Miss Teen Sherpa -S2","category":null,"contestant":{"voting_id":"08","name":"Angdali Sherpa"},"vote_count":1,"created_on":"2020-01-02T12:04:00.026309+05:45"},{"idx":"DqiyPxAjQobzaPHEuWh8bK","contest":"Mr. & Miss Teen Sherpa 2020 - S2","episode":"Mr.&Miss Teen Sherpa -S2","category":null,"contestant":{"voting_id":"08","name":"Angdali Sherpa"},"vote_count":1,"created_on":"2020-01-02T12:03:50.785782+05:45"},{"idx":"kBd8y7HkPZTo5Zi7khXM8T","contest":"Mr. & Miss Teen Sherpa 2020 - S2","episode":"Mr.&Miss Teen Sherpa -S2","category":null,"contestant":{"voting_id":"08","name":"Angdali Sherpa"},"vote_count":1,"created_on":"2020-01-02T12:03:40.195722+05:45"},{"idx":"iPajmBSt94f43fgYNSw5MT","contest":"Mr. & Miss Teen Sherpa 2020 - S2","episode":"Mr.&Miss Teen Sherpa -S2","category":null,"contestant":{"voting_id":"08","name":"Angdali Sherpa"},"vote_count":1,"created_on":"2020-01-02T12:03:30.240415+05:45"},{"idx":"JGZqHdW5dvwCknVpvDvicN","contest":"Mr. & Miss Teen Sherpa 2020 - S2","episode":"Mr.&Miss Teen Sherpa -S2","category":null,"contestant":{"voting_id":"08","name":"Angdali Sherpa"},"vote_count":1,"created_on":"2020-01-02T12:03:19.528858+05:45"},{"idx":"WL4MDdGbHBxqmZ2MZSmGrJ","contest":"Mr. & Miss Teen Sherpa 2020 - S2","episode":"Mr.&Miss Teen Sherpa -S2","category":null,"contestant":{"voting_id":"08","name":"Angdali Sherpa"},"vote_count":1,"created_on":"2020-01-02T12:02:30.514650+05:45"},{"idx":"W85tNiWAvJTMJaBGcStL25","contest":"Mr. & Miss Teen Sherpa 2020 - S2","episode":"Mr.&Miss Teen Sherpa -S2","category":null,"contestant":{"voting_id":"08","name":"Angdali Sherpa"},"vote_count":1,"created_on":"2020-01-02T12:02:01.329832+05:45"},{"idx":"hZSZ7gTTGx8RK5aDSGmwN9","contest":"Mr. & Miss Teen Sherpa 2020 - S2","episode":"Mr.&Miss Teen Sherpa -S2","category":null,"contestant":{"voting_id":"08","name":"Angdali Sherpa"},"vote_count":1,"created_on":"2020-01-02T12:01:29.302258+05:45"},{"idx":"NTosraW2wcXsdNnKoSTqR5","contest":"Mr. & Miss Teen Sherpa 2020 - S2","episode":"Mr.&Miss Teen Sherpa -S2","category":null,"contestant":{"voting_id":"08","name":"Angdali Sherpa"},"vote_count":1,"created_on":"2020-01-02T12:01:16.535977+05:45"},{"idx":"FHdz6W9Kd7JoKD7SVkZS5d","contest":"Mr. & Miss Teen Sherpa 2020 - S2","episode":"Mr.&Miss Teen Sherpa -S2","category":null,"contestant":{"voting_id":"08","name":"Angdali Sherpa"},"vote_count":1,"created_on":"2020-01-02T12:01:03.693358+05:45"},{"idx":"MpaCEsHcw4PeMF2sNnRoHG","contest":"Mr. & Miss Teen Sherpa 2020 - S2","episode":"Mr.&Miss Teen Sherpa -S2","category":null,"contestant":{"voting_id":"08","name":"Angdali Sherpa"},"vote_count":1,"created_on":"2020-01-02T12:00:44.861581+05:45"},{"idx":"kvRzRpLgjSzJfGp3zdufmc","contest":"Mr. & Miss Teen Sherpa 2020 - S2","episode":"Mr.&Miss Teen Sherpa -S2","category":null,"contestant":{"voting_id":"08","name":"Angdali Sherpa"},"vote_count":1,"created_on":"2020-01-02T12:00:32.179691+05:45"},{"idx":"CBduuoFVXrHnKfTVozUWLa","contest":"Mr. & Miss Teen Sherpa 2020 - S2","episode":"Mr.&Miss Teen Sherpa -S2","category":null,"contestant":{"voting_id":"02","name":"Pema Yanji sherpa"},"vote_count":1,"created_on":"2020-01-02T12:00:11.981519+05:45"},{"idx":"jRaNKrc6Ygiv3Peroi9obb","contest":"NEPALBHASA STAR MUSIC VIDEO AWARDS-2019","episode":null,"category":"BEST SINGER, MALE","contestant":{"voting_id":"15F","name":"Purna Kaji Jyapu"},"vote_count":1,"created_on":"2020-01-02T11:58:48.454855+05:45"},{"idx":"4b24Y4sVgWaAX2U8SuLmzK","contest":"Model Superstar","episode":"Model Superstar","category":null,"contestant":{"voting_id":"01","name":"Sajina Subba"},"vote_count":1,"created_on":"2020-01-02T11:57:07.359895+05:45"},{"idx":"YrET8EWkFzEB2vCZBmuWXd","contest":"Mr. & Miss Teen Sherpa 2020 - S2","episode":"Mr.&Miss Teen Sherpa -S2","category":null,"contestant":{"voting_id":"11","name":"Ang Maya Sherpa"},"vote_count":1,"created_on":"2020-01-02T11:51:33.222382+05:45"},{"idx":"xiXycmgp8o8U2QS8exjnfC","contest":"Model Superstar","episode":"Model Superstar","category":null,"contestant":{"voting_id":"04","name":"Sabita Maharjan"},"vote_count":1,"created_on":"2020-01-02T11:47:29.559666+05:45"},{"idx":"AbFUAHiz4LYaaqBCMxhsLL","contest":"Model Superstar","episode":"Model Superstar","category":null,"contestant":{"voting_id":"04","name":"Sabita Maharjan"},"vote_count":1,"created_on":"2020-01-02T11:47:04.323584+05:45"},{"idx":"TzbzohzkipSvnoczKH7t7S","contest":"Mr. & Miss Teen Sherpa 2020 - S2","episode":"Mr.&Miss Teen Sherpa -S2","category":null,"contestant":{"voting_id":"11","name":"Ang Maya Sherpa"},"vote_count":1,"created_on":"2020-01-02T11:47:03.188575+05:45"},{"idx":"tpRtkMHkKCPVSe6cKzVPTd","contest":"Model Superstar","episode":"Model Superstar","category":null,"contestant":{"voting_id":"04","name":"Sabita Maharjan"},"vote_count":1,"created_on":"2020-01-02T11:46:52.875943+05:45"},{"idx":"Zi7XRysTL3wFKPEXnexVem","contest":"Mr. & Miss Teen Sherpa 2020 - S2","episode":"Mr.&Miss Teen Sherpa -S2","category":null,"contestant":{"voting_id":"11","name":"Ang Maya Sherpa"},"vote_count":1,"created_on":"2020-01-02T11:45:56.019980+05:45"},{"idx":"MgeC7eEtEaPT5fDEYWyijK","contest":"Mr. & Miss Teen Sherpa 2020 - S2","episode":"Mr.&Miss Teen Sherpa -S2","category":null,"contestant":{"voting_id":"11","name":"Ang Maya Sherpa"},"vote_count":1,"created_on":"2020-01-02T11:45:30.712580+05:45"},{"idx":"wSU4VqRghKSSnV7zBnkbHY","contest":"Model Superstar","episode":"Model Superstar","category":null,"contestant":{"voting_id":"04","name":"Sabita Maharjan"},"vote_count":1,"created_on":"2020-01-02T11:45:10.390390+05:45"}]}