{"total_pages":275,"total_records":13721,"next":"https://khalti.com/api/v2/vuservote/?page=168","previous":"https://khalti.com/api/v2/vuservote/?page=166","record_range":[8301,8350],"current_page":167,"records":[{"idx":"qi5aT7b28rqcTaUvrVYMqi","contest":"Model Superstar","episode":"Model Superstar","category":null,"contestant":{"voting_id":"04","name":"Sabita Maharjan"},"vote_count":1,"created_on":"2020-01-02T11:44:49.280738+05:45"},{"idx":"akskpoLG8tEciZvJugcodX","contest":"Model Superstar","episode":"Model Superstar","category":null,"contestant":{"voting_id":"04","name":"Sabita Maharjan"},"vote_count":1,"created_on":"2020-01-02T11:44:36.021945+05:45"},{"idx":"DH69vpkkmqdPn4W5KQmWAb","contest":"Model Superstar","episode":"Model Superstar","category":null,"contestant":{"voting_id":"04","name":"Sabita Maharjan"},"vote_count":1,"created_on":"2020-01-02T11:44:21.803462+05:45"},{"idx":"AXn5ryRgzEJSixN3EkXiwe","contest":"Model Superstar","episode":"Model Superstar","category":null,"contestant":{"voting_id":"04","name":"Sabita Maharjan"},"vote_count":1,"created_on":"2020-01-02T11:44:08.225410+05:45"},{"idx":"BiKjWXudyazCzynVF25PUb","contest":"Model Superstar","episode":"Model Superstar","category":null,"contestant":{"voting_id":"22","name":"Sunil Laudrey"},"vote_count":1,"created_on":"2020-01-02T11:43:43.798779+05:45"},{"idx":"T9kkqyP7u3jG6ApovnQrDY","contest":"Mr. & Miss Teen Sherpa 2020 - S2","episode":"Mr.&Miss Teen Sherpa -S2","category":null,"contestant":{"voting_id":"11","name":"Ang Maya Sherpa"},"vote_count":1,"created_on":"2020-01-02T11:43:38.112900+05:45"},{"idx":"bRWny4vuPYP4p4YBiqDe4a","contest":"Model Superstar","episode":"Model Superstar","category":null,"contestant":{"voting_id":"04","name":"Sabita Maharjan"},"vote_count":1,"created_on":"2020-01-02T11:43:37.380487+05:45"},{"idx":"cnMNPJh8oC9CHCtpypWoLh","contest":"Mr. & Miss Teen Sherpa 2020 - S2","episode":"Mr.&Miss Teen Sherpa -S2","category":null,"contestant":{"voting_id":"11","name":"Ang Maya Sherpa"},"vote_count":1,"created_on":"2020-01-02T11:43:21.987149+05:45"},{"idx":"rfBRxRPUp38v4d4keCVmab","contest":"Model Superstar","episode":"Model Superstar","category":null,"contestant":{"voting_id":"04","name":"Sabita Maharjan"},"vote_count":1,"created_on":"2020-01-02T11:43:15.256371+05:45"},{"idx":"9qxjarhq57mefPBnEeiSdH","contest":"Model Superstar","episode":"Model Superstar","category":null,"contestant":{"voting_id":"22","name":"Sunil Laudrey"},"vote_count":1,"created_on":"2020-01-02T11:42:52.628264+05:45"},{"idx":"AHmcGj5XwZASSrqudrcuYP","contest":"Mr. & Miss Teen Sherpa 2020 - S2","episode":"Mr.&Miss Teen Sherpa -S2","category":null,"contestant":{"voting_id":"11","name":"Ang Maya Sherpa"},"vote_count":1,"created_on":"2020-01-02T11:42:52.130280+05:45"},{"idx":"E3bmEtbPoa93pcsor5SUPj","contest":"Model Superstar","episode":"Model Superstar","category":null,"contestant":{"voting_id":"04","name":"Sabita Maharjan"},"vote_count":1,"created_on":"2020-01-02T11:42:45.441383+05:45"},{"idx":"MsqqGus5Uivqh94XiKvvhJ","contest":"Model Superstar","episode":"Model Superstar","category":null,"contestant":{"voting_id":"04","name":"Sabita Maharjan"},"vote_count":1,"created_on":"2020-01-02T11:41:48.563054+05:45"},{"idx":"PQH7Cxkxhbq9wj7R6JsTac","contest":"Model Superstar","episode":"Model Superstar","category":null,"contestant":{"voting_id":"04","name":"Sabita Maharjan"},"vote_count":1,"created_on":"2020-01-02T11:41:35.687847+05:45"},{"idx":"mbXT5FjNYZRaQrJa28ayMK","contest":"Model Superstar","episode":"Model Superstar","category":null,"contestant":{"voting_id":"04","name":"Sabita Maharjan"},"vote_count":1,"created_on":"2020-01-02T11:41:22.143130+05:45"},{"idx":"hRSvPPYkCGCC4HUWHLPsVG","contest":"Model Superstar","episode":"Model Superstar","category":null,"contestant":{"voting_id":"04","name":"Sabita Maharjan"},"vote_count":1,"created_on":"2020-01-02T11:40:38.719082+05:45"},{"idx":"3mdqFCAoedsKJdvMz28qQF","contest":"Model Superstar","episode":"Model Superstar","category":null,"contestant":{"voting_id":"04","name":"Sabita Maharjan"},"vote_count":1,"created_on":"2020-01-02T11:40:25.358132+05:45"},{"idx":"kgaWbNk25X5uR9HGFDzMKn","contest":"Model Superstar","episode":"Model Superstar","category":null,"contestant":{"voting_id":"04","name":"Sabita Maharjan"},"vote_count":1,"created_on":"2020-01-02T11:40:10.297989+05:45"},{"idx":"qq4VJdCe5ZM3WCZzEZJ33J","contest":"Model Superstar","episode":"Model Superstar","category":null,"contestant":{"voting_id":"04","name":"Sabita Maharjan"},"vote_count":1,"created_on":"2020-01-02T11:39:56.000054+05:45"},{"idx":"sUAhwHkFUWr8K5MG88zP9B","contest":"Model Superstar","episode":"Model Superstar","category":null,"contestant":{"voting_id":"04","name":"Sabita Maharjan"},"vote_count":1,"created_on":"2020-01-02T11:39:46.251589+05:45"},{"idx":"2UzbGYfg5gkFQHZFcDZjeL","contest":"Model Superstar","episode":"Model Superstar","category":null,"contestant":{"voting_id":"04","name":"Sabita Maharjan"},"vote_count":1,"created_on":"2020-01-02T11:39:35.480769+05:45"},{"idx":"R44U5Ko7xSCDoxy5Ryp6DL","contest":"Model Superstar","episode":"Model Superstar","category":null,"contestant":{"voting_id":"04","name":"Sabita Maharjan"},"vote_count":1,"created_on":"2020-01-02T11:39:22.086415+05:45"},{"idx":"GVRhhAmSBg5ULW3twGupP3","contest":"Model Superstar","episode":"Model Superstar","category":null,"contestant":{"voting_id":"04","name":"Sabita Maharjan"},"vote_count":1,"created_on":"2020-01-02T11:38:36.892396+05:45"},{"idx":"GpWdrujyzvUg898SCbZXt9","contest":"Model Superstar","episode":"Model Superstar","category":null,"contestant":{"voting_id":"04","name":"Sabita Maharjan"},"vote_count":1,"created_on":"2020-01-02T11:38:15.161498+05:45"},{"idx":"TtV9Y9vukweJdBYw5ZAtiZ","contest":"Model Superstar","episode":"Model Superstar","category":null,"contestant":{"voting_id":"04","name":"Sabita Maharjan"},"vote_count":1,"created_on":"2020-01-02T11:38:01.554465+05:45"},{"idx":"vMXUVv5PUWktn6xEe7BCV9","contest":"Model Superstar","episode":"Model Superstar","category":null,"contestant":{"voting_id":"22","name":"Sunil Laudrey"},"vote_count":1,"created_on":"2020-01-02T11:37:53.011308+05:45"},{"idx":"udzXMwunqTnmCkdwWm67aL","contest":"Model Superstar","episode":"Model Superstar","category":null,"contestant":{"voting_id":"04","name":"Sabita Maharjan"},"vote_count":1,"created_on":"2020-01-02T11:37:49.050764+05:45"},{"idx":"3uDc8syo4SbQkSybaUZyMX","contest":"Mr. & Miss Teen Sherpa 2020 - S2","episode":"Mr.&Miss Teen Sherpa -S2","category":null,"contestant":{"voting_id":"11","name":"Ang Maya Sherpa"},"vote_count":1,"created_on":"2020-01-02T11:37:39.708638+05:45"},{"idx":"kq4Lb32t4n9usVsts5JZzi","contest":"Model Superstar","episode":"Model Superstar","category":null,"contestant":{"voting_id":"04","name":"Sabita Maharjan"},"vote_count":1,"created_on":"2020-01-02T11:37:36.926684+05:45"},{"idx":"ibaxjVUoVTVxu6J4pXVkPT","contest":"Model Superstar","episode":"Model Superstar","category":null,"contestant":{"voting_id":"04","name":"Sabita Maharjan"},"vote_count":1,"created_on":"2020-01-02T11:37:18.605847+05:45"},{"idx":"PkaBUpULCtq5sygqzKP7Ha","contest":"Model Superstar","episode":"Model Superstar","category":null,"contestant":{"voting_id":"04","name":"Sabita Maharjan"},"vote_count":1,"created_on":"2020-01-02T11:37:06.440350+05:45"},{"idx":"7BZ9hp3nt3kN4dcXBEa9D8","contest":"Model Superstar","episode":"Model Superstar","category":null,"contestant":{"voting_id":"04","name":"Sabita Maharjan"},"vote_count":1,"created_on":"2020-01-02T11:36:57.299509+05:45"},{"idx":"APfuX8UzHzeYCV6NyEUfEB","contest":"Model Superstar","episode":"Model Superstar","category":null,"contestant":{"voting_id":"04","name":"Sabita Maharjan"},"vote_count":1,"created_on":"2020-01-02T11:36:47.312401+05:45"},{"idx":"NQ2DSudd4NrSgrVHn9q8yb","contest":"Model Superstar","episode":"Model Superstar","category":null,"contestant":{"voting_id":"04","name":"Sabita Maharjan"},"vote_count":1,"created_on":"2020-01-02T11:36:35.631904+05:45"},{"idx":"YaxkqVFRcpKEy4jb8XYZ6V","contest":"Model Superstar","episode":"Model Superstar","category":null,"contestant":{"voting_id":"04","name":"Sabita Maharjan"},"vote_count":1,"created_on":"2020-01-02T11:36:22.951281+05:45"},{"idx":"fNvd74hp2o5WRGeSSzvoM2","contest":"Model Superstar","episode":"Model Superstar","category":null,"contestant":{"voting_id":"04","name":"Sabita Maharjan"},"vote_count":1,"created_on":"2020-01-02T11:36:12.725139+05:45"},{"idx":"U4HLanUMTK99YZihjrmF38","contest":"Model Superstar","episode":"Model Superstar","category":null,"contestant":{"voting_id":"04","name":"Sabita Maharjan"},"vote_count":1,"created_on":"2020-01-02T11:36:01.728460+05:45"},{"idx":"syMZkg8TNSRtH5XZtYRBr4","contest":"Mr. & Miss Teen Sherpa 2020 - S2","episode":"Mr.&Miss Teen Sherpa -S2","category":null,"contestant":{"voting_id":"11","name":"Ang Maya Sherpa"},"vote_count":1,"created_on":"2020-01-02T11:34:49.320804+05:45"},{"idx":"6gnyptBN9DzNC8EG4E6Fh7","contest":"NEPALBHASA STAR MUSIC VIDEO AWARDS-2019","episode":null,"category":"THE RISING STAR SINGER","contestant":{"voting_id":"21B","name":"Ves Maharjan"},"vote_count":1,"created_on":"2020-01-02T11:31:25.712101+05:45"},{"idx":"Hyw4PCUYdq5sfagUNhYTbM","contest":"Model Superstar","episode":"Model Superstar","category":null,"contestant":{"voting_id":"22","name":"Sunil Laudrey"},"vote_count":1,"created_on":"2020-01-02T11:19:47.823982+05:45"},{"idx":"W3RVXdHsrwHUHvqK8nhsCZ","contest":"Mr. & Miss Teen Sherpa 2020 - S2","episode":"Mr.&Miss Teen Sherpa -S2","category":null,"contestant":{"voting_id":"26","name":"Tengin Sherpa"},"vote_count":1,"created_on":"2020-01-02T11:05:03.932084+05:45"},{"idx":"DxUxF4t7zjHMB3cMeV3tNA","contest":"Mr. & Miss Teen Sherpa 2020 - S2","episode":"Mr.&Miss Teen Sherpa -S2","category":null,"contestant":{"voting_id":"26","name":"Tengin Sherpa"},"vote_count":1,"created_on":"2020-01-02T11:03:59.571062+05:45"},{"idx":"qUAaBMaRvAvcxZ3Ss2f7La","contest":"NEPALBHASA STAR MUSIC VIDEO AWARDS-2019","episode":null,"category":"BEST MODEL, MALE","contestant":{"voting_id":"11A","name":"Rupen Shrestha 'Thakwami'"},"vote_count":1,"created_on":"2020-01-02T10:39:22.233973+05:45"},{"idx":"S2BrJfSM3o7qo8PrAScVC3","contest":"Mr. & Miss Teen Sherpa 2020 - S2","episode":"Mr.&Miss Teen Sherpa -S2","category":null,"contestant":{"voting_id":"06","name":"Tenzin Pema Sherpa"},"vote_count":1,"created_on":"2020-01-02T10:12:57.807797+05:45"},{"idx":"79Hzn5QEBwHBQv3y7WSAS3","contest":"Mr. & Miss Teen Sherpa 2020 - S2","episode":"Mr.&Miss Teen Sherpa -S2","category":null,"contestant":{"voting_id":"06","name":"Tenzin Pema Sherpa"},"vote_count":1,"created_on":"2020-01-02T10:10:48.131072+05:45"},{"idx":"iKK8CTZWynLdEigupfA4Mj","contest":"Mr. & Miss Teen Sherpa 2020 - S2","episode":"Mr.&Miss Teen Sherpa -S2","category":null,"contestant":{"voting_id":"06","name":"Tenzin Pema Sherpa"},"vote_count":1,"created_on":"2020-01-02T10:08:02.017232+05:45"},{"idx":"wZxNdxEc3dVdgh3LqsgfDo","contest":"Mr. & Miss Teen Sherpa 2020 - S2","episode":"Mr.&Miss Teen Sherpa -S2","category":null,"contestant":{"voting_id":"06","name":"Tenzin Pema Sherpa"},"vote_count":1,"created_on":"2020-01-02T10:08:00.054699+05:45"},{"idx":"cG9hTpphasrcVercW94od7","contest":"Mr. & Miss Teen Sherpa 2020 - S2","episode":"Mr.&Miss Teen Sherpa -S2","category":null,"contestant":{"voting_id":"06","name":"Tenzin Pema Sherpa"},"vote_count":1,"created_on":"2020-01-02T10:07:49.216275+05:45"},{"idx":"gt69y86wc7zdC64f4QSCgn","contest":"Mr. & Miss Teen Sherpa 2020 - S2","episode":"Mr.&Miss Teen Sherpa -S2","category":null,"contestant":{"voting_id":"06","name":"Tenzin Pema Sherpa"},"vote_count":1,"created_on":"2020-01-02T10:07:36.208830+05:45"},{"idx":"WtM7piVqX87WT5hbRTuK45","contest":"Mr. & Miss Teen Sherpa 2020 - S2","episode":"Mr.&Miss Teen Sherpa -S2","category":null,"contestant":{"voting_id":"06","name":"Tenzin Pema Sherpa"},"vote_count":1,"created_on":"2020-01-02T10:06:33.994853+05:45"}]}