{"total_pages":275,"total_records":13721,"next":"https://khalti.com/api/v2/vuservote/?page=170","previous":"https://khalti.com/api/v2/vuservote/?page=168","record_range":[8401,8450],"current_page":169,"records":[{"idx":"Yj7pEwr7iiqfPRL7MvRJpi","contest":"Mr. & Miss Teen Sherpa 2020 - S2","episode":"Mr.&Miss Teen Sherpa -S2","category":null,"contestant":{"voting_id":"24","name":"Mingma Tshering Sherpa"},"vote_count":1,"created_on":"2020-01-02T08:26:39.572610+05:45"},{"idx":"ieppVqamXdtFYxuybfFika","contest":"Mr. & Miss Teen Sherpa 2020 - S2","episode":"Mr.&Miss Teen Sherpa -S2","category":null,"contestant":{"voting_id":"24","name":"Mingma Tshering Sherpa"},"vote_count":1,"created_on":"2020-01-02T08:25:57.170364+05:45"},{"idx":"aBSu9CyWTwTrLShwAfCZZL","contest":"Model Superstar","episode":"Model Superstar","category":null,"contestant":{"voting_id":"16","name":"Anil Karki"},"vote_count":1,"created_on":"2020-01-02T08:17:17.602325+05:45"},{"idx":"T9rK4MQLGA87DjQbNiFvG2","contest":"Mr. & Miss Teen Sherpa 2020 - S2","episode":"Mr.&Miss Teen Sherpa -S2","category":null,"contestant":{"voting_id":"02","name":"Pema Yanji sherpa"},"vote_count":1,"created_on":"2020-01-02T08:04:52.244700+05:45"},{"idx":"EvXDL2BYpaEcE3oS9Fz2bb","contest":"Mr. & Miss Teen Sherpa 2020 - S2","episode":"Mr.&Miss Teen Sherpa -S2","category":null,"contestant":{"voting_id":"02","name":"Pema Yanji sherpa"},"vote_count":1,"created_on":"2020-01-02T08:04:20.375915+05:45"},{"idx":"YmoTaVsB2t6h3MzVgpbgZ4","contest":"Mr. & Miss Teen Sherpa 2020 - S2","episode":"Mr.&Miss Teen Sherpa -S2","category":null,"contestant":{"voting_id":"02","name":"Pema Yanji sherpa"},"vote_count":1,"created_on":"2020-01-02T08:01:49.054770+05:45"},{"idx":"KWCqrz5rNageBdFAUj3dNY","contest":"NEPALBHASA STAR MUSIC VIDEO AWARDS-2019","episode":null,"category":"BEST DANCE DIRECTOR","contestant":{"voting_id":"19A","name":"Gautam Tandukar"},"vote_count":1,"created_on":"2020-01-02T07:58:59.363001+05:45"},{"idx":"4wZjt6zn7HNp5gfpcwMkpe","contest":"Model Superstar","episode":"Model Superstar","category":null,"contestant":{"voting_id":"17","name":"Sajana Panta"},"vote_count":1,"created_on":"2020-01-02T07:58:20.429366+05:45"},{"idx":"AzSxgY76Z8PeDTzUFxXzxV","contest":"NEPALBHASA STAR MUSIC VIDEO AWARDS-2019","episode":null,"category":"BEST Singer,FEMALE","contestant":{"voting_id":"17C","name":"Pooja Sunuwar"},"vote_count":1,"created_on":"2020-01-02T07:40:33.910724+05:45"},{"idx":"cvPMpSikSagLofmQkDBL49","contest":"Mr. & Miss Teen Sherpa 2020 - S2","episode":"Mr.&Miss Teen Sherpa -S2","category":null,"contestant":{"voting_id":"08","name":"Angdali Sherpa"},"vote_count":1,"created_on":"2020-01-02T07:09:35.226570+05:45"},{"idx":"sTaJDDqGKVMcLQM43KcasC","contest":"Mr. & Miss Teen Sherpa 2020 - S2","episode":"Mr.&Miss Teen Sherpa -S2","category":null,"contestant":{"voting_id":"12","name":"Tshering Dolkar Sherpa"},"vote_count":1,"created_on":"2020-01-02T06:30:01.406525+05:45"},{"idx":"gfNnNB8Yf9YfS3WALSiL2E","contest":"Model Superstar","episode":"Model Superstar","category":null,"contestant":{"voting_id":"05","name":"Asmita Thapa Magar"},"vote_count":1,"created_on":"2020-01-02T06:27:18.583107+05:45"},{"idx":"APL7p68XEJ93C5eAMiREwc","contest":"Mr. & Miss Teen Sherpa 2020 - S2","episode":"Mr.&Miss Teen Sherpa -S2","category":null,"contestant":{"voting_id":"02","name":"Pema Yanji sherpa"},"vote_count":1,"created_on":"2020-01-02T05:41:27.392861+05:45"},{"idx":"sXfMdGHLpTQfaQxNyEuSiZ","contest":"Mr. & Miss Teen Sherpa 2020 - S2","episode":"Mr.&Miss Teen Sherpa -S2","category":null,"contestant":{"voting_id":"01","name":"Lhamu Sherpa"},"vote_count":1,"created_on":"2020-01-02T05:41:07.939415+05:45"},{"idx":"8zQ8vrxaTwcVWKpU2Vsyx2","contest":"Model Superstar","episode":"Model Superstar","category":null,"contestant":{"voting_id":"04","name":"Sabita Maharjan"},"vote_count":1,"created_on":"2020-01-02T03:21:11.988101+05:45"},{"idx":"Mhv67KRPRPbA9PFsCyQaXJ","contest":"Model Superstar","episode":"Model Superstar","category":null,"contestant":{"voting_id":"04","name":"Sabita Maharjan"},"vote_count":1,"created_on":"2020-01-02T03:20:58.028061+05:45"},{"idx":"XafrPMTkJPW4bDyBiyLbb6","contest":"Model Superstar","episode":"Model Superstar","category":null,"contestant":{"voting_id":"04","name":"Sabita Maharjan"},"vote_count":1,"created_on":"2020-01-02T03:20:40.917651+05:45"},{"idx":"uH3yXr3nBuvZbZujc6PJ7Z","contest":"Model Superstar","episode":"Model Superstar","category":null,"contestant":{"voting_id":"04","name":"Sabita Maharjan"},"vote_count":1,"created_on":"2020-01-02T03:20:24.737717+05:45"},{"idx":"6gXs5Wao4y2gC78G4yKkKi","contest":"Model Superstar","episode":"Model Superstar","category":null,"contestant":{"voting_id":"04","name":"Sabita Maharjan"},"vote_count":1,"created_on":"2020-01-02T03:20:12.324863+05:45"},{"idx":"D767Er47vpZSLVNaE39FgS","contest":"Model Superstar","episode":"Model Superstar","category":null,"contestant":{"voting_id":"04","name":"Sabita Maharjan"},"vote_count":1,"created_on":"2020-01-02T03:19:58.481543+05:45"},{"idx":"cXySSsMKy57JVpqN87Abrd","contest":"Model Superstar","episode":"Model Superstar","category":null,"contestant":{"voting_id":"04","name":"Sabita Maharjan"},"vote_count":1,"created_on":"2020-01-02T03:19:40.668513+05:45"},{"idx":"vvQ4oCEKZcQdKQNWpaAjkH","contest":"Model Superstar","episode":"Model Superstar","category":null,"contestant":{"voting_id":"04","name":"Sabita Maharjan"},"vote_count":1,"created_on":"2020-01-02T03:19:26.904366+05:45"},{"idx":"axYT2nytoo56WETg5kyAvm","contest":"Model Superstar","episode":"Model Superstar","category":null,"contestant":{"voting_id":"04","name":"Sabita Maharjan"},"vote_count":1,"created_on":"2020-01-02T03:19:12.910156+05:45"},{"idx":"ekMFiEjvicXZHhosdp5vHm","contest":"Model Superstar","episode":"Model Superstar","category":null,"contestant":{"voting_id":"04","name":"Sabita Maharjan"},"vote_count":1,"created_on":"2020-01-02T03:18:57.961499+05:45"},{"idx":"ZqvD7GdnsgDb398r9PFp3M","contest":"Model Superstar","episode":"Model Superstar","category":null,"contestant":{"voting_id":"04","name":"Sabita Maharjan"},"vote_count":1,"created_on":"2020-01-02T03:18:41.627964+05:45"},{"idx":"HXKz8L6QL5FyxmupVtACDB","contest":"NEPALBHASA STAR MUSIC VIDEO AWARDS-2019","episode":null,"category":"THE RISING STAR SINGER","contestant":{"voting_id":"21E","name":"Purna Man Maharjan"},"vote_count":1,"created_on":"2020-01-02T02:24:55.903889+05:45"},{"idx":"UGiDjXdRMQNGvHDXokLJG4","contest":"Mr. & Miss Teen Sherpa 2020 - S2","episode":"Mr.&Miss Teen Sherpa -S2","category":null,"contestant":{"voting_id":"06","name":"Tenzin Pema Sherpa"},"vote_count":1,"created_on":"2020-01-02T01:50:48.284670+05:45"},{"idx":"9CUMqeMpxLCsbscvA2BW3m","contest":"Mr. & Miss Teen Sherpa 2020 - S2","episode":"Mr.&Miss Teen Sherpa -S2","category":null,"contestant":{"voting_id":"05","name":"Nima Lhamu sherpa"},"vote_count":1,"created_on":"2020-01-02T01:50:27.195164+05:45"},{"idx":"GRCWKqjJaDSwv44nSvjM2J","contest":"Mr. & Miss Teen Sherpa 2020 - S2","episode":"Mr.&Miss Teen Sherpa -S2","category":null,"contestant":{"voting_id":"12","name":"Tshering Dolkar Sherpa"},"vote_count":1,"created_on":"2020-01-02T01:49:54.922583+05:45"},{"idx":"XUkWBvoxHkdcQTZNvNAwP2","contest":"Mr. & Miss Teen Sherpa 2020 - S2","episode":"Mr.&Miss Teen Sherpa -S2","category":null,"contestant":{"voting_id":"03","name":"Mingma Sherpa"},"vote_count":1,"created_on":"2020-01-01T23:42:09.215196+05:45"},{"idx":"DrdxCboEiC69iFRry7jnuH","contest":"Mr. & Miss Teen Sherpa 2020 - S2","episode":"Mr.&Miss Teen Sherpa -S2","category":null,"contestant":{"voting_id":"02","name":"Pema Yanji sherpa"},"vote_count":1,"created_on":"2020-01-01T23:31:13.337036+05:45"},{"idx":"H2aPovwM5cT2rmWb9geWTi","contest":"Mr. & Miss Teen Sherpa 2020 - S2","episode":"Mr.&Miss Teen Sherpa -S2","category":null,"contestant":{"voting_id":"02","name":"Pema Yanji sherpa"},"vote_count":1,"created_on":"2020-01-01T23:30:56.760520+05:45"},{"idx":"5EgGN7cSYyx8hegEdyBxZ2","contest":"Mr. & Miss Teen Sherpa 2020 - S2","episode":"Mr.&Miss Teen Sherpa -S2","category":null,"contestant":{"voting_id":"02","name":"Pema Yanji sherpa"},"vote_count":1,"created_on":"2020-01-01T23:30:41.773000+05:45"},{"idx":"5sCUrrTEanHnE6Ub2woiPo","contest":"Mr. & Miss Teen Sherpa 2020 - S2","episode":"Mr.&Miss Teen Sherpa -S2","category":null,"contestant":{"voting_id":"02","name":"Pema Yanji sherpa"},"vote_count":1,"created_on":"2020-01-01T23:30:19.809609+05:45"},{"idx":"ag7eo6SHwgKePtxD5euDki","contest":"Mr. & Miss Teen Sherpa 2020 - S2","episode":"Mr.&Miss Teen Sherpa -S2","category":null,"contestant":{"voting_id":"02","name":"Pema Yanji sherpa"},"vote_count":1,"created_on":"2020-01-01T23:28:59.517383+05:45"},{"idx":"PfCUQjWgDUVjoLH7ivVv2X","contest":"Mr. & Miss Teen Sherpa 2020 - S2","episode":"Mr.&Miss Teen Sherpa -S2","category":null,"contestant":{"voting_id":"02","name":"Pema Yanji sherpa"},"vote_count":1,"created_on":"2020-01-01T23:28:37.590667+05:45"},{"idx":"xTADWudJzPZaz2modwC4gL","contest":"Mr. & Miss Teen Sherpa 2020 - S2","episode":"Mr.&Miss Teen Sherpa -S2","category":null,"contestant":{"voting_id":"02","name":"Pema Yanji sherpa"},"vote_count":1,"created_on":"2020-01-01T23:28:18.322219+05:45"},{"idx":"tQHEKHfSxkF6TjyEM95iqn","contest":"Mr. & Miss Teen Sherpa 2020 - S2","episode":"Mr.&Miss Teen Sherpa -S2","category":null,"contestant":{"voting_id":"02","name":"Pema Yanji sherpa"},"vote_count":1,"created_on":"2020-01-01T23:27:56.384442+05:45"},{"idx":"FHDDTqRjGu286L3rXArmXo","contest":"Mr. & Miss Teen Sherpa 2020 - S2","episode":"Mr.&Miss Teen Sherpa -S2","category":null,"contestant":{"voting_id":"02","name":"Pema Yanji sherpa"},"vote_count":1,"created_on":"2020-01-01T23:27:39.487597+05:45"},{"idx":"vJ7q8iH4gTrzubxmYpRTHK","contest":"Mr. & Miss Teen Sherpa 2020 - S2","episode":"Mr.&Miss Teen Sherpa -S2","category":null,"contestant":{"voting_id":"02","name":"Pema Yanji sherpa"},"vote_count":1,"created_on":"2020-01-01T23:27:20.775082+05:45"},{"idx":"WRL3o6mtW39Xnkn7LCSxLf","contest":"Mr. & Miss Teen Sherpa 2020 - S2","episode":"Mr.&Miss Teen Sherpa -S2","category":null,"contestant":{"voting_id":"02","name":"Pema Yanji sherpa"},"vote_count":1,"created_on":"2020-01-01T23:26:57.371871+05:45"},{"idx":"4pKbRwcCdCG8UqDGW5tDcN","contest":"Mr. & Miss Teen Sherpa 2020 - S2","episode":"Mr.&Miss Teen Sherpa -S2","category":null,"contestant":{"voting_id":"02","name":"Pema Yanji sherpa"},"vote_count":1,"created_on":"2020-01-01T23:26:37.427236+05:45"},{"idx":"3tTmD9upBJXVLwEy8fKeCD","contest":"Mr. & Miss Teen Sherpa 2020 - S2","episode":"Mr.&Miss Teen Sherpa -S2","category":null,"contestant":{"voting_id":"02","name":"Pema Yanji sherpa"},"vote_count":1,"created_on":"2020-01-01T23:26:20.740789+05:45"},{"idx":"sgj2KPyksSpkoCK3zNUNmS","contest":"Mr. & Miss Teen Sherpa 2020 - S2","episode":"Mr.&Miss Teen Sherpa -S2","category":null,"contestant":{"voting_id":"01","name":"Lhamu Sherpa"},"vote_count":1,"created_on":"2020-01-01T23:03:52.066395+05:45"},{"idx":"8M4r9coBySWraJKHMLANr8","contest":"Model Superstar","episode":"Model Superstar","category":null,"contestant":{"voting_id":"04","name":"Sabita Maharjan"},"vote_count":1,"created_on":"2020-01-01T22:51:34.251031+05:45"},{"idx":"9JQdD4mVYbCe4sjwaMibbC","contest":"Mr. & Miss Teen Sherpa 2020 - S2","episode":"Mr.&Miss Teen Sherpa -S2","category":null,"contestant":{"voting_id":"02","name":"Pema Yanji sherpa"},"vote_count":1,"created_on":"2020-01-01T22:30:08.792496+05:45"},{"idx":"DPWAudW6vyM8QcDePugaFA","contest":"Mr. & Miss Teen Sherpa 2020 - S2","episode":"Mr.&Miss Teen Sherpa -S2","category":null,"contestant":{"voting_id":"02","name":"Pema Yanji sherpa"},"vote_count":1,"created_on":"2020-01-01T22:30:02.274735+05:45"},{"idx":"YyAcUdY9hXNi5hFPNkUuCb","contest":"Mr. & Miss Teen Sherpa 2020 - S2","episode":"Mr.&Miss Teen Sherpa -S2","category":null,"contestant":{"voting_id":"02","name":"Pema Yanji sherpa"},"vote_count":1,"created_on":"2020-01-01T22:29:55.214571+05:45"},{"idx":"vQ8DyAaWa72eBPnNL2foDf","contest":"Mr. & Miss Teen Sherpa 2020 - S2","episode":"Mr.&Miss Teen Sherpa -S2","category":null,"contestant":{"voting_id":"02","name":"Pema Yanji sherpa"},"vote_count":1,"created_on":"2020-01-01T22:29:48.470195+05:45"},{"idx":"wNmb8erJnArtdwKnSobp58","contest":"Mr. & Miss Teen Sherpa 2020 - S2","episode":"Mr.&Miss Teen Sherpa -S2","category":null,"contestant":{"voting_id":"02","name":"Pema Yanji sherpa"},"vote_count":1,"created_on":"2020-01-01T22:29:40.557077+05:45"}]}