{"total_pages":275,"total_records":13717,"next":"https://khalti.com/api/v2/vuservote/?page=18","previous":"https://khalti.com/api/v2/vuservote/?page=16","record_range":[801,850],"current_page":17,"records":[{"idx":"Rjy9wCH5G22Fkd5eZgLcZn","contest":"Locus 2020","episode":"Locus 2020","category":null,"contestant":{"voting_id":"92","name":"Project Bhakari Shopping Nepal"},"vote_count":1,"created_on":"2020-02-01T18:47:16.953918+05:45"},{"idx":"JHE9kJWoaji4Unr4pYXRYK","contest":"Locus 2020","episode":"Locus 2020","category":null,"contestant":{"voting_id":"46","name":"Project Immune"},"vote_count":1,"created_on":"2020-02-01T18:46:41.256007+05:45"},{"idx":"fkgFtpJ9JyC37JsrKWyhV2","contest":"Music Eve 2020","episode":"Music Eve 2020 IOE","category":null,"contestant":{"voting_id":"02","name":"abinash acharya"},"vote_count":1,"created_on":"2020-02-01T18:45:33.615638+05:45"},{"idx":"dmwACGUPj36fuyo9agX8YF","contest":"Locus 2020","episode":"Locus 2020","category":null,"contestant":{"voting_id":"86","name":"Project Target Shooter"},"vote_count":1,"created_on":"2020-02-01T18:45:15.265982+05:45"},{"idx":"7TTdCHx7B6QmLT32qLJy49","contest":"Locus 2020","episode":"Locus 2020","category":null,"contestant":{"voting_id":"07","name":"Project Automatic Irrigation System"},"vote_count":1,"created_on":"2020-02-01T18:44:16.421913+05:45"},{"idx":"jhszKSZQT93qYRSocWdE8d","contest":"Locus 2020","episode":"Locus 2020","category":null,"contestant":{"voting_id":"92","name":"Project Bhakari Shopping Nepal"},"vote_count":1,"created_on":"2020-02-01T18:42:09.095262+05:45"},{"idx":"jAakHkCsnydsFfNrCpQ2LK","contest":"Locus 2020","episode":"Locus 2020","category":null,"contestant":{"voting_id":"32","name":"Project Health and Environment Checker"},"vote_count":1,"created_on":"2020-02-01T18:37:54.618171+05:45"},{"idx":"BMstX3Sd6ge9HR9HRYReAe","contest":"Locus 2020","episode":"Locus 2020","category":null,"contestant":{"voting_id":"46","name":"Project Immune"},"vote_count":1,"created_on":"2020-02-01T18:36:37.065379+05:45"},{"idx":"Syh9naHiNk5mZTNPehupAg","contest":"Locus 2020","episode":"Locus 2020","category":null,"contestant":{"voting_id":"32","name":"Project Health and Environment Checker"},"vote_count":1,"created_on":"2020-02-01T18:36:23.434086+05:45"},{"idx":"wABNCqRpuvQCCmVGAoU8db","contest":"Locus 2020","episode":"Locus 2020","category":null,"contestant":{"voting_id":"08","name":"Project A Smart Approach Towards Lifestyle in Nepal"},"vote_count":1,"created_on":"2020-02-01T18:33:57.101372+05:45"},{"idx":"V7YjkCVhNWg5dNL2Bq3mBm","contest":"Locus 2020","episode":"Locus 2020","category":null,"contestant":{"voting_id":"32","name":"Project Health and Environment Checker"},"vote_count":1,"created_on":"2020-02-01T18:30:14.609450+05:45"},{"idx":"YsgBYD5Vfuihai5c7z2r4H","contest":"Locus 2020","episode":"Locus 2020","category":null,"contestant":{"voting_id":"60","name":"Project EMG Contolled Prosthetic Arm"},"vote_count":1,"created_on":"2020-02-01T18:28:23.292118+05:45"},{"idx":"87TRJ5SSL7TxJJvgwGoS8c","contest":"Locus 2020","episode":"Locus 2020","category":null,"contestant":{"voting_id":"10","name":"Project Locus Documentation 2020"},"vote_count":1,"created_on":"2020-02-01T18:26:38.469065+05:45"},{"idx":"ksV5aAXx23KcRHXvxeMjKA","contest":"Locus 2020","episode":"Locus 2020","category":null,"contestant":{"voting_id":"10","name":"Project Locus Documentation 2020"},"vote_count":1,"created_on":"2020-02-01T18:25:19.000462+05:45"},{"idx":"3nuQWaxXz9UR5oJ4eh5XSY","contest":"Locus 2020","episode":"Locus 2020","category":null,"contestant":{"voting_id":"31","name":"Project 3 in 1 Cartesian 3D Printer"},"vote_count":1,"created_on":"2020-02-01T18:24:24.875469+05:45"},{"idx":"qqPuxJVn4QWEC5d85CfA3X","contest":"Locus 2020","episode":"Locus 2020","category":null,"contestant":{"voting_id":"04","name":"Project IRB -Robo Arm"},"vote_count":1,"created_on":"2020-02-01T18:23:33.912078+05:45"},{"idx":"ysDmkmQWxai5MFd4jFBHdm","contest":"Locus 2020","episode":"Locus 2020","category":null,"contestant":{"voting_id":"01","name":"Project Fire Robo"},"vote_count":1,"created_on":"2020-02-01T18:16:07.869648+05:45"},{"idx":"daGmUBQQpfdze5b3saCccm","contest":"Locus 2020","episode":"Locus 2020","category":null,"contestant":{"voting_id":"08","name":"Project A Smart Approach Towards Lifestyle in Nepal"},"vote_count":1,"created_on":"2020-02-01T18:12:28.854931+05:45"},{"idx":"erL27tDnbX23wnXDCGxuTg","contest":"Locus 2020","episode":"Locus 2020","category":null,"contestant":{"voting_id":"66","name":"Project Alexa Pi"},"vote_count":1,"created_on":"2020-02-01T18:12:13.054217+05:45"},{"idx":"ujHBGG7CuHoDFEhJakPk4N","contest":"Music Eve 2020","episode":"Music Eve 2020 IOE","category":null,"contestant":{"voting_id":"07","name":"Chemical Latch"},"vote_count":1,"created_on":"2020-02-01T18:09:47.502109+05:45"},{"idx":"DcNEE9eTmRM5kim4HUtx8e","contest":"Locus 2020","episode":"Locus 2020","category":null,"contestant":{"voting_id":"22","name":"Project Under Ground Fault Detector"},"vote_count":1,"created_on":"2020-02-01T18:07:31.234707+05:45"},{"idx":"ncJkDewWcd6fbyuYHUyCZ4","contest":"Locus 2020","episode":"Locus 2020","category":null,"contestant":{"voting_id":"59","name":"Project Home Automation"},"vote_count":1,"created_on":"2020-02-01T18:07:10.486056+05:45"},{"idx":"3AWoAQfVBoXkeHFCB62MQ3","contest":"Locus 2020","episode":"Locus 2020","category":null,"contestant":{"voting_id":"13","name":"Project Smart Fire Detector"},"vote_count":1,"created_on":"2020-02-01T18:07:05.894437+05:45"},{"idx":"x3yWKCjFnTzXtnR9FxVxqf","contest":"Locus 2020","episode":"Locus 2020","category":null,"contestant":{"voting_id":"26","name":"Project Automatic Rechargaeble Stove"},"vote_count":1,"created_on":"2020-02-01T18:03:01.558047+05:45"},{"idx":"97qneewG36efVNncCgdX9o","contest":"Locus 2020","episode":"Locus 2020","category":null,"contestant":{"voting_id":"70","name":"Project ATM Alert"},"vote_count":1,"created_on":"2020-02-01T17:55:26.059083+05:45"},{"idx":"uHwrLbZkqyeFvxWwnsZeZQ","contest":"Locus 2020","episode":"Locus 2020","category":null,"contestant":{"voting_id":"46","name":"Project Immune"},"vote_count":1,"created_on":"2020-02-01T17:55:11.972551+05:45"},{"idx":"DVzaQWE6TeDpjQcRGvUuKG","contest":"Locus 2020","episode":"Locus 2020","category":null,"contestant":{"voting_id":"70","name":"Project ATM Alert"},"vote_count":1,"created_on":"2020-02-01T17:54:55.277748+05:45"},{"idx":"7Pn6cpDBR5rqpaKXS4TPBP","contest":"Locus 2020","episode":"Locus 2020","category":null,"contestant":{"voting_id":"92","name":"Project Bhakari Shopping Nepal"},"vote_count":1,"created_on":"2020-02-01T17:54:28.732333+05:45"},{"idx":"AaJA8AcrcDFwf73joQSwKc","contest":"Locus 2020","episode":"Locus 2020","category":null,"contestant":{"voting_id":"22","name":"Project Under Ground Fault Detector"},"vote_count":1,"created_on":"2020-02-01T17:53:11.602705+05:45"},{"idx":"4zJLWaMYJRjD4hYV77EnJM","contest":"Locus 2020","episode":"Locus 2020","category":null,"contestant":{"voting_id":"30","name":"Project Relay Ride System"},"vote_count":1,"created_on":"2020-02-01T17:52:31.519104+05:45"},{"idx":"yGyTaiZYPUHVVcgwB8xekU","contest":"Locus 2020","episode":"Locus 2020","category":null,"contestant":{"voting_id":"92","name":"Project Bhakari Shopping Nepal"},"vote_count":1,"created_on":"2020-02-01T17:50:11.543763+05:45"},{"idx":"yDUuhRAZDY5czuojcgAGpg","contest":"Locus 2020","episode":"Locus 2020","category":null,"contestant":{"voting_id":"31","name":"Project 3 in 1 Cartesian 3D Printer"},"vote_count":1,"created_on":"2020-02-01T17:49:57.172421+05:45"},{"idx":"SDW37Dc8DyL4zKhsM5moF2","contest":"Locus 2020","episode":"Locus 2020","category":null,"contestant":{"voting_id":"46","name":"Project Immune"},"vote_count":1,"created_on":"2020-02-01T17:49:16.257261+05:45"},{"idx":"xUDbSmhGsykLgwqsTA2GbP","contest":"Model Superstar","episode":"Model Superstar Finale","category":null,"contestant":{"voting_id":"01","name":"Sajina Subba"},"vote_count":1,"created_on":"2020-02-01T17:48:56.295950+05:45"},{"idx":"ccxUEQHY2R6ZLT9QSnCnyX","contest":"Locus 2020","episode":"Locus 2020","category":null,"contestant":{"voting_id":"31","name":"Project 3 in 1 Cartesian 3D Printer"},"vote_count":1,"created_on":"2020-02-01T17:47:00.461871+05:45"},{"idx":"35NyqVkXakg7NAxFhJ2pqm","contest":"Locus 2020","episode":"Locus 2020","category":null,"contestant":{"voting_id":"24","name":"Project Library App"},"vote_count":1,"created_on":"2020-02-01T17:46:39.602839+05:45"},{"idx":"wAA8zNNnwkTpQq6RMr54BZ","contest":"Locus 2020","episode":"Locus 2020","category":null,"contestant":{"voting_id":"24","name":"Project Library App"},"vote_count":1,"created_on":"2020-02-01T17:42:17.394875+05:45"},{"idx":"eaY7YeNHfFQTXaDiYdA35d","contest":"Locus 2020","episode":"Locus 2020","category":null,"contestant":{"voting_id":"11","name":"Project Kissan"},"vote_count":5,"created_on":"2020-02-01T17:41:45.109426+05:45"},{"idx":"6L2hNQGPEaxJpTwKFEvYXk","contest":"Locus 2020","episode":"Locus 2020","category":null,"contestant":{"voting_id":"11","name":"Project Kissan"},"vote_count":1,"created_on":"2020-02-01T17:41:25.042575+05:45"},{"idx":"tLMAKApKQzuouSPWp3KLBh","contest":"Locus 2020","episode":"Locus 2020","category":null,"contestant":{"voting_id":"09","name":"Project Solar Powered Water Surface Garbage Collecting Boat"},"vote_count":1,"created_on":"2020-02-01T17:40:44.526346+05:45"},{"idx":"iAFeKmZqKMG84FoudnQN8Z","contest":"Locus 2020","episode":"Locus 2020","category":null,"contestant":{"voting_id":"31","name":"Project 3 in 1 Cartesian 3D Printer"},"vote_count":1,"created_on":"2020-02-01T17:39:32.752100+05:45"},{"idx":"TdsND5XwyKzJ2jk7rAYEbA","contest":"Locus 2020","episode":"Locus 2020","category":null,"contestant":{"voting_id":"46","name":"Project Immune"},"vote_count":1,"created_on":"2020-02-01T17:28:04.892235+05:45"},{"idx":"CVnyugK7w6aPNqFtU7cWpW","contest":"Model Superstar","episode":"Model Superstar Finale","category":null,"contestant":{"voting_id":"14","name":"Ashish Shakya"},"vote_count":1,"created_on":"2020-02-01T17:25:11.141735+05:45"},{"idx":"xmMarezECk3kXJNCG3cTNn","contest":"Locus 2020","episode":"Locus 2020","category":null,"contestant":{"voting_id":"92","name":"Project Bhakari Shopping Nepal"},"vote_count":1,"created_on":"2020-02-01T17:24:29.118967+05:45"},{"idx":"f78QBnv5bZZ7HEseu2g9Hj","contest":"Locus 2020","episode":"Locus 2020","category":null,"contestant":{"voting_id":"38","name":"Project Project -N"},"vote_count":1,"created_on":"2020-02-01T17:24:18.176203+05:45"},{"idx":"V2bSbYBmArPLHnr5US9Xv2","contest":"Locus 2020","episode":"Locus 2020","category":null,"contestant":{"voting_id":"24","name":"Project Library App"},"vote_count":1,"created_on":"2020-02-01T17:21:37.278478+05:45"},{"idx":"M2QzZSshATFGB9aARvPiqS","contest":"Locus 2020","episode":"Locus 2020","category":null,"contestant":{"voting_id":"24","name":"Project Library App"},"vote_count":1,"created_on":"2020-02-01T17:10:37.452409+05:45"},{"idx":"mGr9TqQK8mBb5r8m8RWa6T","contest":"Locus 2020","episode":"Locus 2020","category":null,"contestant":{"voting_id":"42","name":"Project P.I.M.P."},"vote_count":1,"created_on":"2020-02-01T17:07:43.849284+05:45"},{"idx":"yb3oTF3rZ2oZweuDd6hSNa","contest":"Locus 2020","episode":"Locus 2020","category":null,"contestant":{"voting_id":"04","name":"Project IRB -Robo Arm"},"vote_count":1,"created_on":"2020-02-01T17:03:21.498909+05:45"},{"idx":"VXtphYcswanDqbPDjQjQGU","contest":"Locus 2020","episode":"Locus 2020","category":null,"contestant":{"voting_id":"46","name":"Project Immune"},"vote_count":1,"created_on":"2020-02-01T17:02:12.251666+05:45"}]}