{"total_pages":275,"total_records":13721,"next":"https://khalti.com/api/v2/vuservote/?page=171","previous":"https://khalti.com/api/v2/vuservote/?page=169","record_range":[8451,8500],"current_page":170,"records":[{"idx":"dVGq8p6GLqmCjCCdBLeoK2","contest":"Mr. & Miss Teen Sherpa 2020 - S2","episode":"Mr.&Miss Teen Sherpa -S2","category":null,"contestant":{"voting_id":"01","name":"Lhamu Sherpa"},"vote_count":1,"created_on":"2020-01-01T22:29:32.424231+05:45"},{"idx":"tmopSNVnKkiMaxo4D9KaBk","contest":"Mr. & Miss Teen Sherpa 2020 - S2","episode":"Mr.&Miss Teen Sherpa -S2","category":null,"contestant":{"voting_id":"01","name":"Lhamu Sherpa"},"vote_count":1,"created_on":"2020-01-01T22:28:40.391850+05:45"},{"idx":"UUUEtFRnzNdo5HHRaXuHJR","contest":"Mr. & Miss Teen Sherpa 2020 - S2","episode":"Mr.&Miss Teen Sherpa -S2","category":null,"contestant":{"voting_id":"02","name":"Pema Yanji sherpa"},"vote_count":1,"created_on":"2020-01-01T22:28:16.852516+05:45"},{"idx":"fge346ai67cu3XUNNdMeFd","contest":"Mr. & Miss Teen Sherpa 2020 - S2","episode":"Mr.&Miss Teen Sherpa -S2","category":null,"contestant":{"voting_id":"02","name":"Pema Yanji sherpa"},"vote_count":1,"created_on":"2020-01-01T22:28:05.407188+05:45"},{"idx":"VguagaAWBDSkaFxTrirePP","contest":"Mr. & Miss Teen Sherpa 2020 - S2","episode":"Mr.&Miss Teen Sherpa -S2","category":null,"contestant":{"voting_id":"03","name":"Mingma Sherpa"},"vote_count":1,"created_on":"2020-01-01T22:21:19.946156+05:45"},{"idx":"SkqWCQsSzod28crNYEW9QB","contest":"Mr. & Miss Teen Sherpa 2020 - S2","episode":"Mr.&Miss Teen Sherpa -S2","category":null,"contestant":{"voting_id":"08","name":"Angdali Sherpa"},"vote_count":1,"created_on":"2020-01-01T22:16:49.219092+05:45"},{"idx":"BaVX76rfqsCPkGkKSqFMUg","contest":"Mr. & Miss Teen Sherpa 2020 - S2","episode":"Mr.&Miss Teen Sherpa -S2","category":null,"contestant":{"voting_id":"08","name":"Angdali Sherpa"},"vote_count":1,"created_on":"2020-01-01T22:16:37.449387+05:45"},{"idx":"gMFYkiQ6wpF4WFyUNwzEbH","contest":"Mr. & Miss Teen Sherpa 2020 - S2","episode":"Mr.&Miss Teen Sherpa -S2","category":null,"contestant":{"voting_id":"08","name":"Angdali Sherpa"},"vote_count":1,"created_on":"2020-01-01T22:16:23.703433+05:45"},{"idx":"U33a6vBAWsLnmuHiaRGYnU","contest":"Mr. & Miss Teen Sherpa 2020 - S2","episode":"Mr.&Miss Teen Sherpa -S2","category":null,"contestant":{"voting_id":"08","name":"Angdali Sherpa"},"vote_count":1,"created_on":"2020-01-01T22:16:10.574311+05:45"},{"idx":"UX3UMVRGXx9y4nsv75Vk47","contest":"Mr. & Miss Teen Sherpa 2020 - S2","episode":"Mr.&Miss Teen Sherpa -S2","category":null,"contestant":{"voting_id":"08","name":"Angdali Sherpa"},"vote_count":1,"created_on":"2020-01-01T22:15:58.335437+05:45"},{"idx":"cBACQ8dxDKjUMVE749uY99","contest":"Mr. & Miss Teen Sherpa 2020 - S2","episode":"Mr.&Miss Teen Sherpa -S2","category":null,"contestant":{"voting_id":"08","name":"Angdali Sherpa"},"vote_count":1,"created_on":"2020-01-01T22:15:45.778996+05:45"},{"idx":"R4ujxJuyp7J6W9QghsbMSH","contest":"Mr. & Miss Teen Sherpa 2020 - S2","episode":"Mr.&Miss Teen Sherpa -S2","category":null,"contestant":{"voting_id":"08","name":"Angdali Sherpa"},"vote_count":1,"created_on":"2020-01-01T22:15:18.818306+05:45"},{"idx":"WowZEEwarqeeeXuLN8kFtm","contest":"Mr. & Miss Teen Sherpa 2020 - S2","episode":"Mr.&Miss Teen Sherpa -S2","category":null,"contestant":{"voting_id":"08","name":"Angdali Sherpa"},"vote_count":1,"created_on":"2020-01-01T22:15:06.191464+05:45"},{"idx":"MQm6Sfkkh7DP2tH4rVcEpZ","contest":"Mr. & Miss Teen Sherpa 2020 - S2","episode":"Mr.&Miss Teen Sherpa -S2","category":null,"contestant":{"voting_id":"08","name":"Angdali Sherpa"},"vote_count":1,"created_on":"2020-01-01T22:14:51.016249+05:45"},{"idx":"FCQwWkAuVpFB7CA8fs6XEW","contest":"Mr. & Miss Teen Sherpa 2020 - S2","episode":"Mr.&Miss Teen Sherpa -S2","category":null,"contestant":{"voting_id":"08","name":"Angdali Sherpa"},"vote_count":1,"created_on":"2020-01-01T22:14:34.050181+05:45"},{"idx":"gBoBVHBTadeZSCe7Ao4scb","contest":"Mr. & Miss Teen Sherpa 2020 - S2","episode":"Mr.&Miss Teen Sherpa -S2","category":null,"contestant":{"voting_id":"08","name":"Angdali Sherpa"},"vote_count":1,"created_on":"2020-01-01T22:14:21.484663+05:45"},{"idx":"hUZg9mD4P4AM43nsVHF36E","contest":"Mr. & Miss Teen Sherpa 2020 - S2","episode":"Mr.&Miss Teen Sherpa -S2","category":null,"contestant":{"voting_id":"08","name":"Angdali Sherpa"},"vote_count":1,"created_on":"2020-01-01T22:14:02.015743+05:45"},{"idx":"KMxKHr2pAU89oR3JqkgooA","contest":"Mr. & Miss Teen Sherpa 2020 - S2","episode":"Mr.&Miss Teen Sherpa -S2","category":null,"contestant":{"voting_id":"08","name":"Angdali Sherpa"},"vote_count":1,"created_on":"2020-01-01T22:13:49.581388+05:45"},{"idx":"MUzmocuTyDBbw99vjjWvF6","contest":"Mr. & Miss Teen Sherpa 2020 - S2","episode":"Mr.&Miss Teen Sherpa -S2","category":null,"contestant":{"voting_id":"08","name":"Angdali Sherpa"},"vote_count":1,"created_on":"2020-01-01T22:13:34.975581+05:45"},{"idx":"de68cCZnt7nyBto2ynojCX","contest":"Mr. & Miss Teen Sherpa 2020 - S2","episode":"Mr.&Miss Teen Sherpa -S2","category":null,"contestant":{"voting_id":"08","name":"Angdali Sherpa"},"vote_count":1,"created_on":"2020-01-01T22:13:20.697537+05:45"},{"idx":"jyGoDLKKWCF6zBsdzsK4e7","contest":"Mr. & Miss Teen Sherpa 2020 - S2","episode":"Mr.&Miss Teen Sherpa -S2","category":null,"contestant":{"voting_id":"08","name":"Angdali Sherpa"},"vote_count":1,"created_on":"2020-01-01T22:12:40.581031+05:45"},{"idx":"6B5YjzuujFaWhfkCfceUXH","contest":"Mr. & Miss Teen Sherpa 2020 - S2","episode":"Mr.&Miss Teen Sherpa -S2","category":null,"contestant":{"voting_id":"08","name":"Angdali Sherpa"},"vote_count":1,"created_on":"2020-01-01T22:12:25.682405+05:45"},{"idx":"ga2TF9wX8aTtdwVaBhXhNH","contest":"Mr. & Miss Teen Sherpa 2020 - S2","episode":"Mr.&Miss Teen Sherpa -S2","category":null,"contestant":{"voting_id":"08","name":"Angdali Sherpa"},"vote_count":1,"created_on":"2020-01-01T22:12:08.229382+05:45"},{"idx":"F9Kq6LB2a4vRXJnrfytsNZ","contest":"Mr. & Miss Teen Sherpa 2020 - S2","episode":"Mr.&Miss Teen Sherpa -S2","category":null,"contestant":{"voting_id":"08","name":"Angdali Sherpa"},"vote_count":1,"created_on":"2020-01-01T22:11:49.830694+05:45"},{"idx":"SrdHBx5EdzYardwizg4CRL","contest":"Mr. & Miss Teen Sherpa 2020 - S2","episode":"Mr.&Miss Teen Sherpa -S2","category":null,"contestant":{"voting_id":"04","name":"Chhewang Sherpa"},"vote_count":1,"created_on":"2020-01-01T22:02:31.983895+05:45"},{"idx":"V3HWmRCLYzGBhCVQXMEPAh","contest":"Mr. & Miss Teen Sherpa 2020 - S2","episode":"Mr.&Miss Teen Sherpa -S2","category":null,"contestant":{"voting_id":"02","name":"Pema Yanji sherpa"},"vote_count":1,"created_on":"2020-01-01T21:59:42.253289+05:45"},{"idx":"FRQ8TDPMi44qHa2bziKY2d","contest":"Mr. & Miss Teen Sherpa 2020 - S2","episode":"Mr.&Miss Teen Sherpa -S2","category":null,"contestant":{"voting_id":"02","name":"Pema Yanji sherpa"},"vote_count":1,"created_on":"2020-01-01T21:59:34.854210+05:45"},{"idx":"keUpoh6gVSQMHjpgcqqVyG","contest":"Mr. & Miss Teen Sherpa 2020 - S2","episode":"Mr.&Miss Teen Sherpa -S2","category":null,"contestant":{"voting_id":"02","name":"Pema Yanji sherpa"},"vote_count":1,"created_on":"2020-01-01T21:59:28.680925+05:45"},{"idx":"GMY2nMLTPQqqLNfa6uQyX5","contest":"Mr. & Miss Teen Sherpa 2020 - S2","episode":"Mr.&Miss Teen Sherpa -S2","category":null,"contestant":{"voting_id":"02","name":"Pema Yanji sherpa"},"vote_count":1,"created_on":"2020-01-01T21:59:22.060630+05:45"},{"idx":"88PMH8n8NF8nqnqJeXQh3U","contest":"Mr. & Miss Teen Sherpa 2020 - S2","episode":"Mr.&Miss Teen Sherpa -S2","category":null,"contestant":{"voting_id":"02","name":"Pema Yanji sherpa"},"vote_count":1,"created_on":"2020-01-01T21:59:15.274123+05:45"},{"idx":"oSVMVRNby4ciqZkHMDe495","contest":"Mr. & Miss Teen Sherpa 2020 - S2","episode":"Mr.&Miss Teen Sherpa -S2","category":null,"contestant":{"voting_id":"02","name":"Pema Yanji sherpa"},"vote_count":1,"created_on":"2020-01-01T21:59:08.611687+05:45"},{"idx":"BV8eGxVQ77TbWq4PHPL8tN","contest":"Model Superstar","episode":"Model Superstar","category":null,"contestant":{"voting_id":"16","name":"Anil Karki"},"vote_count":5,"created_on":"2020-01-01T21:56:09.665271+05:45"},{"idx":"b5RoBg5xWBcajLtoX5UwcM","contest":"Model Superstar","episode":"Model Superstar","category":null,"contestant":{"voting_id":"16","name":"Anil Karki"},"vote_count":5,"created_on":"2020-01-01T21:55:52.758928+05:45"},{"idx":"MH6YsQYJapbFj4ajGpoC3N","contest":"Model Superstar","episode":"Model Superstar","category":null,"contestant":{"voting_id":"16","name":"Anil Karki"},"vote_count":5,"created_on":"2020-01-01T21:55:29.391959+05:45"},{"idx":"BZXj8CNrkZAwAPYiEUQEp8","contest":"Mr. & Miss Teen Sherpa 2020 - S2","episode":"Mr.&Miss Teen Sherpa -S2","category":null,"contestant":{"voting_id":"02","name":"Pema Yanji sherpa"},"vote_count":1,"created_on":"2020-01-01T21:54:19.005911+05:45"},{"idx":"Gf6MD5gFtPLgj8BnpDrWJ8","contest":"Mr. & Miss Teen Sherpa 2020 - S2","episode":"Mr.&Miss Teen Sherpa -S2","category":null,"contestant":{"voting_id":"02","name":"Pema Yanji sherpa"},"vote_count":1,"created_on":"2020-01-01T21:54:10.593769+05:45"},{"idx":"sq4saZeUYxVJ7sDEepdMvX","contest":"Mr. & Miss Teen Sherpa 2020 - S2","episode":"Mr.&Miss Teen Sherpa -S2","category":null,"contestant":{"voting_id":"02","name":"Pema Yanji sherpa"},"vote_count":1,"created_on":"2020-01-01T21:54:02.639934+05:45"},{"idx":"TmCsQ4qaviRLS2VA7PbEBM","contest":"Mr. & Miss Teen Sherpa 2020 - S2","episode":"Mr.&Miss Teen Sherpa -S2","category":null,"contestant":{"voting_id":"02","name":"Pema Yanji sherpa"},"vote_count":1,"created_on":"2020-01-01T21:53:54.186303+05:45"},{"idx":"KkdwiYbcu62LZBBxcZ8KzR","contest":"Mr. & Miss Teen Sherpa 2020 - S2","episode":"Mr.&Miss Teen Sherpa -S2","category":null,"contestant":{"voting_id":"02","name":"Pema Yanji sherpa"},"vote_count":1,"created_on":"2020-01-01T21:52:26.003088+05:45"},{"idx":"zqgtUTzWFPPuC99Nv9jbUM","contest":"Mr. & Miss Teen Sherpa 2020 - S2","episode":"Mr.&Miss Teen Sherpa -S2","category":null,"contestant":{"voting_id":"02","name":"Pema Yanji sherpa"},"vote_count":1,"created_on":"2020-01-01T21:52:18.026300+05:45"},{"idx":"4vQyPPbu9thjpEuiyViUXo","contest":"Mr. & Miss Teen Sherpa 2020 - S2","episode":"Mr.&Miss Teen Sherpa -S2","category":null,"contestant":{"voting_id":"02","name":"Pema Yanji sherpa"},"vote_count":1,"created_on":"2020-01-01T21:52:10.747116+05:45"},{"idx":"gc4tBYzpofHbPACdEzmJkQ","contest":"Mr. & Miss Teen Sherpa 2020 - S2","episode":"Mr.&Miss Teen Sherpa -S2","category":null,"contestant":{"voting_id":"02","name":"Pema Yanji sherpa"},"vote_count":1,"created_on":"2020-01-01T21:52:02.115352+05:45"},{"idx":"kGnShUHPoTvbwaWtxcB4bC","contest":"Mr. & Miss Teen Sherpa 2020 - S2","episode":"Mr.&Miss Teen Sherpa -S2","category":null,"contestant":{"voting_id":"02","name":"Pema Yanji sherpa"},"vote_count":1,"created_on":"2020-01-01T21:50:38.316592+05:45"},{"idx":"yhZcoDRksPwRQriucEJPxk","contest":"Mr. & Miss Teen Sherpa 2020 - S2","episode":"Mr.&Miss Teen Sherpa -S2","category":null,"contestant":{"voting_id":"02","name":"Pema Yanji sherpa"},"vote_count":1,"created_on":"2020-01-01T21:50:31.511358+05:45"},{"idx":"MseEcJUpZpSpX3L87Yh7x2","contest":"Mr. & Miss Teen Sherpa 2020 - S2","episode":"Mr.&Miss Teen Sherpa -S2","category":null,"contestant":{"voting_id":"02","name":"Pema Yanji sherpa"},"vote_count":1,"created_on":"2020-01-01T21:50:22.841421+05:45"},{"idx":"sghZ6W6J6eEjy9Geo2jff2","contest":"Model Superstar","episode":"Model Superstar","category":null,"contestant":{"voting_id":"16","name":"Anil Karki"},"vote_count":5,"created_on":"2020-01-01T21:46:34.118445+05:45"},{"idx":"MR9Dam5XnnWYXZ8o4mJSKS","contest":"Mr. & Miss Teen Sherpa 2020 - S2","episode":"Mr.&Miss Teen Sherpa -S2","category":null,"contestant":{"voting_id":"02","name":"Pema Yanji sherpa"},"vote_count":1,"created_on":"2020-01-01T21:45:25.727086+05:45"},{"idx":"iVZFkq4Xpitw2gFzsbbZAB","contest":"Mr. & Miss Teen Sherpa 2020 - S2","episode":"Mr.&Miss Teen Sherpa -S2","category":null,"contestant":{"voting_id":"02","name":"Pema Yanji sherpa"},"vote_count":1,"created_on":"2020-01-01T21:45:03.062073+05:45"},{"idx":"jfjVTkqTDUYLfMVVjMVEdZ","contest":"Mr. & Miss Teen Sherpa 2020 - S2","episode":"Mr.&Miss Teen Sherpa -S2","category":null,"contestant":{"voting_id":"02","name":"Pema Yanji sherpa"},"vote_count":1,"created_on":"2020-01-01T21:44:54.806791+05:45"},{"idx":"YAzo4Bis9hZBzAZfnLXELJ","contest":"Mr. & Miss Teen Sherpa 2020 - S2","episode":"Mr.&Miss Teen Sherpa -S2","category":null,"contestant":{"voting_id":"02","name":"Pema Yanji sherpa"},"vote_count":1,"created_on":"2020-01-01T21:44:48.516553+05:45"}]}