{"total_pages":275,"total_records":13721,"next":"https://khalti.com/api/v2/vuservote/?page=173","previous":"https://khalti.com/api/v2/vuservote/?page=171","record_range":[8551,8600],"current_page":172,"records":[{"idx":"LpJvQTRiHe9Cpeud4TKTwS","contest":"Mr. & Miss Teen Sherpa 2020 - S2","episode":"Mr.&Miss Teen Sherpa -S2","category":null,"contestant":{"voting_id":"02","name":"Pema Yanji sherpa"},"vote_count":1,"created_on":"2020-01-01T21:26:46.544073+05:45"},{"idx":"6BfDFSijx8QffceBx8rfYe","contest":"Mr. & Miss Teen Sherpa 2020 - S2","episode":"Mr.&Miss Teen Sherpa -S2","category":null,"contestant":{"voting_id":"02","name":"Pema Yanji sherpa"},"vote_count":1,"created_on":"2020-01-01T21:26:39.823098+05:45"},{"idx":"25ui4v6ydjaNmKLLXKNcqJ","contest":"Mr. & Miss Teen Sherpa 2020 - S2","episode":"Mr.&Miss Teen Sherpa -S2","category":null,"contestant":{"voting_id":"02","name":"Pema Yanji sherpa"},"vote_count":1,"created_on":"2020-01-01T21:26:17.781156+05:45"},{"idx":"7TYnyA3fSEZbpfDmqLSDwH","contest":"Mr. & Miss Teen Sherpa 2020 - S2","episode":"Mr.&Miss Teen Sherpa -S2","category":null,"contestant":{"voting_id":"02","name":"Pema Yanji sherpa"},"vote_count":1,"created_on":"2020-01-01T21:26:10.343480+05:45"},{"idx":"7MQ27yYGfWnCa4avB2a4jB","contest":"Mr. & Miss Teen Sherpa 2020 - S2","episode":"Mr.&Miss Teen Sherpa -S2","category":null,"contestant":{"voting_id":"02","name":"Pema Yanji sherpa"},"vote_count":1,"created_on":"2020-01-01T21:25:40.187925+05:45"},{"idx":"dcCHboyiYKHfCSxhyHMibH","contest":"Mr. & Miss Teen Sherpa 2020 - S2","episode":"Mr.&Miss Teen Sherpa -S2","category":null,"contestant":{"voting_id":"23","name":"Chhiri Sherpa"},"vote_count":1,"created_on":"2020-01-01T21:25:14.089899+05:45"},{"idx":"3AYMeUd6vmkwKV36WZnpiA","contest":"Mr. & Miss Teen Sherpa 2020 - S2","episode":"Mr.&Miss Teen Sherpa -S2","category":null,"contestant":{"voting_id":"02","name":"Pema Yanji sherpa"},"vote_count":1,"created_on":"2020-01-01T21:24:48.021907+05:45"},{"idx":"JoL3w3e2repTWSGRJJCZH2","contest":"Mr. & Miss Teen Sherpa 2020 - S2","episode":"Mr.&Miss Teen Sherpa -S2","category":null,"contestant":{"voting_id":"02","name":"Pema Yanji sherpa"},"vote_count":1,"created_on":"2020-01-01T21:24:40.319761+05:45"},{"idx":"yJBzgk8DaFXZLd7fiifNWi","contest":"Mr. & Miss Teen Sherpa 2020 - S2","episode":"Mr.&Miss Teen Sherpa -S2","category":null,"contestant":{"voting_id":"02","name":"Pema Yanji sherpa"},"vote_count":1,"created_on":"2020-01-01T21:23:55.434410+05:45"},{"idx":"Uj6UqVGyZgyE6Xep7GhCFH","contest":"Mr. & Miss Teen Sherpa 2020 - S2","episode":"Mr.&Miss Teen Sherpa -S2","category":null,"contestant":{"voting_id":"02","name":"Pema Yanji sherpa"},"vote_count":1,"created_on":"2020-01-01T21:23:48.427221+05:45"},{"idx":"un3qu4r6sex77d5Z2nw4zk","contest":"Mr. & Miss Teen Sherpa 2020 - S2","episode":"Mr.&Miss Teen Sherpa -S2","category":null,"contestant":{"voting_id":"02","name":"Pema Yanji sherpa"},"vote_count":1,"created_on":"2020-01-01T21:23:41.934194+05:45"},{"idx":"RvqfSGuB9anzR6NfthQeRD","contest":"Mr. & Miss Teen Sherpa 2020 - S2","episode":"Mr.&Miss Teen Sherpa -S2","category":null,"contestant":{"voting_id":"02","name":"Pema Yanji sherpa"},"vote_count":1,"created_on":"2020-01-01T21:23:35.448825+05:45"},{"idx":"FwoXGvTM975Q3ajYsU8ENN","contest":"Mr. & Miss Teen Sherpa 2020 - S2","episode":"Mr.&Miss Teen Sherpa -S2","category":null,"contestant":{"voting_id":"23","name":"Chhiri Sherpa"},"vote_count":1,"created_on":"2020-01-01T21:23:29.314171+05:45"},{"idx":"DkJG8WfPpCF6TNZbghwD8Y","contest":"Mr. & Miss Teen Sherpa 2020 - S2","episode":"Mr.&Miss Teen Sherpa -S2","category":null,"contestant":{"voting_id":"02","name":"Pema Yanji sherpa"},"vote_count":1,"created_on":"2020-01-01T21:23:28.881144+05:45"},{"idx":"sQTyze89g2ViZ6Uue5bmfL","contest":"Mr. & Miss Teen Sherpa 2020 - S2","episode":"Mr.&Miss Teen Sherpa -S2","category":null,"contestant":{"voting_id":"02","name":"Pema Yanji sherpa"},"vote_count":1,"created_on":"2020-01-01T21:23:22.160502+05:45"},{"idx":"AZ67oNYdRkh3qWqsEH2qXW","contest":"Mr. & Miss Teen Sherpa 2020 - S2","episode":"Mr.&Miss Teen Sherpa -S2","category":null,"contestant":{"voting_id":"02","name":"Pema Yanji sherpa"},"vote_count":1,"created_on":"2020-01-01T21:23:15.678727+05:45"},{"idx":"7pYuM7GVBCLbrPeVHhSumC","contest":"Mr. & Miss Teen Sherpa 2020 - S2","episode":"Mr.&Miss Teen Sherpa -S2","category":null,"contestant":{"voting_id":"02","name":"Pema Yanji sherpa"},"vote_count":1,"created_on":"2020-01-01T21:23:09.240341+05:45"},{"idx":"LBMv748AnoPePmcj7i2Guj","contest":"Mr. & Miss Teen Sherpa 2020 - S2","episode":"Mr.&Miss Teen Sherpa -S2","category":null,"contestant":{"voting_id":"02","name":"Pema Yanji sherpa"},"vote_count":1,"created_on":"2020-01-01T21:22:47.252198+05:45"},{"idx":"kutaTYpCg8uwULxrmyktcb","contest":"Mr. & Miss Teen Sherpa 2020 - S2","episode":"Mr.&Miss Teen Sherpa -S2","category":null,"contestant":{"voting_id":"02","name":"Pema Yanji sherpa"},"vote_count":1,"created_on":"2020-01-01T21:22:35.727170+05:45"},{"idx":"3oRUfYTbvuvWUGu4AsRwV3","contest":"Mr. & Miss Teen Sherpa 2020 - S2","episode":"Mr.&Miss Teen Sherpa -S2","category":null,"contestant":{"voting_id":"02","name":"Pema Yanji sherpa"},"vote_count":1,"created_on":"2020-01-01T21:22:28.521967+05:45"},{"idx":"PQrofGDgH9EnZS53mfoPsU","contest":"Mr. & Miss Teen Sherpa 2020 - S2","episode":"Mr.&Miss Teen Sherpa -S2","category":null,"contestant":{"voting_id":"02","name":"Pema Yanji sherpa"},"vote_count":1,"created_on":"2020-01-01T21:21:01.410344+05:45"},{"idx":"duKTRLJSstBDzzakiUWpPT","contest":"Mr. & Miss Teen Sherpa 2020 - S2","episode":"Mr.&Miss Teen Sherpa -S2","category":null,"contestant":{"voting_id":"02","name":"Pema Yanji sherpa"},"vote_count":1,"created_on":"2020-01-01T21:20:53.199595+05:45"},{"idx":"UfcFzXWYU6WcyjRgLUzQnP","contest":"Mr. & Miss Teen Sherpa 2020 - S2","episode":"Mr.&Miss Teen Sherpa -S2","category":null,"contestant":{"voting_id":"02","name":"Pema Yanji sherpa"},"vote_count":1,"created_on":"2020-01-01T21:20:44.799639+05:45"},{"idx":"eevM5tak2JwVxGtSVhmxJB","contest":"Mr. & Miss Teen Sherpa 2020 - S2","episode":"Mr.&Miss Teen Sherpa -S2","category":null,"contestant":{"voting_id":"02","name":"Pema Yanji sherpa"},"vote_count":1,"created_on":"2020-01-01T21:20:37.509371+05:45"},{"idx":"cQuu4ydZBTW65G9Ur2nXnB","contest":"Mr. & Miss Teen Sherpa 2020 - S2","episode":"Mr.&Miss Teen Sherpa -S2","category":null,"contestant":{"voting_id":"02","name":"Pema Yanji sherpa"},"vote_count":1,"created_on":"2020-01-01T21:20:14.043967+05:45"},{"idx":"NbkxTeGZA2aHeoyKtbC4kJ","contest":"Mr. & Miss Teen Sherpa 2020 - S2","episode":"Mr.&Miss Teen Sherpa -S2","category":null,"contestant":{"voting_id":"02","name":"Pema Yanji sherpa"},"vote_count":1,"created_on":"2020-01-01T21:19:28.869124+05:45"},{"idx":"5Ji67rpTUbwGytuyLSJaF7","contest":"Mr. & Miss Teen Sherpa 2020 - S2","episode":"Mr.&Miss Teen Sherpa -S2","category":null,"contestant":{"voting_id":"02","name":"Pema Yanji sherpa"},"vote_count":1,"created_on":"2020-01-01T21:18:29.368175+05:45"},{"idx":"32xax7F74xiAUDYSAjVjUD","contest":"Mr. & Miss Teen Sherpa 2020 - S2","episode":"Mr.&Miss Teen Sherpa -S2","category":null,"contestant":{"voting_id":"02","name":"Pema Yanji sherpa"},"vote_count":1,"created_on":"2020-01-01T21:11:53.036088+05:45"},{"idx":"PsfuX9WMKADUjzLUVNx9TZ","contest":"Mr. & Miss Teen Sherpa 2020 - S2","episode":"Mr.&Miss Teen Sherpa -S2","category":null,"contestant":{"voting_id":"04","name":"Chhewang Sherpa"},"vote_count":1,"created_on":"2020-01-01T21:06:26.234702+05:45"},{"idx":"DN9EPSR99RtKWYCrQpov7S","contest":"Mr. & Miss Teen Sherpa 2020 - S2","episode":"Mr.&Miss Teen Sherpa -S2","category":null,"contestant":{"voting_id":"04","name":"Chhewang Sherpa"},"vote_count":1,"created_on":"2020-01-01T21:03:55.256291+05:45"},{"idx":"NtksKuScMJeh6nJiYiGnJG","contest":"Mr. & Miss Teen Sherpa 2020 - S2","episode":"Mr.&Miss Teen Sherpa -S2","category":null,"contestant":{"voting_id":"04","name":"Chhewang Sherpa"},"vote_count":1,"created_on":"2020-01-01T21:03:18.961522+05:45"},{"idx":"VAPBaN3HWGeMALeutvzgQe","contest":"Mr. & Miss Teen Sherpa 2020 - S2","episode":"Mr.&Miss Teen Sherpa -S2","category":null,"contestant":{"voting_id":"04","name":"Chhewang Sherpa"},"vote_count":1,"created_on":"2020-01-01T21:02:44.957409+05:45"},{"idx":"PQBLcevNBRGcSwyc7AuNeX","contest":"Mr. & Miss Teen Sherpa 2020 - S2","episode":"Mr.&Miss Teen Sherpa -S2","category":null,"contestant":{"voting_id":"03","name":"Mingma Sherpa"},"vote_count":1,"created_on":"2020-01-01T20:53:40.833614+05:45"},{"idx":"Xhp2PjutSadiUX4r7yNuTi","contest":"Model Superstar","episode":"Model Superstar","category":null,"contestant":{"voting_id":"04","name":"Sabita Maharjan"},"vote_count":1,"created_on":"2020-01-01T20:53:25.910416+05:45"},{"idx":"EFWeXv8Ha6XkZjo9mYvrn6","contest":"Mr. & Miss Teen Sherpa 2020 - S2","episode":"Mr.&Miss Teen Sherpa -S2","category":null,"contestant":{"voting_id":"03","name":"Mingma Sherpa"},"vote_count":1,"created_on":"2020-01-01T20:53:22.471525+05:45"},{"idx":"GwMQtf8jhcMgBMkesCXCjN","contest":"Mr. & Miss Teen Sherpa 2020 - S2","episode":"Mr.&Miss Teen Sherpa -S2","category":null,"contestant":{"voting_id":"03","name":"Mingma Sherpa"},"vote_count":1,"created_on":"2020-01-01T20:53:22.026309+05:45"},{"idx":"vsTjVQwc7hJwJFxt75MBdY","contest":"Mr. & Miss Teen Sherpa 2020 - S2","episode":"Mr.&Miss Teen Sherpa -S2","category":null,"contestant":{"voting_id":"03","name":"Mingma Sherpa"},"vote_count":1,"created_on":"2020-01-01T20:53:10.249694+05:45"},{"idx":"5GRoGdZiNuQyP7Het6kNhM","contest":"Model Superstar","episode":"Model Superstar","category":null,"contestant":{"voting_id":"04","name":"Sabita Maharjan"},"vote_count":1,"created_on":"2020-01-01T20:53:03.447891+05:45"},{"idx":"xzZKsLoyXUdvVRy3oR2WQM","contest":"Mr. & Miss Teen Sherpa 2020 - S2","episode":"Mr.&Miss Teen Sherpa -S2","category":null,"contestant":{"voting_id":"03","name":"Mingma Sherpa"},"vote_count":1,"created_on":"2020-01-01T20:52:58.343002+05:45"},{"idx":"wzQ4GHPf6rdQfpeu5DFhaJ","contest":"Model Superstar","episode":"Model Superstar","category":null,"contestant":{"voting_id":"04","name":"Sabita Maharjan"},"vote_count":1,"created_on":"2020-01-01T20:52:49.455166+05:45"},{"idx":"3zZVzGbBVHRQg8iWedm2UV","contest":"Mr. & Miss Teen Sherpa 2020 - S2","episode":"Mr.&Miss Teen Sherpa -S2","category":null,"contestant":{"voting_id":"03","name":"Mingma Sherpa"},"vote_count":1,"created_on":"2020-01-01T20:52:48.607745+05:45"},{"idx":"KdYMX8bVqGuoAWA4jC84a7","contest":"Mr. & Miss Teen Sherpa 2020 - S2","episode":"Mr.&Miss Teen Sherpa -S2","category":null,"contestant":{"voting_id":"03","name":"Mingma Sherpa"},"vote_count":1,"created_on":"2020-01-01T20:52:45.212516+05:45"},{"idx":"NAm3ypkVzRKfzLWawUNLxd","contest":"Mr. & Miss Teen Sherpa 2020 - S2","episode":"Mr.&Miss Teen Sherpa -S2","category":null,"contestant":{"voting_id":"03","name":"Mingma Sherpa"},"vote_count":1,"created_on":"2020-01-01T20:52:30.377938+05:45"},{"idx":"TSvZvyYfYFmGonr8SSs8aZ","contest":"Mr. & Miss Teen Sherpa 2020 - S2","episode":"Mr.&Miss Teen Sherpa -S2","category":null,"contestant":{"voting_id":"03","name":"Mingma Sherpa"},"vote_count":1,"created_on":"2020-01-01T20:52:27.548532+05:45"},{"idx":"3euEmXTbu2iyPFiL5g2Zvi","contest":"Model Superstar","episode":"Model Superstar","category":null,"contestant":{"voting_id":"04","name":"Sabita Maharjan"},"vote_count":1,"created_on":"2020-01-01T20:52:26.056395+05:45"},{"idx":"iPYjCikkcsRyJVM6MSsCWP","contest":"Model Superstar","episode":"Model Superstar","category":null,"contestant":{"voting_id":"04","name":"Sabita Maharjan"},"vote_count":1,"created_on":"2020-01-01T20:52:03.743837+05:45"},{"idx":"PgqAG3i8S9hwgt2MsgqSXo","contest":"Mr. & Miss Teen Sherpa 2020 - S2","episode":"Mr.&Miss Teen Sherpa -S2","category":null,"contestant":{"voting_id":"03","name":"Mingma Sherpa"},"vote_count":1,"created_on":"2020-01-01T20:51:49.514420+05:45"},{"idx":"aqJw6cdXwz9RnFJXo4htP4","contest":"Model Superstar","episode":"Model Superstar","category":null,"contestant":{"voting_id":"04","name":"Sabita Maharjan"},"vote_count":1,"created_on":"2020-01-01T20:51:38.978745+05:45"},{"idx":"RY2TDV8qDnjgdfqzKi3xD5","contest":"Mr. & Miss Teen Sherpa 2020 - S2","episode":"Mr.&Miss Teen Sherpa -S2","category":null,"contestant":{"voting_id":"03","name":"Mingma Sherpa"},"vote_count":1,"created_on":"2020-01-01T20:51:31.395606+05:45"},{"idx":"uKwYwRJYb9AHH4WY6UCP8i","contest":"Mr. & Miss Teen Sherpa 2020 - S2","episode":"Mr.&Miss Teen Sherpa -S2","category":null,"contestant":{"voting_id":"03","name":"Mingma Sherpa"},"vote_count":1,"created_on":"2020-01-01T20:51:24.445414+05:45"}]}