{"total_pages":275,"total_records":13721,"next":"https://khalti.com/api/v2/vuservote/?page=174","previous":"https://khalti.com/api/v2/vuservote/?page=172","record_range":[8601,8650],"current_page":173,"records":[{"idx":"c2v6rhC3BhrpsuPaw3PXJ2","contest":"Model Superstar","episode":"Model Superstar","category":null,"contestant":{"voting_id":"04","name":"Sabita Maharjan"},"vote_count":1,"created_on":"2020-01-01T20:51:12.620605+05:45"},{"idx":"J4VCwNpDsthWNX7XXkSTag","contest":"Mr. & Miss Teen Sherpa 2020 - S2","episode":"Mr.&Miss Teen Sherpa -S2","category":null,"contestant":{"voting_id":"03","name":"Mingma Sherpa"},"vote_count":1,"created_on":"2020-01-01T20:51:07.544307+05:45"},{"idx":"86w6ve2mk7DkTgLPBHG7dM","contest":"Mr. & Miss Teen Sherpa 2020 - S2","episode":"Mr.&Miss Teen Sherpa -S2","category":null,"contestant":{"voting_id":"03","name":"Mingma Sherpa"},"vote_count":1,"created_on":"2020-01-01T20:51:05.344972+05:45"},{"idx":"DudnfrW2uoWgSL6a8pwWgM","contest":"Model Superstar","episode":"Model Superstar","category":null,"contestant":{"voting_id":"04","name":"Sabita Maharjan"},"vote_count":1,"created_on":"2020-01-01T20:50:55.507904+05:45"},{"idx":"YQSvjz2Mzkgkk8oAPaimGg","contest":"Mr. & Miss Teen Sherpa 2020 - S2","episode":"Mr.&Miss Teen Sherpa -S2","category":null,"contestant":{"voting_id":"03","name":"Mingma Sherpa"},"vote_count":1,"created_on":"2020-01-01T20:50:41.864523+05:45"},{"idx":"htx2cZ6ykNQSKhCptMoEnN","contest":"Mr. & Miss Teen Sherpa 2020 - S2","episode":"Mr.&Miss Teen Sherpa -S2","category":null,"contestant":{"voting_id":"03","name":"Mingma Sherpa"},"vote_count":1,"created_on":"2020-01-01T20:50:36.787199+05:45"},{"idx":"EQ9v72X4tvUBx5XbvPTMYj","contest":"Mr. & Miss Teen Sherpa 2020 - S2","episode":"Mr.&Miss Teen Sherpa -S2","category":null,"contestant":{"voting_id":"03","name":"Mingma Sherpa"},"vote_count":1,"created_on":"2020-01-01T20:50:19.437592+05:45"},{"idx":"mnixzVTYyQU7xg88e2bYUH","contest":"Mr. & Miss Teen Sherpa 2020 - S2","episode":"Mr.&Miss Teen Sherpa -S2","category":null,"contestant":{"voting_id":"03","name":"Mingma Sherpa"},"vote_count":1,"created_on":"2020-01-01T20:50:17.985774+05:45"},{"idx":"gMP3Ke7efae8WpY6Sw6nZ5","contest":"Model Superstar","episode":"Model Superstar","category":null,"contestant":{"voting_id":"04","name":"Sabita Maharjan"},"vote_count":1,"created_on":"2020-01-01T20:50:07.862799+05:45"},{"idx":"Gx289PAoTWgRNbvymkeKQb","contest":"Mr. & Miss Teen Sherpa 2020 - S2","episode":"Mr.&Miss Teen Sherpa -S2","category":null,"contestant":{"voting_id":"03","name":"Mingma Sherpa"},"vote_count":1,"created_on":"2020-01-01T20:49:39.881823+05:45"},{"idx":"yXWZoH5CEodD8wxhTn9piZ","contest":"Mr. & Miss Teen Sherpa 2020 - S2","episode":"Mr.&Miss Teen Sherpa -S2","category":null,"contestant":{"voting_id":"03","name":"Mingma Sherpa"},"vote_count":1,"created_on":"2020-01-01T20:49:13.255072+05:45"},{"idx":"MrjeqMEVH4Yr6tSMnU97RW","contest":"Mr. & Miss Teen Sherpa 2020 - S2","episode":"Mr.&Miss Teen Sherpa -S2","category":null,"contestant":{"voting_id":"03","name":"Mingma Sherpa"},"vote_count":1,"created_on":"2020-01-01T20:48:51.433840+05:45"},{"idx":"7AfQ7R5gm4HwYERVUFKtVZ","contest":"Mr. & Miss Teen Sherpa 2020 - S2","episode":"Mr.&Miss Teen Sherpa -S2","category":null,"contestant":{"voting_id":"03","name":"Mingma Sherpa"},"vote_count":1,"created_on":"2020-01-01T20:48:25.879949+05:45"},{"idx":"2jEkeN3eNRPgZguG4byVvh","contest":"Mr. & Miss Teen Sherpa 2020 - S2","episode":"Mr.&Miss Teen Sherpa -S2","category":null,"contestant":{"voting_id":"03","name":"Mingma Sherpa"},"vote_count":1,"created_on":"2020-01-01T20:47:53.798351+05:45"},{"idx":"cc2ZwXnfHTD2ubhgGHpMAC","contest":"Mr. & Miss Teen Sherpa 2020 - S2","episode":"Mr.&Miss Teen Sherpa -S2","category":null,"contestant":{"voting_id":"03","name":"Mingma Sherpa"},"vote_count":1,"created_on":"2020-01-01T20:47:15.145883+05:45"},{"idx":"65KPtqUMfKxMaaRohAXV9P","contest":"Mr. & Miss Teen Sherpa 2020 - S2","episode":"Mr.&Miss Teen Sherpa -S2","category":null,"contestant":{"voting_id":"03","name":"Mingma Sherpa"},"vote_count":1,"created_on":"2020-01-01T20:46:36.897632+05:45"},{"idx":"pht5PF3xaGQ2HJY8VSchE9","contest":"NEPALBHASA STAR MUSIC VIDEO AWARDS-2019","episode":null,"category":"BEST DANCE DIRECTOR","contestant":{"voting_id":"19A","name":"Gautam Tandukar"},"vote_count":1,"created_on":"2020-01-01T20:38:01.733094+05:45"},{"idx":"7L6UdygSPqwRcR3SGv2bQ7","contest":"Mr. & Miss Teen Sherpa 2020 - S2","episode":"Mr.&Miss Teen Sherpa -S2","category":null,"contestant":{"voting_id":"24","name":"Mingma Tshering Sherpa"},"vote_count":1,"created_on":"2020-01-01T20:36:51.161357+05:45"},{"idx":"hVpMgHxB8gpe6gDAzgh2ET","contest":"Model Superstar","episode":"Model Superstar","category":null,"contestant":{"voting_id":"12","name":"Rabin Ghising"},"vote_count":1,"created_on":"2020-01-01T20:31:42.691585+05:45"},{"idx":"HVpM46JK8dsWxZxMgocd28","contest":"Model Superstar","episode":"Model Superstar","category":null,"contestant":{"voting_id":"05","name":"Asmita Thapa Magar"},"vote_count":1,"created_on":"2020-01-01T20:31:25.653229+05:45"},{"idx":"hCFNxSPWzp4zsGCMr2VaGU","contest":"Model Superstar","episode":"Model Superstar","category":null,"contestant":{"voting_id":"28","name":"Pujan Tamang"},"vote_count":1,"created_on":"2020-01-01T20:29:36.178721+05:45"},{"idx":"djcPrHX7krESw3EipeEw3L","contest":"Model Superstar","episode":"Model Superstar","category":null,"contestant":{"voting_id":"13","name":"Prashant Shah"},"vote_count":1,"created_on":"2020-01-01T20:24:36.509702+05:45"},{"idx":"Ne5TpT8Sv5AcVEKWPU2p6k","contest":"Model Superstar","episode":"Model Superstar","category":null,"contestant":{"voting_id":"04","name":"Sabita Maharjan"},"vote_count":1,"created_on":"2020-01-01T20:18:39.388937+05:45"},{"idx":"pseGYACk7AWWJKdkzRSdt2","contest":"Mr. & Miss Teen Sherpa 2020 - S2","episode":"Mr.&Miss Teen Sherpa -S2","category":null,"contestant":{"voting_id":"21","name":"Dawa Tsering Sherpa"},"vote_count":1,"created_on":"2020-01-01T20:15:26.132678+05:45"},{"idx":"CRSLMymnogocH5VFuK2RTM","contest":"Model Superstar","episode":"Model Superstar","category":null,"contestant":{"voting_id":"22","name":"Sunil Laudrey"},"vote_count":1,"created_on":"2020-01-01T20:13:41.926937+05:45"},{"idx":"pj8p5S4Zb28zFb9LHXWHAd","contest":"Mr. & Miss Teen Sherpa 2020 - S2","episode":"Mr.&Miss Teen Sherpa -S2","category":null,"contestant":{"voting_id":"03","name":"Mingma Sherpa"},"vote_count":1,"created_on":"2020-01-01T20:10:47.513066+05:45"},{"idx":"uBwKq33gBPwb8LSg8abxhC","contest":"Mr. & Miss Teen Sherpa 2020 - S2","episode":"Mr.&Miss Teen Sherpa -S2","category":null,"contestant":{"voting_id":"24","name":"Mingma Tshering Sherpa"},"vote_count":1,"created_on":"2020-01-01T20:05:37.170395+05:45"},{"idx":"b5kDvZEQjJjBehzm3HHf5c","contest":"Mr. & Miss Teen Sherpa 2020 - S2","episode":"Mr.&Miss Teen Sherpa -S2","category":null,"contestant":{"voting_id":"24","name":"Mingma Tshering Sherpa"},"vote_count":1,"created_on":"2020-01-01T20:05:09.164598+05:45"},{"idx":"XheSCkGLfmW6cgDurYnSbj","contest":"Mr. & Miss Teen Sherpa 2020 - S2","episode":"Mr.&Miss Teen Sherpa -S2","category":null,"contestant":{"voting_id":"24","name":"Mingma Tshering Sherpa"},"vote_count":1,"created_on":"2020-01-01T20:04:43.258354+05:45"},{"idx":"EsbkNLmPj3negq5hASWVAe","contest":"Mr. & Miss Teen Sherpa 2020 - S2","episode":"Mr.&Miss Teen Sherpa -S2","category":null,"contestant":{"voting_id":"24","name":"Mingma Tshering Sherpa"},"vote_count":1,"created_on":"2020-01-01T20:04:22.523577+05:45"},{"idx":"sfrZeLnAuo4QqaDgJCuK5g","contest":"Model Superstar","episode":"Model Superstar","category":null,"contestant":{"voting_id":"22","name":"Sunil Laudrey"},"vote_count":1,"created_on":"2020-01-01T20:03:06.854554+05:45"},{"idx":"aP4wWt8fzdNnFsUa9yyXK7","contest":"Model Superstar","episode":"Model Superstar","category":null,"contestant":{"voting_id":"22","name":"Sunil Laudrey"},"vote_count":1,"created_on":"2020-01-01T20:02:46.556782+05:45"},{"idx":"5KYKztG9a5kM5Wbi2apVvM","contest":"Model Superstar","episode":"Model Superstar","category":null,"contestant":{"voting_id":"22","name":"Sunil Laudrey"},"vote_count":1,"created_on":"2020-01-01T20:02:28.036768+05:45"},{"idx":"9HwMtdqcM6Dad8o8c24LnJ","contest":"Model Superstar","episode":"Model Superstar","category":null,"contestant":{"voting_id":"22","name":"Sunil Laudrey"},"vote_count":25,"created_on":"2020-01-01T20:01:13.328475+05:45"},{"idx":"tPBqSdt5tUEkSWUCVApkPV","contest":"Model Superstar","episode":"Model Superstar","category":null,"contestant":{"voting_id":"22","name":"Sunil Laudrey"},"vote_count":1,"created_on":"2020-01-01T20:01:05.184000+05:45"},{"idx":"e7F8BWmkPZZevQdJoGYPQ3","contest":"Model Superstar","episode":"Model Superstar","category":null,"contestant":{"voting_id":"22","name":"Sunil Laudrey"},"vote_count":1,"created_on":"2020-01-01T20:00:25.162703+05:45"},{"idx":"TV7b2XYBaVzce3FUER32nT","contest":"Model Superstar","episode":"Model Superstar","category":null,"contestant":{"voting_id":"22","name":"Sunil Laudrey"},"vote_count":1,"created_on":"2020-01-01T19:59:58.242812+05:45"},{"idx":"urjbPgk3qqXqd7DypyzWQZ","contest":"Model Superstar","episode":"Model Superstar","category":null,"contestant":{"voting_id":"22","name":"Sunil Laudrey"},"vote_count":1,"created_on":"2020-01-01T19:59:09.318661+05:45"},{"idx":"FwnkCxNNcFdEcYsv9DxmZ6","contest":"Model Superstar","episode":"Model Superstar","category":null,"contestant":{"voting_id":"22","name":"Sunil Laudrey"},"vote_count":1,"created_on":"2020-01-01T19:57:23.240226+05:45"},{"idx":"PrL3AwKeawQ6osMWmC2Gb9","contest":"Model Superstar","episode":"Model Superstar","category":null,"contestant":{"voting_id":"22","name":"Sunil Laudrey"},"vote_count":1,"created_on":"2020-01-01T19:56:45.841531+05:45"},{"idx":"6LF9twjohnpgRKjyQNUh9m","contest":"Model Superstar","episode":"Model Superstar","category":null,"contestant":{"voting_id":"22","name":"Sunil Laudrey"},"vote_count":5,"created_on":"2020-01-01T19:56:15.481617+05:45"},{"idx":"uzbTraujg8jEuKfNAj5qzP","contest":"Mr. & Miss Teen Sherpa 2020 - S2","episode":"Mr.&Miss Teen Sherpa -S2","category":null,"contestant":{"voting_id":"06","name":"Tenzin Pema Sherpa"},"vote_count":5,"created_on":"2020-01-01T19:52:37.618906+05:45"},{"idx":"kXAGNKhyrZz5AQR6mUHx3T","contest":"Mr. & Miss Teen Sherpa 2020 - S2","episode":"Mr.&Miss Teen Sherpa -S2","category":null,"contestant":{"voting_id":"06","name":"Tenzin Pema Sherpa"},"vote_count":1,"created_on":"2020-01-01T19:51:49.700246+05:45"},{"idx":"wGKYxeijfPXRv8jpdRuT82","contest":"Mr. & Miss Teen Sherpa 2020 - S2","episode":"Mr.&Miss Teen Sherpa -S2","category":null,"contestant":{"voting_id":"01","name":"Lhamu Sherpa"},"vote_count":1,"created_on":"2020-01-01T19:47:07.380960+05:45"},{"idx":"F2jTmntHZXaFbGXLmDtNAj","contest":"Mr. & Miss Teen Sherpa 2020 - S2","episode":"Mr.&Miss Teen Sherpa -S2","category":null,"contestant":{"voting_id":"08","name":"Angdali Sherpa"},"vote_count":1,"created_on":"2020-01-01T19:34:03.643446+05:45"},{"idx":"vBvg5WVuP5CxxMJoynZBpn","contest":"Mr. & Miss Teen Sherpa 2020 - S2","episode":"Mr.&Miss Teen Sherpa -S2","category":null,"contestant":{"voting_id":"08","name":"Angdali Sherpa"},"vote_count":1,"created_on":"2020-01-01T19:33:50.468606+05:45"},{"idx":"2fAMzxWAE3QamQq7TpAfMU","contest":"Mr. & Miss Teen Sherpa 2020 - S2","episode":"Mr.&Miss Teen Sherpa -S2","category":null,"contestant":{"voting_id":"08","name":"Angdali Sherpa"},"vote_count":1,"created_on":"2020-01-01T19:33:33.739652+05:45"},{"idx":"PBYTSVYV3GBoTMqTxUdY6E","contest":"Mr. & Miss Teen Sherpa 2020 - S2","episode":"Mr.&Miss Teen Sherpa -S2","category":null,"contestant":{"voting_id":"08","name":"Angdali Sherpa"},"vote_count":1,"created_on":"2020-01-01T19:33:15.652334+05:45"},{"idx":"Tmd6sEg8LhMRuGPs5PVR5d","contest":"Mr. & Miss Teen Sherpa 2020 - S2","episode":"Mr.&Miss Teen Sherpa -S2","category":null,"contestant":{"voting_id":"08","name":"Angdali Sherpa"},"vote_count":1,"created_on":"2020-01-01T19:32:42.490045+05:45"},{"idx":"ZfyQCp8SxVfPnrsWypNQPC","contest":"Mr. & Miss Teen Sherpa 2020 - S2","episode":"Mr.&Miss Teen Sherpa -S2","category":null,"contestant":{"voting_id":"08","name":"Angdali Sherpa"},"vote_count":1,"created_on":"2020-01-01T19:32:30.787484+05:45"}]}