{"total_pages":275,"total_records":13721,"next":"https://khalti.com/api/v2/vuservote/?page=177","previous":"https://khalti.com/api/v2/vuservote/?page=175","record_range":[8751,8800],"current_page":176,"records":[{"idx":"nZnh4EcpdDkT2HE3MropWR","contest":"Mr. & Miss Teen Sherpa 2020 - S2","episode":"Mr.&Miss Teen Sherpa -S2","category":null,"contestant":{"voting_id":"02","name":"Pema Yanji sherpa"},"vote_count":1,"created_on":"2020-01-01T18:24:19.240184+05:45"},{"idx":"DHB8x3AVbeoDLYuJDXbbD5","contest":"Mr. & Miss Teen Sherpa 2020 - S2","episode":"Mr.&Miss Teen Sherpa -S2","category":null,"contestant":{"voting_id":"24","name":"Mingma Tshering Sherpa"},"vote_count":1,"created_on":"2020-01-01T18:23:37.583450+05:45"},{"idx":"xrvY5JQg78eQ6VzbAyNZ4d","contest":"Mr. & Miss Teen Sherpa 2020 - S2","episode":"Mr.&Miss Teen Sherpa -S2","category":null,"contestant":{"voting_id":"24","name":"Mingma Tshering Sherpa"},"vote_count":1,"created_on":"2020-01-01T18:22:51.831625+05:45"},{"idx":"SXqSjyUzrHNFPwWmzgyd4K","contest":"Mr. & Miss Teen Sherpa 2020 - S2","episode":"Mr.&Miss Teen Sherpa -S2","category":null,"contestant":{"voting_id":"03","name":"Mingma Sherpa"},"vote_count":1,"created_on":"2020-01-01T18:22:19.489207+05:45"},{"idx":"gnZ3EkEqSWq783gTrtV9oj","contest":"Mr. & Miss Teen Sherpa 2020 - S2","episode":"Mr.&Miss Teen Sherpa -S2","category":null,"contestant":{"voting_id":"01","name":"Lhamu Sherpa"},"vote_count":1,"created_on":"2020-01-01T18:15:55.045168+05:45"},{"idx":"iUwpRYg4dHb9Pn3nnDf3F9","contest":"Mr. & Miss Teen Sherpa 2020 - S2","episode":"Mr.&Miss Teen Sherpa -S2","category":null,"contestant":{"voting_id":"01","name":"Lhamu Sherpa"},"vote_count":1,"created_on":"2020-01-01T18:15:14.346098+05:45"},{"idx":"cDHUkKvKNSyRcuetRWUkp9","contest":"Mr. & Miss Teen Sherpa 2020 - S2","episode":"Mr.&Miss Teen Sherpa -S2","category":null,"contestant":{"voting_id":"04","name":"Chhewang Sherpa"},"vote_count":1,"created_on":"2020-01-01T18:13:56.147783+05:45"},{"idx":"AmqQtZ8pkFi9beqi5V59FC","contest":"Model Superstar","episode":"Model Superstar","category":null,"contestant":{"voting_id":"22","name":"Sunil Laudrey"},"vote_count":25,"created_on":"2020-01-01T18:00:04.449236+05:45"},{"idx":"CufN2hsdXHFNRWQQLGtRmg","contest":"Model Superstar","episode":"Model Superstar","category":null,"contestant":{"voting_id":"22","name":"Sunil Laudrey"},"vote_count":1,"created_on":"2020-01-01T17:59:31.643795+05:45"},{"idx":"83vjNJge7NN4VvN3XFSgm7","contest":"Mr. & Miss Teen Sherpa 2020 - S2","episode":"Mr.&Miss Teen Sherpa -S2","category":null,"contestant":{"voting_id":"11","name":"Ang Maya Sherpa"},"vote_count":1,"created_on":"2020-01-01T17:57:52.137741+05:45"},{"idx":"rfgpGWAzA9orNCNcXwQhTf","contest":"Mr. & Miss Teen Sherpa 2020 - S2","episode":"Mr.&Miss Teen Sherpa -S2","category":null,"contestant":{"voting_id":"22","name":"Lhakpa Sange Sherpa"},"vote_count":1,"created_on":"2020-01-01T17:57:02.895775+05:45"},{"idx":"UYTqpSFvxYwoTK5rKJ6Hzd","contest":"NEPALBHASA STAR MUSIC VIDEO AWARDS-2019","episode":null,"category":"BEST MODEL, FEMALE","contestant":{"voting_id":"13B","name":"Ashishma Nakarmi"},"vote_count":1,"created_on":"2020-01-01T17:36:42.314026+05:45"},{"idx":"gyfYsQeUMFBEBw4P2hYe5o","contest":"Mr. & Miss Teen Sherpa 2020 - S2","episode":"Mr.&Miss Teen Sherpa -S2","category":null,"contestant":{"voting_id":"06","name":"Tenzin Pema Sherpa"},"vote_count":1,"created_on":"2020-01-01T17:34:34.720320+05:45"},{"idx":"yszcxQJtgeSuRhaLzmbGff","contest":"Mr. & Miss Teen Sherpa 2020 - S2","episode":"Mr.&Miss Teen Sherpa -S2","category":null,"contestant":{"voting_id":"21","name":"Dawa Tsering Sherpa"},"vote_count":1,"created_on":"2020-01-01T17:30:45.402193+05:45"},{"idx":"dGFZ3efKnTmg5FhopnXW57","contest":"Model Superstar","episode":"Model Superstar","category":null,"contestant":{"voting_id":"04","name":"Sabita Maharjan"},"vote_count":1,"created_on":"2020-01-01T17:10:57.059332+05:45"},{"idx":"iR6YnQYuMUnHpaEvDcPynV","contest":"Model Superstar","episode":"Model Superstar","category":null,"contestant":{"voting_id":"04","name":"Sabita Maharjan"},"vote_count":1,"created_on":"2020-01-01T17:10:45.272683+05:45"},{"idx":"zJyLUcLaZw7w4KUTJsGi23","contest":"Mr. & Miss Teen Sherpa 2020 - S2","episode":"Mr.&Miss Teen Sherpa -S2","category":null,"contestant":{"voting_id":"23","name":"Chhiri Sherpa"},"vote_count":1,"created_on":"2020-01-01T17:07:06.826301+05:45"},{"idx":"ogyvBD53vEeuceauukbRSc","contest":"Model Superstar","episode":"Model Superstar","category":null,"contestant":{"voting_id":"01","name":"Sajina Subba"},"vote_count":1,"created_on":"2020-01-01T17:04:49.981322+05:45"},{"idx":"R5CBFEQrs9YoUuvXcDQQVC","contest":"Mr. & Miss Teen Sherpa 2020 - S2","episode":"Mr.&Miss Teen Sherpa -S2","category":null,"contestant":{"voting_id":"23","name":"Chhiri Sherpa"},"vote_count":1,"created_on":"2020-01-01T16:56:30.803746+05:45"},{"idx":"siMLziD85mnebVELZkdGBg","contest":"Mr. & Miss Teen Sherpa 2020 - S2","episode":"Mr.&Miss Teen Sherpa -S2","category":null,"contestant":{"voting_id":"02","name":"Pema Yanji sherpa"},"vote_count":1,"created_on":"2020-01-01T16:50:51.217427+05:45"},{"idx":"88RjHZRG95QZMTxq2msjYj","contest":"Mr. & Miss Teen Sherpa 2020 - S2","episode":"Mr.&Miss Teen Sherpa -S2","category":null,"contestant":{"voting_id":"08","name":"Angdali Sherpa"},"vote_count":1,"created_on":"2020-01-01T16:49:42.054451+05:45"},{"idx":"xXTJPwxmBaigf6CAE4zCi6","contest":"Mr. & Miss Teen Sherpa 2020 - S2","episode":"Mr.&Miss Teen Sherpa -S2","category":null,"contestant":{"voting_id":"23","name":"Chhiri Sherpa"},"vote_count":1,"created_on":"2020-01-01T16:39:47.960082+05:45"},{"idx":"HFvyLbHBxt8Y6xQaH99jgA","contest":"Mr. & Miss Teen Sherpa 2020 - S2","episode":"Mr.&Miss Teen Sherpa -S2","category":null,"contestant":{"voting_id":"23","name":"Chhiri Sherpa"},"vote_count":1,"created_on":"2020-01-01T16:35:09.200932+05:45"},{"idx":"jAXf69pCyK68yXBSbtJL5Q","contest":"Mr. & Miss Teen Sherpa 2020 - S2","episode":"Mr.&Miss Teen Sherpa -S2","category":null,"contestant":{"voting_id":"24","name":"Mingma Tshering Sherpa"},"vote_count":1,"created_on":"2020-01-01T16:32:05.109994+05:45"},{"idx":"PxNgoGr8UD8wNpDtUamPBS","contest":"Mr. & Miss Teen Sherpa 2020 - S2","episode":"Mr.&Miss Teen Sherpa -S2","category":null,"contestant":{"voting_id":"24","name":"Mingma Tshering Sherpa"},"vote_count":1,"created_on":"2020-01-01T16:31:19.862788+05:45"},{"idx":"CSaMBo2oRVuMBCyiziXJi9","contest":"Model Superstar","episode":"Model Superstar","category":null,"contestant":{"voting_id":"09","name":"Sagar Ghimire"},"vote_count":1,"created_on":"2020-01-01T16:21:15.137199+05:45"},{"idx":"dEoo7wvaM3P2gbEyJRca6f","contest":"Mr. & Miss Teen Sherpa 2020 - S2","episode":"Mr.&Miss Teen Sherpa -S2","category":null,"contestant":{"voting_id":"02","name":"Pema Yanji sherpa"},"vote_count":1,"created_on":"2020-01-01T16:16:52.302690+05:45"},{"idx":"yjpF6TjzuHD9dawJKNwY7C","contest":"Mr. & Miss Teen Sherpa 2020 - S2","episode":"Mr.&Miss Teen Sherpa -S2","category":null,"contestant":{"voting_id":"02","name":"Pema Yanji sherpa"},"vote_count":1,"created_on":"2020-01-01T16:15:40.058472+05:45"},{"idx":"mFWQC5LgHAYD7fNpziyyFY","contest":"Mr. & Miss Teen Sherpa 2020 - S2","episode":"Mr.&Miss Teen Sherpa -S2","category":null,"contestant":{"voting_id":"02","name":"Pema Yanji sherpa"},"vote_count":1,"created_on":"2020-01-01T16:15:18.759606+05:45"},{"idx":"iL9zGPxGSPxXT2aFRme24n","contest":"Mr. & Miss Teen Sherpa 2020 - S2","episode":"Mr.&Miss Teen Sherpa -S2","category":null,"contestant":{"voting_id":"02","name":"Pema Yanji sherpa"},"vote_count":1,"created_on":"2020-01-01T16:14:50.707232+05:45"},{"idx":"8PztDND75w4yLszsni8LbN","contest":"Mr. & Miss Teen Sherpa 2020 - S2","episode":"Mr.&Miss Teen Sherpa -S2","category":null,"contestant":{"voting_id":"02","name":"Pema Yanji sherpa"},"vote_count":1,"created_on":"2020-01-01T16:14:23.517993+05:45"},{"idx":"zupM5rMrVQukeHkuQhosMo","contest":"Mr. & Miss Teen Sherpa 2020 - S2","episode":"Mr.&Miss Teen Sherpa -S2","category":null,"contestant":{"voting_id":"02","name":"Pema Yanji sherpa"},"vote_count":1,"created_on":"2020-01-01T16:13:25.356703+05:45"},{"idx":"q55x7H7c5mDF5Tdu4ALVaW","contest":"Mr. & Miss Teen Sherpa 2020 - S2","episode":"Mr.&Miss Teen Sherpa -S2","category":null,"contestant":{"voting_id":"08","name":"Angdali Sherpa"},"vote_count":1,"created_on":"2020-01-01T15:56:44.873009+05:45"},{"idx":"Lq5MxzTZeQEH9rhZ4W5dSC","contest":"Mr. & Miss Teen Sherpa 2020 - S2","episode":"Mr.&Miss Teen Sherpa -S2","category":null,"contestant":{"voting_id":"08","name":"Angdali Sherpa"},"vote_count":1,"created_on":"2020-01-01T15:55:49.024387+05:45"},{"idx":"eWcvGQAvetGQHhoL8qxGQB","contest":"Mr. & Miss Teen Sherpa 2020 - S2","episode":"Mr.&Miss Teen Sherpa -S2","category":null,"contestant":{"voting_id":"08","name":"Angdali Sherpa"},"vote_count":1,"created_on":"2020-01-01T15:55:34.868018+05:45"},{"idx":"QgvtDRyeN9wYtjzWFCLuvY","contest":"Mr. & Miss Teen Sherpa 2020 - S2","episode":"Mr.&Miss Teen Sherpa -S2","category":null,"contestant":{"voting_id":"02","name":"Pema Yanji sherpa"},"vote_count":1,"created_on":"2020-01-01T15:47:16.681904+05:45"},{"idx":"vVvkspkPWeRsPHgV4F3Aw5","contest":"Mr. & Miss Teen Sherpa 2020 - S2","episode":"Mr.&Miss Teen Sherpa -S2","category":null,"contestant":{"voting_id":"01","name":"Lhamu Sherpa"},"vote_count":1,"created_on":"2020-01-01T15:39:36.312806+05:45"},{"idx":"rkJzTaxHwRVCHhqPXDJQ8M","contest":"Mr. & Miss Teen Sherpa 2020 - S2","episode":"Mr.&Miss Teen Sherpa -S2","category":null,"contestant":{"voting_id":"01","name":"Lhamu Sherpa"},"vote_count":5,"created_on":"2020-01-01T15:29:36.866640+05:45"},{"idx":"PNj8LqtHsgVX4GJTTWgMaU","contest":"Mr. & Miss Teen Sherpa 2020 - S2","episode":"Mr.&Miss Teen Sherpa -S2","category":null,"contestant":{"voting_id":"06","name":"Tenzin Pema Sherpa"},"vote_count":1,"created_on":"2020-01-01T15:28:24.168649+05:45"},{"idx":"4ccMFPG6odc6WSn7CBtjb6","contest":"Mr. & Miss Teen Sherpa 2020 - S2","episode":"Mr.&Miss Teen Sherpa -S2","category":null,"contestant":{"voting_id":"01","name":"Lhamu Sherpa"},"vote_count":5,"created_on":"2020-01-01T15:28:03.171095+05:45"},{"idx":"hXVTsrmZDPZuHCn32CvDXP","contest":"Mr. & Miss Teen Sherpa 2020 - S2","episode":"Mr.&Miss Teen Sherpa -S2","category":null,"contestant":{"voting_id":"01","name":"Lhamu Sherpa"},"vote_count":1,"created_on":"2020-01-01T15:27:30.109640+05:45"},{"idx":"U3vNvxUXTZXdaJsKpYCgrM","contest":"Model Superstar","episode":"Model Superstar","category":null,"contestant":{"voting_id":"04","name":"Sabita Maharjan"},"vote_count":1,"created_on":"2020-01-01T15:11:49.441238+05:45"},{"idx":"jsLfaXK9CktUhnE5ovMXof","contest":"Model Superstar","episode":"Model Superstar","category":null,"contestant":{"voting_id":"04","name":"Sabita Maharjan"},"vote_count":1,"created_on":"2020-01-01T15:11:38.179272+05:45"},{"idx":"x9Dg4s4LjFwXeoUtJKpDbS","contest":"Model Superstar","episode":"Model Superstar","category":null,"contestant":{"voting_id":"04","name":"Sabita Maharjan"},"vote_count":1,"created_on":"2020-01-01T15:11:26.235425+05:45"},{"idx":"M44LjHkcyWaFbo8THTvHHS","contest":"Model Superstar","episode":"Model Superstar","category":null,"contestant":{"voting_id":"04","name":"Sabita Maharjan"},"vote_count":1,"created_on":"2020-01-01T15:11:08.687794+05:45"},{"idx":"SHcyYJUEoHtUgL7Gt9uJwD","contest":"Model Superstar","episode":"Model Superstar","category":null,"contestant":{"voting_id":"04","name":"Sabita Maharjan"},"vote_count":1,"created_on":"2020-01-01T15:10:50.260364+05:45"},{"idx":"sDSBxaPvgJnyuLQYZrD5ME","contest":"Model Superstar","episode":"Model Superstar","category":null,"contestant":{"voting_id":"04","name":"Sabita Maharjan"},"vote_count":1,"created_on":"2020-01-01T15:10:33.948232+05:45"},{"idx":"j94xJpDqcdqA4Lti8c6uyc","contest":"Model Superstar","episode":"Model Superstar","category":null,"contestant":{"voting_id":"04","name":"Sabita Maharjan"},"vote_count":1,"created_on":"2020-01-01T15:10:21.363038+05:45"},{"idx":"RXc67oihjKpP26QH9eoVxg","contest":"Model Superstar","episode":"Model Superstar","category":null,"contestant":{"voting_id":"04","name":"Sabita Maharjan"},"vote_count":1,"created_on":"2020-01-01T15:10:09.272909+05:45"},{"idx":"K4tsRgXutksfHJqgvtJppY","contest":"Model Superstar","episode":"Model Superstar","category":null,"contestant":{"voting_id":"04","name":"Sabita Maharjan"},"vote_count":1,"created_on":"2020-01-01T15:10:05.172084+05:45"}]}