{"total_pages":275,"total_records":13721,"next":"https://khalti.com/api/v2/vuservote/?page=178","previous":"https://khalti.com/api/v2/vuservote/?page=176","record_range":[8801,8850],"current_page":177,"records":[{"idx":"CpxghYRKdQgQKw7BmqRJvP","contest":"Model Superstar","episode":"Model Superstar","category":null,"contestant":{"voting_id":"04","name":"Sabita Maharjan"},"vote_count":1,"created_on":"2020-01-01T15:09:51.044186+05:45"},{"idx":"rrf4qXWebCBbVPYcQj5X6U","contest":"Model Superstar","episode":"Model Superstar","category":null,"contestant":{"voting_id":"04","name":"Sabita Maharjan"},"vote_count":1,"created_on":"2020-01-01T15:08:36.405321+05:45"},{"idx":"43LrcXcL6z3no98vUbaCQ5","contest":"Model Superstar","episode":"Model Superstar","category":null,"contestant":{"voting_id":"04","name":"Sabita Maharjan"},"vote_count":1,"created_on":"2020-01-01T15:08:26.218515+05:45"},{"idx":"oFSYKFDvjzitvKSuErvpmX","contest":"Model Superstar","episode":"Model Superstar","category":null,"contestant":{"voting_id":"04","name":"Sabita Maharjan"},"vote_count":1,"created_on":"2020-01-01T15:08:16.089376+05:45"},{"idx":"Pr8dA6FJFpWcMp9x2H2Dxj","contest":"Model Superstar","episode":"Model Superstar","category":null,"contestant":{"voting_id":"04","name":"Sabita Maharjan"},"vote_count":1,"created_on":"2020-01-01T15:08:02.991604+05:45"},{"idx":"rtDGA8fUNtCqeVCWm3iSQP","contest":"Model Superstar","episode":"Model Superstar","category":null,"contestant":{"voting_id":"04","name":"Sabita Maharjan"},"vote_count":1,"created_on":"2020-01-01T15:06:43.100717+05:45"},{"idx":"Z4TW9rwkqgHLScTatUaB3h","contest":"Model Superstar","episode":"Model Superstar","category":null,"contestant":{"voting_id":"04","name":"Sabita Maharjan"},"vote_count":1,"created_on":"2020-01-01T15:06:32.897477+05:45"},{"idx":"tmtnavaScnzGYDokoL8kD5","contest":"Model Superstar","episode":"Model Superstar","category":null,"contestant":{"voting_id":"04","name":"Sabita Maharjan"},"vote_count":1,"created_on":"2020-01-01T15:06:22.588565+05:45"},{"idx":"bASDmCHuPqnrBWPBxM6gck","contest":"Model Superstar","episode":"Model Superstar","category":null,"contestant":{"voting_id":"04","name":"Sabita Maharjan"},"vote_count":1,"created_on":"2020-01-01T15:06:11.836428+05:45"},{"idx":"u3Z7SutACwCGgDkzpf4KCd","contest":"Model Superstar","episode":"Model Superstar","category":null,"contestant":{"voting_id":"04","name":"Sabita Maharjan"},"vote_count":1,"created_on":"2020-01-01T15:06:01.486939+05:45"},{"idx":"qYQjHhVbK27JWKpdvKZ9t9","contest":"Model Superstar","episode":"Model Superstar","category":null,"contestant":{"voting_id":"04","name":"Sabita Maharjan"},"vote_count":1,"created_on":"2020-01-01T15:05:50.786424+05:45"},{"idx":"25Qvct3udENFCY5FF2mwXd","contest":"Model Superstar","episode":"Model Superstar","category":null,"contestant":{"voting_id":"04","name":"Sabita Maharjan"},"vote_count":1,"created_on":"2020-01-01T15:05:40.667837+05:45"},{"idx":"E2XnPfbiRYcFMCGiuG6HR8","contest":"Model Superstar","episode":"Model Superstar","category":null,"contestant":{"voting_id":"04","name":"Sabita Maharjan"},"vote_count":1,"created_on":"2020-01-01T15:05:30.679180+05:45"},{"idx":"tVDGRd94jP2X7cATBDPokT","contest":"Model Superstar","episode":"Model Superstar","category":null,"contestant":{"voting_id":"04","name":"Sabita Maharjan"},"vote_count":1,"created_on":"2020-01-01T15:05:21.475629+05:45"},{"idx":"hHdEo8H5AG6eFfMKUqLnR7","contest":"Model Superstar","episode":"Model Superstar","category":null,"contestant":{"voting_id":"04","name":"Sabita Maharjan"},"vote_count":1,"created_on":"2020-01-01T15:05:11.781056+05:45"},{"idx":"aRGwAuuxZSVv7DjcvRNqDN","contest":"Model Superstar","episode":"Model Superstar","category":null,"contestant":{"voting_id":"04","name":"Sabita Maharjan"},"vote_count":1,"created_on":"2020-01-01T15:05:02.386108+05:45"},{"idx":"wCspoS4ZvaAyWmpHuYPLE6","contest":"Model Superstar","episode":"Model Superstar","category":null,"contestant":{"voting_id":"04","name":"Sabita Maharjan"},"vote_count":1,"created_on":"2020-01-01T15:04:52.884422+05:45"},{"idx":"4Hip7vRrGjJYLcEMBiW963","contest":"Model Superstar","episode":"Model Superstar","category":null,"contestant":{"voting_id":"04","name":"Sabita Maharjan"},"vote_count":1,"created_on":"2020-01-01T15:04:42.592321+05:45"},{"idx":"NBx6MBA4X6tVPk2Dgn4LP6","contest":"Model Superstar","episode":"Model Superstar","category":null,"contestant":{"voting_id":"04","name":"Sabita Maharjan"},"vote_count":1,"created_on":"2020-01-01T15:04:31.192569+05:45"},{"idx":"jrufmN6LBn6ShfPpRYEjfG","contest":"Model Superstar","episode":"Model Superstar","category":null,"contestant":{"voting_id":"04","name":"Sabita Maharjan"},"vote_count":1,"created_on":"2020-01-01T15:04:22.096528+05:45"},{"idx":"xhT63vVNcxdHCze4RAZrNY","contest":"Model Superstar","episode":"Model Superstar","category":null,"contestant":{"voting_id":"04","name":"Sabita Maharjan"},"vote_count":1,"created_on":"2020-01-01T15:04:12.465024+05:45"},{"idx":"er5VGztccjJsjfTCfmb9kX","contest":"Model Superstar","episode":"Model Superstar","category":null,"contestant":{"voting_id":"04","name":"Sabita Maharjan"},"vote_count":1,"created_on":"2020-01-01T15:04:02.576181+05:45"},{"idx":"z58SGxnKiMssXUSb33YvdG","contest":"Model Superstar","episode":"Model Superstar","category":null,"contestant":{"voting_id":"04","name":"Sabita Maharjan"},"vote_count":1,"created_on":"2020-01-01T15:03:52.395379+05:45"},{"idx":"NTuZb8BfUTpFYhiKuLZoph","contest":"Model Superstar","episode":"Model Superstar","category":null,"contestant":{"voting_id":"04","name":"Sabita Maharjan"},"vote_count":1,"created_on":"2020-01-01T15:03:38.162828+05:45"},{"idx":"3zMdoWPWvtFfcH7roZDNrb","contest":"Model Superstar","episode":"Model Superstar","category":null,"contestant":{"voting_id":"04","name":"Sabita Maharjan"},"vote_count":1,"created_on":"2020-01-01T15:03:28.030060+05:45"},{"idx":"p6N54yCjXVDQ72Wr9qnAe9","contest":"Model Superstar","episode":"Model Superstar","category":null,"contestant":{"voting_id":"04","name":"Sabita Maharjan"},"vote_count":1,"created_on":"2020-01-01T15:03:18.101438+05:45"},{"idx":"opABFfB53asxYF9PLcrqQZ","contest":"Model Superstar","episode":"Model Superstar","category":null,"contestant":{"voting_id":"04","name":"Sabita Maharjan"},"vote_count":1,"created_on":"2020-01-01T15:03:08.357190+05:45"},{"idx":"mJBb8th358dtqP7ALiUNh5","contest":"Model Superstar","episode":"Model Superstar","category":null,"contestant":{"voting_id":"04","name":"Sabita Maharjan"},"vote_count":1,"created_on":"2020-01-01T15:02:58.692282+05:45"},{"idx":"ad7SUPDPFYfQ3kZa756XRP","contest":"Model Superstar","episode":"Model Superstar","category":null,"contestant":{"voting_id":"04","name":"Sabita Maharjan"},"vote_count":1,"created_on":"2020-01-01T15:02:48.411490+05:45"},{"idx":"orPA3zKn58CbW8gd8ANWg3","contest":"Model Superstar","episode":"Model Superstar","category":null,"contestant":{"voting_id":"04","name":"Sabita Maharjan"},"vote_count":1,"created_on":"2020-01-01T15:02:37.758249+05:45"},{"idx":"5JSrxEpVaVGVtiBwZZm82k","contest":"Model Superstar","episode":"Model Superstar","category":null,"contestant":{"voting_id":"04","name":"Sabita Maharjan"},"vote_count":1,"created_on":"2020-01-01T15:02:26.940710+05:45"},{"idx":"cisGUPSNwo8jk7fZ7LMsXS","contest":"Model Superstar","episode":"Model Superstar","category":null,"contestant":{"voting_id":"04","name":"Sabita Maharjan"},"vote_count":1,"created_on":"2020-01-01T15:02:16.153431+05:45"},{"idx":"3vE2VeSJXnRrFShxFBhUkJ","contest":"Model Superstar","episode":"Model Superstar","category":null,"contestant":{"voting_id":"04","name":"Sabita Maharjan"},"vote_count":1,"created_on":"2020-01-01T15:01:49.193378+05:45"},{"idx":"FKjZiebg4PFJo562z5CSKh","contest":"Model Superstar","episode":"Model Superstar","category":null,"contestant":{"voting_id":"04","name":"Sabita Maharjan"},"vote_count":1,"created_on":"2020-01-01T15:01:16.840158+05:45"},{"idx":"jJdGCwvH7er7svFeawzp2A","contest":"Model Superstar","episode":"Model Superstar","category":null,"contestant":{"voting_id":"04","name":"Sabita Maharjan"},"vote_count":1,"created_on":"2020-01-01T15:00:40.749926+05:45"},{"idx":"H3ja5fchim3GMHYGzCMdbZ","contest":"Model Superstar","episode":"Model Superstar","category":null,"contestant":{"voting_id":"04","name":"Sabita Maharjan"},"vote_count":1,"created_on":"2020-01-01T15:00:30.856879+05:45"},{"idx":"KyieV8pC2y8hutZFcaWbxc","contest":"Model Superstar","episode":"Model Superstar","category":null,"contestant":{"voting_id":"04","name":"Sabita Maharjan"},"vote_count":1,"created_on":"2020-01-01T15:00:20.229909+05:45"},{"idx":"JnSjxDwYQ92apEDeXjyaoZ","contest":"Model Superstar","episode":"Model Superstar","category":null,"contestant":{"voting_id":"04","name":"Sabita Maharjan"},"vote_count":1,"created_on":"2020-01-01T15:00:10.005260+05:45"},{"idx":"35n6U49zjAPBmB4jpQ99ub","contest":"Model Superstar","episode":"Model Superstar","category":null,"contestant":{"voting_id":"04","name":"Sabita Maharjan"},"vote_count":1,"created_on":"2020-01-01T14:59:59.815477+05:45"},{"idx":"E5WBMyTGWPyfgY6wXemqVD","contest":"Model Superstar","episode":"Model Superstar","category":null,"contestant":{"voting_id":"04","name":"Sabita Maharjan"},"vote_count":1,"created_on":"2020-01-01T14:59:49.071417+05:45"},{"idx":"Vh6ANrZoaMXCbbUbA8WgpX","contest":"Model Superstar","episode":"Model Superstar","category":null,"contestant":{"voting_id":"04","name":"Sabita Maharjan"},"vote_count":1,"created_on":"2020-01-01T14:58:49.835729+05:45"},{"idx":"55Bt2k49rjX9Wi5L7Y6263","contest":"Model Superstar","episode":"Model Superstar","category":null,"contestant":{"voting_id":"04","name":"Sabita Maharjan"},"vote_count":1,"created_on":"2020-01-01T14:58:30.605025+05:45"},{"idx":"o2CSizPpcxyqHNzqyV5VLG","contest":"Model Superstar","episode":"Model Superstar","category":null,"contestant":{"voting_id":"04","name":"Sabita Maharjan"},"vote_count":1,"created_on":"2020-01-01T14:58:16.700085+05:45"},{"idx":"nS9duzMzutMLnS3c97tLoG","contest":"Model Superstar","episode":"Model Superstar","category":null,"contestant":{"voting_id":"04","name":"Sabita Maharjan"},"vote_count":1,"created_on":"2020-01-01T14:57:48.130509+05:45"},{"idx":"URNEDStLyzQfairXHT6sbn","contest":"Model Superstar","episode":"Model Superstar","category":null,"contestant":{"voting_id":"04","name":"Sabita Maharjan"},"vote_count":1,"created_on":"2020-01-01T14:57:35.417481+05:45"},{"idx":"r3tu6oV7cbZ24wyfE6ZXVA","contest":"Model Superstar","episode":"Model Superstar","category":null,"contestant":{"voting_id":"04","name":"Sabita Maharjan"},"vote_count":1,"created_on":"2020-01-01T14:57:15.472847+05:45"},{"idx":"yRNXNV3mA2sAmMoWevhUMS","contest":"Model Superstar","episode":"Model Superstar","category":null,"contestant":{"voting_id":"04","name":"Sabita Maharjan"},"vote_count":1,"created_on":"2020-01-01T14:56:54.242087+05:45"},{"idx":"eG67aCJavJTfin5W2LSNU8","contest":"Model Superstar","episode":"Model Superstar","category":null,"contestant":{"voting_id":"04","name":"Sabita Maharjan"},"vote_count":1,"created_on":"2020-01-01T14:56:44.681772+05:45"},{"idx":"dbBfnxotP4csRS225BUQmD","contest":"Model Superstar","episode":"Model Superstar","category":null,"contestant":{"voting_id":"04","name":"Sabita Maharjan"},"vote_count":1,"created_on":"2020-01-01T14:56:35.589062+05:45"},{"idx":"zRRtcYsRVjyWGkebCf7kH7","contest":"Model Superstar","episode":"Model Superstar","category":null,"contestant":{"voting_id":"04","name":"Sabita Maharjan"},"vote_count":1,"created_on":"2020-01-01T14:56:23.277218+05:45"}]}