{"total_pages":275,"total_records":13721,"next":"https://khalti.com/api/v2/vuservote/?page=179","previous":"https://khalti.com/api/v2/vuservote/?page=177","record_range":[8851,8900],"current_page":178,"records":[{"idx":"FEeMW7NgqKNM6TXcaQzULN","contest":"Model Superstar","episode":"Model Superstar","category":null,"contestant":{"voting_id":"04","name":"Sabita Maharjan"},"vote_count":1,"created_on":"2020-01-01T14:55:48.760995+05:45"},{"idx":"4wU3cTZD6tr4k8wuwfoZ9a","contest":"Model Superstar","episode":"Model Superstar","category":null,"contestant":{"voting_id":"04","name":"Sabita Maharjan"},"vote_count":1,"created_on":"2020-01-01T14:55:14.303093+05:45"},{"idx":"qekKyKAqU2hNxCSehNBqE5","contest":"Model Superstar","episode":"Model Superstar","category":null,"contestant":{"voting_id":"04","name":"Sabita Maharjan"},"vote_count":1,"created_on":"2020-01-01T14:53:50.615514+05:45"},{"idx":"NzmwgFFG6APRhDNZ98eKy7","contest":"Model Superstar","episode":"Model Superstar","category":null,"contestant":{"voting_id":"04","name":"Sabita Maharjan"},"vote_count":1,"created_on":"2020-01-01T14:53:09.636163+05:45"},{"idx":"eTj9CudDQSm3wVFCfum6yK","contest":"Model Superstar","episode":"Model Superstar","category":null,"contestant":{"voting_id":"04","name":"Sabita Maharjan"},"vote_count":1,"created_on":"2020-01-01T14:52:57.338122+05:45"},{"idx":"rfPiyfwZm8tKjB7e95wGYa","contest":"Model Superstar","episode":"Model Superstar","category":null,"contestant":{"voting_id":"04","name":"Sabita Maharjan"},"vote_count":1,"created_on":"2020-01-01T14:52:22.745864+05:45"},{"idx":"bzihXSRDCbmj64cgkZBAjD","contest":"Model Superstar","episode":"Model Superstar","category":null,"contestant":{"voting_id":"04","name":"Sabita Maharjan"},"vote_count":1,"created_on":"2020-01-01T14:51:50.487875+05:45"},{"idx":"NRCMb4FBXcnGKeESa4964D","contest":"Model Superstar","episode":"Model Superstar","category":null,"contestant":{"voting_id":"04","name":"Sabita Maharjan"},"vote_count":1,"created_on":"2020-01-01T14:51:30.791344+05:45"},{"idx":"rNj7oWh6v9T2BY2TYra2qD","contest":"Model Superstar","episode":"Model Superstar","category":null,"contestant":{"voting_id":"04","name":"Sabita Maharjan"},"vote_count":1,"created_on":"2020-01-01T14:51:16.131838+05:45"},{"idx":"pZqZJMYtAh3o3mK2m6gKWW","contest":"Model Superstar","episode":"Model Superstar","category":null,"contestant":{"voting_id":"04","name":"Sabita Maharjan"},"vote_count":1,"created_on":"2020-01-01T14:51:06.518526+05:45"},{"idx":"ennsm6KsCD5a4sXSRCGSeX","contest":"Model Superstar","episode":"Model Superstar","category":null,"contestant":{"voting_id":"04","name":"Sabita Maharjan"},"vote_count":1,"created_on":"2020-01-01T14:50:54.259574+05:45"},{"idx":"i4qghMR4tYyuQEGYi8KHf6","contest":"Model Superstar","episode":"Model Superstar","category":null,"contestant":{"voting_id":"04","name":"Sabita Maharjan"},"vote_count":1,"created_on":"2020-01-01T14:50:37.589948+05:45"},{"idx":"mfgWKH9zCR9cbdLHaudmRG","contest":"Model Superstar","episode":"Model Superstar","category":null,"contestant":{"voting_id":"04","name":"Sabita Maharjan"},"vote_count":1,"created_on":"2020-01-01T14:50:27.584938+05:45"},{"idx":"vwMBCbBajmyHZgBJenUsF6","contest":"Model Superstar","episode":"Model Superstar","category":null,"contestant":{"voting_id":"04","name":"Sabita Maharjan"},"vote_count":1,"created_on":"2020-01-01T14:50:17.965641+05:45"},{"idx":"jmK8ig68dbzKX5B6amEF4S","contest":"Model Superstar","episode":"Model Superstar","category":null,"contestant":{"voting_id":"04","name":"Sabita Maharjan"},"vote_count":1,"created_on":"2020-01-01T14:50:06.230786+05:45"},{"idx":"BTMrzMFb5hWzLu65VTDBXh","contest":"Model Superstar","episode":"Model Superstar","category":null,"contestant":{"voting_id":"04","name":"Sabita Maharjan"},"vote_count":1,"created_on":"2020-01-01T14:49:53.111265+05:45"},{"idx":"i5GhxuVR4yHa8mgRtCGcd6","contest":"Model Superstar","episode":"Model Superstar","category":null,"contestant":{"voting_id":"04","name":"Sabita Maharjan"},"vote_count":1,"created_on":"2020-01-01T14:49:43.888603+05:45"},{"idx":"vyBC5xMSkuEQji2jbCYyEV","contest":"Model Superstar","episode":"Model Superstar","category":null,"contestant":{"voting_id":"04","name":"Sabita Maharjan"},"vote_count":1,"created_on":"2020-01-01T14:49:33.881753+05:45"},{"idx":"NdcCP6c9sT7FyFkaajjxBk","contest":"Model Superstar","episode":"Model Superstar","category":null,"contestant":{"voting_id":"04","name":"Sabita Maharjan"},"vote_count":1,"created_on":"2020-01-01T14:49:21.888894+05:45"},{"idx":"WEhoCYRr7vj2ZKvGTKETJc","contest":"Model Superstar","episode":"Model Superstar","category":null,"contestant":{"voting_id":"04","name":"Sabita Maharjan"},"vote_count":1,"created_on":"2020-01-01T14:49:12.172953+05:45"},{"idx":"a9YgEUye5GcRqQXuaCyUMb","contest":"Model Superstar","episode":"Model Superstar","category":null,"contestant":{"voting_id":"04","name":"Sabita Maharjan"},"vote_count":1,"created_on":"2020-01-01T14:49:02.565203+05:45"},{"idx":"7KJRHZdhLs5YS6vDipzZUS","contest":"Model Superstar","episode":"Model Superstar","category":null,"contestant":{"voting_id":"04","name":"Sabita Maharjan"},"vote_count":1,"created_on":"2020-01-01T14:48:52.716605+05:45"},{"idx":"6Wt2cjDNAK7JsJgMoYMKib","contest":"Model Superstar","episode":"Model Superstar","category":null,"contestant":{"voting_id":"04","name":"Sabita Maharjan"},"vote_count":1,"created_on":"2020-01-01T14:48:41.491225+05:45"},{"idx":"6SDQNB3J9JR2eqQqNBnBP6","contest":"Model Superstar","episode":"Model Superstar","category":null,"contestant":{"voting_id":"04","name":"Sabita Maharjan"},"vote_count":1,"created_on":"2020-01-01T14:48:24.015217+05:45"},{"idx":"xaiJo6DmPCYXMKXydfAzcU","contest":"Model Superstar","episode":"Model Superstar","category":null,"contestant":{"voting_id":"04","name":"Sabita Maharjan"},"vote_count":1,"created_on":"2020-01-01T14:48:06.974694+05:45"},{"idx":"PEWCmQLNQdQkP29U9VVNvN","contest":"Model Superstar","episode":"Model Superstar","category":null,"contestant":{"voting_id":"04","name":"Sabita Maharjan"},"vote_count":1,"created_on":"2020-01-01T14:47:56.492709+05:45"},{"idx":"5DT6c2zdx56fGmqfKtaNED","contest":"Model Superstar","episode":"Model Superstar","category":null,"contestant":{"voting_id":"04","name":"Sabita Maharjan"},"vote_count":1,"created_on":"2020-01-01T14:47:44.125935+05:45"},{"idx":"PG5NN96gWzx32B79S9W2if","contest":"Model Superstar","episode":"Model Superstar","category":null,"contestant":{"voting_id":"04","name":"Sabita Maharjan"},"vote_count":1,"created_on":"2020-01-01T14:47:24.187062+05:45"},{"idx":"hAweZH3Q4xmsBVf6s4pFmZ","contest":"Model Superstar","episode":"Model Superstar","category":null,"contestant":{"voting_id":"04","name":"Sabita Maharjan"},"vote_count":1,"created_on":"2020-01-01T14:47:13.912779+05:45"},{"idx":"sLDrPeiPxBpjZdpsKZo5FJ","contest":"Model Superstar","episode":"Model Superstar","category":null,"contestant":{"voting_id":"04","name":"Sabita Maharjan"},"vote_count":1,"created_on":"2020-01-01T14:46:54.014203+05:45"},{"idx":"L4AGeEiGuqxoKUXWPS3dnj","contest":"Model Superstar","episode":"Model Superstar","category":null,"contestant":{"voting_id":"04","name":"Sabita Maharjan"},"vote_count":1,"created_on":"2020-01-01T14:46:31.113284+05:45"},{"idx":"fvyqr8ZaiGSHknyNsxQBWe","contest":"Model Superstar","episode":"Model Superstar","category":null,"contestant":{"voting_id":"04","name":"Sabita Maharjan"},"vote_count":1,"created_on":"2020-01-01T14:46:20.473543+05:45"},{"idx":"d9YkZ4Skv8NUVwnrTxXVdP","contest":"Model Superstar","episode":"Model Superstar","category":null,"contestant":{"voting_id":"04","name":"Sabita Maharjan"},"vote_count":1,"created_on":"2020-01-01T14:46:08.486047+05:45"},{"idx":"GmogpDE7NXTR7CgMTenUwa","contest":"Model Superstar","episode":"Model Superstar","category":null,"contestant":{"voting_id":"04","name":"Sabita Maharjan"},"vote_count":1,"created_on":"2020-01-01T14:45:59.496266+05:45"},{"idx":"BJDKJi7ZjMkJ57XQfX8vMB","contest":"Model Superstar","episode":"Model Superstar","category":null,"contestant":{"voting_id":"04","name":"Sabita Maharjan"},"vote_count":1,"created_on":"2020-01-01T14:45:50.124882+05:45"},{"idx":"TSUUfJVYKmd3vL5tm8MX68","contest":"Model Superstar","episode":"Model Superstar","category":null,"contestant":{"voting_id":"04","name":"Sabita Maharjan"},"vote_count":1,"created_on":"2020-01-01T14:45:40.193074+05:45"},{"idx":"3scZjphRSAws8XrKkSiAKg","contest":"Model Superstar","episode":"Model Superstar","category":null,"contestant":{"voting_id":"04","name":"Sabita Maharjan"},"vote_count":1,"created_on":"2020-01-01T14:45:30.825514+05:45"},{"idx":"GV8sriG9m7o4KTjPtGbHPo","contest":"Model Superstar","episode":"Model Superstar","category":null,"contestant":{"voting_id":"04","name":"Sabita Maharjan"},"vote_count":1,"created_on":"2020-01-01T14:45:16.705007+05:45"},{"idx":"TSMxdLPTrkvJHxaUgDGtgE","contest":"Mr. & Miss Teen Sherpa 2020 - S2","episode":"Mr.&Miss Teen Sherpa -S2","category":null,"contestant":{"voting_id":"06","name":"Tenzin Pema Sherpa"},"vote_count":1,"created_on":"2020-01-01T14:16:04.362651+05:45"},{"idx":"dUxSpES2g8qZ8EuycgMbG9","contest":"Mr. & Miss Teen Sherpa 2020 - S2","episode":"Mr.&Miss Teen Sherpa -S2","category":null,"contestant":{"voting_id":"22","name":"Lhakpa Sange Sherpa"},"vote_count":1,"created_on":"2020-01-01T13:50:36.463769+05:45"},{"idx":"2FpjQ5WRAJrxQwGYtt9sEn","contest":"Mr. & Miss Teen Sherpa 2020 - S2","episode":"Mr.&Miss Teen Sherpa -S2","category":null,"contestant":{"voting_id":"02","name":"Pema Yanji sherpa"},"vote_count":1,"created_on":"2020-01-01T13:49:47.669195+05:45"},{"idx":"ckfFoh47yohRw9yvBtvyuB","contest":"Mr. & Miss Teen Sherpa 2020 - S2","episode":"Mr.&Miss Teen Sherpa -S2","category":null,"contestant":{"voting_id":"22","name":"Lhakpa Sange Sherpa"},"vote_count":1,"created_on":"2020-01-01T13:49:14.655265+05:45"},{"idx":"mmQedC7GhadkkB5oK86eBG","contest":"Mr. & Miss Teen Sherpa 2020 - S2","episode":"Mr.&Miss Teen Sherpa -S2","category":null,"contestant":{"voting_id":"08","name":"Angdali Sherpa"},"vote_count":1,"created_on":"2020-01-01T13:41:43.073735+05:45"},{"idx":"WxiCNBnPS5VFfRqNW6yyti","contest":"Mr. & Miss Teen Sherpa 2020 - S2","episode":"Mr.&Miss Teen Sherpa -S2","category":null,"contestant":{"voting_id":"08","name":"Angdali Sherpa"},"vote_count":1,"created_on":"2020-01-01T13:41:21.583334+05:45"},{"idx":"xpDHYUoKeSKi9uFeNukxr4","contest":"Mr. & Miss Teen Sherpa 2020 - S2","episode":"Mr.&Miss Teen Sherpa -S2","category":null,"contestant":{"voting_id":"24","name":"Mingma Tshering Sherpa"},"vote_count":1,"created_on":"2020-01-01T13:33:01.698714+05:45"},{"idx":"bBjmp3GEHQEegBMnk4VK7B","contest":"Mr. & Miss Teen Sherpa 2020 - S2","episode":"Mr.&Miss Teen Sherpa -S2","category":null,"contestant":{"voting_id":"24","name":"Mingma Tshering Sherpa"},"vote_count":1,"created_on":"2020-01-01T13:32:32.930809+05:45"},{"idx":"eM6FU39raqjSDKzEAst8fm","contest":"Mr. & Miss Teen Sherpa 2020 - S2","episode":"Mr.&Miss Teen Sherpa -S2","category":null,"contestant":{"voting_id":"24","name":"Mingma Tshering Sherpa"},"vote_count":1,"created_on":"2020-01-01T13:32:06.856333+05:45"},{"idx":"4sNjEh7Sew8tz5vk2BzK4R","contest":"Mr. & Miss Teen Sherpa 2020 - S2","episode":"Mr.&Miss Teen Sherpa -S2","category":null,"contestant":{"voting_id":"03","name":"Mingma Sherpa"},"vote_count":1,"created_on":"2020-01-01T13:31:26.243428+05:45"},{"idx":"nYaEHFv2UKmeRwqGFXBQeH","contest":"Mr. & Miss Teen Sherpa 2020 - S2","episode":"Mr.&Miss Teen Sherpa -S2","category":null,"contestant":{"voting_id":"08","name":"Angdali Sherpa"},"vote_count":1,"created_on":"2020-01-01T13:29:16.929122+05:45"},{"idx":"8y7CHeZdL3LNYXpkrhxcEX","contest":"Mr. & Miss Teen Sherpa 2020 - S2","episode":"Mr.&Miss Teen Sherpa -S2","category":null,"contestant":{"voting_id":"08","name":"Angdali Sherpa"},"vote_count":1,"created_on":"2020-01-01T13:28:55.576704+05:45"}]}