{"total_pages":275,"total_records":13721,"next":"https://khalti.com/api/v2/vuservote/?page=180","previous":"https://khalti.com/api/v2/vuservote/?page=178","record_range":[8901,8950],"current_page":179,"records":[{"idx":"BZceR6BKLsp6RFBgf4LydA","contest":"Mr. & Miss Teen Sherpa 2020 - S2","episode":"Mr.&Miss Teen Sherpa -S2","category":null,"contestant":{"voting_id":"08","name":"Angdali Sherpa"},"vote_count":1,"created_on":"2020-01-01T13:28:41.360459+05:45"},{"idx":"W28ePJz7KbsZ7qrUiTeEbL","contest":"Model Superstar","episode":"Model Superstar","category":null,"contestant":{"voting_id":"29","name":"Ramesh Kapali"},"vote_count":1,"created_on":"2020-01-01T13:28:27.968628+05:45"},{"idx":"QXXkXK82SumKMarh3JZp24","contest":"Mr. & Miss Teen Sherpa 2020 - S2","episode":"Mr.&Miss Teen Sherpa -S2","category":null,"contestant":{"voting_id":"08","name":"Angdali Sherpa"},"vote_count":1,"created_on":"2020-01-01T13:28:25.146955+05:45"},{"idx":"LPysYpHjpm2Ky7fuCwzg9h","contest":"Mr. & Miss Teen Sherpa 2020 - S2","episode":"Mr.&Miss Teen Sherpa -S2","category":null,"contestant":{"voting_id":"08","name":"Angdali Sherpa"},"vote_count":1,"created_on":"2020-01-01T13:27:17.576744+05:45"},{"idx":"Dt9NpgnfpMd7YCsYa8fHRN","contest":"Mr. & Miss Teen Sherpa 2020 - S2","episode":"Mr.&Miss Teen Sherpa -S2","category":null,"contestant":{"voting_id":"08","name":"Angdali Sherpa"},"vote_count":1,"created_on":"2020-01-01T13:26:14.485134+05:45"},{"idx":"xXrisfzD4KYFpMFViziTjB","contest":"Mr. & Miss Teen Sherpa 2020 - S2","episode":"Mr.&Miss Teen Sherpa -S2","category":null,"contestant":{"voting_id":"08","name":"Angdali Sherpa"},"vote_count":1,"created_on":"2020-01-01T13:25:03.985736+05:45"},{"idx":"cPAofTtdQ2UdEGGLcFyGym","contest":"Mr. & Miss Teen Sherpa 2020 - S2","episode":"Mr.&Miss Teen Sherpa -S2","category":null,"contestant":{"voting_id":"22","name":"Lhakpa Sange Sherpa"},"vote_count":1,"created_on":"2020-01-01T13:16:16.683730+05:45"},{"idx":"Az8fdZ9VuRskcWwjBmTxpT","contest":"Mr. & Miss Teen Sherpa 2020 - S2","episode":"Mr.&Miss Teen Sherpa -S2","category":null,"contestant":{"voting_id":"22","name":"Lhakpa Sange Sherpa"},"vote_count":1,"created_on":"2020-01-01T13:15:51.449239+05:45"},{"idx":"BeMpWdnRNKjkYqKNGgA6na","contest":"Mr. & Miss Teen Sherpa 2020 - S2","episode":"Mr.&Miss Teen Sherpa -S2","category":null,"contestant":{"voting_id":"11","name":"Ang Maya Sherpa"},"vote_count":1,"created_on":"2020-01-01T13:14:58.515098+05:45"},{"idx":"Tpf9XWfij8fWQkMxLyZQ7o","contest":"Mr. & Miss Teen Sherpa 2020 - S2","episode":"Mr.&Miss Teen Sherpa -S2","category":null,"contestant":{"voting_id":"27","name":"Pemba Chiring Sherpa"},"vote_count":1,"created_on":"2020-01-01T13:12:05.301906+05:45"},{"idx":"jY6czKvPkGQ3UHhFgFkxH5","contest":"Model Superstar","episode":"Model Superstar","category":null,"contestant":{"voting_id":"29","name":"Ramesh Kapali"},"vote_count":1,"created_on":"2020-01-01T13:07:08.559914+05:45"},{"idx":"JhPsAQiqkwZ7CA5jdzvcbA","contest":"Model Superstar","episode":"Model Superstar","category":null,"contestant":{"voting_id":"31","name":"Aakriti Subedi"},"vote_count":1,"created_on":"2020-01-01T13:02:51.667013+05:45"},{"idx":"YfUHsrkBLJmdcXVyyBLwHh","contest":"Model Superstar","episode":"Model Superstar","category":null,"contestant":{"voting_id":"31","name":"Aakriti Subedi"},"vote_count":1,"created_on":"2020-01-01T13:01:58.650124+05:45"},{"idx":"Ut3GPa3zQ8kZyi486WogsY","contest":"Mr. & Miss Teen Sherpa 2020 - S2","episode":"Mr.&Miss Teen Sherpa -S2","category":null,"contestant":{"voting_id":"06","name":"Tenzin Pema Sherpa"},"vote_count":1,"created_on":"2020-01-01T12:41:39.063758+05:45"},{"idx":"yroBKU3CUPpUavVmAo4ZJ3","contest":"Model Superstar","episode":"Model Superstar","category":null,"contestant":{"voting_id":"09","name":"Sagar Ghimire"},"vote_count":1,"created_on":"2020-01-01T12:31:54.957788+05:45"},{"idx":"W2eNhqBPfNPnsPEyG4osHN","contest":"NEPALBHASA STAR MUSIC VIDEO AWARDS-2019","episode":null,"category":"BEST DEBUT SINGER, MALE","contestant":{"voting_id":"16B","name":"Raj Kumar Manandhar"},"vote_count":500,"created_on":"2020-01-01T12:06:24.480548+05:45"},{"idx":"H89PBYxhu5SWcJS9EsTnZX","contest":"Mr. & Miss Teen Sherpa 2020 - S2","episode":"Mr.&Miss Teen Sherpa -S2","category":null,"contestant":{"voting_id":"22","name":"Lhakpa Sange Sherpa"},"vote_count":1,"created_on":"2020-01-01T12:04:31.618101+05:45"},{"idx":"HdRe2eAhcfRWD7pPtf694S","contest":"Mr. & Miss Teen Sherpa 2020 - S2","episode":"Mr.&Miss Teen Sherpa -S2","category":null,"contestant":{"voting_id":"11","name":"Ang Maya Sherpa"},"vote_count":1,"created_on":"2020-01-01T12:03:43.971513+05:45"},{"idx":"Qr4ejKwR7hwMAUwKh69V7N","contest":"Mr. & Miss Teen Sherpa 2020 - S2","episode":"Mr.&Miss Teen Sherpa -S2","category":null,"contestant":{"voting_id":"08","name":"Angdali Sherpa"},"vote_count":1,"created_on":"2020-01-01T12:02:39.476275+05:45"},{"idx":"SJuWZzrPU7JLiyJyHUxdqN","contest":"Mr. & Miss Teen Sherpa 2020 - S2","episode":"Mr.&Miss Teen Sherpa -S2","category":null,"contestant":{"voting_id":"08","name":"Angdali Sherpa"},"vote_count":1,"created_on":"2020-01-01T12:02:23.771986+05:45"},{"idx":"QajPdzSo4hpStKdmqVhqnJ","contest":"Mr. & Miss Teen Sherpa 2020 - S2","episode":"Mr.&Miss Teen Sherpa -S2","category":null,"contestant":{"voting_id":"23","name":"Chhiri Sherpa"},"vote_count":1,"created_on":"2020-01-01T12:02:12.586021+05:45"},{"idx":"97B5vxYWPFdgqBr7rEdzUG","contest":"Mr. & Miss Teen Sherpa 2020 - S2","episode":"Mr.&Miss Teen Sherpa -S2","category":null,"contestant":{"voting_id":"08","name":"Angdali Sherpa"},"vote_count":1,"created_on":"2020-01-01T12:02:06.371505+05:45"},{"idx":"QhDjmiLZEwuF6DR8NqMN8F","contest":"Mr. & Miss Teen Sherpa 2020 - S2","episode":"Mr.&Miss Teen Sherpa -S2","category":null,"contestant":{"voting_id":"08","name":"Angdali Sherpa"},"vote_count":1,"created_on":"2020-01-01T12:01:08.726987+05:45"},{"idx":"itoqGY9feTgSKYY5E6q5fg","contest":"Mr. & Miss Teen Sherpa 2020 - S2","episode":"Mr.&Miss Teen Sherpa -S2","category":null,"contestant":{"voting_id":"08","name":"Angdali Sherpa"},"vote_count":1,"created_on":"2020-01-01T12:00:52.474752+05:45"},{"idx":"bsiDfBMHTtUbMTEeAfnW7o","contest":"Mr. & Miss Teen Sherpa 2020 - S2","episode":"Mr.&Miss Teen Sherpa -S2","category":null,"contestant":{"voting_id":"23","name":"Chhiri Sherpa"},"vote_count":1,"created_on":"2020-01-01T12:00:50.418567+05:45"},{"idx":"79ekd7msXWgwHLepHYr9pL","contest":"Mr. & Miss Teen Sherpa 2020 - S2","episode":"Mr.&Miss Teen Sherpa -S2","category":null,"contestant":{"voting_id":"08","name":"Angdali Sherpa"},"vote_count":1,"created_on":"2020-01-01T12:00:34.756369+05:45"},{"idx":"gnsxfn8Gzy8YmKcaRtagdV","contest":"Mr. & Miss Teen Sherpa 2020 - S2","episode":"Mr.&Miss Teen Sherpa -S2","category":null,"contestant":{"voting_id":"08","name":"Angdali Sherpa"},"vote_count":1,"created_on":"2020-01-01T12:00:16.611361+05:45"},{"idx":"RuWAp7XtL5xC8CXYtEAr52","contest":"Mr. & Miss Teen Sherpa 2020 - S2","episode":"Mr.&Miss Teen Sherpa -S2","category":null,"contestant":{"voting_id":"08","name":"Angdali Sherpa"},"vote_count":1,"created_on":"2020-01-01T11:59:47.417141+05:45"},{"idx":"HmLo7uGZkmyS5SPWJRYnzS","contest":"Mr. & Miss Teen Sherpa 2020 - S2","episode":"Mr.&Miss Teen Sherpa -S2","category":null,"contestant":{"voting_id":"26","name":"Tengin Sherpa"},"vote_count":1,"created_on":"2020-01-01T11:59:42.569430+05:45"},{"idx":"6KiLYZZD89aAxFbaPBqw9J","contest":"Mr. & Miss Teen Sherpa 2020 - S2","episode":"Mr.&Miss Teen Sherpa -S2","category":null,"contestant":{"voting_id":"08","name":"Angdali Sherpa"},"vote_count":1,"created_on":"2020-01-01T11:59:16.822019+05:45"},{"idx":"5x88pobUsDUXsdkoSdKJ5L","contest":"Mr. & Miss Teen Sherpa 2020 - S2","episode":"Mr.&Miss Teen Sherpa -S2","category":null,"contestant":{"voting_id":"08","name":"Angdali Sherpa"},"vote_count":1,"created_on":"2020-01-01T11:58:48.322202+05:45"},{"idx":"vsSdmnSmejZmtgEvXeuu4U","contest":"Mr. & Miss Teen Sherpa 2020 - S2","episode":"Mr.&Miss Teen Sherpa -S2","category":null,"contestant":{"voting_id":"03","name":"Mingma Sherpa"},"vote_count":1,"created_on":"2020-01-01T11:53:30.949573+05:45"},{"idx":"BSnZaB7Y5ZDSsxjRkY32Sc","contest":"NEPALBHASA STAR MUSIC VIDEO AWARDS-2019","episode":null,"category":"BEST DEBUT SINGER, MALE","contestant":{"voting_id":"16B","name":"Raj Kumar Manandhar"},"vote_count":500,"created_on":"2020-01-01T11:48:39.153704+05:45"},{"idx":"kQFRBU8AMxV6j7TYQt3gTE","contest":"Mr. & Miss Teen Sherpa 2020 - S2","episode":"Mr.&Miss Teen Sherpa -S2","category":null,"contestant":{"voting_id":"06","name":"Tenzin Pema Sherpa"},"vote_count":1,"created_on":"2020-01-01T11:48:07.427942+05:45"},{"idx":"xPcipHE39pkGoMKVQ4ZSwa","contest":"NEPALBHASA STAR MUSIC VIDEO AWARDS-2019","episode":null,"category":"BEST DEBUT SINGER, MALE","contestant":{"voting_id":"16B","name":"Raj Kumar Manandhar"},"vote_count":5,"created_on":"2020-01-01T11:45:11.266886+05:45"},{"idx":"oA3GAXR53jTKnxzYrLdRkX","contest":"Mr. & Miss Teen Sherpa 2020 - S2","episode":"Mr.&Miss Teen Sherpa -S2","category":null,"contestant":{"voting_id":"08","name":"Angdali Sherpa"},"vote_count":1,"created_on":"2020-01-01T11:38:11.389246+05:45"},{"idx":"3iAp9LNo4AXqASmT9e2vAN","contest":"Mr. & Miss Teen Sherpa 2020 - S2","episode":"Mr.&Miss Teen Sherpa -S2","category":null,"contestant":{"voting_id":"06","name":"Tenzin Pema Sherpa"},"vote_count":1,"created_on":"2020-01-01T11:37:31.108569+05:45"},{"idx":"2MZEJpEQ6Foj8UEzRiXeHT","contest":"Mr. & Miss Teen Sherpa 2020 - S2","episode":"Mr.&Miss Teen Sherpa -S2","category":null,"contestant":{"voting_id":"06","name":"Tenzin Pema Sherpa"},"vote_count":1,"created_on":"2020-01-01T11:33:57.898020+05:45"},{"idx":"QPShvjHdUPTJFZEkAPSk6X","contest":"Mr. & Miss Teen Sherpa 2020 - S2","episode":"Mr.&Miss Teen Sherpa -S2","category":null,"contestant":{"voting_id":"06","name":"Tenzin Pema Sherpa"},"vote_count":1,"created_on":"2020-01-01T11:33:19.144671+05:45"},{"idx":"YvZ6QDwTmp445YBDFPuECi","contest":"Mr. & Miss Teen Sherpa 2020 - S2","episode":"Mr.&Miss Teen Sherpa -S2","category":null,"contestant":{"voting_id":"06","name":"Tenzin Pema Sherpa"},"vote_count":1,"created_on":"2020-01-01T11:29:39.694639+05:45"},{"idx":"4JRE7SeoPcWnFFTUJyvjzN","contest":"Mr. & Miss Teen Sherpa 2020 - S2","episode":"Mr.&Miss Teen Sherpa -S2","category":null,"contestant":{"voting_id":"23","name":"Chhiri Sherpa"},"vote_count":1,"created_on":"2020-01-01T11:05:58.694306+05:45"},{"idx":"zZY7qpr7SZhzsTnqFEznAg","contest":"Mr. & Miss Teen Sherpa 2020 - S2","episode":"Mr.&Miss Teen Sherpa -S2","category":null,"contestant":{"voting_id":"12","name":"Tshering Dolkar Sherpa"},"vote_count":500,"created_on":"2020-01-01T11:05:42.326563+05:45"},{"idx":"J8zoBcCxm5yUSoZYyVg7DX","contest":"Mr. & Miss Teen Sherpa 2020 - S2","episode":"Mr.&Miss Teen Sherpa -S2","category":null,"contestant":{"voting_id":"23","name":"Chhiri Sherpa"},"vote_count":1,"created_on":"2020-01-01T11:04:45.819160+05:45"},{"idx":"tKXQQRjoxHKz8t5iiSmtuG","contest":"Mr. & Miss Teen Sherpa 2020 - S2","episode":"Mr.&Miss Teen Sherpa -S2","category":null,"contestant":{"voting_id":"02","name":"Pema Yanji sherpa"},"vote_count":1,"created_on":"2020-01-01T10:48:17.615866+05:45"},{"idx":"oTRzxc2MDT5nWUjniVN78C","contest":"Mr. & Miss Teen Sherpa 2020 - S2","episode":"Mr.&Miss Teen Sherpa -S2","category":null,"contestant":{"voting_id":"02","name":"Pema Yanji sherpa"},"vote_count":1,"created_on":"2020-01-01T10:47:40.306960+05:45"},{"idx":"NbBJiKYpi844Gv4tBeSNGL","contest":"Mr. & Miss Teen Sherpa 2020 - S2","episode":"Mr.&Miss Teen Sherpa -S2","category":null,"contestant":{"voting_id":"02","name":"Pema Yanji sherpa"},"vote_count":1,"created_on":"2020-01-01T10:41:15.844211+05:45"},{"idx":"qiX3tpFCEJgY4Qs6K7HovZ","contest":"Mr. & Miss Teen Sherpa 2020 - S2","episode":"Mr.&Miss Teen Sherpa -S2","category":null,"contestant":{"voting_id":"02","name":"Pema Yanji sherpa"},"vote_count":1,"created_on":"2020-01-01T10:40:54.503010+05:45"},{"idx":"BPvgBFXGaeo8bYNQYEhAnU","contest":"Mr. & Miss Teen Sherpa 2020 - S2","episode":"Mr.&Miss Teen Sherpa -S2","category":null,"contestant":{"voting_id":"02","name":"Pema Yanji sherpa"},"vote_count":1,"created_on":"2020-01-01T10:40:16.575140+05:45"},{"idx":"gbnyPcveBH6XNbUG9eN6SD","contest":"Mr. & Miss Teen Sherpa 2020 - S2","episode":"Mr.&Miss Teen Sherpa -S2","category":null,"contestant":{"voting_id":"12","name":"Tshering Dolkar Sherpa"},"vote_count":1,"created_on":"2020-01-01T10:36:46.513302+05:45"},{"idx":"jbVYfVhqWs5dccSNxZbPuC","contest":"Mr. & Miss Teen Sherpa 2020 - S2","episode":"Mr.&Miss Teen Sherpa -S2","category":null,"contestant":{"voting_id":"12","name":"Tshering Dolkar Sherpa"},"vote_count":1,"created_on":"2020-01-01T10:35:40.999913+05:45"}]}