{"total_pages":275,"total_records":13717,"next":"https://khalti.com/api/v2/vuservote/?page=19","previous":"https://khalti.com/api/v2/vuservote/?page=17","record_range":[851,900],"current_page":18,"records":[{"idx":"CUSo6vZuN3HqFo5nCVGaEQ","contest":"Locus 2020","episode":"Locus 2020","category":null,"contestant":{"voting_id":"46","name":"Project Immune"},"vote_count":1,"created_on":"2020-02-01T17:00:49.074766+05:45"},{"idx":"U9vmStYvxBrEnZBfT59Qdd","contest":"Music Eve 2020","episode":"Music Eve 2020 IOE","category":null,"contestant":{"voting_id":"15","name":"Purnima And Guys"},"vote_count":1,"created_on":"2020-02-01T16:59:28.485044+05:45"},{"idx":"cUp8fkhUsCe7S2WpvFx4r9","contest":"Locus 2020","episode":"Locus 2020","category":null,"contestant":{"voting_id":"36","name":"Project CNC Router"},"vote_count":1,"created_on":"2020-02-01T16:58:14.518589+05:45"},{"idx":"QbMvFqHSmeHbDvX5AmGBc8","contest":"Locus 2020","episode":"Locus 2020","category":null,"contestant":{"voting_id":"46","name":"Project Immune"},"vote_count":1,"created_on":"2020-02-01T16:49:46.316930+05:45"},{"idx":"V89cY2vFwAvnauK9P9AWJD","contest":"Locus 2020","episode":"Locus 2020","category":null,"contestant":{"voting_id":"46","name":"Project Immune"},"vote_count":1,"created_on":"2020-02-01T16:49:33.476620+05:45"},{"idx":"cKz54us7QDMdAi4aPM2XES","contest":"Locus 2020","episode":"Locus 2020","category":null,"contestant":{"voting_id":"46","name":"Project Immune"},"vote_count":1,"created_on":"2020-02-01T16:49:22.899352+05:45"},{"idx":"H5psF8LnVMFUDKw5nAhSB3","contest":"Locus 2020","episode":"Locus 2020","category":null,"contestant":{"voting_id":"10","name":"Project Locus Documentation 2020"},"vote_count":1,"created_on":"2020-02-01T16:40:13.819491+05:45"},{"idx":"AgvVfkWTT39otmCWZYkk4d","contest":"Locus 2020","episode":"Locus 2020","category":null,"contestant":{"voting_id":"27","name":"Project Online Entrance System ( IOE Entrance)"},"vote_count":1,"created_on":"2020-02-01T16:37:55.823124+05:45"},{"idx":"NYLVZjQboZeWzBA5CXQjQ5","contest":"Locus 2020","episode":"Locus 2020","category":null,"contestant":{"voting_id":"15","name":"Project Residential Drainage Water Purification System"},"vote_count":1,"created_on":"2020-02-01T16:36:12.852515+05:45"},{"idx":"VYLWGKBZ5ziem7H2UtS64C","contest":"Model Superstar","episode":"Model Superstar Finale","category":null,"contestant":{"voting_id":"14","name":"Ashish Shakya"},"vote_count":1,"created_on":"2020-02-01T16:32:00.398513+05:45"},{"idx":"gaufy5agVxVGaZpWLpBULP","contest":"Locus 2020","episode":"Locus 2020","category":null,"contestant":{"voting_id":"83","name":"Project Ghadi"},"vote_count":1,"created_on":"2020-02-01T16:31:28.108813+05:45"},{"idx":"VG4yKCPRKbr8q3TcBexi8G","contest":"Model Superstar","episode":"Model Superstar Finale","category":null,"contestant":{"voting_id":"14","name":"Ashish Shakya"},"vote_count":1,"created_on":"2020-02-01T16:31:24.349014+05:45"},{"idx":"etbpXC7cAW8vehDexMU2WV","contest":"Locus 2020","episode":"Locus 2020","category":null,"contestant":{"voting_id":"46","name":"Project Immune"},"vote_count":1,"created_on":"2020-02-01T16:30:26.475032+05:45"},{"idx":"LbQ3YrGai7PrjABE2HfnKD","contest":"Locus 2020","episode":"Locus 2020","category":null,"contestant":{"voting_id":"04","name":"Project IRB -Robo Arm"},"vote_count":1,"created_on":"2020-02-01T16:29:45.541035+05:45"},{"idx":"YK6binW43MgKSCikcLxiMF","contest":"Locus 2020","episode":"Locus 2020","category":null,"contestant":{"voting_id":"04","name":"Project IRB -Robo Arm"},"vote_count":1,"created_on":"2020-02-01T16:29:31.796939+05:45"},{"idx":"GshFqPDjpkDQB2yjzgrjW5","contest":"Locus 2020","episode":"Locus 2020","category":null,"contestant":{"voting_id":"46","name":"Project Immune"},"vote_count":1,"created_on":"2020-02-01T16:26:18.376715+05:45"},{"idx":"5iBH5iX6NJTLYw8qcBybHR","contest":"Locus 2020","episode":"Locus 2020","category":null,"contestant":{"voting_id":"46","name":"Project Immune"},"vote_count":1,"created_on":"2020-02-01T16:10:34.889462+05:45"},{"idx":"MX3Qcyf8MDBeScDk6rotz7","contest":"Locus 2020","episode":"Locus 2020","category":null,"contestant":{"voting_id":"36","name":"Project CNC Router"},"vote_count":1,"created_on":"2020-02-01T16:08:10.819178+05:45"},{"idx":"JWdzkiGN6stjAPZkdqvu5R","contest":"Locus 2020","episode":"Locus 2020","category":null,"contestant":{"voting_id":"34","name":"Project Femicoders"},"vote_count":1,"created_on":"2020-02-01T16:07:43.546695+05:45"},{"idx":"9F3TckCjy6BtfrbAUBxBgZ","contest":"Model Superstar","episode":"Model Superstar Finale","category":null,"contestant":{"voting_id":"04","name":"Sabita Maharjan"},"vote_count":1,"created_on":"2020-02-01T16:07:32.560985+05:45"},{"idx":"sZYn27A6ZfpakFMDd7HLEB","contest":"Locus 2020","episode":"Locus 2020","category":null,"contestant":{"voting_id":"46","name":"Project Immune"},"vote_count":1,"created_on":"2020-02-01T16:05:03.751961+05:45"},{"idx":"GQTFHxDXUdBWDW4NktHt7N","contest":"Locus 2020","episode":"Locus 2020","category":null,"contestant":{"voting_id":"27","name":"Project Online Entrance System ( IOE Entrance)"},"vote_count":1,"created_on":"2020-02-01T16:03:25.740198+05:45"},{"idx":"MaP3Bz3jdjpyzVjUsiTSfN","contest":"Locus 2020","episode":"Locus 2020","category":null,"contestant":{"voting_id":"32","name":"Project Health and Environment Checker"},"vote_count":1,"created_on":"2020-02-01T15:58:36.063112+05:45"},{"idx":"Fg7oNR7qf62GaZFnwsDUSn","contest":"Locus 2020","episode":"Locus 2020","category":null,"contestant":{"voting_id":"10","name":"Project Locus Documentation 2020"},"vote_count":1,"created_on":"2020-02-01T15:57:55.074437+05:45"},{"idx":"TJxZ5tRM8BpGYGawtx4Y7F","contest":"Locus 2020","episode":"Locus 2020","category":null,"contestant":{"voting_id":"46","name":"Project Immune"},"vote_count":1,"created_on":"2020-02-01T15:56:12.775907+05:45"},{"idx":"pBwpDe2fmGng6raEM9RTEk","contest":"Music Eve 2020","episode":"Music Eve 2020 IOE","category":null,"contestant":{"voting_id":"20","name":"Sinam Adhikari"},"vote_count":1,"created_on":"2020-02-01T15:53:13.970333+05:45"},{"idx":"zUDCmLUvs4GTahKtcgsf78","contest":"Locus 2020","episode":"Locus 2020","category":null,"contestant":{"voting_id":"38","name":"Project Project -N"},"vote_count":1,"created_on":"2020-02-01T15:51:10.540807+05:45"},{"idx":"MvKxn74h6ZfQpPVKNAWvM2","contest":"Locus 2020","episode":"Locus 2020","category":null,"contestant":{"voting_id":"36","name":"Project CNC Router"},"vote_count":1,"created_on":"2020-02-01T15:50:07.871375+05:45"},{"idx":"UwSkQY33MD345n5fWHLnDc","contest":"Locus 2020","episode":"Locus 2020","category":null,"contestant":{"voting_id":"46","name":"Project Immune"},"vote_count":1,"created_on":"2020-02-01T15:50:06.149811+05:45"},{"idx":"G4v2qgoZoo4eErKYnvoH4L","contest":"Locus 2020","episode":"Locus 2020","category":null,"contestant":{"voting_id":"46","name":"Project Immune"},"vote_count":1,"created_on":"2020-02-01T15:49:14.447462+05:45"},{"idx":"3nKrYQWv5nyaHQaNZYzToc","contest":"Locus 2020","episode":"Locus 2020","category":null,"contestant":{"voting_id":"10","name":"Project Locus Documentation 2020"},"vote_count":1,"created_on":"2020-02-01T15:35:28.793459+05:45"},{"idx":"oyDkBv4tmwfQrEU9PrMkeR","contest":"Locus 2020","episode":"Locus 2020","category":null,"contestant":{"voting_id":"46","name":"Project Immune"},"vote_count":1,"created_on":"2020-02-01T15:30:26.433406+05:45"},{"idx":"gAQVRpb5RncWCZgtkJVJk7","contest":"Locus 2020","episode":"Locus 2020","category":null,"contestant":{"voting_id":"36","name":"Project CNC Router"},"vote_count":1,"created_on":"2020-02-01T15:27:48.871594+05:45"},{"idx":"5WFPNRHaazT2B2mXbkE6t4","contest":"Locus 2020","episode":"Locus 2020","category":null,"contestant":{"voting_id":"36","name":"Project CNC Router"},"vote_count":1,"created_on":"2020-02-01T15:27:07.064923+05:45"},{"idx":"4XEmWA6WgLNau3iwLhefXL","contest":"Locus 2020","episode":"Locus 2020","category":null,"contestant":{"voting_id":"46","name":"Project Immune"},"vote_count":1,"created_on":"2020-02-01T15:25:20.834085+05:45"},{"idx":"2hVvL8vvt7ZBHMKq9VVbM8","contest":"Model Superstar","episode":"Model Superstar Finale","category":null,"contestant":{"voting_id":"31","name":"Aakriti Subedi"},"vote_count":1,"created_on":"2020-02-01T15:23:37.423402+05:45"},{"idx":"9GuiA3JBpub7DdGR5YwhdU","contest":"Locus 2020","episode":"Locus 2020","category":null,"contestant":{"voting_id":"34","name":"Project Femicoders"},"vote_count":1,"created_on":"2020-02-01T15:22:40.016837+05:45"},{"idx":"9RPnnv9idPPnCnoYCM4wSW","contest":"Locus 2020","episode":"Locus 2020","category":null,"contestant":{"voting_id":"24","name":"Project Library App"},"vote_count":1,"created_on":"2020-02-01T15:17:23.087596+05:45"},{"idx":"dFxs2HQuG5fpSxuXPxzJqX","contest":"Locus 2020","episode":"Locus 2020","category":null,"contestant":{"voting_id":"16","name":"Project IOT Based Smart Agriculture System"},"vote_count":1,"created_on":"2020-02-01T15:17:22.747686+05:45"},{"idx":"VWJEJaMm3hffqfod2Ye3yX","contest":"Locus 2020","episode":"Locus 2020","category":null,"contestant":{"voting_id":"32","name":"Project Health and Environment Checker"},"vote_count":1,"created_on":"2020-02-01T15:15:01.788695+05:45"},{"idx":"eFHqtWMHRvpKt3wsATHrrB","contest":"Locus 2020","episode":"Locus 2020","category":null,"contestant":{"voting_id":"46","name":"Project Immune"},"vote_count":1,"created_on":"2020-02-01T15:12:53.139421+05:45"},{"idx":"ugJrQGUqtPaJZZ87uAdRpn","contest":"Locus 2020","episode":"Locus 2020","category":null,"contestant":{"voting_id":"18","name":"Project Safa-e"},"vote_count":1,"created_on":"2020-02-01T15:12:34.548070+05:45"},{"idx":"PYHzwGBHnhYYjcND6cNP6Y","contest":"Locus 2020","episode":"Locus 2020","category":null,"contestant":{"voting_id":"46","name":"Project Immune"},"vote_count":1,"created_on":"2020-02-01T15:11:53.220606+05:45"},{"idx":"q3gzTV6PgKQnf5v6P236BD","contest":"Locus 2020","episode":"Locus 2020","category":null,"contestant":{"voting_id":"10","name":"Project Locus Documentation 2020"},"vote_count":1,"created_on":"2020-02-01T15:07:42.374448+05:45"},{"idx":"hEcrKJUnsF2LiiGt3i2m7b","contest":"Locus 2020","episode":"Locus 2020","category":null,"contestant":{"voting_id":"27","name":"Project Online Entrance System ( IOE Entrance)"},"vote_count":1,"created_on":"2020-02-01T14:58:14.570093+05:45"},{"idx":"nhjuvYsfuGx6RnRGXQrX5c","contest":"Locus 2020","episode":"Locus 2020","category":null,"contestant":{"voting_id":"09","name":"Project Solar Powered Water Surface Garbage Collecting Boat"},"vote_count":1,"created_on":"2020-02-01T14:55:25.444480+05:45"},{"idx":"za2xRwKgJWSY6uxamHqiv2","contest":"Locus 2020","episode":"Locus 2020","category":null,"contestant":{"voting_id":"22","name":"Project Under Ground Fault Detector"},"vote_count":1,"created_on":"2020-02-01T14:49:26.645954+05:45"},{"idx":"Ztw6q9DVevc99J4zWx7xn8","contest":"Locus 2020","episode":"Locus 2020","category":null,"contestant":{"voting_id":"36","name":"Project CNC Router"},"vote_count":1,"created_on":"2020-02-01T14:49:04.390004+05:45"},{"idx":"WdQ68De58DqPKBapmyTDBC","contest":"Locus 2020","episode":"Locus 2020","category":null,"contestant":{"voting_id":"04","name":"Project IRB -Robo Arm"},"vote_count":1,"created_on":"2020-02-01T14:48:50.610902+05:45"},{"idx":"KKADHHsVP8mZSWAY7Sv5Q5","contest":"Locus 2020","episode":"Locus 2020","category":null,"contestant":{"voting_id":"62","name":"Project 2D CNC Plotter"},"vote_count":1,"created_on":"2020-02-01T14:47:55.556028+05:45"}]}