{"total_pages":275,"total_records":13721,"next":"https://khalti.com/api/v2/vuservote/?page=181","previous":"https://khalti.com/api/v2/vuservote/?page=179","record_range":[8951,9000],"current_page":180,"records":[{"idx":"Z5xq9JiVyAwERfE9EJLj7U","contest":"Model Superstar","episode":"Model Superstar","category":null,"contestant":{"voting_id":"12","name":"Rabin Ghising"},"vote_count":1,"created_on":"2020-01-01T10:25:17.232386+05:45"},{"idx":"MDgTzG4Zh3pHRVtEKib84W","contest":"Mr. & Miss Teen Sherpa 2020 - S2","episode":"Mr.&Miss Teen Sherpa -S2","category":null,"contestant":{"voting_id":"27","name":"Pemba Chiring Sherpa"},"vote_count":1,"created_on":"2020-01-01T09:52:30.781422+05:45"},{"idx":"qPCs7V3MymFxifJdXA3vKB","contest":"Mr. & Miss Teen Sherpa 2020 - S2","episode":"Mr.&Miss Teen Sherpa -S2","category":null,"contestant":{"voting_id":"26","name":"Tengin Sherpa"},"vote_count":1,"created_on":"2020-01-01T09:52:13.547535+05:45"},{"idx":"fYondQpGJCgbzdFmcVGBWH","contest":"Mr. & Miss Teen Sherpa 2020 - S2","episode":"Mr.&Miss Teen Sherpa -S2","category":null,"contestant":{"voting_id":"25","name":"Pemba Dorji Sherpa"},"vote_count":1,"created_on":"2020-01-01T09:51:52.608678+05:45"},{"idx":"qm7RxCd7h6XrVytVuqTwK3","contest":"Mr. & Miss Teen Sherpa 2020 - S2","episode":"Mr.&Miss Teen Sherpa -S2","category":null,"contestant":{"voting_id":"24","name":"Mingma Tshering Sherpa"},"vote_count":1,"created_on":"2020-01-01T09:51:32.493902+05:45"},{"idx":"YC6bhPm8JQZReEWXjkyRG4","contest":"Mr. & Miss Teen Sherpa 2020 - S2","episode":"Mr.&Miss Teen Sherpa -S2","category":null,"contestant":{"voting_id":"23","name":"Chhiri Sherpa"},"vote_count":1,"created_on":"2020-01-01T09:51:15.476233+05:45"},{"idx":"EhrWS87f8c3aFT5QnvEJYC","contest":"Mr. & Miss Teen Sherpa 2020 - S2","episode":"Mr.&Miss Teen Sherpa -S2","category":null,"contestant":{"voting_id":"22","name":"Lhakpa Sange Sherpa"},"vote_count":1,"created_on":"2020-01-01T09:50:59.048742+05:45"},{"idx":"xktjLs5Um2CqeZNxBLpiT3","contest":"Mr. & Miss Teen Sherpa 2020 - S2","episode":"Mr.&Miss Teen Sherpa -S2","category":null,"contestant":{"voting_id":"02","name":"Pema Yanji sherpa"},"vote_count":1,"created_on":"2020-01-01T09:50:42.727671+05:45"},{"idx":"uRDsQjMrjJKiG6vLSDxRRf","contest":"Mr. & Miss Teen Sherpa 2020 - S2","episode":"Mr.&Miss Teen Sherpa -S2","category":null,"contestant":{"voting_id":"21","name":"Dawa Tsering Sherpa"},"vote_count":1,"created_on":"2020-01-01T09:50:40.078938+05:45"},{"idx":"LSEoTtPvaYXdPXZqT8wThd","contest":"Mr. & Miss Teen Sherpa 2020 - S2","episode":"Mr.&Miss Teen Sherpa -S2","category":null,"contestant":{"voting_id":"02","name":"Pema Yanji sherpa"},"vote_count":1,"created_on":"2020-01-01T09:50:35.124083+05:45"},{"idx":"dyrYbyeJGPNNyNsGpGa3xL","contest":"Mr. & Miss Teen Sherpa 2020 - S2","episode":"Mr.&Miss Teen Sherpa -S2","category":null,"contestant":{"voting_id":"02","name":"Pema Yanji sherpa"},"vote_count":1,"created_on":"2020-01-01T09:50:28.921990+05:45"},{"idx":"PGecQsjvjYPBWLXreQnubf","contest":"Mr. & Miss Teen Sherpa 2020 - S2","episode":"Mr.&Miss Teen Sherpa -S2","category":null,"contestant":{"voting_id":"02","name":"Pema Yanji sherpa"},"vote_count":1,"created_on":"2020-01-01T09:50:19.180789+05:45"},{"idx":"cFokGHavMYV7XmetAKP96R","contest":"Mr. & Miss Teen Sherpa 2020 - S2","episode":"Mr.&Miss Teen Sherpa -S2","category":null,"contestant":{"voting_id":"12","name":"Tshering Dolkar Sherpa"},"vote_count":1,"created_on":"2020-01-01T09:50:18.215035+05:45"},{"idx":"KSLdAETgPQBmJy9qwrFFvL","contest":"Mr. & Miss Teen Sherpa 2020 - S2","episode":"Mr.&Miss Teen Sherpa -S2","category":null,"contestant":{"voting_id":"02","name":"Pema Yanji sherpa"},"vote_count":1,"created_on":"2020-01-01T09:50:11.914427+05:45"},{"idx":"UiUaPmWyZFMdey2RyLRcPW","contest":"Mr. & Miss Teen Sherpa 2020 - S2","episode":"Mr.&Miss Teen Sherpa -S2","category":null,"contestant":{"voting_id":"02","name":"Pema Yanji sherpa"},"vote_count":1,"created_on":"2020-01-01T09:50:04.897713+05:45"},{"idx":"YKwqLFT3PHg2Kppj3muf49","contest":"Mr. & Miss Teen Sherpa 2020 - S2","episode":"Mr.&Miss Teen Sherpa -S2","category":null,"contestant":{"voting_id":"11","name":"Ang Maya Sherpa"},"vote_count":1,"created_on":"2020-01-01T09:49:59.472040+05:45"},{"idx":"GFQ7u57WZJjTShBCFNbRcH","contest":"Mr. & Miss Teen Sherpa 2020 - S2","episode":"Mr.&Miss Teen Sherpa -S2","category":null,"contestant":{"voting_id":"02","name":"Pema Yanji sherpa"},"vote_count":1,"created_on":"2020-01-01T09:49:55.356812+05:45"},{"idx":"L2ayEQpLCZrzymT2eVtwWX","contest":"Mr. & Miss Teen Sherpa 2020 - S2","episode":"Mr.&Miss Teen Sherpa -S2","category":null,"contestant":{"voting_id":"02","name":"Pema Yanji sherpa"},"vote_count":1,"created_on":"2020-01-01T09:49:47.392396+05:45"},{"idx":"82aV3oaNnSqYX3p6WcX484","contest":"Mr. & Miss Teen Sherpa 2020 - S2","episode":"Mr.&Miss Teen Sherpa -S2","category":null,"contestant":{"voting_id":"02","name":"Pema Yanji sherpa"},"vote_count":1,"created_on":"2020-01-01T09:49:39.508815+05:45"},{"idx":"NACMKzeKgUP4xuvrAtDDwY","contest":"Mr. & Miss Teen Sherpa 2020 - S2","episode":"Mr.&Miss Teen Sherpa -S2","category":null,"contestant":{"voting_id":"10","name":"Kaljang Lhamu Sherpa"},"vote_count":1,"created_on":"2020-01-01T09:49:36.494185+05:45"},{"idx":"2SvgfEVVAKnYDDr9U47SpN","contest":"Mr. & Miss Teen Sherpa 2020 - S2","episode":"Mr.&Miss Teen Sherpa -S2","category":null,"contestant":{"voting_id":"02","name":"Pema Yanji sherpa"},"vote_count":1,"created_on":"2020-01-01T09:49:32.157835+05:45"},{"idx":"kD8Q2MYN7araxAax2yfpug","contest":"Mr. & Miss Teen Sherpa 2020 - S2","episode":"Mr.&Miss Teen Sherpa -S2","category":null,"contestant":{"voting_id":"02","name":"Pema Yanji sherpa"},"vote_count":1,"created_on":"2020-01-01T09:49:24.092783+05:45"},{"idx":"UD2DgHFvJ5qQaSow6iUBdK","contest":"Mr. & Miss Teen Sherpa 2020 - S2","episode":"Mr.&Miss Teen Sherpa -S2","category":null,"contestant":{"voting_id":"09","name":"Paljum Sherpa"},"vote_count":1,"created_on":"2020-01-01T09:49:15.990726+05:45"},{"idx":"wasA9GwpzTdpHJZ55mirvC","contest":"Mr. & Miss Teen Sherpa 2020 - S2","episode":"Mr.&Miss Teen Sherpa -S2","category":null,"contestant":{"voting_id":"02","name":"Pema Yanji sherpa"},"vote_count":1,"created_on":"2020-01-01T09:49:15.872694+05:45"},{"idx":"LJBPKUacPW82n9PkF9c3AL","contest":"Mr. & Miss Teen Sherpa 2020 - S2","episode":"Mr.&Miss Teen Sherpa -S2","category":null,"contestant":{"voting_id":"02","name":"Pema Yanji sherpa"},"vote_count":1,"created_on":"2020-01-01T09:49:09.224211+05:45"},{"idx":"S7axjc2NRjQPfEopXm5YBo","contest":"Mr. & Miss Teen Sherpa 2020 - S2","episode":"Mr.&Miss Teen Sherpa -S2","category":null,"contestant":{"voting_id":"02","name":"Pema Yanji sherpa"},"vote_count":1,"created_on":"2020-01-01T09:49:00.739290+05:45"},{"idx":"yT7Rk5b6sMsx2TuoT2o76H","contest":"Mr. & Miss Teen Sherpa 2020 - S2","episode":"Mr.&Miss Teen Sherpa -S2","category":null,"contestant":{"voting_id":"08","name":"Angdali Sherpa"},"vote_count":1,"created_on":"2020-01-01T09:48:57.635781+05:45"},{"idx":"SwFpBwtx8JnHtCADDk6mA3","contest":"Mr. & Miss Teen Sherpa 2020 - S2","episode":"Mr.&Miss Teen Sherpa -S2","category":null,"contestant":{"voting_id":"02","name":"Pema Yanji sherpa"},"vote_count":1,"created_on":"2020-01-01T09:48:53.910184+05:45"},{"idx":"zHHSJVdttQPuKgvVL4A9UC","contest":"Mr. & Miss Teen Sherpa 2020 - S2","episode":"Mr.&Miss Teen Sherpa -S2","category":null,"contestant":{"voting_id":"02","name":"Pema Yanji sherpa"},"vote_count":1,"created_on":"2020-01-01T09:48:46.326243+05:45"},{"idx":"8ssZZjPwGX2u4ooLbNfJ2m","contest":"Mr. & Miss Teen Sherpa 2020 - S2","episode":"Mr.&Miss Teen Sherpa -S2","category":null,"contestant":{"voting_id":"06","name":"Tenzin Pema Sherpa"},"vote_count":1,"created_on":"2020-01-01T09:48:40.084204+05:45"},{"idx":"ZZfJwYqLxfhV7igdSrtT25","contest":"Mr. & Miss Teen Sherpa 2020 - S2","episode":"Mr.&Miss Teen Sherpa -S2","category":null,"contestant":{"voting_id":"02","name":"Pema Yanji sherpa"},"vote_count":1,"created_on":"2020-01-01T09:48:37.739930+05:45"},{"idx":"N8XQxoyN5wvudFqULvKquD","contest":"Mr. & Miss Teen Sherpa 2020 - S2","episode":"Mr.&Miss Teen Sherpa -S2","category":null,"contestant":{"voting_id":"02","name":"Pema Yanji sherpa"},"vote_count":1,"created_on":"2020-01-01T09:48:31.927855+05:45"},{"idx":"WVcAPPfVnkykxTt5X2p5ZE","contest":"Mr. & Miss Teen Sherpa 2020 - S2","episode":"Mr.&Miss Teen Sherpa -S2","category":null,"contestant":{"voting_id":"02","name":"Pema Yanji sherpa"},"vote_count":1,"created_on":"2020-01-01T09:48:26.107584+05:45"},{"idx":"D9Mud6Cr848s5Bjggi4b8i","contest":"Mr. & Miss Teen Sherpa 2020 - S2","episode":"Mr.&Miss Teen Sherpa -S2","category":null,"contestant":{"voting_id":"05","name":"Nima Lhamu sherpa"},"vote_count":1,"created_on":"2020-01-01T09:48:24.495965+05:45"},{"idx":"faCw8AHvgCWMgBtxvZaCD3","contest":"Mr. & Miss Teen Sherpa 2020 - S2","episode":"Mr.&Miss Teen Sherpa -S2","category":null,"contestant":{"voting_id":"02","name":"Pema Yanji sherpa"},"vote_count":1,"created_on":"2020-01-01T09:48:19.321252+05:45"},{"idx":"WQEdNZSV8Y4bnnrs2J9Bya","contest":"Mr. & Miss Teen Sherpa 2020 - S2","episode":"Mr.&Miss Teen Sherpa -S2","category":null,"contestant":{"voting_id":"02","name":"Pema Yanji sherpa"},"vote_count":1,"created_on":"2020-01-01T09:48:11.157751+05:45"},{"idx":"VZNK3ZiCvBHWmaVPPPh53j","contest":"Mr. & Miss Teen Sherpa 2020 - S2","episode":"Mr.&Miss Teen Sherpa -S2","category":null,"contestant":{"voting_id":"02","name":"Pema Yanji sherpa"},"vote_count":1,"created_on":"2020-01-01T09:48:04.551365+05:45"},{"idx":"RwMXRe3EHegVpqwDABVNJ7","contest":"Mr. & Miss Teen Sherpa 2020 - S2","episode":"Mr.&Miss Teen Sherpa -S2","category":null,"contestant":{"voting_id":"04","name":"Chhewang Sherpa"},"vote_count":1,"created_on":"2020-01-01T09:48:02.235127+05:45"},{"idx":"oxUxiYk43L5LNDPkC3tyLY","contest":"Mr. & Miss Teen Sherpa 2020 - S2","episode":"Mr.&Miss Teen Sherpa -S2","category":null,"contestant":{"voting_id":"02","name":"Pema Yanji sherpa"},"vote_count":1,"created_on":"2020-01-01T09:47:57.607014+05:45"},{"idx":"m4UzXqb9cmqmG3j6ypnoCR","contest":"Mr. & Miss Teen Sherpa 2020 - S2","episode":"Mr.&Miss Teen Sherpa -S2","category":null,"contestant":{"voting_id":"02","name":"Pema Yanji sherpa"},"vote_count":1,"created_on":"2020-01-01T09:47:50.307889+05:45"},{"idx":"jRnFmeip3bX69H9fA3WNWC","contest":"Mr. & Miss Teen Sherpa 2020 - S2","episode":"Mr.&Miss Teen Sherpa -S2","category":null,"contestant":{"voting_id":"02","name":"Pema Yanji sherpa"},"vote_count":1,"created_on":"2020-01-01T09:47:42.578453+05:45"},{"idx":"ZxnDk2FsmLbtGTTuWJFpSj","contest":"Mr. & Miss Teen Sherpa 2020 - S2","episode":"Mr.&Miss Teen Sherpa -S2","category":null,"contestant":{"voting_id":"03","name":"Mingma Sherpa"},"vote_count":1,"created_on":"2020-01-01T09:47:38.013270+05:45"},{"idx":"tMhhnATaaefp9qDPcWz4Q5","contest":"Mr. & Miss Teen Sherpa 2020 - S2","episode":"Mr.&Miss Teen Sherpa -S2","category":null,"contestant":{"voting_id":"02","name":"Pema Yanji sherpa"},"vote_count":1,"created_on":"2020-01-01T09:47:33.754990+05:45"},{"idx":"ZC6XMFXnkJXPDd7VWPoMhC","contest":"Mr. & Miss Teen Sherpa 2020 - S2","episode":"Mr.&Miss Teen Sherpa -S2","category":null,"contestant":{"voting_id":"02","name":"Pema Yanji sherpa"},"vote_count":1,"created_on":"2020-01-01T09:47:26.858226+05:45"},{"idx":"H4ESfe8gG7yVCEsMYPTKBM","contest":"Mr. & Miss Teen Sherpa 2020 - S2","episode":"Mr.&Miss Teen Sherpa -S2","category":null,"contestant":{"voting_id":"01","name":"Lhamu Sherpa"},"vote_count":1,"created_on":"2020-01-01T09:47:19.550320+05:45"},{"idx":"GPWKDhRYMGsExxjiUVV3b5","contest":"Mr. & Miss Teen Sherpa 2020 - S2","episode":"Mr.&Miss Teen Sherpa -S2","category":null,"contestant":{"voting_id":"02","name":"Pema Yanji sherpa"},"vote_count":1,"created_on":"2020-01-01T09:47:18.729930+05:45"},{"idx":"yqVgUXzUDAtNnjGMBjk3HW","contest":"Mr. & Miss Teen Sherpa 2020 - S2","episode":"Mr.&Miss Teen Sherpa -S2","category":null,"contestant":{"voting_id":"02","name":"Pema Yanji sherpa"},"vote_count":1,"created_on":"2020-01-01T09:47:09.495443+05:45"},{"idx":"viRS7UgG7xvMC6PGYjNYMD","contest":"Mr. & Miss Teen Sherpa 2020 - S2","episode":"Mr.&Miss Teen Sherpa -S2","category":null,"contestant":{"voting_id":"02","name":"Pema Yanji sherpa"},"vote_count":1,"created_on":"2020-01-01T09:47:02.800618+05:45"},{"idx":"AarzDgNLCAAkwNqmNy7U2X","contest":"Mr. & Miss Teen Sherpa 2020 - S2","episode":"Mr.&Miss Teen Sherpa -S2","category":null,"contestant":{"voting_id":"02","name":"Pema Yanji sherpa"},"vote_count":1,"created_on":"2020-01-01T09:47:00.771499+05:45"},{"idx":"q6xPbhHgDb5XxH2kJWpnE5","contest":"Mr. & Miss Teen Sherpa 2020 - S2","episode":"Mr.&Miss Teen Sherpa -S2","category":null,"contestant":{"voting_id":"02","name":"Pema Yanji sherpa"},"vote_count":1,"created_on":"2020-01-01T09:46:54.643146+05:45"}]}