{"total_pages":275,"total_records":13721,"next":"https://khalti.com/api/v2/vuservote/?page=183","previous":"https://khalti.com/api/v2/vuservote/?page=181","record_range":[9051,9100],"current_page":182,"records":[{"idx":"AgMHB9jkCmUfp2RCgGrxkA","contest":"Mr. & Miss Teen Sherpa 2020 - S2","episode":"Mr.&Miss Teen Sherpa -S2","category":null,"contestant":{"voting_id":"02","name":"Pema Yanji sherpa"},"vote_count":1,"created_on":"2020-01-01T08:41:24.529440+05:45"},{"idx":"ePtaDArucpqH5MUuZps98c","contest":"Mr. & Miss Teen Sherpa 2020 - S2","episode":"Mr.&Miss Teen Sherpa -S2","category":null,"contestant":{"voting_id":"02","name":"Pema Yanji sherpa"},"vote_count":1,"created_on":"2020-01-01T08:41:15.442470+05:45"},{"idx":"R5S3quVnGQANLjHXHQ5SJ7","contest":"Mr. & Miss Teen Sherpa 2020 - S2","episode":"Mr.&Miss Teen Sherpa -S2","category":null,"contestant":{"voting_id":"02","name":"Pema Yanji sherpa"},"vote_count":1,"created_on":"2020-01-01T08:41:12.072062+05:45"},{"idx":"jumxSnr84Z8Q9WdzShaGtN","contest":"Mr. & Miss Teen Sherpa 2020 - S2","episode":"Mr.&Miss Teen Sherpa -S2","category":null,"contestant":{"voting_id":"02","name":"Pema Yanji sherpa"},"vote_count":1,"created_on":"2020-01-01T08:40:48.449579+05:45"},{"idx":"FqNHhmaLTXrcqM8DEKayTm","contest":"Mr. & Miss Teen Sherpa 2020 - S2","episode":"Mr.&Miss Teen Sherpa -S2","category":null,"contestant":{"voting_id":"02","name":"Pema Yanji sherpa"},"vote_count":1,"created_on":"2020-01-01T08:39:04.723532+05:45"},{"idx":"JufTUgGX8vh65pVtTnedZn","contest":"Mr. & Miss Teen Sherpa 2020 - S2","episode":"Mr.&Miss Teen Sherpa -S2","category":null,"contestant":{"voting_id":"02","name":"Pema Yanji sherpa"},"vote_count":1,"created_on":"2020-01-01T08:30:09.469848+05:45"},{"idx":"GoZZ25cXEoVXdk5EtHGohQ","contest":"Mr. & Miss Teen Sherpa 2020 - S2","episode":"Mr.&Miss Teen Sherpa -S2","category":null,"contestant":{"voting_id":"02","name":"Pema Yanji sherpa"},"vote_count":1,"created_on":"2020-01-01T08:29:29.064478+05:45"},{"idx":"NcbuiNs9wRGqpC597mQNcA","contest":"Mr. & Miss Teen Sherpa 2020 - S2","episode":"Mr.&Miss Teen Sherpa -S2","category":null,"contestant":{"voting_id":"06","name":"Tenzin Pema Sherpa"},"vote_count":1,"created_on":"2020-01-01T08:29:14.450313+05:45"},{"idx":"iKHrdm7n8APrQEgzzDrtam","contest":"Mr. & Miss Teen Sherpa 2020 - S2","episode":"Mr.&Miss Teen Sherpa -S2","category":null,"contestant":{"voting_id":"06","name":"Tenzin Pema Sherpa"},"vote_count":1,"created_on":"2020-01-01T08:28:57.840165+05:45"},{"idx":"3VTz5ix824uiRL77UKeqrZ","contest":"Mr. & Miss Teen Sherpa 2020 - S2","episode":"Mr.&Miss Teen Sherpa -S2","category":null,"contestant":{"voting_id":"06","name":"Tenzin Pema Sherpa"},"vote_count":1,"created_on":"2020-01-01T08:28:42.952712+05:45"},{"idx":"iFcjXkyoPSCVBy6mAtB4x8","contest":"Mr. & Miss Teen Sherpa 2020 - S2","episode":"Mr.&Miss Teen Sherpa -S2","category":null,"contestant":{"voting_id":"02","name":"Pema Yanji sherpa"},"vote_count":1,"created_on":"2020-01-01T08:27:58.480093+05:45"},{"idx":"bwqFKhphGJp6oaKj9aKvXR","contest":"Mr. & Miss Teen Sherpa 2020 - S2","episode":"Mr.&Miss Teen Sherpa -S2","category":null,"contestant":{"voting_id":"01","name":"Lhamu Sherpa"},"vote_count":1,"created_on":"2020-01-01T08:27:51.833726+05:45"},{"idx":"Me5PMuCQste78KrDrhTfGW","contest":"Mr. & Miss Teen Sherpa 2020 - S2","episode":"Mr.&Miss Teen Sherpa -S2","category":null,"contestant":{"voting_id":"02","name":"Pema Yanji sherpa"},"vote_count":1,"created_on":"2020-01-01T08:26:01.386800+05:45"},{"idx":"WWa6YqmqowpeXUXmsjfRFM","contest":"Mr. & Miss Teen Sherpa 2020 - S2","episode":"Mr.&Miss Teen Sherpa -S2","category":null,"contestant":{"voting_id":"02","name":"Pema Yanji sherpa"},"vote_count":1,"created_on":"2020-01-01T08:25:45.951643+05:45"},{"idx":"z53rQAL84rkvhKZuzQJzLF","contest":"Mr. & Miss Teen Sherpa 2020 - S2","episode":"Mr.&Miss Teen Sherpa -S2","category":null,"contestant":{"voting_id":"02","name":"Pema Yanji sherpa"},"vote_count":1,"created_on":"2020-01-01T08:25:35.489246+05:45"},{"idx":"V35JqFnvahWAcjKzrzcjAU","contest":"Mr. & Miss Teen Sherpa 2020 - S2","episode":"Mr.&Miss Teen Sherpa -S2","category":null,"contestant":{"voting_id":"02","name":"Pema Yanji sherpa"},"vote_count":1,"created_on":"2020-01-01T08:25:20.437857+05:45"},{"idx":"EtdhNHafKzjpPpUEcNWsE8","contest":"Mr. & Miss Teen Sherpa 2020 - S2","episode":"Mr.&Miss Teen Sherpa -S2","category":null,"contestant":{"voting_id":"02","name":"Pema Yanji sherpa"},"vote_count":1,"created_on":"2020-01-01T08:25:03.891261+05:45"},{"idx":"bvbgMi6ZEBuamzjt8FobMj","contest":"Mr. & Miss Teen Sherpa 2020 - S2","episode":"Mr.&Miss Teen Sherpa -S2","category":null,"contestant":{"voting_id":"02","name":"Pema Yanji sherpa"},"vote_count":1,"created_on":"2020-01-01T08:23:57.417275+05:45"},{"idx":"zrsAmE7bbfHSdRnh3Xk4pH","contest":"Mr. & Miss Teen Sherpa 2020 - S2","episode":"Mr.&Miss Teen Sherpa -S2","category":null,"contestant":{"voting_id":"02","name":"Pema Yanji sherpa"},"vote_count":1,"created_on":"2020-01-01T08:23:35.943262+05:45"},{"idx":"DZ5akhWkcFr79r8ghUVjFg","contest":"Mr. & Miss Teen Sherpa 2020 - S2","episode":"Mr.&Miss Teen Sherpa -S2","category":null,"contestant":{"voting_id":"02","name":"Pema Yanji sherpa"},"vote_count":1,"created_on":"2020-01-01T08:23:12.370148+05:45"},{"idx":"PhXL8DsNG9eETxoB9neGiB","contest":"Mr. & Miss Teen Sherpa 2020 - S2","episode":"Mr.&Miss Teen Sherpa -S2","category":null,"contestant":{"voting_id":"02","name":"Pema Yanji sherpa"},"vote_count":1,"created_on":"2020-01-01T08:22:52.935225+05:45"},{"idx":"Ka6aofddoaHq6LmUXDYCBM","contest":"Mr. & Miss Teen Sherpa 2020 - S2","episode":"Mr.&Miss Teen Sherpa -S2","category":null,"contestant":{"voting_id":"03","name":"Mingma Sherpa"},"vote_count":1,"created_on":"2020-01-01T08:18:47.407271+05:45"},{"idx":"ju8z2MeRnHEDh5VwNCysd3","contest":"Mr. & Miss Teen Sherpa 2020 - S2","episode":"Mr.&Miss Teen Sherpa -S2","category":null,"contestant":{"voting_id":"02","name":"Pema Yanji sherpa"},"vote_count":1,"created_on":"2020-01-01T08:18:08.882194+05:45"},{"idx":"4rX6opLecZnAANXwcYxpJm","contest":"Mr. & Miss Teen Sherpa 2020 - S2","episode":"Mr.&Miss Teen Sherpa -S2","category":null,"contestant":{"voting_id":"02","name":"Pema Yanji sherpa"},"vote_count":1,"created_on":"2020-01-01T08:11:25.859748+05:45"},{"idx":"cn6y5bsP8PcdsdwCRagjED","contest":"Model Superstar","episode":"Model Superstar","category":null,"contestant":{"voting_id":"17","name":"Sajana Panta"},"vote_count":25,"created_on":"2020-01-01T08:10:19.772923+05:45"},{"idx":"dHrpYrzwyNVyMFELTfRRH7","contest":"Mr. & Miss Teen Sherpa 2020 - S2","episode":"Mr.&Miss Teen Sherpa -S2","category":null,"contestant":{"voting_id":"01","name":"Lhamu Sherpa"},"vote_count":1,"created_on":"2020-01-01T07:19:08.168583+05:45"},{"idx":"9QquLnzMbwqqbi29nepDZD","contest":"NEPALBHASA STAR MUSIC VIDEO AWARDS-2019","episode":null,"category":"BEST MODEL, FEMALE","contestant":{"voting_id":"13I","name":"Rajani Khadgi"},"vote_count":1,"created_on":"2020-01-01T05:03:07.543638+05:45"},{"idx":"5BeeD7bs375KLkKCeprq5P","contest":"Model Superstar","episode":"Model Superstar","category":null,"contestant":{"voting_id":"04","name":"Sabita Maharjan"},"vote_count":1,"created_on":"2020-01-01T04:32:21.930221+05:45"},{"idx":"krvp9DYmMr9xZa6micCsFj","contest":"Model Superstar","episode":"Model Superstar","category":null,"contestant":{"voting_id":"04","name":"Sabita Maharjan"},"vote_count":1,"created_on":"2020-01-01T04:32:03.396472+05:45"},{"idx":"Zmr9DmuLzvQxfzmbJ26YWa","contest":"Model Superstar","episode":"Model Superstar","category":null,"contestant":{"voting_id":"04","name":"Sabita Maharjan"},"vote_count":1,"created_on":"2020-01-01T04:31:48.885195+05:45"},{"idx":"pqQEh8pKZnphthhQik5DW6","contest":"Model Superstar","episode":"Model Superstar","category":null,"contestant":{"voting_id":"04","name":"Sabita Maharjan"},"vote_count":1,"created_on":"2020-01-01T04:31:26.274748+05:45"},{"idx":"TBdMfqB3k6N3Ws3Un8KEGJ","contest":"Model Superstar","episode":"Model Superstar","category":null,"contestant":{"voting_id":"04","name":"Sabita Maharjan"},"vote_count":1,"created_on":"2020-01-01T04:31:12.144844+05:45"},{"idx":"rGnPt3ak5DHjmnpGwb837Y","contest":"Model Superstar","episode":"Model Superstar","category":null,"contestant":{"voting_id":"04","name":"Sabita Maharjan"},"vote_count":1,"created_on":"2019-12-31T22:26:07.840220+05:45"},{"idx":"zxYTKDvkrF3XinTxjQ8dt4","contest":"NEPALBHASA STAR MUSIC VIDEO AWARDS-2019","episode":null,"category":"BEST MODEL, FEMALE","contestant":{"voting_id":"13I","name":"Rajani Khadgi"},"vote_count":1,"created_on":"2019-12-31T20:36:30.617428+05:45"},{"idx":"oTXQQ5FhVtGRLiPbiPXtHU","contest":"NEPALBHASA STAR MUSIC VIDEO AWARDS-2019","episode":null,"category":"BEST SINGER, MALE","contestant":{"voting_id":"15D","name":"Mohan Shakya"},"vote_count":1,"created_on":"2019-12-31T20:24:11.019470+05:45"},{"idx":"n6K6PJXZobwM79esuz8wj3","contest":"Model Superstar","episode":"Model Superstar","category":null,"contestant":{"voting_id":"16","name":"Anil Karki"},"vote_count":1,"created_on":"2019-12-31T20:20:15.645143+05:45"},{"idx":"GWu3noxmjyoWujszbMJHi5","contest":"NEPALBHASA STAR MUSIC VIDEO AWARDS-2019","episode":null,"category":"BEST DRESS DESIGNER","contestant":{"voting_id":"3B","name":"GIFT Nepal"},"vote_count":1,"created_on":"2019-12-31T19:47:30.356746+05:45"},{"idx":"AGhWTqZV7C6pSgPvtXHfQ8","contest":"NEPALBHASA STAR MUSIC VIDEO AWARDS-2019","episode":null,"category":"BEST DEBUT SINGER, FEMALE","contestant":{"voting_id":"18A","name":"DrishnuManandhar"},"vote_count":1,"created_on":"2019-12-31T19:45:09.002588+05:45"},{"idx":"WubH5fHoG9gvr3UEdwWhbn","contest":"Model Superstar","episode":"Model Superstar","category":null,"contestant":{"voting_id":"31","name":"Aakriti Subedi"},"vote_count":1,"created_on":"2019-12-31T19:35:06.293329+05:45"},{"idx":"Lh4Qck2F9bhc7HBq2HNdTV","contest":"Model Superstar","episode":"Model Superstar","category":null,"contestant":{"voting_id":"31","name":"Aakriti Subedi"},"vote_count":1,"created_on":"2019-12-31T19:33:49.327638+05:45"},{"idx":"keN2fZjinyHbxjgoQEWob5","contest":"Model Superstar","episode":"Model Superstar","category":null,"contestant":{"voting_id":"22","name":"Sunil Laudrey"},"vote_count":1,"created_on":"2019-12-31T19:17:42.538293+05:45"},{"idx":"RNzVAEVxcPJQgsZYvXMHnC","contest":"Model Superstar","episode":"Model Superstar","category":null,"contestant":{"voting_id":"14","name":"Ashish Shakya"},"vote_count":1,"created_on":"2019-12-31T18:50:14.589030+05:45"},{"idx":"r9LTvX73qNBwbuPaoiFxj9","contest":"Model Superstar","episode":"Model Superstar","category":null,"contestant":{"voting_id":"14","name":"Ashish Shakya"},"vote_count":1,"created_on":"2019-12-31T18:49:58.751692+05:45"},{"idx":"nC48dAFyFPeVNBLtxGXxyB","contest":"Model Superstar","episode":"Model Superstar","category":null,"contestant":{"voting_id":"14","name":"Ashish Shakya"},"vote_count":1,"created_on":"2019-12-31T18:49:44.680107+05:45"},{"idx":"hviqrxwbLwW4YkPMSK98xj","contest":"Model Superstar","episode":"Model Superstar","category":null,"contestant":{"voting_id":"14","name":"Ashish Shakya"},"vote_count":1,"created_on":"2019-12-31T18:49:27.266687+05:45"},{"idx":"qXpurbZHD9mRhecvoQ3qbm","contest":"Model Superstar","episode":"Model Superstar","category":null,"contestant":{"voting_id":"14","name":"Ashish Shakya"},"vote_count":1,"created_on":"2019-12-31T18:49:12.505003+05:45"},{"idx":"aLwe59sfNhDEgXJpPMbBKE","contest":"Model Superstar","episode":"Model Superstar","category":null,"contestant":{"voting_id":"14","name":"Ashish Shakya"},"vote_count":1,"created_on":"2019-12-31T18:49:00.475246+05:45"},{"idx":"hWNyCXym6PuBAETEp2sKpc","contest":"Model Superstar","episode":"Model Superstar","category":null,"contestant":{"voting_id":"14","name":"Ashish Shakya"},"vote_count":1,"created_on":"2019-12-31T18:48:48.144271+05:45"},{"idx":"rPo8iGvLpN7MN9mysyeU7f","contest":"Model Superstar","episode":"Model Superstar","category":null,"contestant":{"voting_id":"14","name":"Ashish Shakya"},"vote_count":1,"created_on":"2019-12-31T18:48:36.180274+05:45"},{"idx":"EG8K2KMabNr7KocyCr62eV","contest":"Model Superstar","episode":"Model Superstar","category":null,"contestant":{"voting_id":"14","name":"Ashish Shakya"},"vote_count":1,"created_on":"2019-12-31T18:48:21.804325+05:45"}]}