{"total_pages":275,"total_records":13721,"next":"https://khalti.com/api/v2/vuservote/?page=184","previous":"https://khalti.com/api/v2/vuservote/?page=182","record_range":[9101,9150],"current_page":183,"records":[{"idx":"PrqAqidAPuhh9z3xEk8r6k","contest":"Model Superstar","episode":"Model Superstar","category":null,"contestant":{"voting_id":"14","name":"Ashish Shakya"},"vote_count":1,"created_on":"2019-12-31T18:48:05.906856+05:45"},{"idx":"zR6g637wLwNiPKFypEarHa","contest":"Model Superstar","episode":"Model Superstar","category":null,"contestant":{"voting_id":"14","name":"Ashish Shakya"},"vote_count":1,"created_on":"2019-12-31T18:47:49.590501+05:45"},{"idx":"kyi7Pwy3QSxa7SnRVr24TG","contest":"Model Superstar","episode":"Model Superstar","category":null,"contestant":{"voting_id":"14","name":"Ashish Shakya"},"vote_count":1,"created_on":"2019-12-31T18:47:37.287865+05:45"},{"idx":"VoFRGxBbMDnAxwGsNqZnpE","contest":"Model Superstar","episode":"Model Superstar","category":null,"contestant":{"voting_id":"14","name":"Ashish Shakya"},"vote_count":1,"created_on":"2019-12-31T18:47:22.438958+05:45"},{"idx":"MESvKiCGEckXr2X4NynB9B","contest":"Model Superstar","episode":"Model Superstar","category":null,"contestant":{"voting_id":"14","name":"Ashish Shakya"},"vote_count":1,"created_on":"2019-12-31T18:46:19.842230+05:45"},{"idx":"EAT4hBXncNN2Go2gz3V5qS","contest":"Model Superstar","episode":"Model Superstar","category":null,"contestant":{"voting_id":"14","name":"Ashish Shakya"},"vote_count":1,"created_on":"2019-12-31T18:46:08.397578+05:45"},{"idx":"NUPZDomSpziGGKqdco3VSY","contest":"Model Superstar","episode":"Model Superstar","category":null,"contestant":{"voting_id":"14","name":"Ashish Shakya"},"vote_count":1,"created_on":"2019-12-31T18:45:58.642385+05:45"},{"idx":"NJPs2VsehtJGpxTya5MJde","contest":"Model Superstar","episode":"Model Superstar","category":null,"contestant":{"voting_id":"14","name":"Ashish Shakya"},"vote_count":1,"created_on":"2019-12-31T18:45:42.142924+05:45"},{"idx":"dBd6BrGgr2m55PuoJworzW","contest":"Model Superstar","episode":"Model Superstar","category":null,"contestant":{"voting_id":"14","name":"Ashish Shakya"},"vote_count":1,"created_on":"2019-12-31T18:45:31.652149+05:45"},{"idx":"9FmbeRR4SbFx2o9UfiZbSR","contest":"Model Superstar","episode":"Model Superstar","category":null,"contestant":{"voting_id":"14","name":"Ashish Shakya"},"vote_count":1,"created_on":"2019-12-31T18:45:19.757145+05:45"},{"idx":"5nhyqKJn5tkGhgP4H3of8B","contest":"Model Superstar","episode":"Model Superstar","category":null,"contestant":{"voting_id":"14","name":"Ashish Shakya"},"vote_count":1,"created_on":"2019-12-31T18:45:05.046700+05:45"},{"idx":"QZis4FTXCeFVKoFLTXvgED","contest":"Model Superstar","episode":"Model Superstar","category":null,"contestant":{"voting_id":"14","name":"Ashish Shakya"},"vote_count":1,"created_on":"2019-12-31T18:44:51.420681+05:45"},{"idx":"EP2WwzK4pHqGxUu6wcxFpE","contest":"Model Superstar","episode":"Model Superstar","category":null,"contestant":{"voting_id":"14","name":"Ashish Shakya"},"vote_count":1,"created_on":"2019-12-31T18:44:39.377675+05:45"},{"idx":"B4UFrfunUWJJCnvzrDVdLN","contest":"Model Superstar","episode":"Model Superstar","category":null,"contestant":{"voting_id":"14","name":"Ashish Shakya"},"vote_count":1,"created_on":"2019-12-31T18:44:23.036082+05:45"},{"idx":"HfDwT6ybbfd6XUgSNKbBVE","contest":"Model Superstar","episode":"Model Superstar","category":null,"contestant":{"voting_id":"14","name":"Ashish Shakya"},"vote_count":1,"created_on":"2019-12-31T18:44:11.328894+05:45"},{"idx":"ZdBZeWPDxKhRoRP9gLnsn9","contest":"Model Superstar","episode":"Model Superstar","category":null,"contestant":{"voting_id":"14","name":"Ashish Shakya"},"vote_count":1,"created_on":"2019-12-31T18:43:58.819045+05:45"},{"idx":"EDqmES4tgRwmDKFtmMNbQR","contest":"Model Superstar","episode":"Model Superstar","category":null,"contestant":{"voting_id":"14","name":"Ashish Shakya"},"vote_count":1,"created_on":"2019-12-31T18:43:43.197907+05:45"},{"idx":"73mFXjxWoLRF4yoWFhxRa3","contest":"Model Superstar","episode":"Model Superstar","category":null,"contestant":{"voting_id":"14","name":"Ashish Shakya"},"vote_count":1,"created_on":"2019-12-31T18:43:31.411122+05:45"},{"idx":"bU3jejFbVf7TqtxpYkXkCW","contest":"Model Superstar","episode":"Model Superstar","category":null,"contestant":{"voting_id":"14","name":"Ashish Shakya"},"vote_count":1,"created_on":"2019-12-31T18:43:21.488903+05:45"},{"idx":"DK4rkVT5ymJhkZytkFYYfc","contest":"Model Superstar","episode":"Model Superstar","category":null,"contestant":{"voting_id":"14","name":"Ashish Shakya"},"vote_count":1,"created_on":"2019-12-31T18:42:56.740547+05:45"},{"idx":"BEHaMYV6pNDXmmNrqKMTY8","contest":"Model Superstar","episode":"Model Superstar","category":null,"contestant":{"voting_id":"14","name":"Ashish Shakya"},"vote_count":1,"created_on":"2019-12-31T18:42:46.583856+05:45"},{"idx":"6nMzar9sZN8zUUUgJjzbaX","contest":"Model Superstar","episode":"Model Superstar","category":null,"contestant":{"voting_id":"14","name":"Ashish Shakya"},"vote_count":1,"created_on":"2019-12-31T18:42:35.086930+05:45"},{"idx":"TMWkGjrkdqUQUmqf4trMz4","contest":"Model Superstar","episode":"Model Superstar","category":null,"contestant":{"voting_id":"14","name":"Ashish Shakya"},"vote_count":1,"created_on":"2019-12-31T18:42:24.168257+05:45"},{"idx":"PfGSvkfc7dJoXSHTEgCeKh","contest":"Model Superstar","episode":"Model Superstar","category":null,"contestant":{"voting_id":"14","name":"Ashish Shakya"},"vote_count":1,"created_on":"2019-12-31T18:42:14.516714+05:45"},{"idx":"anUTVvVeoy52ZAUUHVignf","contest":"Model Superstar","episode":"Model Superstar","category":null,"contestant":{"voting_id":"14","name":"Ashish Shakya"},"vote_count":1,"created_on":"2019-12-31T18:41:59.874348+05:45"},{"idx":"Lgmvh4kqyBtgcP3NHj4X7B","contest":"Model Superstar","episode":"Model Superstar","category":null,"contestant":{"voting_id":"14","name":"Ashish Shakya"},"vote_count":1,"created_on":"2019-12-31T18:41:46.903564+05:45"},{"idx":"kjLvq3w98GyTFVcdsgNycE","contest":"Model Superstar","episode":"Model Superstar","category":null,"contestant":{"voting_id":"14","name":"Ashish Shakya"},"vote_count":1,"created_on":"2019-12-31T18:41:35.520805+05:45"},{"idx":"Hc9fN8nAUWvpEM4e2K7A62","contest":"Model Superstar","episode":"Model Superstar","category":null,"contestant":{"voting_id":"14","name":"Ashish Shakya"},"vote_count":1,"created_on":"2019-12-31T18:41:23.205975+05:45"},{"idx":"so4WzSKTRJrV5Jw5KCZeMB","contest":"Model Superstar","episode":"Model Superstar","category":null,"contestant":{"voting_id":"14","name":"Ashish Shakya"},"vote_count":1,"created_on":"2019-12-31T18:41:05.339041+05:45"},{"idx":"yMnZa6fTq9fHuajLPWXviH","contest":"Model Superstar","episode":"Model Superstar","category":null,"contestant":{"voting_id":"14","name":"Ashish Shakya"},"vote_count":1,"created_on":"2019-12-31T18:40:39.413281+05:45"},{"idx":"6PiibARBDdDXWafaW3wGQA","contest":"Model Superstar","episode":"Model Superstar","category":null,"contestant":{"voting_id":"11","name":"Rachana Karki"},"vote_count":1,"created_on":"2019-12-31T18:26:58.429180+05:45"},{"idx":"5TY7xgPHda32YZUEZ8r6SU","contest":"Model Superstar","episode":"Model Superstar","category":null,"contestant":{"voting_id":"04","name":"Sabita Maharjan"},"vote_count":1,"created_on":"2019-12-31T18:25:12.516362+05:45"},{"idx":"azwtKsWRfRHZ6DCUhJ4UzM","contest":"Model Superstar","episode":"Model Superstar","category":null,"contestant":{"voting_id":"04","name":"Sabita Maharjan"},"vote_count":1,"created_on":"2019-12-31T18:24:56.929524+05:45"},{"idx":"XUHEPNpdyip9SvUkrd3XGJ","contest":"Model Superstar","episode":"Model Superstar","category":null,"contestant":{"voting_id":"04","name":"Sabita Maharjan"},"vote_count":1,"created_on":"2019-12-31T18:24:39.830660+05:45"},{"idx":"6f792oSZ6ZtkeAFRqvdN4S","contest":"Model Superstar","episode":"Model Superstar","category":null,"contestant":{"voting_id":"04","name":"Sabita Maharjan"},"vote_count":1,"created_on":"2019-12-31T18:24:26.978330+05:45"},{"idx":"VrwrKXGBNfEerRSNs2GcgD","contest":"Model Superstar","episode":"Model Superstar","category":null,"contestant":{"voting_id":"04","name":"Sabita Maharjan"},"vote_count":1,"created_on":"2019-12-31T18:24:00.325000+05:45"},{"idx":"jpGuDyUdswechoijfDV25L","contest":"Model Superstar","episode":"Model Superstar","category":null,"contestant":{"voting_id":"04","name":"Sabita Maharjan"},"vote_count":1,"created_on":"2019-12-31T18:23:37.336111+05:45"},{"idx":"fmnoQpbbFxxxrXfcPAJdkb","contest":"Model Superstar","episode":"Model Superstar","category":null,"contestant":{"voting_id":"04","name":"Sabita Maharjan"},"vote_count":1,"created_on":"2019-12-31T18:23:22.837118+05:45"},{"idx":"DfL5GiHbs5qPgByoxSbA2D","contest":"Model Superstar","episode":"Model Superstar","category":null,"contestant":{"voting_id":"04","name":"Sabita Maharjan"},"vote_count":1,"created_on":"2019-12-31T18:21:57.940487+05:45"},{"idx":"iqFkp9qvuiRCBpJRrnAKmP","contest":"Model Superstar","episode":"Model Superstar","category":null,"contestant":{"voting_id":"04","name":"Sabita Maharjan"},"vote_count":1,"created_on":"2019-12-31T18:21:21.895976+05:45"},{"idx":"TREr8UZxYPqqWAfUrJ79E3","contest":"Model Superstar","episode":"Model Superstar","category":null,"contestant":{"voting_id":"04","name":"Sabita Maharjan"},"vote_count":1,"created_on":"2019-12-31T18:20:41.205050+05:45"},{"idx":"NjtiGgdakmeGF2RZo4bhZV","contest":"Model Superstar","episode":"Model Superstar","category":null,"contestant":{"voting_id":"04","name":"Sabita Maharjan"},"vote_count":1,"created_on":"2019-12-31T18:20:01.961535+05:45"},{"idx":"v3bzohJZELh34XWE2aZNrN","contest":"Model Superstar","episode":"Model Superstar","category":null,"contestant":{"voting_id":"04","name":"Sabita Maharjan"},"vote_count":1,"created_on":"2019-12-31T18:19:38.870328+05:45"},{"idx":"mGNBnSgKnscngZZJJUXdEL","contest":"Model Superstar","episode":"Model Superstar","category":null,"contestant":{"voting_id":"04","name":"Sabita Maharjan"},"vote_count":1,"created_on":"2019-12-31T18:19:24.046090+05:45"},{"idx":"5itwqNGxrzCX4Z8deXbHNc","contest":"Model Superstar","episode":"Model Superstar","category":null,"contestant":{"voting_id":"04","name":"Sabita Maharjan"},"vote_count":1,"created_on":"2019-12-31T18:18:19.132925+05:45"},{"idx":"ozjaPy2JKz68eak7JZgJ38","contest":"Model Superstar","episode":"Model Superstar","category":null,"contestant":{"voting_id":"04","name":"Sabita Maharjan"},"vote_count":1,"created_on":"2019-12-31T18:17:41.397100+05:45"},{"idx":"TUZfMa8bRgepPRU87FqekX","contest":"Model Superstar","episode":"Model Superstar","category":null,"contestant":{"voting_id":"04","name":"Sabita Maharjan"},"vote_count":1,"created_on":"2019-12-31T18:17:18.880703+05:45"},{"idx":"b6FnxRSMfMPTJTk99MskYg","contest":"Model Superstar","episode":"Model Superstar","category":null,"contestant":{"voting_id":"04","name":"Sabita Maharjan"},"vote_count":1,"created_on":"2019-12-31T18:16:36.452685+05:45"},{"idx":"LDhVoFZhq8TRjU5A9spJJi","contest":"Model Superstar","episode":"Model Superstar","category":null,"contestant":{"voting_id":"04","name":"Sabita Maharjan"},"vote_count":1,"created_on":"2019-12-31T18:16:11.928231+05:45"},{"idx":"5Ua93xtEsiKL4E4UUTuWDe","contest":"Model Superstar","episode":"Model Superstar","category":null,"contestant":{"voting_id":"04","name":"Sabita Maharjan"},"vote_count":1,"created_on":"2019-12-31T18:15:40.707787+05:45"}]}