{"total_pages":275,"total_records":13721,"next":"https://khalti.com/api/v2/vuservote/?page=185","previous":"https://khalti.com/api/v2/vuservote/?page=183","record_range":[9151,9200],"current_page":184,"records":[{"idx":"v8DUzhsGKMPJMdao9VSjY7","contest":"Model Superstar","episode":"Model Superstar","category":null,"contestant":{"voting_id":"04","name":"Sabita Maharjan"},"vote_count":1,"created_on":"2019-12-31T18:15:16.925418+05:45"},{"idx":"oos6NdcK9e3HtkVRhfqzSR","contest":"Model Superstar","episode":"Model Superstar","category":null,"contestant":{"voting_id":"04","name":"Sabita Maharjan"},"vote_count":1,"created_on":"2019-12-31T18:15:01.241915+05:45"},{"idx":"qBhts6bF7ucKhQbHqJp3YX","contest":"Model Superstar","episode":"Model Superstar","category":null,"contestant":{"voting_id":"04","name":"Sabita Maharjan"},"vote_count":1,"created_on":"2019-12-31T18:14:34.432667+05:45"},{"idx":"8RHx35wieTLVLG3zNDNy56","contest":"Model Superstar","episode":"Model Superstar","category":null,"contestant":{"voting_id":"04","name":"Sabita Maharjan"},"vote_count":1,"created_on":"2019-12-31T18:14:05.891393+05:45"},{"idx":"ivrfbcacxuu4VXJpBGKBsg","contest":"Model Superstar","episode":"Model Superstar","category":null,"contestant":{"voting_id":"04","name":"Sabita Maharjan"},"vote_count":1,"created_on":"2019-12-31T18:13:43.669862+05:45"},{"idx":"Levnrx3EtzduEEKPrp9Pnc","contest":"Model Superstar","episode":"Model Superstar","category":null,"contestant":{"voting_id":"04","name":"Sabita Maharjan"},"vote_count":1,"created_on":"2019-12-31T18:13:27.911233+05:45"},{"idx":"8RFfVysCHY54eN7NMrjYU7","contest":"Model Superstar","episode":"Model Superstar","category":null,"contestant":{"voting_id":"04","name":"Sabita Maharjan"},"vote_count":1,"created_on":"2019-12-31T18:13:03.395404+05:45"},{"idx":"uvzBSKyjQJmBGFdE2b38J9","contest":"Model Superstar","episode":"Model Superstar","category":null,"contestant":{"voting_id":"01","name":"Sajina Subba"},"vote_count":1,"created_on":"2019-12-31T18:10:44.719265+05:45"},{"idx":"4WZSA39fhpAagTHFLK2SsC","contest":"Model Superstar","episode":"Model Superstar","category":null,"contestant":{"voting_id":"01","name":"Sajina Subba"},"vote_count":1,"created_on":"2019-12-31T18:10:30.823312+05:45"},{"idx":"jPTfc9BpMDsMeP8gRUpbgh","contest":"Model Superstar","episode":"Model Superstar","category":null,"contestant":{"voting_id":"16","name":"Anil Karki"},"vote_count":1,"created_on":"2019-12-31T17:49:59.683489+05:45"},{"idx":"UkkYy9A4xpcLGm5k2XKZpa","contest":"Model Superstar","episode":"Model Superstar","category":null,"contestant":{"voting_id":"16","name":"Anil Karki"},"vote_count":1,"created_on":"2019-12-31T17:43:48.333670+05:45"},{"idx":"eSHxrLnQPyeKwWFASwgXy5","contest":"Model Superstar","episode":"Model Superstar","category":null,"contestant":{"voting_id":"22","name":"Sunil Laudrey"},"vote_count":1,"created_on":"2019-12-31T17:28:50.261653+05:45"},{"idx":"dgKTiiutizEr2D42Yfmmhb","contest":"Model Superstar","episode":"Model Superstar","category":null,"contestant":{"voting_id":"22","name":"Sunil Laudrey"},"vote_count":1,"created_on":"2019-12-31T17:28:27.479478+05:45"},{"idx":"fVq7PfqibACUcTd3oW7n4N","contest":"Model Superstar","episode":"Model Superstar","category":null,"contestant":{"voting_id":"31","name":"Aakriti Subedi"},"vote_count":1,"created_on":"2019-12-31T17:22:53.042226+05:45"},{"idx":"NxSts3ZYzvsuLBdY2A7bRh","contest":"Model Superstar","episode":"Model Superstar","category":null,"contestant":{"voting_id":"31","name":"Aakriti Subedi"},"vote_count":1,"created_on":"2019-12-31T17:12:36.829720+05:45"},{"idx":"DxUFQMh59kg3GWCVK7DLEN","contest":"Model Superstar","episode":"Model Superstar","category":null,"contestant":{"voting_id":"31","name":"Aakriti Subedi"},"vote_count":1,"created_on":"2019-12-31T17:12:03.058517+05:45"},{"idx":"DZpqyH9Dsey2NKmHme3Gtc","contest":"Model Superstar","episode":"Model Superstar","category":null,"contestant":{"voting_id":"31","name":"Aakriti Subedi"},"vote_count":1,"created_on":"2019-12-31T17:10:38.341335+05:45"},{"idx":"5tYu95T8sXqbph74wg5MgN","contest":"Model Superstar","episode":"Model Superstar","category":null,"contestant":{"voting_id":"02","name":"Srijana Basnet"},"vote_count":1,"created_on":"2019-12-31T16:44:15.080570+05:45"},{"idx":"32pmygf56NTN3DjrUWnD4W","contest":"Model Superstar","episode":"Model Superstar","category":null,"contestant":{"voting_id":"01","name":"Sajina Subba"},"vote_count":1,"created_on":"2019-12-31T16:43:24.766007+05:45"},{"idx":"FSReQPBMcPTZCvcCSBW8Gn","contest":"Model Superstar","episode":"Model Superstar","category":null,"contestant":{"voting_id":"31","name":"Aakriti Subedi"},"vote_count":1,"created_on":"2019-12-31T16:36:12.967717+05:45"},{"idx":"JhEZoSEzEEr2ACViiRRPM4","contest":"NEPALBHASA STAR MUSIC VIDEO AWARDS-2019","episode":null,"category":"BEST DIRECTOR","contestant":{"voting_id":"20I","name":"Amrit Man Maharjan"},"vote_count":1,"created_on":"2019-12-31T16:20:24.095935+05:45"},{"idx":"eK62hBTJp97LToE7nSod39","contest":"NEPALBHASA STAR MUSIC VIDEO AWARDS-2019","episode":null,"category":"BEST DIRECTOR","contestant":{"voting_id":"20D","name":"Ram Krishna Khadgi"},"vote_count":1,"created_on":"2019-12-31T15:38:57.454671+05:45"},{"idx":"YFzwWyWWg9bgWh8S7wAgbY","contest":"NEPALBHASA STAR MUSIC VIDEO AWARDS-2019","episode":null,"category":"THE RISING STAR SINGER","contestant":{"voting_id":"21B","name":"Ves Maharjan"},"vote_count":1,"created_on":"2019-12-31T15:38:05.315677+05:45"},{"idx":"2rgJrNXJryUcWBRK24uoBm","contest":"Model Superstar","episode":"Model Superstar","category":null,"contestant":{"voting_id":"05","name":"Asmita Thapa Magar"},"vote_count":1,"created_on":"2019-12-31T15:37:10.743927+05:45"},{"idx":"mjRNnNGMrCmgHNYE8eWvmA","contest":"Model Superstar","episode":"Model Superstar","category":null,"contestant":{"voting_id":"01","name":"Sajina Subba"},"vote_count":1,"created_on":"2019-12-31T15:18:35.829497+05:45"},{"idx":"5zh3wGJUaFdoJXDDmU9tBH","contest":"Model Superstar","episode":"Model Superstar","category":null,"contestant":{"voting_id":"22","name":"Sunil Laudrey"},"vote_count":1,"created_on":"2019-12-31T14:20:43.475634+05:45"},{"idx":"og36LtUrgUMRX5AV6BAkmZ","contest":"Model Superstar","episode":"Model Superstar","category":null,"contestant":{"voting_id":"22","name":"Sunil Laudrey"},"vote_count":1,"created_on":"2019-12-31T14:20:12.803087+05:45"},{"idx":"QE93vkCQ6sKVN9eWjPPwuN","contest":"NEPALBHASA STAR MUSIC VIDEO AWARDS-2019","episode":null,"category":"BEST DRESS DESIGNER","contestant":{"voting_id":"3G","name":"Natyaswor Dress Centre"},"vote_count":1,"created_on":"2019-12-31T14:12:47.213988+05:45"},{"idx":"neDDJDu87zEWDw99CjnaUP","contest":"Model Superstar","episode":"Model Superstar","category":null,"contestant":{"voting_id":"05","name":"Asmita Thapa Magar"},"vote_count":1,"created_on":"2019-12-31T14:05:03.527754+05:45"},{"idx":"V6eSSzaGYihB6bkNkuih7S","contest":"Model Superstar","episode":"Model Superstar","category":null,"contestant":{"voting_id":"16","name":"Anil Karki"},"vote_count":1,"created_on":"2019-12-31T13:50:12.708074+05:45"},{"idx":"GB8jvQ28Fqxgc5ytEJrudW","contest":"Model Superstar","episode":"Model Superstar","category":null,"contestant":{"voting_id":"02","name":"Srijana Basnet"},"vote_count":1,"created_on":"2019-12-31T13:49:11.547434+05:45"},{"idx":"tMXZhbqufqFiEbNp7yUeKa","contest":"NEPALBHASA STAR MUSIC VIDEO AWARDS-2019","episode":null,"category":"THE RISING STAR SINGER","contestant":{"voting_id":"21E","name":"Purna Man Maharjan"},"vote_count":1,"created_on":"2019-12-31T13:48:42.832027+05:45"},{"idx":"4pyZzBN8hLr54Gx7xRJ58K","contest":"Model Superstar","episode":"Model Superstar","category":null,"contestant":{"voting_id":"12","name":"Rabin Ghising"},"vote_count":1,"created_on":"2019-12-31T12:56:59.967904+05:45"},{"idx":"8gfK58QZStUGhp6G32XzQW","contest":"NEPALBHASA STAR MUSIC VIDEO AWARDS-2019","episode":null,"category":"BEST DIRECTOR","contestant":{"voting_id":"20A","name":"Bhuwan Shrestha"},"vote_count":1,"created_on":"2019-12-31T12:38:56.643013+05:45"},{"idx":"PXhoJm7jmT4EpgMvRWxBwF","contest":"NEPALBHASA STAR MUSIC VIDEO AWARDS-2019","episode":null,"category":"THE RISING STAR SINGER","contestant":{"voting_id":"21A","name":"Macha Raja Maharjan"},"vote_count":1,"created_on":"2019-12-31T12:38:39.652511+05:45"},{"idx":"cd85nyWPNJXbNKZuQsTtTc","contest":"Model Superstar","episode":"Model Superstar","category":null,"contestant":{"voting_id":"01","name":"Sajina Subba"},"vote_count":1,"created_on":"2019-12-31T10:58:43.098520+05:45"},{"idx":"JqPv5CcRmiZqQ884nPB7hK","contest":"NEPALBHASA STAR MUSIC VIDEO AWARDS-2019","episode":null,"category":"BEST SINGER, MALE","contestant":{"voting_id":"15D","name":"Mohan Shakya"},"vote_count":1,"created_on":"2019-12-31T10:50:42.139466+05:45"},{"idx":"hDrzZWJwtGkTmUw4kSVRfP","contest":"Model Superstar","episode":"Model Superstar","category":null,"contestant":{"voting_id":"04","name":"Sabita Maharjan"},"vote_count":1,"created_on":"2019-12-31T10:29:55.525479+05:45"},{"idx":"TwEjpUtvceEjWdazo3zgdG","contest":"Model Superstar","episode":"Model Superstar","category":null,"contestant":{"voting_id":"04","name":"Sabita Maharjan"},"vote_count":1,"created_on":"2019-12-31T10:29:39.660184+05:45"},{"idx":"8nnUAmdPYitHdYZMtCjUKB","contest":"Model Superstar","episode":"Model Superstar","category":null,"contestant":{"voting_id":"07","name":"Narman Malla"},"vote_count":1,"created_on":"2019-12-31T10:08:47.963656+05:45"},{"idx":"rK8egj94qvi5XV9BoRw5E4","contest":"Model Superstar","episode":"Model Superstar","category":null,"contestant":{"voting_id":"07","name":"Narman Malla"},"vote_count":1,"created_on":"2019-12-31T10:08:39.321347+05:45"},{"idx":"vbYZhsCoCuygGdqnYwN2J5","contest":"Model Superstar","episode":"Model Superstar","category":null,"contestant":{"voting_id":"07","name":"Narman Malla"},"vote_count":1,"created_on":"2019-12-31T10:08:31.797727+05:45"},{"idx":"6EoxNKGq6SEAfXGos5RXJ7","contest":"Model Superstar","episode":"Model Superstar","category":null,"contestant":{"voting_id":"07","name":"Narman Malla"},"vote_count":1,"created_on":"2019-12-31T10:08:23.502627+05:45"},{"idx":"cwkdsqfdyPH352tSpztxPF","contest":"Model Superstar","episode":"Model Superstar","category":null,"contestant":{"voting_id":"07","name":"Narman Malla"},"vote_count":1,"created_on":"2019-12-31T10:08:14.267622+05:45"},{"idx":"5uSBFLD6HeUQqL77fu8MWj","contest":"Model Superstar","episode":"Model Superstar","category":null,"contestant":{"voting_id":"07","name":"Narman Malla"},"vote_count":1,"created_on":"2019-12-31T10:08:05.486657+05:45"},{"idx":"mRYkKV32JsFBe2XdTvZK4E","contest":"Model Superstar","episode":"Model Superstar","category":null,"contestant":{"voting_id":"07","name":"Narman Malla"},"vote_count":1,"created_on":"2019-12-31T10:07:56.934263+05:45"},{"idx":"FDcM2iYesNVk3tYnkU2P2U","contest":"Model Superstar","episode":"Model Superstar","category":null,"contestant":{"voting_id":"07","name":"Narman Malla"},"vote_count":1,"created_on":"2019-12-31T10:07:49.089547+05:45"},{"idx":"CjHWyH7ToXaKZBaArm2MiM","contest":"Model Superstar","episode":"Model Superstar","category":null,"contestant":{"voting_id":"07","name":"Narman Malla"},"vote_count":1,"created_on":"2019-12-31T10:07:41.079548+05:45"},{"idx":"ibj5FHJDeQPjSAGAX9MxXR","contest":"Model Superstar","episode":"Model Superstar","category":null,"contestant":{"voting_id":"07","name":"Narman Malla"},"vote_count":1,"created_on":"2019-12-31T10:07:33.652669+05:45"},{"idx":"dg9UwkBCoDjfaBBcYR3veT","contest":"Model Superstar","episode":"Model Superstar","category":null,"contestant":{"voting_id":"07","name":"Narman Malla"},"vote_count":1,"created_on":"2019-12-31T10:07:23.933768+05:45"}]}