{"total_pages":275,"total_records":13721,"next":"https://khalti.com/api/v2/vuservote/?page=186","previous":"https://khalti.com/api/v2/vuservote/?page=184","record_range":[9201,9250],"current_page":185,"records":[{"idx":"pTZp5vKgheMApJbfxpA9Wn","contest":"Model Superstar","episode":"Model Superstar","category":null,"contestant":{"voting_id":"07","name":"Narman Malla"},"vote_count":1,"created_on":"2019-12-31T10:07:15.336219+05:45"},{"idx":"ZkzGk2dXk77MZLmdHSAjfh","contest":"Model Superstar","episode":"Model Superstar","category":null,"contestant":{"voting_id":"07","name":"Narman Malla"},"vote_count":1,"created_on":"2019-12-31T10:07:06.858105+05:45"},{"idx":"VGPpnDT8yUCstZCeedAqt2","contest":"Model Superstar","episode":"Model Superstar","category":null,"contestant":{"voting_id":"07","name":"Narman Malla"},"vote_count":1,"created_on":"2019-12-31T10:06:58.150486+05:45"},{"idx":"tZFBdvGMQpHbjQupwPzeKA","contest":"Model Superstar","episode":"Model Superstar","category":null,"contestant":{"voting_id":"07","name":"Narman Malla"},"vote_count":1,"created_on":"2019-12-31T10:06:49.214461+05:45"},{"idx":"BPzwtBDiQGXZpM5pjTUSxi","contest":"Model Superstar","episode":"Model Superstar","category":null,"contestant":{"voting_id":"07","name":"Narman Malla"},"vote_count":1,"created_on":"2019-12-31T10:06:40.148652+05:45"},{"idx":"8t9qQoskRPBSdCJKbfk5rF","contest":"Model Superstar","episode":"Model Superstar","category":null,"contestant":{"voting_id":"07","name":"Narman Malla"},"vote_count":1,"created_on":"2019-12-31T10:06:30.099580+05:45"},{"idx":"iknTJmGApkBRdvfiDXf8kK","contest":"Model Superstar","episode":"Model Superstar","category":null,"contestant":{"voting_id":"07","name":"Narman Malla"},"vote_count":1,"created_on":"2019-12-31T10:06:21.420768+05:45"},{"idx":"iN3sGYUL4v2xkrybt4qdyW","contest":"Model Superstar","episode":"Model Superstar","category":null,"contestant":{"voting_id":"07","name":"Narman Malla"},"vote_count":1,"created_on":"2019-12-31T10:06:10.357823+05:45"},{"idx":"xSoGM9mSENTGcnkLF3AaPJ","contest":"Model Superstar","episode":"Model Superstar","category":null,"contestant":{"voting_id":"07","name":"Narman Malla"},"vote_count":1,"created_on":"2019-12-31T10:06:01.596571+05:45"},{"idx":"Wgkp8xracrtqes3HLFf63T","contest":"Model Superstar","episode":"Model Superstar","category":null,"contestant":{"voting_id":"07","name":"Narman Malla"},"vote_count":1,"created_on":"2019-12-31T10:05:52.518305+05:45"},{"idx":"dTToXYP8AJiwSUimwfwcKK","contest":"Model Superstar","episode":"Model Superstar","category":null,"contestant":{"voting_id":"07","name":"Narman Malla"},"vote_count":1,"created_on":"2019-12-31T10:05:43.665967+05:45"},{"idx":"iWCCPEgTANa9YybGyd4bCQ","contest":"Model Superstar","episode":"Model Superstar","category":null,"contestant":{"voting_id":"07","name":"Narman Malla"},"vote_count":1,"created_on":"2019-12-31T10:05:34.006194+05:45"},{"idx":"gG6tFgkkNsHY6xZTfaKszA","contest":"Model Superstar","episode":"Model Superstar","category":null,"contestant":{"voting_id":"07","name":"Narman Malla"},"vote_count":1,"created_on":"2019-12-31T10:05:26.172144+05:45"},{"idx":"fWUysXAJEqbrfURgRDJM3Y","contest":"Model Superstar","episode":"Model Superstar","category":null,"contestant":{"voting_id":"07","name":"Narman Malla"},"vote_count":1,"created_on":"2019-12-31T10:05:17.906452+05:45"},{"idx":"am4bn4H2GjqBYBspLmEC6W","contest":"Model Superstar","episode":"Model Superstar","category":null,"contestant":{"voting_id":"07","name":"Narman Malla"},"vote_count":1,"created_on":"2019-12-31T10:05:08.474916+05:45"},{"idx":"fCNaYJEW8iyjHvTHTsiExH","contest":"Model Superstar","episode":"Model Superstar","category":null,"contestant":{"voting_id":"07","name":"Narman Malla"},"vote_count":1,"created_on":"2019-12-31T10:04:59.660341+05:45"},{"idx":"WxKCvEUbCaao3qDqPeLH8a","contest":"Model Superstar","episode":"Model Superstar","category":null,"contestant":{"voting_id":"07","name":"Narman Malla"},"vote_count":1,"created_on":"2019-12-31T10:04:49.667262+05:45"},{"idx":"zLfmMDxrLRe3WMeviBpfeU","contest":"Model Superstar","episode":"Model Superstar","category":null,"contestant":{"voting_id":"07","name":"Narman Malla"},"vote_count":1,"created_on":"2019-12-31T10:04:40.226513+05:45"},{"idx":"6XxebsEvP63wZRBVeT8c8R","contest":"Model Superstar","episode":"Model Superstar","category":null,"contestant":{"voting_id":"07","name":"Narman Malla"},"vote_count":1,"created_on":"2019-12-31T10:04:32.062742+05:45"},{"idx":"L5tjTBgVzhsrGyiBUAWfXG","contest":"Model Superstar","episode":"Model Superstar","category":null,"contestant":{"voting_id":"07","name":"Narman Malla"},"vote_count":1,"created_on":"2019-12-31T10:04:22.979669+05:45"},{"idx":"CjhNqYLVYmJCtEqNLg33mf","contest":"Model Superstar","episode":"Model Superstar","category":null,"contestant":{"voting_id":"07","name":"Narman Malla"},"vote_count":1,"created_on":"2019-12-31T10:04:13.864878+05:45"},{"idx":"MDYEtLzMu2iTkvwkFA6zBf","contest":"Model Superstar","episode":"Model Superstar","category":null,"contestant":{"voting_id":"07","name":"Narman Malla"},"vote_count":1,"created_on":"2019-12-31T10:04:04.623291+05:45"},{"idx":"6LjUuL8wUogZGQP5KEjmC5","contest":"Model Superstar","episode":"Model Superstar","category":null,"contestant":{"voting_id":"07","name":"Narman Malla"},"vote_count":1,"created_on":"2019-12-31T10:03:53.833842+05:45"},{"idx":"6jUByEBnviRSryqUaNdbFT","contest":"Model Superstar","episode":"Model Superstar","category":null,"contestant":{"voting_id":"07","name":"Narman Malla"},"vote_count":1,"created_on":"2019-12-31T10:03:38.963468+05:45"},{"idx":"LexMgb57cuK5b7VPxr46ZW","contest":"Model Superstar","episode":"Model Superstar","category":null,"contestant":{"voting_id":"07","name":"Narman Malla"},"vote_count":1,"created_on":"2019-12-31T10:03:28.614603+05:45"},{"idx":"PD7Y2WD22xhB49ggXRcQJJ","contest":"Model Superstar","episode":"Model Superstar","category":null,"contestant":{"voting_id":"07","name":"Narman Malla"},"vote_count":1,"created_on":"2019-12-31T10:03:16.759351+05:45"},{"idx":"BPPpAhaYxqBzg8not2bHmd","contest":"Model Superstar","episode":"Model Superstar","category":null,"contestant":{"voting_id":"07","name":"Narman Malla"},"vote_count":1,"created_on":"2019-12-31T10:03:05.853089+05:45"},{"idx":"egRiTMpxzM7L5t7MPmVBCT","contest":"Model Superstar","episode":"Model Superstar","category":null,"contestant":{"voting_id":"07","name":"Narman Malla"},"vote_count":1,"created_on":"2019-12-31T10:02:53.608039+05:45"},{"idx":"DfTjzzBQuuBuxzQMYXXRx9","contest":"Model Superstar","episode":"Model Superstar","category":null,"contestant":{"voting_id":"07","name":"Narman Malla"},"vote_count":1,"created_on":"2019-12-31T10:02:44.727223+05:45"},{"idx":"fgkvjAuAStsWrASUWHt7QZ","contest":"Model Superstar","episode":"Model Superstar","category":null,"contestant":{"voting_id":"07","name":"Narman Malla"},"vote_count":1,"created_on":"2019-12-31T10:02:35.106838+05:45"},{"idx":"uiFvY3pKJqmAKp74mRozVZ","contest":"Model Superstar","episode":"Model Superstar","category":null,"contestant":{"voting_id":"07","name":"Narman Malla"},"vote_count":1,"created_on":"2019-12-31T10:02:23.541315+05:45"},{"idx":"DyvVxwJihf8VdxuMna3icB","contest":"Model Superstar","episode":"Model Superstar","category":null,"contestant":{"voting_id":"07","name":"Narman Malla"},"vote_count":1,"created_on":"2019-12-31T10:02:13.623806+05:45"},{"idx":"gPb2EUmsxLrNvUMXC8h8KR","contest":"Model Superstar","episode":"Model Superstar","category":null,"contestant":{"voting_id":"07","name":"Narman Malla"},"vote_count":1,"created_on":"2019-12-31T10:02:01.607770+05:45"},{"idx":"KyQP2NCsSbvds7RDzNuB3M","contest":"Model Superstar","episode":"Model Superstar","category":null,"contestant":{"voting_id":"07","name":"Narman Malla"},"vote_count":1,"created_on":"2019-12-31T10:01:49.118663+05:45"},{"idx":"dMDYiYPPrd8PWahKrPC332","contest":"Model Superstar","episode":"Model Superstar","category":null,"contestant":{"voting_id":"07","name":"Narman Malla"},"vote_count":1,"created_on":"2019-12-31T10:01:04.569726+05:45"},{"idx":"2qv4noFMYM6tL5E9mJifZm","contest":"Model Superstar","episode":"Model Superstar","category":null,"contestant":{"voting_id":"07","name":"Narman Malla"},"vote_count":1,"created_on":"2019-12-31T10:00:51.049893+05:45"},{"idx":"V9t9zAEUTM2rjY2isbBuFQ","contest":"Model Superstar","episode":"Model Superstar","category":null,"contestant":{"voting_id":"07","name":"Narman Malla"},"vote_count":1,"created_on":"2019-12-31T10:00:05.407127+05:45"},{"idx":"FaQFrDt7SprasPGNHPSVSc","contest":"Model Superstar","episode":"Model Superstar","category":null,"contestant":{"voting_id":"02","name":"Srijana Basnet"},"vote_count":1,"created_on":"2019-12-31T09:48:05.921394+05:45"},{"idx":"ZHr65WxdgKvG9cC4PoLtdM","contest":"Model Superstar","episode":"Model Superstar","category":null,"contestant":{"voting_id":"12","name":"Rabin Ghising"},"vote_count":1,"created_on":"2019-12-31T09:44:50.163741+05:45"},{"idx":"rzWLSUNU7N5swdzhroS7fR","contest":"Model Superstar","episode":"Model Superstar","category":null,"contestant":{"voting_id":"12","name":"Rabin Ghising"},"vote_count":1,"created_on":"2019-12-31T09:44:12.692775+05:45"},{"idx":"QEQhPF888CRmWzNJaEAUDD","contest":"NEPALBHASA STAR MUSIC VIDEO AWARDS-2019","episode":null,"category":"BEST MUSIC DIRECTOR","contestant":{"voting_id":"6A","name":"Suman Kapali"},"vote_count":1,"created_on":"2019-12-31T09:34:27.988424+05:45"},{"idx":"5hAdZjuXaYYReL8a6fFeiC","contest":"NEPALBHASA STAR MUSIC VIDEO AWARDS-2019","episode":null,"category":"BEST DANCE DIRECTOR","contestant":{"voting_id":"19E","name":"Aaradhya Laxmi Khadgi"},"vote_count":1,"created_on":"2019-12-31T09:31:08.927750+05:45"},{"idx":"ekLCWDsDkgAG72AygKMua8","contest":"Model Superstar","episode":"Model Superstar","category":null,"contestant":{"voting_id":"14","name":"Ashish Shakya"},"vote_count":1,"created_on":"2019-12-31T09:29:41.834506+05:45"},{"idx":"PsMnWbzbfxUPuUM3SdNZRE","contest":"Model Superstar","episode":"Model Superstar","category":null,"contestant":{"voting_id":"01","name":"Sajina Subba"},"vote_count":1,"created_on":"2019-12-31T09:21:09.595354+05:45"},{"idx":"DS9tGb4mffz7FrqbcukfQo","contest":"Model Superstar","episode":"Model Superstar","category":null,"contestant":{"voting_id":"16","name":"Anil Karki"},"vote_count":1,"created_on":"2019-12-31T08:03:09.313910+05:45"},{"idx":"phVsyZnYs7XM6ik55PFHXh","contest":"Model Superstar","episode":"Model Superstar","category":null,"contestant":{"voting_id":"16","name":"Anil Karki"},"vote_count":1,"created_on":"2019-12-31T08:02:32.351427+05:45"},{"idx":"EgfHh5cz2yqyGRUV5xyupZ","contest":"NEPALBHASA STAR MUSIC VIDEO AWARDS-2019","episode":null,"category":"BEST Singer,FEMALE","contestant":{"voting_id":"17B","name":"Ratna Shova Maharjan"},"vote_count":1,"created_on":"2019-12-31T07:56:46.762485+05:45"},{"idx":"mLaYSxzTNmTJQZQBZSXh7H","contest":"Model Superstar","episode":"Model Superstar","category":null,"contestant":{"voting_id":"16","name":"Anil Karki"},"vote_count":1,"created_on":"2019-12-31T07:56:28.616362+05:45"},{"idx":"BWGZ4DTocDBiCfAVsfX3oc","contest":"Model Superstar","episode":"Model Superstar","category":null,"contestant":{"voting_id":"16","name":"Anil Karki"},"vote_count":1,"created_on":"2019-12-31T07:55:49.367384+05:45"},{"idx":"myH6xy5RKtgHPsC4VWcwZf","contest":"NEPALBHASA STAR MUSIC VIDEO AWARDS-2019","episode":null,"category":"THE RISING STAR SINGER","contestant":{"voting_id":"21B","name":"Ves Maharjan"},"vote_count":1,"created_on":"2019-12-31T07:55:44.297950+05:45"}]}