{"total_pages":275,"total_records":13721,"next":"https://khalti.com/api/v2/vuservote/?page=187","previous":"https://khalti.com/api/v2/vuservote/?page=185","record_range":[9251,9300],"current_page":186,"records":[{"idx":"pLgwG9v2LpXiEAAXsj8GaY","contest":"Model Superstar","episode":"Model Superstar","category":null,"contestant":{"voting_id":"16","name":"Anil Karki"},"vote_count":100,"created_on":"2019-12-31T07:29:09.164595+05:45"},{"idx":"HFSMqzf4QSqT6goT62XdHf","contest":"Model Superstar","episode":"Model Superstar","category":null,"contestant":{"voting_id":"04","name":"Sabita Maharjan"},"vote_count":1,"created_on":"2019-12-31T07:28:44.993974+05:45"},{"idx":"Fp6x9tCKQzJQU9ynsAtDbe","contest":"Model Superstar","episode":"Model Superstar","category":null,"contestant":{"voting_id":"04","name":"Sabita Maharjan"},"vote_count":1,"created_on":"2019-12-31T07:28:20.607180+05:45"},{"idx":"oeYYXnye9W26n7Nw3TnWQM","contest":"Model Superstar","episode":"Model Superstar","category":null,"contestant":{"voting_id":"16","name":"Anil Karki"},"vote_count":1,"created_on":"2019-12-31T07:28:16.712998+05:45"},{"idx":"oyM4i7xEXfbgiiPzYrrRYU","contest":"Model Superstar","episode":"Model Superstar","category":null,"contestant":{"voting_id":"04","name":"Sabita Maharjan"},"vote_count":1,"created_on":"2019-12-31T07:27:58.933248+05:45"},{"idx":"Ln3HhebFhpzCRPYuZFnFmc","contest":"Model Superstar","episode":"Model Superstar","category":null,"contestant":{"voting_id":"04","name":"Sabita Maharjan"},"vote_count":1,"created_on":"2019-12-31T07:27:33.982711+05:45"},{"idx":"Uu8cpbG4EL85nnxUnT4WyF","contest":"NEPALBHASA STAR MUSIC VIDEO AWARDS-2019","episode":null,"category":"BEST Singer,FEMALE","contestant":{"voting_id":"17A","name":"Deepa Maharjan"},"vote_count":1,"created_on":"2019-12-31T07:26:27.983301+05:45"},{"idx":"qr5yPP5Corri257tbE5Vf8","contest":"Model Superstar","episode":"Model Superstar","category":null,"contestant":{"voting_id":"04","name":"Sabita Maharjan"},"vote_count":1,"created_on":"2019-12-31T07:24:10.521732+05:45"},{"idx":"R77qtUNQizdLc2UK8k6kZA","contest":"Model Superstar","episode":"Model Superstar","category":null,"contestant":{"voting_id":"04","name":"Sabita Maharjan"},"vote_count":1,"created_on":"2019-12-31T07:23:55.072735+05:45"},{"idx":"HouZ5333WxsNZZVkg8u2LP","contest":"Model Superstar","episode":"Model Superstar","category":null,"contestant":{"voting_id":"04","name":"Sabita Maharjan"},"vote_count":1,"created_on":"2019-12-31T07:23:42.993827+05:45"},{"idx":"kS6PtFtXzsng5TdigCy4Uh","contest":"Model Superstar","episode":"Model Superstar","category":null,"contestant":{"voting_id":"04","name":"Sabita Maharjan"},"vote_count":1,"created_on":"2019-12-31T07:23:30.584828+05:45"},{"idx":"hohGYTUobL7aoWEgDH3ukJ","contest":"Model Superstar","episode":"Model Superstar","category":null,"contestant":{"voting_id":"04","name":"Sabita Maharjan"},"vote_count":1,"created_on":"2019-12-31T07:23:12.457624+05:45"},{"idx":"M35iPcWmmfNuwGpNTiqXz9","contest":"Model Superstar","episode":"Model Superstar","category":null,"contestant":{"voting_id":"04","name":"Sabita Maharjan"},"vote_count":1,"created_on":"2019-12-31T07:22:55.733557+05:45"},{"idx":"m5GVAgaMvEeomExdwumryG","contest":"Model Superstar","episode":"Model Superstar","category":null,"contestant":{"voting_id":"04","name":"Sabita Maharjan"},"vote_count":1,"created_on":"2019-12-31T07:22:37.442004+05:45"},{"idx":"4LYmigExekpT7kDMfwQ5tD","contest":"Model Superstar","episode":"Model Superstar","category":null,"contestant":{"voting_id":"04","name":"Sabita Maharjan"},"vote_count":1,"created_on":"2019-12-31T07:22:24.924758+05:45"},{"idx":"NN6EFbt28UVcSys4XULEPG","contest":"Model Superstar","episode":"Model Superstar","category":null,"contestant":{"voting_id":"04","name":"Sabita Maharjan"},"vote_count":1,"created_on":"2019-12-31T07:22:05.441130+05:45"},{"idx":"S5meVDYXpbpNFqcA7ZEmkD","contest":"Model Superstar","episode":"Model Superstar","category":null,"contestant":{"voting_id":"04","name":"Sabita Maharjan"},"vote_count":1,"created_on":"2019-12-31T07:21:49.244344+05:45"},{"idx":"Eg95jJoAG3sMxr7aKpXYZK","contest":"Model Superstar","episode":"Model Superstar","category":null,"contestant":{"voting_id":"04","name":"Sabita Maharjan"},"vote_count":1,"created_on":"2019-12-31T07:21:36.246579+05:45"},{"idx":"pebZVgFK3uKXoB3Q7oTm2X","contest":"Model Superstar","episode":"Model Superstar","category":null,"contestant":{"voting_id":"04","name":"Sabita Maharjan"},"vote_count":1,"created_on":"2019-12-31T07:20:58.059641+05:45"},{"idx":"JgYitVUpQX97Dt9oXhzheB","contest":"Model Superstar","episode":"Model Superstar","category":null,"contestant":{"voting_id":"04","name":"Sabita Maharjan"},"vote_count":1,"created_on":"2019-12-31T07:20:44.210972+05:45"},{"idx":"pBBLaUZB54tuc5zNAGFfmj","contest":"Model Superstar","episode":"Model Superstar","category":null,"contestant":{"voting_id":"04","name":"Sabita Maharjan"},"vote_count":1,"created_on":"2019-12-31T07:20:29.010969+05:45"},{"idx":"fwyX7ccNyM6fLSztQcXSfE","contest":"Model Superstar","episode":"Model Superstar","category":null,"contestant":{"voting_id":"04","name":"Sabita Maharjan"},"vote_count":1,"created_on":"2019-12-31T07:20:16.452164+05:45"},{"idx":"5Sxoe7MyBNPW5a7EwnwtiM","contest":"Model Superstar","episode":"Model Superstar","category":null,"contestant":{"voting_id":"04","name":"Sabita Maharjan"},"vote_count":1,"created_on":"2019-12-31T07:19:42.545830+05:45"},{"idx":"o55nKAJmVjQ5vL7Vybi7HH","contest":"Model Superstar","episode":"Model Superstar","category":null,"contestant":{"voting_id":"04","name":"Sabita Maharjan"},"vote_count":1,"created_on":"2019-12-31T07:19:27.694771+05:45"},{"idx":"iexnDNqAzFUwQjXVRNJUkX","contest":"Model Superstar","episode":"Model Superstar","category":null,"contestant":{"voting_id":"04","name":"Sabita Maharjan"},"vote_count":1,"created_on":"2019-12-31T07:18:16.284326+05:45"},{"idx":"M4ksmn49At8D3MCTwzazZN","contest":"Model Superstar","episode":"Model Superstar","category":null,"contestant":{"voting_id":"04","name":"Sabita Maharjan"},"vote_count":1,"created_on":"2019-12-31T07:17:54.338452+05:45"},{"idx":"4vPJyt7BcgQit36sNJ7txE","contest":"Model Superstar","episode":"Model Superstar","category":null,"contestant":{"voting_id":"04","name":"Sabita Maharjan"},"vote_count":1,"created_on":"2019-12-31T06:59:52.519372+05:45"},{"idx":"cwvFKikT3nQsbcjZzj7Yac","contest":"Model Superstar","episode":"Model Superstar","category":null,"contestant":{"voting_id":"04","name":"Sabita Maharjan"},"vote_count":1,"created_on":"2019-12-31T06:59:33.476053+05:45"},{"idx":"J5EggezGh99tXzLJWDtPzF","contest":"Model Superstar","episode":"Model Superstar","category":null,"contestant":{"voting_id":"04","name":"Sabita Maharjan"},"vote_count":1,"created_on":"2019-12-31T06:59:19.662048+05:45"},{"idx":"ZKe6v3kctaxVYJV2NsQDC4","contest":"Model Superstar","episode":"Model Superstar","category":null,"contestant":{"voting_id":"04","name":"Sabita Maharjan"},"vote_count":1,"created_on":"2019-12-31T06:58:56.955371+05:45"},{"idx":"764HCCaEUT6T25VCkMYnya","contest":"Model Superstar","episode":"Model Superstar","category":null,"contestant":{"voting_id":"04","name":"Sabita Maharjan"},"vote_count":1,"created_on":"2019-12-31T06:58:38.833535+05:45"},{"idx":"98vxnZuy6rhieBSTKW4s7m","contest":"Model Superstar","episode":"Model Superstar","category":null,"contestant":{"voting_id":"20","name":"Anu Tiwari"},"vote_count":1,"created_on":"2019-12-31T04:38:08.941628+05:45"},{"idx":"Gn9ENsqnxMGYYMt6wvP5ki","contest":"Model Superstar","episode":"Model Superstar","category":null,"contestant":{"voting_id":"14","name":"Ashish Shakya"},"vote_count":1,"created_on":"2019-12-31T00:08:28.068817+05:45"},{"idx":"DhVgKW4zM3zmEFiTJx3Eyn","contest":"Model Superstar","episode":"Model Superstar","category":null,"contestant":{"voting_id":"02","name":"Srijana Basnet"},"vote_count":1,"created_on":"2019-12-30T23:33:14.627679+05:45"},{"idx":"i8YnNMERA2sTa94suVQXk5","contest":"Model Superstar","episode":"Model Superstar","category":null,"contestant":{"voting_id":"01","name":"Sajina Subba"},"vote_count":1,"created_on":"2019-12-30T23:32:59.216545+05:45"},{"idx":"6hjifLBRw5pwLjiASp5ytA","contest":"Model Superstar","episode":"Model Superstar","category":null,"contestant":{"voting_id":"04","name":"Sabita Maharjan"},"vote_count":1,"created_on":"2019-12-30T21:59:51.353942+05:45"},{"idx":"spErMp8jd3Hn97WboDT43Q","contest":"Model Superstar","episode":"Model Superstar","category":null,"contestant":{"voting_id":"04","name":"Sabita Maharjan"},"vote_count":1,"created_on":"2019-12-30T21:59:25.624795+05:45"},{"idx":"r5icN4nEUCX3jsyFbjQQn2","contest":"Model Superstar","episode":"Model Superstar","category":null,"contestant":{"voting_id":"04","name":"Sabita Maharjan"},"vote_count":1,"created_on":"2019-12-30T21:59:12.918487+05:45"},{"idx":"EiNNLfBL6XSPAEscEw287c","contest":"Model Superstar","episode":"Model Superstar","category":null,"contestant":{"voting_id":"04","name":"Sabita Maharjan"},"vote_count":1,"created_on":"2019-12-30T21:58:18.029289+05:45"},{"idx":"w97Gg2WQptr3u7MYRmTZH7","contest":"NEPALBHASA STAR MUSIC VIDEO AWARDS-2019","episode":null,"category":"BEST DRESS DESIGNER","contestant":{"voting_id":"3A","name":"Sanjhya Kala Kunja"},"vote_count":1,"created_on":"2019-12-30T21:55:06.923451+05:45"},{"idx":"SXaZy8TTrpmGCeTFmFCqNS","contest":"Model Superstar","episode":"Model Superstar","category":null,"contestant":{"voting_id":"16","name":"Anil Karki"},"vote_count":1,"created_on":"2019-12-30T21:53:40.461457+05:45"},{"idx":"BmzMuo2uAKSBVi8awWFUW4","contest":"Model Superstar","episode":"Model Superstar","category":null,"contestant":{"voting_id":"16","name":"Anil Karki"},"vote_count":1,"created_on":"2019-12-30T21:41:37.921952+05:45"},{"idx":"XDMgBEDXxpTQitam4MDVYk","contest":"Model Superstar","episode":"Model Superstar","category":null,"contestant":{"voting_id":"16","name":"Anil Karki"},"vote_count":1,"created_on":"2019-12-30T21:40:37.088829+05:45"},{"idx":"ZYCcEumauPenuMntzrpjYU","contest":"Model Superstar","episode":"Model Superstar","category":null,"contestant":{"voting_id":"16","name":"Anil Karki"},"vote_count":1,"created_on":"2019-12-30T21:39:53.071946+05:45"},{"idx":"cWMftVwXKkZVvHwHzGKPu4","contest":"Model Superstar","episode":"Model Superstar","category":null,"contestant":{"voting_id":"04","name":"Sabita Maharjan"},"vote_count":1,"created_on":"2019-12-30T21:33:45.813687+05:45"},{"idx":"cYbRzuKakadBPjUtA59CQn","contest":"Model Superstar","episode":"Model Superstar","category":null,"contestant":{"voting_id":"04","name":"Sabita Maharjan"},"vote_count":1,"created_on":"2019-12-30T21:32:01.893607+05:45"},{"idx":"WgQGdm9fchvqbBoav3WGLZ","contest":"Model Superstar","episode":"Model Superstar","category":null,"contestant":{"voting_id":"04","name":"Sabita Maharjan"},"vote_count":1,"created_on":"2019-12-30T21:31:43.525433+05:45"},{"idx":"i3Am77NsN3Mk39bggNPC3B","contest":"Model Superstar","episode":"Model Superstar","category":null,"contestant":{"voting_id":"04","name":"Sabita Maharjan"},"vote_count":1,"created_on":"2019-12-30T21:31:18.629037+05:45"},{"idx":"MmqZ8W5EAo48J4owC6baAb","contest":"Model Superstar","episode":"Model Superstar","category":null,"contestant":{"voting_id":"04","name":"Sabita Maharjan"},"vote_count":1,"created_on":"2019-12-30T21:22:57.698355+05:45"},{"idx":"tDvmyaNS4LF46cyNETkFCb","contest":"Model Superstar","episode":"Model Superstar","category":null,"contestant":{"voting_id":"04","name":"Sabita Maharjan"},"vote_count":1,"created_on":"2019-12-30T21:13:07.855551+05:45"}]}