{"total_pages":275,"total_records":13721,"next":"https://khalti.com/api/v2/vuservote/?page=188","previous":"https://khalti.com/api/v2/vuservote/?page=186","record_range":[9301,9350],"current_page":187,"records":[{"idx":"uXPiC2tyj7tdeLFUh3BDU9","contest":"Model Superstar","episode":"Model Superstar","category":null,"contestant":{"voting_id":"28","name":"Pujan Tamang"},"vote_count":1,"created_on":"2019-12-30T21:12:51.044898+05:45"},{"idx":"VDF9E7SjqyXZwLJaDw33pT","contest":"Model Superstar","episode":"Model Superstar","category":null,"contestant":{"voting_id":"27","name":"Suweta Shrestha"},"vote_count":1,"created_on":"2019-12-30T21:12:06.890047+05:45"},{"idx":"BZNXwfQpEMmpTk3wQxMXPN","contest":"Model Superstar","episode":"Model Superstar","category":null,"contestant":{"voting_id":"13","name":"Prashant Shah"},"vote_count":1,"created_on":"2019-12-30T21:02:25.660354+05:45"},{"idx":"BfyuWtTDZfDAuwuo3b35CS","contest":"Model Superstar","episode":"Model Superstar","category":null,"contestant":{"voting_id":"04","name":"Sabita Maharjan"},"vote_count":1,"created_on":"2019-12-30T20:12:24.288011+05:45"},{"idx":"piQgnrfVy54KDdwVPAe8pF","contest":"NEPALBHASA STAR MUSIC VIDEO AWARDS-2019","episode":null,"category":"BEST Singer,FEMALE","contestant":{"voting_id":"17A","name":"Deepa Maharjan"},"vote_count":1,"created_on":"2019-12-30T20:11:30.642588+05:45"},{"idx":"hTGJKTjah6hT3gDdx8qbvA","contest":"Model Superstar","episode":"Model Superstar","category":null,"contestant":{"voting_id":"27","name":"Suweta Shrestha"},"vote_count":1,"created_on":"2019-12-30T20:08:23.168512+05:45"},{"idx":"kYBjK6sHop5FtxaH88Zv96","contest":"Model Superstar","episode":"Model Superstar","category":null,"contestant":{"voting_id":"27","name":"Suweta Shrestha"},"vote_count":1,"created_on":"2019-12-30T20:07:36.889417+05:45"},{"idx":"HtMqxBh35QAkxx9Vbdo3HK","contest":"NEPALBHASA STAR MUSIC VIDEO AWARDS-2019","episode":null,"category":"BEST MAKE UP ARTIST","contestant":{"voting_id":"2F","name":"Manisha Rajbahak"},"vote_count":1,"created_on":"2019-12-30T20:02:11.003967+05:45"},{"idx":"cmwcjFEwLJYVVCM9LjughY","contest":"Model Superstar","episode":"Model Superstar","category":null,"contestant":{"voting_id":"04","name":"Sabita Maharjan"},"vote_count":1,"created_on":"2019-12-30T19:22:17.008351+05:45"},{"idx":"FKEp9QZTGtLgJtCdMJtLzf","contest":"Model Superstar","episode":"Model Superstar","category":null,"contestant":{"voting_id":"04","name":"Sabita Maharjan"},"vote_count":1,"created_on":"2019-12-30T19:20:52.924819+05:45"},{"idx":"YLEyyRmakghSn2j4n7B4wc","contest":"Model Superstar","episode":"Model Superstar","category":null,"contestant":{"voting_id":"04","name":"Sabita Maharjan"},"vote_count":1,"created_on":"2019-12-30T19:20:34.214417+05:45"},{"idx":"rK85u8zTTfem6z2rzLNnwf","contest":"Model Superstar","episode":"Model Superstar","category":null,"contestant":{"voting_id":"04","name":"Sabita Maharjan"},"vote_count":1,"created_on":"2019-12-30T19:20:18.150239+05:45"},{"idx":"2H7suriKbxSi2xkXxSb9oA","contest":"Model Superstar","episode":"Model Superstar","category":null,"contestant":{"voting_id":"04","name":"Sabita Maharjan"},"vote_count":1,"created_on":"2019-12-30T19:20:05.521696+05:45"},{"idx":"fD8dWdfezen3VJ5PSDeTK8","contest":"Model Superstar","episode":"Model Superstar","category":null,"contestant":{"voting_id":"04","name":"Sabita Maharjan"},"vote_count":1,"created_on":"2019-12-30T19:19:50.822477+05:45"},{"idx":"TnXya9xGkoCG5XsAedzx4K","contest":"Model Superstar","episode":"Model Superstar","category":null,"contestant":{"voting_id":"04","name":"Sabita Maharjan"},"vote_count":1,"created_on":"2019-12-30T19:19:33.638250+05:45"},{"idx":"vRApsz8FVeSrtM5rm9gn6J","contest":"Model Superstar","episode":"Model Superstar","category":null,"contestant":{"voting_id":"04","name":"Sabita Maharjan"},"vote_count":1,"created_on":"2019-12-30T19:19:16.228649+05:45"},{"idx":"R9xmurhpKpwmuFz7E9Lb7V","contest":"Model Superstar","episode":"Model Superstar","category":null,"contestant":{"voting_id":"04","name":"Sabita Maharjan"},"vote_count":1,"created_on":"2019-12-30T19:19:03.754419+05:45"},{"idx":"pnFcQc37e5mttyqTHcQYYD","contest":"NEPALBHASA STAR MUSIC VIDEO AWARDS-2019","episode":null,"category":"BEST Singer,FEMALE","contestant":{"voting_id":"17H","name":"Bishnu Maya Byanjankar"},"vote_count":1,"created_on":"2019-12-30T18:00:34.327509+05:45"},{"idx":"DSEnNQKKkQbNLwC3i49yUX","contest":"Model Superstar","episode":"Model Superstar","category":null,"contestant":{"voting_id":"03","name":"Smriti Shah"},"vote_count":1,"created_on":"2019-12-30T17:59:39.897926+05:45"},{"idx":"doTeK8QTLntU4ip6WM4LoY","contest":"Model Superstar","episode":"Model Superstar","category":null,"contestant":{"voting_id":"17","name":"Sajana Panta"},"vote_count":1,"created_on":"2019-12-30T17:37:16.366273+05:45"},{"idx":"zqBUfMV9BcUGiG9c9nLYqB","contest":"Model Superstar","episode":"Model Superstar","category":null,"contestant":{"voting_id":"17","name":"Sajana Panta"},"vote_count":1,"created_on":"2019-12-30T17:33:54.461887+05:45"},{"idx":"eiZQj4Se4kyWjHkET2ekGM","contest":"Model Superstar","episode":"Model Superstar","category":null,"contestant":{"voting_id":"17","name":"Sajana Panta"},"vote_count":1,"created_on":"2019-12-30T17:33:30.602110+05:45"},{"idx":"QerhxvThSoEc7skwtUQGWe","contest":"Model Superstar","episode":"Model Superstar","category":null,"contestant":{"voting_id":"17","name":"Sajana Panta"},"vote_count":1,"created_on":"2019-12-30T17:32:52.900332+05:45"},{"idx":"wqg34MDPvatRSn3yT9Q57V","contest":"Model Superstar","episode":"Model Superstar","category":null,"contestant":{"voting_id":"17","name":"Sajana Panta"},"vote_count":1,"created_on":"2019-12-30T17:32:24.017738+05:45"},{"idx":"BTkP52DFGGyciPQ8xurHTb","contest":"Model Superstar","episode":"Model Superstar","category":null,"contestant":{"voting_id":"17","name":"Sajana Panta"},"vote_count":1,"created_on":"2019-12-30T17:32:03.013469+05:45"},{"idx":"LJ5JB8CN3w5pMR8qhGctJH","contest":"Model Superstar","episode":"Model Superstar","category":null,"contestant":{"voting_id":"17","name":"Sajana Panta"},"vote_count":1,"created_on":"2019-12-30T17:31:33.757344+05:45"},{"idx":"6X2bhmbhfHvada8sQNkoF4","contest":"Model Superstar","episode":"Model Superstar","category":null,"contestant":{"voting_id":"17","name":"Sajana Panta"},"vote_count":1,"created_on":"2019-12-30T17:30:23.255985+05:45"},{"idx":"2mC9sWJdcS53y8hfbfeBxJ","contest":"Model Superstar","episode":"Model Superstar","category":null,"contestant":{"voting_id":"03","name":"Smriti Shah"},"vote_count":1,"created_on":"2019-12-30T17:22:21.102602+05:45"},{"idx":"UgPM27vEnLopNs2N6JgpN9","contest":"NEPALBHASA STAR MUSIC VIDEO AWARDS-2019","episode":null,"category":"BEST DIRECTOR","contestant":{"voting_id":"20A","name":"Bhuwan Shrestha"},"vote_count":1,"created_on":"2019-12-30T17:02:16.502250+05:45"},{"idx":"bt4oCU6CmmPKbJrYAPtcfX","contest":"Model Superstar","episode":"Model Superstar","category":null,"contestant":{"voting_id":"01","name":"Sajina Subba"},"vote_count":1,"created_on":"2019-12-30T16:55:41.399524+05:45"},{"idx":"HGY8iagPH8F9fiAACkWhBf","contest":"Model Superstar","episode":"Model Superstar","category":null,"contestant":{"voting_id":"10","name":"Sameep Sharma"},"vote_count":1,"created_on":"2019-12-30T16:55:16.620428+05:45"},{"idx":"gqqzELS5mCiTQFyACpZRu8","contest":"Model Superstar","episode":"Model Superstar","category":null,"contestant":{"voting_id":"14","name":"Ashish Shakya"},"vote_count":1,"created_on":"2019-12-30T16:41:10.056885+05:45"},{"idx":"cyBCvfhZTX4LhuU7KHe9Kc","contest":"NEPALBHASA STAR MUSIC VIDEO AWARDS-2019","episode":null,"category":"BEST Singer,FEMALE","contestant":{"voting_id":"17G","name":"Saraswati Manandhar"},"vote_count":1,"created_on":"2019-12-30T16:37:14.014863+05:45"},{"idx":"6L8EMQyiLt6qYPCFF9KnZm","contest":"NEPALBHASA STAR MUSIC VIDEO AWARDS-2019","episode":null,"category":"BEST MUSIC DIRECTOR","contestant":{"voting_id":"6C","name":"Purna Man Maharjan "},"vote_count":200,"created_on":"2019-12-30T15:43:41.299871+05:45"},{"idx":"h24kvPK3EKVXK9fUsbYHPi","contest":"NEPALBHASA STAR MUSIC VIDEO AWARDS-2019","episode":null,"category":"BEST MUSIC DIRECTOR","contestant":{"voting_id":"6C","name":"Purna Man Maharjan "},"vote_count":200,"created_on":"2019-12-30T15:42:33.081639+05:45"},{"idx":"93KqWpNtT9nywwx3yhai28","contest":"NEPALBHASA STAR MUSIC VIDEO AWARDS-2019","episode":null,"category":"THE RISING STAR SINGER","contestant":{"voting_id":"21E","name":"Purna Man Maharjan"},"vote_count":200,"created_on":"2019-12-30T15:28:27.189896+05:45"},{"idx":"kr8BQa3GLWbSb5Nz9xsE66","contest":"Model Superstar","episode":"Model Superstar","category":null,"contestant":{"voting_id":"04","name":"Sabita Maharjan"},"vote_count":1,"created_on":"2019-12-30T15:27:51.298261+05:45"},{"idx":"qKCHpL82Y5oEb34B4dcv45","contest":"Model Superstar","episode":"Model Superstar","category":null,"contestant":{"voting_id":"04","name":"Sabita Maharjan"},"vote_count":1,"created_on":"2019-12-30T15:27:30.905249+05:45"},{"idx":"Vn8YifYbeMg6tPY842N93E","contest":"NEPALBHASA STAR MUSIC VIDEO AWARDS-2019","episode":null,"category":"THE RISING STAR SINGER","contestant":{"voting_id":"21E","name":"Purna Man Maharjan"},"vote_count":200,"created_on":"2019-12-30T15:27:27.873228+05:45"},{"idx":"V9vwhLXdcXZ4gXskGrjS8e","contest":"Model Superstar","episode":"Model Superstar","category":null,"contestant":{"voting_id":"04","name":"Sabita Maharjan"},"vote_count":1,"created_on":"2019-12-30T15:27:15.107039+05:45"},{"idx":"BrA2UmsgUX8mwB7gDNrZga","contest":"Model Superstar","episode":"Model Superstar","category":null,"contestant":{"voting_id":"04","name":"Sabita Maharjan"},"vote_count":1,"created_on":"2019-12-30T15:26:51.249659+05:45"},{"idx":"C5BsanKnh7wDw28wEEg2eR","contest":"Model Superstar","episode":"Model Superstar","category":null,"contestant":{"voting_id":"04","name":"Sabita Maharjan"},"vote_count":1,"created_on":"2019-12-30T15:26:39.772216+05:45"},{"idx":"3RDFfJVRKi6wMviNYbd8bc","contest":"Model Superstar","episode":"Model Superstar","category":null,"contestant":{"voting_id":"04","name":"Sabita Maharjan"},"vote_count":1,"created_on":"2019-12-30T15:26:26.532731+05:45"},{"idx":"iMhxpchEVzLG7EwKCBLuzG","contest":"Model Superstar","episode":"Model Superstar","category":null,"contestant":{"voting_id":"04","name":"Sabita Maharjan"},"vote_count":1,"created_on":"2019-12-30T15:26:14.148527+05:45"},{"idx":"db5KW6XxpFLoZNFVRPC5uY","contest":"Model Superstar","episode":"Model Superstar","category":null,"contestant":{"voting_id":"04","name":"Sabita Maharjan"},"vote_count":1,"created_on":"2019-12-30T15:26:01.907937+05:45"},{"idx":"dXpZvD2hfjeSF9WNTVzPoe","contest":"Model Superstar","episode":"Model Superstar","category":null,"contestant":{"voting_id":"04","name":"Sabita Maharjan"},"vote_count":1,"created_on":"2019-12-30T15:25:46.466304+05:45"},{"idx":"9G4jKqfcvRnS8oAPrLnMem","contest":"Model Superstar","episode":"Model Superstar","category":null,"contestant":{"voting_id":"04","name":"Sabita Maharjan"},"vote_count":1,"created_on":"2019-12-30T15:25:34.934452+05:45"},{"idx":"LpfTBtvCQLhWh9wTxTbsRJ","contest":"Model Superstar","episode":"Model Superstar","category":null,"contestant":{"voting_id":"04","name":"Sabita Maharjan"},"vote_count":1,"created_on":"2019-12-30T15:25:21.200047+05:45"},{"idx":"tDqgAafeZYy8JrpqJU4fwm","contest":"Model Superstar","episode":"Model Superstar","category":null,"contestant":{"voting_id":"04","name":"Sabita Maharjan"},"vote_count":1,"created_on":"2019-12-30T15:25:06.639564+05:45"},{"idx":"Dx969MC4YVhi5pHsh94BcZ","contest":"Model Superstar","episode":"Model Superstar","category":null,"contestant":{"voting_id":"04","name":"Sabita Maharjan"},"vote_count":1,"created_on":"2019-12-30T15:24:38.538249+05:45"}]}