{"total_pages":275,"total_records":13721,"next":"https://khalti.com/api/v2/vuservote/?page=189","previous":"https://khalti.com/api/v2/vuservote/?page=187","record_range":[9351,9400],"current_page":188,"records":[{"idx":"8RADe5puhXSJdnAFXusVZK","contest":"Model Superstar","episode":"Model Superstar","category":null,"contestant":{"voting_id":"04","name":"Sabita Maharjan"},"vote_count":1,"created_on":"2019-12-30T15:24:21.307203+05:45"},{"idx":"dHLzQraE5ZDkFUufxuMKak","contest":"Model Superstar","episode":"Model Superstar","category":null,"contestant":{"voting_id":"04","name":"Sabita Maharjan"},"vote_count":1,"created_on":"2019-12-30T15:24:07.719071+05:45"},{"idx":"2wKerE4xKx3zYQBsQJbJZi","contest":"Model Superstar","episode":"Model Superstar","category":null,"contestant":{"voting_id":"04","name":"Sabita Maharjan"},"vote_count":1,"created_on":"2019-12-30T15:23:55.664719+05:45"},{"idx":"Y4g8BkKhzBtfEygZb2mjMV","contest":"Model Superstar","episode":"Model Superstar","category":null,"contestant":{"voting_id":"04","name":"Sabita Maharjan"},"vote_count":1,"created_on":"2019-12-30T15:23:41.988797+05:45"},{"idx":"FegdHjgmtE8cCFqNuHBS5b","contest":"Model Superstar","episode":"Model Superstar","category":null,"contestant":{"voting_id":"04","name":"Sabita Maharjan"},"vote_count":1,"created_on":"2019-12-30T15:23:08.050397+05:45"},{"idx":"bXdxRfaWvU6o7pZ5cS5HHR","contest":"Model Superstar","episode":"Model Superstar","category":null,"contestant":{"voting_id":"04","name":"Sabita Maharjan"},"vote_count":1,"created_on":"2019-12-30T15:22:52.682785+05:45"},{"idx":"4VY7WinKsAnM79fzkv6Awk","contest":"Model Superstar","episode":"Model Superstar","category":null,"contestant":{"voting_id":"14","name":"Ashish Shakya"},"vote_count":1,"created_on":"2019-12-30T15:14:58.526449+05:45"},{"idx":"TCS2g4oGqjesBTNdW8pNof","contest":"Model Superstar","episode":"Model Superstar","category":null,"contestant":{"voting_id":"04","name":"Sabita Maharjan"},"vote_count":1,"created_on":"2019-12-30T15:14:55.995618+05:45"},{"idx":"hX6f7UDL62i2yQyk6tjGHe","contest":"Model Superstar","episode":"Model Superstar","category":null,"contestant":{"voting_id":"04","name":"Sabita Maharjan"},"vote_count":1,"created_on":"2019-12-30T15:14:27.095502+05:45"},{"idx":"EA2eTxt3SsfQeincE93pJE","contest":"Model Superstar","episode":"Model Superstar","category":null,"contestant":{"voting_id":"04","name":"Sabita Maharjan"},"vote_count":1,"created_on":"2019-12-30T15:14:14.086724+05:45"},{"idx":"TZe7tiGFYxvLBLrawqVBzV","contest":"Model Superstar","episode":"Model Superstar","category":null,"contestant":{"voting_id":"04","name":"Sabita Maharjan"},"vote_count":1,"created_on":"2019-12-30T15:14:03.435268+05:45"},{"idx":"NobgXL2jDGW4XNpP2FcgT5","contest":"Model Superstar","episode":"Model Superstar","category":null,"contestant":{"voting_id":"04","name":"Sabita Maharjan"},"vote_count":1,"created_on":"2019-12-30T15:13:53.336589+05:45"},{"idx":"9etYPM6ZeFJDZgUmLYbsGS","contest":"Model Superstar","episode":"Model Superstar","category":null,"contestant":{"voting_id":"04","name":"Sabita Maharjan"},"vote_count":1,"created_on":"2019-12-30T15:13:43.506469+05:45"},{"idx":"Hvo9S2DZKyRU4uNGTvytGn","contest":"Model Superstar","episode":"Model Superstar","category":null,"contestant":{"voting_id":"04","name":"Sabita Maharjan"},"vote_count":1,"created_on":"2019-12-30T15:13:32.162983+05:45"},{"idx":"2zAvCbECcwcxmDdjTefr2k","contest":"Model Superstar","episode":"Model Superstar","category":null,"contestant":{"voting_id":"04","name":"Sabita Maharjan"},"vote_count":1,"created_on":"2019-12-30T15:13:22.467009+05:45"},{"idx":"D9dnCYoGaWaYukQAGGViUb","contest":"Model Superstar","episode":"Model Superstar","category":null,"contestant":{"voting_id":"04","name":"Sabita Maharjan"},"vote_count":1,"created_on":"2019-12-30T15:13:12.558698+05:45"},{"idx":"Q66C6im79VdLi98UX66sN8","contest":"Model Superstar","episode":"Model Superstar","category":null,"contestant":{"voting_id":"04","name":"Sabita Maharjan"},"vote_count":1,"created_on":"2019-12-30T15:13:02.060764+05:45"},{"idx":"NoG3LPhBs82CX5UUV8sUhN","contest":"Model Superstar","episode":"Model Superstar","category":null,"contestant":{"voting_id":"04","name":"Sabita Maharjan"},"vote_count":1,"created_on":"2019-12-30T15:12:50.583843+05:45"},{"idx":"sY5bHQoEPZuY6crZG2nKKY","contest":"Model Superstar","episode":"Model Superstar","category":null,"contestant":{"voting_id":"04","name":"Sabita Maharjan"},"vote_count":1,"created_on":"2019-12-30T15:12:40.518975+05:45"},{"idx":"fbLTeqNbcMceAUhkqvnhNb","contest":"Model Superstar","episode":"Model Superstar","category":null,"contestant":{"voting_id":"04","name":"Sabita Maharjan"},"vote_count":1,"created_on":"2019-12-30T15:12:31.469447+05:45"},{"idx":"r2tQ9somNhPvzkpxSvgCeA","contest":"Model Superstar","episode":"Model Superstar","category":null,"contestant":{"voting_id":"04","name":"Sabita Maharjan"},"vote_count":1,"created_on":"2019-12-30T15:12:22.461351+05:45"},{"idx":"DRWabgRjKWPP39QqcajUxG","contest":"Model Superstar","episode":"Model Superstar","category":null,"contestant":{"voting_id":"04","name":"Sabita Maharjan"},"vote_count":1,"created_on":"2019-12-30T15:12:12.963105+05:45"},{"idx":"ssd2KQt45SbzLz72ob5nVM","contest":"Model Superstar","episode":"Model Superstar","category":null,"contestant":{"voting_id":"04","name":"Sabita Maharjan"},"vote_count":1,"created_on":"2019-12-30T15:12:02.554816+05:45"},{"idx":"fAUn5TTf3k7QMwLyZkfs48","contest":"Model Superstar","episode":"Model Superstar","category":null,"contestant":{"voting_id":"04","name":"Sabita Maharjan"},"vote_count":1,"created_on":"2019-12-30T15:11:52.568860+05:45"},{"idx":"WnMbAR8m35CHVGVmxuJZAU","contest":"Model Superstar","episode":"Model Superstar","category":null,"contestant":{"voting_id":"04","name":"Sabita Maharjan"},"vote_count":1,"created_on":"2019-12-30T15:11:39.198640+05:45"},{"idx":"aUr2SuBSBxpucYWqqCCvRD","contest":"Model Superstar","episode":"Model Superstar","category":null,"contestant":{"voting_id":"04","name":"Sabita Maharjan"},"vote_count":1,"created_on":"2019-12-30T15:11:28.962023+05:45"},{"idx":"VdP8UY5T6TTt5AczWTYzfP","contest":"Model Superstar","episode":"Model Superstar","category":null,"contestant":{"voting_id":"04","name":"Sabita Maharjan"},"vote_count":1,"created_on":"2019-12-30T15:11:17.764355+05:45"},{"idx":"yE4AUACXKwhtH4nX7rWxd6","contest":"Model Superstar","episode":"Model Superstar","category":null,"contestant":{"voting_id":"04","name":"Sabita Maharjan"},"vote_count":1,"created_on":"2019-12-30T15:11:07.148742+05:45"},{"idx":"ziSPGYYkyTjNmTAfPGD7h9","contest":"Model Superstar","episode":"Model Superstar","category":null,"contestant":{"voting_id":"04","name":"Sabita Maharjan"},"vote_count":1,"created_on":"2019-12-30T15:10:56.649043+05:45"},{"idx":"6WTMyfMNd6Upd8kYV329qe","contest":"Model Superstar","episode":"Model Superstar","category":null,"contestant":{"voting_id":"04","name":"Sabita Maharjan"},"vote_count":1,"created_on":"2019-12-30T15:10:46.358168+05:45"},{"idx":"J7a37WkDwquXvWX9dWuE5B","contest":"Model Superstar","episode":"Model Superstar","category":null,"contestant":{"voting_id":"04","name":"Sabita Maharjan"},"vote_count":1,"created_on":"2019-12-30T15:10:30.503452+05:45"},{"idx":"c6W7XYVupMtAwk7kNK5Jim","contest":"Model Superstar","episode":"Model Superstar","category":null,"contestant":{"voting_id":"17","name":"Sajana Panta"},"vote_count":1,"created_on":"2019-12-30T15:10:19.129806+05:45"},{"idx":"ayNh2QqLKGie78K4fzAzkG","contest":"Model Superstar","episode":"Model Superstar","category":null,"contestant":{"voting_id":"04","name":"Sabita Maharjan"},"vote_count":1,"created_on":"2019-12-30T15:10:17.214362+05:45"},{"idx":"YVuKA4rsYLcy2fpc8z9s8n","contest":"Model Superstar","episode":"Model Superstar","category":null,"contestant":{"voting_id":"04","name":"Sabita Maharjan"},"vote_count":1,"created_on":"2019-12-30T15:10:06.591516+05:45"},{"idx":"G38muaqmqQKfCb9wykbG3W","contest":"Model Superstar","episode":"Model Superstar","category":null,"contestant":{"voting_id":"04","name":"Sabita Maharjan"},"vote_count":1,"created_on":"2019-12-30T15:09:56.246362+05:45"},{"idx":"MTVHC7eZbugrWHxqb63os8","contest":"Model Superstar","episode":"Model Superstar","category":null,"contestant":{"voting_id":"04","name":"Sabita Maharjan"},"vote_count":1,"created_on":"2019-12-30T15:09:45.476269+05:45"},{"idx":"qizXVn4Qj4VU4GvxLKQjtm","contest":"Model Superstar","episode":"Model Superstar","category":null,"contestant":{"voting_id":"04","name":"Sabita Maharjan"},"vote_count":1,"created_on":"2019-12-30T15:09:35.044662+05:45"},{"idx":"8dJQJyshGKJfFaY87hcNqi","contest":"Model Superstar","episode":"Model Superstar","category":null,"contestant":{"voting_id":"04","name":"Sabita Maharjan"},"vote_count":1,"created_on":"2019-12-30T15:09:22.163391+05:45"},{"idx":"hUaC4jGtaZ5Sicwqe3A5F7","contest":"Model Superstar","episode":"Model Superstar","category":null,"contestant":{"voting_id":"04","name":"Sabita Maharjan"},"vote_count":1,"created_on":"2019-12-30T15:08:38.955996+05:45"},{"idx":"jyKRZS6Jbn2WptfMowpdkg","contest":"Model Superstar","episode":"Model Superstar","category":null,"contestant":{"voting_id":"04","name":"Sabita Maharjan"},"vote_count":1,"created_on":"2019-12-30T15:01:41.267786+05:45"},{"idx":"dimMdFoyLHDJLzekxYh6we","contest":"Model Superstar","episode":"Model Superstar","category":null,"contestant":{"voting_id":"04","name":"Sabita Maharjan"},"vote_count":1,"created_on":"2019-12-30T15:01:27.801560+05:45"},{"idx":"vMo55PvvQzt75du9cwbfz5","contest":"Model Superstar","episode":"Model Superstar","category":null,"contestant":{"voting_id":"04","name":"Sabita Maharjan"},"vote_count":1,"created_on":"2019-12-30T15:01:17.952458+05:45"},{"idx":"DfJMyjwvigkEWe8UxpkEwK","contest":"Model Superstar","episode":"Model Superstar","category":null,"contestant":{"voting_id":"04","name":"Sabita Maharjan"},"vote_count":1,"created_on":"2019-12-30T15:01:08.010664+05:45"},{"idx":"XivyNBSn3SVhkpxoR6egqE","contest":"Model Superstar","episode":"Model Superstar","category":null,"contestant":{"voting_id":"04","name":"Sabita Maharjan"},"vote_count":1,"created_on":"2019-12-30T15:00:57.865806+05:45"},{"idx":"niEoW4BKcpeVvqJgq7mNre","contest":"Model Superstar","episode":"Model Superstar","category":null,"contestant":{"voting_id":"04","name":"Sabita Maharjan"},"vote_count":1,"created_on":"2019-12-30T15:00:46.830462+05:45"},{"idx":"ARAW4wybWdkPLmb6cc9Lyh","contest":"Model Superstar","episode":"Model Superstar","category":null,"contestant":{"voting_id":"04","name":"Sabita Maharjan"},"vote_count":1,"created_on":"2019-12-30T15:00:36.567341+05:45"},{"idx":"z3obhEz7ViDWNAPnv5wtzf","contest":"Model Superstar","episode":"Model Superstar","category":null,"contestant":{"voting_id":"04","name":"Sabita Maharjan"},"vote_count":1,"created_on":"2019-12-30T15:00:25.135313+05:45"},{"idx":"kZJfi5tirhyD5SYoqmeARb","contest":"Model Superstar","episode":"Model Superstar","category":null,"contestant":{"voting_id":"04","name":"Sabita Maharjan"},"vote_count":1,"created_on":"2019-12-30T15:00:15.215327+05:45"},{"idx":"HJgLpn5m27dMKp78ApJnen","contest":"Model Superstar","episode":"Model Superstar","category":null,"contestant":{"voting_id":"04","name":"Sabita Maharjan"},"vote_count":1,"created_on":"2019-12-30T15:00:04.961287+05:45"},{"idx":"7MmJExZdUMNyZDaBSmnnRK","contest":"Model Superstar","episode":"Model Superstar","category":null,"contestant":{"voting_id":"04","name":"Sabita Maharjan"},"vote_count":1,"created_on":"2019-12-30T14:59:54.871820+05:45"}]}