{"total_pages":275,"total_records":13721,"next":"https://khalti.com/api/v2/vuservote/?page=190","previous":"https://khalti.com/api/v2/vuservote/?page=188","record_range":[9401,9450],"current_page":189,"records":[{"idx":"bTdFkdXeC3AepbGjW3UYaa","contest":"Model Superstar","episode":"Model Superstar","category":null,"contestant":{"voting_id":"04","name":"Sabita Maharjan"},"vote_count":1,"created_on":"2019-12-30T14:59:44.071006+05:45"},{"idx":"daj2vJtdiE4g2m2nbnaNc4","contest":"Model Superstar","episode":"Model Superstar","category":null,"contestant":{"voting_id":"04","name":"Sabita Maharjan"},"vote_count":1,"created_on":"2019-12-30T14:59:34.552873+05:45"},{"idx":"3nv8Tp5txyVLVWrCyxVS2i","contest":"Model Superstar","episode":"Model Superstar","category":null,"contestant":{"voting_id":"04","name":"Sabita Maharjan"},"vote_count":1,"created_on":"2019-12-30T14:59:24.462207+05:45"},{"idx":"vzao5uH7gFaEzGG92M4Znd","contest":"Model Superstar","episode":"Model Superstar","category":null,"contestant":{"voting_id":"04","name":"Sabita Maharjan"},"vote_count":1,"created_on":"2019-12-30T14:59:12.751905+05:45"},{"idx":"w5HzBxFuZ4Rro4KjD6VawB","contest":"Model Superstar","episode":"Model Superstar","category":null,"contestant":{"voting_id":"04","name":"Sabita Maharjan"},"vote_count":1,"created_on":"2019-12-30T14:59:00.500061+05:45"},{"idx":"brUphB7XcHAV6XTaUDaRpc","contest":"Model Superstar","episode":"Model Superstar","category":null,"contestant":{"voting_id":"04","name":"Sabita Maharjan"},"vote_count":1,"created_on":"2019-12-30T14:58:49.698738+05:45"},{"idx":"9fGURbD9dPLWZGJzxEYBvP","contest":"Model Superstar","episode":"Model Superstar","category":null,"contestant":{"voting_id":"04","name":"Sabita Maharjan"},"vote_count":1,"created_on":"2019-12-30T14:58:40.248724+05:45"},{"idx":"jSd9s5fF3wVKofHfGwWEnV","contest":"Model Superstar","episode":"Model Superstar","category":null,"contestant":{"voting_id":"04","name":"Sabita Maharjan"},"vote_count":1,"created_on":"2019-12-30T14:58:30.163489+05:45"},{"idx":"By2FNqxBBgWXwHo695mGE6","contest":"Model Superstar","episode":"Model Superstar","category":null,"contestant":{"voting_id":"04","name":"Sabita Maharjan"},"vote_count":1,"created_on":"2019-12-30T14:58:18.749478+05:45"},{"idx":"K6Q7gZmo2TL4mNaUuymL95","contest":"Model Superstar","episode":"Model Superstar","category":null,"contestant":{"voting_id":"04","name":"Sabita Maharjan"},"vote_count":1,"created_on":"2019-12-30T14:58:08.231177+05:45"},{"idx":"6esrKby4hgMnChjBsULSwm","contest":"Model Superstar","episode":"Model Superstar","category":null,"contestant":{"voting_id":"04","name":"Sabita Maharjan"},"vote_count":1,"created_on":"2019-12-30T14:57:58.048686+05:45"},{"idx":"rpn998quoSMRqBtimvgHV2","contest":"Model Superstar","episode":"Model Superstar","category":null,"contestant":{"voting_id":"04","name":"Sabita Maharjan"},"vote_count":1,"created_on":"2019-12-30T14:57:47.965631+05:45"},{"idx":"phvFuVZYP5VXNYboi5HNTW","contest":"Model Superstar","episode":"Model Superstar","category":null,"contestant":{"voting_id":"04","name":"Sabita Maharjan"},"vote_count":1,"created_on":"2019-12-30T14:57:35.021984+05:45"},{"idx":"hVhTMAafK5AAv7Ppv6zNGo","contest":"Model Superstar","episode":"Model Superstar","category":null,"contestant":{"voting_id":"04","name":"Sabita Maharjan"},"vote_count":1,"created_on":"2019-12-30T14:57:19.686074+05:45"},{"idx":"tWUtqCJvgWMPUnD5ipLAuX","contest":"Model Superstar","episode":"Model Superstar","category":null,"contestant":{"voting_id":"04","name":"Sabita Maharjan"},"vote_count":1,"created_on":"2019-12-30T14:57:09.391654+05:45"},{"idx":"GPLEAwPWKBAPvWhGCarC9k","contest":"Model Superstar","episode":"Model Superstar","category":null,"contestant":{"voting_id":"04","name":"Sabita Maharjan"},"vote_count":1,"created_on":"2019-12-30T14:56:59.256678+05:45"},{"idx":"JWY9nNQRp794Yr8L27s799","contest":"Model Superstar","episode":"Model Superstar","category":null,"contestant":{"voting_id":"04","name":"Sabita Maharjan"},"vote_count":1,"created_on":"2019-12-30T14:56:46.348101+05:45"},{"idx":"PXkHBrsyz7MefyLFJTgY4m","contest":"Model Superstar","episode":"Model Superstar","category":null,"contestant":{"voting_id":"04","name":"Sabita Maharjan"},"vote_count":1,"created_on":"2019-12-30T14:56:35.273319+05:45"},{"idx":"EkwUwnaiaEUuUz2V7tBczW","contest":"Model Superstar","episode":"Model Superstar","category":null,"contestant":{"voting_id":"04","name":"Sabita Maharjan"},"vote_count":1,"created_on":"2019-12-30T14:56:22.356032+05:45"},{"idx":"ptZaRUmP2eQSFrtahEQMQD","contest":"Model Superstar","episode":"Model Superstar","category":null,"contestant":{"voting_id":"04","name":"Sabita Maharjan"},"vote_count":1,"created_on":"2019-12-30T14:56:12.589499+05:45"},{"idx":"voiyBzrDqdJjjqcmRhaXX6","contest":"Model Superstar","episode":"Model Superstar","category":null,"contestant":{"voting_id":"04","name":"Sabita Maharjan"},"vote_count":1,"created_on":"2019-12-30T14:56:02.116689+05:45"},{"idx":"5Ee4az2kpxnpvtJ79iuEtS","contest":"Model Superstar","episode":"Model Superstar","category":null,"contestant":{"voting_id":"04","name":"Sabita Maharjan"},"vote_count":1,"created_on":"2019-12-30T14:55:51.906581+05:45"},{"idx":"YNacAqK7JPCNWktwdrx8eP","contest":"Model Superstar","episode":"Model Superstar","category":null,"contestant":{"voting_id":"04","name":"Sabita Maharjan"},"vote_count":1,"created_on":"2019-12-30T14:55:40.705571+05:45"},{"idx":"pgZHh2ky7wdGCFqnACUi3e","contest":"Model Superstar","episode":"Model Superstar","category":null,"contestant":{"voting_id":"04","name":"Sabita Maharjan"},"vote_count":1,"created_on":"2019-12-30T14:55:24.987141+05:45"},{"idx":"wkTdoaWZ9pfA6RTcAJNFt4","contest":"Model Superstar","episode":"Model Superstar","category":null,"contestant":{"voting_id":"04","name":"Sabita Maharjan"},"vote_count":1,"created_on":"2019-12-30T14:55:14.545969+05:45"},{"idx":"66kqTqkatcmBPpKk9yCsgF","contest":"Model Superstar","episode":"Model Superstar","category":null,"contestant":{"voting_id":"04","name":"Sabita Maharjan"},"vote_count":1,"created_on":"2019-12-30T14:55:04.211533+05:45"},{"idx":"t2FPaqcQAFWaaCpiMyMYNL","contest":"Model Superstar","episode":"Model Superstar","category":null,"contestant":{"voting_id":"04","name":"Sabita Maharjan"},"vote_count":1,"created_on":"2019-12-30T14:54:54.275750+05:45"},{"idx":"DhJidfz4vLFZbYYP6Mu27J","contest":"Model Superstar","episode":"Model Superstar","category":null,"contestant":{"voting_id":"04","name":"Sabita Maharjan"},"vote_count":1,"created_on":"2019-12-30T14:54:43.302871+05:45"},{"idx":"ijqP9zzLuWKTvYZPEpqp2X","contest":"Model Superstar","episode":"Model Superstar","category":null,"contestant":{"voting_id":"04","name":"Sabita Maharjan"},"vote_count":1,"created_on":"2019-12-30T14:54:32.576643+05:45"},{"idx":"8mbVZX6obyuipQBu9NCmSP","contest":"Model Superstar","episode":"Model Superstar","category":null,"contestant":{"voting_id":"04","name":"Sabita Maharjan"},"vote_count":1,"created_on":"2019-12-30T14:54:10.578919+05:45"},{"idx":"EF9PHvx9HB7xhJkB6AteP9","contest":"Model Superstar","episode":"Model Superstar","category":null,"contestant":{"voting_id":"04","name":"Sabita Maharjan"},"vote_count":1,"created_on":"2019-12-30T14:53:39.543133+05:45"},{"idx":"bgadVVe9t6bLtonDtcYaf7","contest":"Model Superstar","episode":"Model Superstar","category":null,"contestant":{"voting_id":"04","name":"Sabita Maharjan"},"vote_count":1,"created_on":"2019-12-30T14:53:29.097709+05:45"},{"idx":"86bAdv5g3EwdpCphWr5goG","contest":"Model Superstar","episode":"Model Superstar","category":null,"contestant":{"voting_id":"04","name":"Sabita Maharjan"},"vote_count":1,"created_on":"2019-12-30T14:53:18.025583+05:45"},{"idx":"KPzU9QkCP7swpmrSJ27Hs9","contest":"Model Superstar","episode":"Model Superstar","category":null,"contestant":{"voting_id":"04","name":"Sabita Maharjan"},"vote_count":1,"created_on":"2019-12-30T14:53:07.096273+05:45"},{"idx":"iVaMLo8TMshSWZCHqrG8DZ","contest":"Model Superstar","episode":"Model Superstar","category":null,"contestant":{"voting_id":"04","name":"Sabita Maharjan"},"vote_count":1,"created_on":"2019-12-30T14:52:56.474819+05:45"},{"idx":"mRoKFLLRrirVvHaDrkc6T5","contest":"Model Superstar","episode":"Model Superstar","category":null,"contestant":{"voting_id":"04","name":"Sabita Maharjan"},"vote_count":1,"created_on":"2019-12-30T14:52:46.003891+05:45"},{"idx":"nrqBXjqq367NuxLxj5kmZK","contest":"Model Superstar","episode":"Model Superstar","category":null,"contestant":{"voting_id":"04","name":"Sabita Maharjan"},"vote_count":1,"created_on":"2019-12-30T14:52:35.640237+05:45"},{"idx":"SRqiAJNPTzHw92Ejx6Kf77","contest":"Model Superstar","episode":"Model Superstar","category":null,"contestant":{"voting_id":"04","name":"Sabita Maharjan"},"vote_count":1,"created_on":"2019-12-30T14:52:19.757824+05:45"},{"idx":"VSTxNgt9Qj6gH7tuMuZKNd","contest":"Model Superstar","episode":"Model Superstar","category":null,"contestant":{"voting_id":"04","name":"Sabita Maharjan"},"vote_count":1,"created_on":"2019-12-30T14:52:07.899101+05:45"},{"idx":"Zc5TBTzmsE6RfLGRAjvzFo","contest":"Model Superstar","episode":"Model Superstar","category":null,"contestant":{"voting_id":"04","name":"Sabita Maharjan"},"vote_count":1,"created_on":"2019-12-30T14:51:54.073307+05:45"},{"idx":"2PZtrW8nHAfKMVKGy3FtuY","contest":"Model Superstar","episode":"Model Superstar","category":null,"contestant":{"voting_id":"04","name":"Sabita Maharjan"},"vote_count":1,"created_on":"2019-12-30T14:51:02.037769+05:45"},{"idx":"cFETcAeK9AfvhAbsbFXdY3","contest":"Model Superstar","episode":"Model Superstar","category":null,"contestant":{"voting_id":"04","name":"Sabita Maharjan"},"vote_count":1,"created_on":"2019-12-30T14:50:50.433351+05:45"},{"idx":"L8w4wstBSTfA4VGFNyvnuA","contest":"Model Superstar","episode":"Model Superstar","category":null,"contestant":{"voting_id":"04","name":"Sabita Maharjan"},"vote_count":1,"created_on":"2019-12-30T14:50:37.522286+05:45"},{"idx":"mQZJmrze3X8YqJESEdApgj","contest":"Model Superstar","episode":"Model Superstar","category":null,"contestant":{"voting_id":"04","name":"Sabita Maharjan"},"vote_count":1,"created_on":"2019-12-30T14:50:28.508877+05:45"},{"idx":"qdt6KPLzLeZTC2rKZCz3Mf","contest":"Model Superstar","episode":"Model Superstar","category":null,"contestant":{"voting_id":"04","name":"Sabita Maharjan"},"vote_count":1,"created_on":"2019-12-30T14:50:19.074233+05:45"},{"idx":"BHbENPCMSAhTmM2vhJFoVX","contest":"Model Superstar","episode":"Model Superstar","category":null,"contestant":{"voting_id":"04","name":"Sabita Maharjan"},"vote_count":1,"created_on":"2019-12-30T14:50:07.857837+05:45"},{"idx":"V5xYphyc6TA6kLvw8TduSQ","contest":"Model Superstar","episode":"Model Superstar","category":null,"contestant":{"voting_id":"04","name":"Sabita Maharjan"},"vote_count":1,"created_on":"2019-12-30T14:49:57.434600+05:45"},{"idx":"fuMAaqoRkYzqSwP7HBetU8","contest":"Model Superstar","episode":"Model Superstar","category":null,"contestant":{"voting_id":"04","name":"Sabita Maharjan"},"vote_count":1,"created_on":"2019-12-30T14:49:47.407450+05:45"},{"idx":"MsoeRkdaHNfytz5ujmNek3","contest":"Model Superstar","episode":"Model Superstar","category":null,"contestant":{"voting_id":"04","name":"Sabita Maharjan"},"vote_count":1,"created_on":"2019-12-30T14:49:37.541975+05:45"},{"idx":"fMciF7mCYG7hxfqFTn5haS","contest":"Model Superstar","episode":"Model Superstar","category":null,"contestant":{"voting_id":"04","name":"Sabita Maharjan"},"vote_count":1,"created_on":"2019-12-30T14:49:27.451486+05:45"}]}