{"total_pages":275,"total_records":13717,"next":"https://khalti.com/api/v2/vuservote/?page=20","previous":"https://khalti.com/api/v2/vuservote/?page=18","record_range":[901,950],"current_page":19,"records":[{"idx":"C3GcWkTFf8ZED8fd94hVDX","contest":"Locus 2020","episode":"Locus 2020","category":null,"contestant":{"voting_id":"22","name":"Project Under Ground Fault Detector"},"vote_count":1,"created_on":"2020-02-01T14:47:43.808369+05:45"},{"idx":"janvE8qNT3CbDLR2LqTu7X","contest":"Locus 2020","episode":"Locus 2020","category":null,"contestant":{"voting_id":"32","name":"Project Health and Environment Checker"},"vote_count":1,"created_on":"2020-02-01T14:42:35.966310+05:45"},{"idx":"Cwp8uzGYUoXiuVx2X4qzXn","contest":"Locus 2020","episode":"Locus 2020","category":null,"contestant":{"voting_id":"22","name":"Project Under Ground Fault Detector"},"vote_count":1,"created_on":"2020-02-01T14:36:48.198651+05:45"},{"idx":"MKtwfztU4XUR9XgPkU8q3E","contest":"Locus 2020","episode":"Locus 2020","category":null,"contestant":{"voting_id":"32","name":"Project Health and Environment Checker"},"vote_count":1,"created_on":"2020-02-01T14:35:49.956101+05:45"},{"idx":"mS7ecoJSmNi6G8PN8nnyZV","contest":"Locus 2020","episode":"Locus 2020","category":null,"contestant":{"voting_id":"01","name":"Project Fire Robo"},"vote_count":1,"created_on":"2020-02-01T14:32:03.389869+05:45"},{"idx":"ziuP2NdPhYTUYR5RSoWh83","contest":"Locus 2020","episode":"Locus 2020","category":null,"contestant":{"voting_id":"46","name":"Project Immune"},"vote_count":1,"created_on":"2020-02-01T14:30:35.835050+05:45"},{"idx":"oakMzRXSBD79BQ9ZMzpMRT","contest":"Locus 2020","episode":"Locus 2020","category":null,"contestant":{"voting_id":"32","name":"Project Health and Environment Checker"},"vote_count":1,"created_on":"2020-02-01T14:30:15.710442+05:45"},{"idx":"6KrVxFhAUCEqnCTfBjMbbi","contest":"Locus 2020","episode":"Locus 2020","category":null,"contestant":{"voting_id":"32","name":"Project Health and Environment Checker"},"vote_count":1,"created_on":"2020-02-01T14:24:59.440651+05:45"},{"idx":"aZaEezosBDLvuUfjfbFUhK","contest":"Locus 2020","episode":"Locus 2020","category":null,"contestant":{"voting_id":"32","name":"Project Health and Environment Checker"},"vote_count":1,"created_on":"2020-02-01T14:22:48.327047+05:45"},{"idx":"3WKQvp2ha4nfGCHovWJDsj","contest":"Locus 2020","episode":"Locus 2020","category":null,"contestant":{"voting_id":"83","name":"Project Ghadi"},"vote_count":1,"created_on":"2020-02-01T14:22:24.470743+05:45"},{"idx":"o9EBC9PYshL3S2WX6ouR52","contest":"Model Superstar","episode":"Model Superstar Finale","category":null,"contestant":{"voting_id":"02","name":"Srijana Basnet"},"vote_count":1,"created_on":"2020-02-01T14:21:20.332839+05:45"},{"idx":"cz9NjLDC4E9qbscmuUJSLT","contest":"Locus 2020","episode":"Locus 2020","category":null,"contestant":{"voting_id":"66","name":"Project Alexa Pi"},"vote_count":1,"created_on":"2020-02-01T14:18:38.808827+05:45"},{"idx":"kaeeBLQ8m96Rx5Gwv4K3vi","contest":"Locus 2020","episode":"Locus 2020","category":null,"contestant":{"voting_id":"66","name":"Project Alexa Pi"},"vote_count":1,"created_on":"2020-02-01T14:17:13.102755+05:45"},{"idx":"FLgDS593kMJM4N2jr89xpV","contest":"Locus 2020","episode":"Locus 2020","category":null,"contestant":{"voting_id":"66","name":"Project Alexa Pi"},"vote_count":1,"created_on":"2020-02-01T14:15:28.380440+05:45"},{"idx":"ZiZEtK32M7dNJZ7VWEfd76","contest":"Locus 2020","episode":"Locus 2020","category":null,"contestant":{"voting_id":"66","name":"Project Alexa Pi"},"vote_count":1,"created_on":"2020-02-01T14:13:27.159355+05:45"},{"idx":"WkvGEPaZGwaoaeL7dFXxXh","contest":"Locus 2020","episode":"Locus 2020","category":null,"contestant":{"voting_id":"66","name":"Project Alexa Pi"},"vote_count":1,"created_on":"2020-02-01T14:11:53.514760+05:45"},{"idx":"jhdG7jAfdbtsQ9UtC4GJTJ","contest":"Locus 2020","episode":"Locus 2020","category":null,"contestant":{"voting_id":"66","name":"Project Alexa Pi"},"vote_count":1,"created_on":"2020-02-01T14:10:28.859683+05:45"},{"idx":"q2AV7TELwyKXZRmjjnmQik","contest":"Locus 2020","episode":"Locus 2020","category":null,"contestant":{"voting_id":"62","name":"Project 2D CNC Plotter"},"vote_count":1,"created_on":"2020-02-01T14:10:24.900862+05:45"},{"idx":"K4Hj6hupLuruygavYPfNii","contest":"Locus 2020","episode":"Locus 2020","category":null,"contestant":{"voting_id":"66","name":"Project Alexa Pi"},"vote_count":1,"created_on":"2020-02-01T14:08:56.797205+05:45"},{"idx":"dyXH3WkVhxJ5pxTc4BcZBQ","contest":"Locus 2020","episode":"Locus 2020","category":null,"contestant":{"voting_id":"34","name":"Project Femicoders"},"vote_count":1,"created_on":"2020-02-01T14:08:37.890318+05:45"},{"idx":"Eu5A9VMbpNfmkKuixEKo5k","contest":"Locus 2020","episode":"Locus 2020","category":null,"contestant":{"voting_id":"24","name":"Project Library App"},"vote_count":1,"created_on":"2020-02-01T14:08:08.524266+05:45"},{"idx":"xfvbn278VPc3hoToQzMrte","contest":"Locus 2020","episode":"Locus 2020","category":null,"contestant":{"voting_id":"26","name":"Project Automatic Rechargaeble Stove"},"vote_count":1,"created_on":"2020-02-01T14:08:01.287803+05:45"},{"idx":"skkJ8chkvZtFiX8WStFz2E","contest":"Locus 2020","episode":"Locus 2020","category":null,"contestant":{"voting_id":"66","name":"Project Alexa Pi"},"vote_count":1,"created_on":"2020-02-01T14:07:17.869900+05:45"},{"idx":"ppnyL7737SYXkjdzRuxZDK","contest":"Locus 2020","episode":"Locus 2020","category":null,"contestant":{"voting_id":"32","name":"Project Health and Environment Checker"},"vote_count":1,"created_on":"2020-02-01T14:04:52.057681+05:45"},{"idx":"egzqQu26bcXjbg3xvw6T24","contest":"Locus 2020","episode":"Locus 2020","category":null,"contestant":{"voting_id":"66","name":"Project Alexa Pi"},"vote_count":1,"created_on":"2020-02-01T14:03:20.210300+05:45"},{"idx":"DVoPai7ehfp9MYYxpLbqfU","contest":"Locus 2020","episode":"Locus 2020","category":null,"contestant":{"voting_id":"24","name":"Project Library App"},"vote_count":1,"created_on":"2020-02-01T14:03:07.517904+05:45"},{"idx":"Z2irpNFNCmUFkjt7yHgo4C","contest":"Locus 2020","episode":"Locus 2020","category":null,"contestant":{"voting_id":"07","name":"Project Automatic Irrigation System"},"vote_count":1,"created_on":"2020-02-01T14:02:35.878275+05:45"},{"idx":"hr4rUwPy3poJBwjDpHtsgk","contest":"Locus 2020","episode":"Locus 2020","category":null,"contestant":{"voting_id":"46","name":"Project Immune"},"vote_count":1,"created_on":"2020-02-01T14:02:04.457535+05:45"},{"idx":"4WQcBaR2iDZjCSQPrtrY2d","contest":"Locus 2020","episode":"Locus 2020","category":null,"contestant":{"voting_id":"32","name":"Project Health and Environment Checker"},"vote_count":5,"created_on":"2020-02-01T13:59:38.504402+05:45"},{"idx":"89ygKnMsv8fRz3eXLXdDbn","contest":"Locus 2020","episode":"Locus 2020","category":null,"contestant":{"voting_id":"46","name":"Project Immune"},"vote_count":1,"created_on":"2020-02-01T13:58:22.928780+05:45"},{"idx":"i4atBXjDw2MPBhf99vkUGF","contest":"Music Eve 2020","episode":"Music Eve 2020 IOE","category":null,"contestant":{"voting_id":"07","name":"Chemical Latch"},"vote_count":1,"created_on":"2020-02-01T13:55:21.967551+05:45"},{"idx":"zD3GVFm4U9aaGogfURi5Pf","contest":"Locus 2020","episode":"Locus 2020","category":null,"contestant":{"voting_id":"66","name":"Project Alexa Pi"},"vote_count":1,"created_on":"2020-02-01T13:47:15.384560+05:45"},{"idx":"d8npZ3ciKhsVUmYBFqfbGg","contest":"Locus 2020","episode":"Locus 2020","category":null,"contestant":{"voting_id":"66","name":"Project Alexa Pi"},"vote_count":1,"created_on":"2020-02-01T13:44:55.295955+05:45"},{"idx":"nFM6JxttZdeNZheU3ZzBEV","contest":"Locus 2020","episode":"Locus 2020","category":null,"contestant":{"voting_id":"66","name":"Project Alexa Pi"},"vote_count":1,"created_on":"2020-02-01T13:44:31.256058+05:45"},{"idx":"CTe2eaKaZpbDbjaftUVTwa","contest":"Locus 2020","episode":"Locus 2020","category":null,"contestant":{"voting_id":"12","name":"Project Green City"},"vote_count":1,"created_on":"2020-02-01T13:35:24.684075+05:45"},{"idx":"AminXCGnQokJ8d7YP6hCXf","contest":"Locus 2020","episode":"Locus 2020","category":null,"contestant":{"voting_id":"32","name":"Project Health and Environment Checker"},"vote_count":1,"created_on":"2020-02-01T13:34:03.259387+05:45"},{"idx":"N9HCYjPzmLyHSXm7ewwouV","contest":"Locus 2020","episode":"Locus 2020","category":null,"contestant":{"voting_id":"32","name":"Project Health and Environment Checker"},"vote_count":1,"created_on":"2020-02-01T13:33:39.247718+05:45"},{"idx":"wpzR6GvPYUcsAYruqzQmmg","contest":"Locus 2020","episode":"Locus 2020","category":null,"contestant":{"voting_id":"60","name":"Project EMG Contolled Prosthetic Arm"},"vote_count":1,"created_on":"2020-02-01T13:31:01.297682+05:45"},{"idx":"rNgSh6ujZHEaXNP9vmywYM","contest":"Locus 2020","episode":"Locus 2020","category":null,"contestant":{"voting_id":"38","name":"Project Project -N"},"vote_count":1,"created_on":"2020-02-01T13:30:55.194149+05:45"},{"idx":"99sAWeKm8fx5Jsrjz69o4V","contest":"Music Eve 2020","episode":"Music Eve 2020 IOE","category":null,"contestant":{"voting_id":"23","name":"The Acoustic Aero"},"vote_count":1,"created_on":"2020-02-01T13:25:45.432747+05:45"},{"idx":"tWAzss7XR3ZUF7QDK5QvPT","contest":"Locus 2020","episode":"Locus 2020","category":null,"contestant":{"voting_id":"34","name":"Project Femicoders"},"vote_count":1,"created_on":"2020-02-01T13:22:20.950757+05:45"},{"idx":"ujwpgRF94AcVmJpEuVrMC5","contest":"Locus 2020","episode":"Locus 2020","category":null,"contestant":{"voting_id":"46","name":"Project Immune"},"vote_count":1,"created_on":"2020-02-01T13:21:45.338734+05:45"},{"idx":"GDK83wry2Yfz9NtJQ6jFsE","contest":"Locus 2020","episode":"Locus 2020","category":null,"contestant":{"voting_id":"32","name":"Project Health and Environment Checker"},"vote_count":1,"created_on":"2020-02-01T13:20:52.443865+05:45"},{"idx":"uYU6J7zu5XSjNv7XkaSTk4","contest":"Locus 2020","episode":"Locus 2020","category":null,"contestant":{"voting_id":"32","name":"Project Health and Environment Checker"},"vote_count":1,"created_on":"2020-02-01T13:20:39.057147+05:45"},{"idx":"YCCTVhdyJTa3chGZ8LnmsR","contest":"Locus 2020","episode":"Locus 2020","category":null,"contestant":{"voting_id":"32","name":"Project Health and Environment Checker"},"vote_count":1,"created_on":"2020-02-01T13:19:57.480974+05:45"},{"idx":"cQiteEkdVLJa9nf4eB5aVY","contest":"Locus 2020","episode":"Locus 2020","category":null,"contestant":{"voting_id":"46","name":"Project Immune"},"vote_count":1,"created_on":"2020-02-01T13:18:14.484015+05:45"},{"idx":"w8mMDv8MfVZ3Bf8hQyF42P","contest":"Locus 2020","episode":"Locus 2020","category":null,"contestant":{"voting_id":"32","name":"Project Health and Environment Checker"},"vote_count":1,"created_on":"2020-02-01T13:18:04.434215+05:45"},{"idx":"pfVZ4e6YZdPyht4isr5YqL","contest":"Locus 2020","episode":"Locus 2020","category":null,"contestant":{"voting_id":"32","name":"Project Health and Environment Checker"},"vote_count":1,"created_on":"2020-02-01T13:17:40.776492+05:45"},{"idx":"G6JBPy5buuLchogBsRFhgf","contest":"Locus 2020","episode":"Locus 2020","category":null,"contestant":{"voting_id":"34","name":"Project Femicoders"},"vote_count":1,"created_on":"2020-02-01T13:14:57.543103+05:45"},{"idx":"wq8FciZqX3CpRyi7zEJ8hR","contest":"Model Superstar","episode":"Model Superstar Finale","category":null,"contestant":{"voting_id":"32","name":"Ichhya Adhikari"},"vote_count":1,"created_on":"2020-02-01T13:14:49.715878+05:45"}]}