{"total_pages":275,"total_records":13721,"next":"https://khalti.com/api/v2/vuservote/?page=191","previous":"https://khalti.com/api/v2/vuservote/?page=189","record_range":[9451,9500],"current_page":190,"records":[{"idx":"jwYxhWCBAtEPk4eLwdvP27","contest":"Model Superstar","episode":"Model Superstar","category":null,"contestant":{"voting_id":"04","name":"Sabita Maharjan"},"vote_count":1,"created_on":"2019-12-30T14:49:17.595420+05:45"},{"idx":"kepiqmTaytvS2Qk7YXNmDJ","contest":"Model Superstar","episode":"Model Superstar","category":null,"contestant":{"voting_id":"04","name":"Sabita Maharjan"},"vote_count":1,"created_on":"2019-12-30T14:49:07.062241+05:45"},{"idx":"sQwYbpNFtYCjsVBmcvy3WJ","contest":"Model Superstar","episode":"Model Superstar","category":null,"contestant":{"voting_id":"04","name":"Sabita Maharjan"},"vote_count":1,"created_on":"2019-12-30T14:48:56.688273+05:45"},{"idx":"hbCAorhhbEEK2kDsXpLa8U","contest":"Model Superstar","episode":"Model Superstar","category":null,"contestant":{"voting_id":"04","name":"Sabita Maharjan"},"vote_count":1,"created_on":"2019-12-30T14:48:46.648906+05:45"},{"idx":"VV7J642iHdLcZYuH2ksC4o","contest":"Model Superstar","episode":"Model Superstar","category":null,"contestant":{"voting_id":"04","name":"Sabita Maharjan"},"vote_count":1,"created_on":"2019-12-30T14:48:36.790467+05:45"},{"idx":"5xmy2XVk82XKCVSVrRHdB5","contest":"Model Superstar","episode":"Model Superstar","category":null,"contestant":{"voting_id":"04","name":"Sabita Maharjan"},"vote_count":1,"created_on":"2019-12-30T14:48:27.271337+05:45"},{"idx":"zituZkQmyYzzycZ246rZ7m","contest":"Model Superstar","episode":"Model Superstar","category":null,"contestant":{"voting_id":"04","name":"Sabita Maharjan"},"vote_count":1,"created_on":"2019-12-30T14:48:17.178214+05:45"},{"idx":"WzDk3kk2RWzJJin8Lzbi9f","contest":"Model Superstar","episode":"Model Superstar","category":null,"contestant":{"voting_id":"04","name":"Sabita Maharjan"},"vote_count":1,"created_on":"2019-12-30T14:48:06.393742+05:45"},{"idx":"shFaa7W7j5DLuQRsrSdqrZ","contest":"Model Superstar","episode":"Model Superstar","category":null,"contestant":{"voting_id":"04","name":"Sabita Maharjan"},"vote_count":1,"created_on":"2019-12-30T14:47:56.495596+05:45"},{"idx":"S22oaZJ3hMTvnTBkbdVUVk","contest":"Model Superstar","episode":"Model Superstar","category":null,"contestant":{"voting_id":"04","name":"Sabita Maharjan"},"vote_count":1,"created_on":"2019-12-30T14:47:46.366357+05:45"},{"idx":"e9NhfeoQJdsBHtd3suM6KF","contest":"Model Superstar","episode":"Model Superstar","category":null,"contestant":{"voting_id":"04","name":"Sabita Maharjan"},"vote_count":1,"created_on":"2019-12-30T14:47:36.070615+05:45"},{"idx":"JWu5SuAyS525G5VyAZ3BTi","contest":"Model Superstar","episode":"Model Superstar","category":null,"contestant":{"voting_id":"04","name":"Sabita Maharjan"},"vote_count":1,"created_on":"2019-12-30T14:47:25.335913+05:45"},{"idx":"EsXrFJ5M9tbYQ67FTbrxRa","contest":"Model Superstar","episode":"Model Superstar","category":null,"contestant":{"voting_id":"02","name":"Srijana Basnet"},"vote_count":1,"created_on":"2019-12-30T14:47:24.658577+05:45"},{"idx":"kRvwVr3qBkyAxa9sh45tbc","contest":"Model Superstar","episode":"Model Superstar","category":null,"contestant":{"voting_id":"04","name":"Sabita Maharjan"},"vote_count":1,"created_on":"2019-12-30T14:47:12.252182+05:45"},{"idx":"fHdby7uNYiaFEFfRagK4e6","contest":"Model Superstar","episode":"Model Superstar","category":null,"contestant":{"voting_id":"04","name":"Sabita Maharjan"},"vote_count":1,"created_on":"2019-12-30T14:47:01.981055+05:45"},{"idx":"JkvJrPaAsNCCNncFue3uZH","contest":"Model Superstar","episode":"Model Superstar","category":null,"contestant":{"voting_id":"04","name":"Sabita Maharjan"},"vote_count":1,"created_on":"2019-12-30T14:46:51.550087+05:45"},{"idx":"pRJzTJvs6HQkJx85Suxz78","contest":"Model Superstar","episode":"Model Superstar","category":null,"contestant":{"voting_id":"04","name":"Sabita Maharjan"},"vote_count":1,"created_on":"2019-12-30T14:46:41.022667+05:45"},{"idx":"d3AxRS4tL6QfnRK8LpWJnA","contest":"Model Superstar","episode":"Model Superstar","category":null,"contestant":{"voting_id":"04","name":"Sabita Maharjan"},"vote_count":1,"created_on":"2019-12-30T14:46:30.966362+05:45"},{"idx":"aByQReBTbpXGpjTTcg3p5F","contest":"Model Superstar","episode":"Model Superstar","category":null,"contestant":{"voting_id":"04","name":"Sabita Maharjan"},"vote_count":1,"created_on":"2019-12-30T14:46:19.867981+05:45"},{"idx":"pDYB6XhuZHnT9NXvwAKnGe","contest":"Model Superstar","episode":"Model Superstar","category":null,"contestant":{"voting_id":"04","name":"Sabita Maharjan"},"vote_count":1,"created_on":"2019-12-30T14:46:09.839901+05:45"},{"idx":"CGkKPkhHeNbhiXzzr4QB5o","contest":"Model Superstar","episode":"Model Superstar","category":null,"contestant":{"voting_id":"04","name":"Sabita Maharjan"},"vote_count":1,"created_on":"2019-12-30T14:45:59.105347+05:45"},{"idx":"dVohKbui3b46LojZ5DUCfm","contest":"Model Superstar","episode":"Model Superstar","category":null,"contestant":{"voting_id":"04","name":"Sabita Maharjan"},"vote_count":1,"created_on":"2019-12-30T14:45:48.728143+05:45"},{"idx":"BQbAqvoj828HNBohQRpsxN","contest":"Model Superstar","episode":"Model Superstar","category":null,"contestant":{"voting_id":"04","name":"Sabita Maharjan"},"vote_count":1,"created_on":"2019-12-30T14:45:36.484420+05:45"},{"idx":"nH3JF8RzQeuNd8sM4qUuKk","contest":"Model Superstar","episode":"Model Superstar","category":null,"contestant":{"voting_id":"04","name":"Sabita Maharjan"},"vote_count":1,"created_on":"2019-12-30T14:45:27.390616+05:45"},{"idx":"exBL49PFEFhGEyvg5FWGB8","contest":"Model Superstar","episode":"Model Superstar","category":null,"contestant":{"voting_id":"04","name":"Sabita Maharjan"},"vote_count":1,"created_on":"2019-12-30T14:44:42.180534+05:45"},{"idx":"rR4aYLpe89xghjsXxfH3B9","contest":"Model Superstar","episode":"Model Superstar","category":null,"contestant":{"voting_id":"04","name":"Sabita Maharjan"},"vote_count":1,"created_on":"2019-12-30T14:44:31.695007+05:45"},{"idx":"MxAyMr3jPuZ2ozQZM2EdEK","contest":"Model Superstar","episode":"Model Superstar","category":null,"contestant":{"voting_id":"04","name":"Sabita Maharjan"},"vote_count":1,"created_on":"2019-12-30T14:44:15.940109+05:45"},{"idx":"wjbNTy42kDtafNQdU8N8m9","contest":"Model Superstar","episode":"Model Superstar","category":null,"contestant":{"voting_id":"04","name":"Sabita Maharjan"},"vote_count":1,"created_on":"2019-12-30T14:44:04.718773+05:45"},{"idx":"Y9cyEQhYp9r65dDuveoamK","contest":"Model Superstar","episode":"Model Superstar","category":null,"contestant":{"voting_id":"04","name":"Sabita Maharjan"},"vote_count":1,"created_on":"2019-12-30T14:43:54.333019+05:45"},{"idx":"JFxUBGXEfnER6JCiix8TKJ","contest":"Model Superstar","episode":"Model Superstar","category":null,"contestant":{"voting_id":"04","name":"Sabita Maharjan"},"vote_count":1,"created_on":"2019-12-30T14:43:42.189278+05:45"},{"idx":"pDjbabuAVNnyvSSWKVorCc","contest":"Model Superstar","episode":"Model Superstar","category":null,"contestant":{"voting_id":"04","name":"Sabita Maharjan"},"vote_count":1,"created_on":"2019-12-30T14:43:31.318009+05:45"},{"idx":"NAGou97i6i87qrAS9mFhyC","contest":"Model Superstar","episode":"Model Superstar","category":null,"contestant":{"voting_id":"04","name":"Sabita Maharjan"},"vote_count":1,"created_on":"2019-12-30T14:43:20.752502+05:45"},{"idx":"EndKfy9jodGbwDnrePPUQk","contest":"Model Superstar","episode":"Model Superstar","category":null,"contestant":{"voting_id":"04","name":"Sabita Maharjan"},"vote_count":1,"created_on":"2019-12-30T14:43:10.124083+05:45"},{"idx":"RLfFubzQCXXZjxPH8RpyX8","contest":"Model Superstar","episode":"Model Superstar","category":null,"contestant":{"voting_id":"04","name":"Sabita Maharjan"},"vote_count":1,"created_on":"2019-12-30T14:42:59.328986+05:45"},{"idx":"FaYemDvTnobWQSqAd9vKN2","contest":"Model Superstar","episode":"Model Superstar","category":null,"contestant":{"voting_id":"04","name":"Sabita Maharjan"},"vote_count":1,"created_on":"2019-12-30T14:42:48.924584+05:45"},{"idx":"aajStWBLw7kHJ2oT6hTVL4","contest":"Model Superstar","episode":"Model Superstar","category":null,"contestant":{"voting_id":"04","name":"Sabita Maharjan"},"vote_count":1,"created_on":"2019-12-30T14:42:37.311911+05:45"},{"idx":"5tGA4hSVaDHr36zvpWpmqX","contest":"Model Superstar","episode":"Model Superstar","category":null,"contestant":{"voting_id":"04","name":"Sabita Maharjan"},"vote_count":1,"created_on":"2019-12-30T14:42:15.043061+05:45"},{"idx":"Xxe6HswpFzYbfdauEYZ6Ae","contest":"Model Superstar","episode":"Model Superstar","category":null,"contestant":{"voting_id":"04","name":"Sabita Maharjan"},"vote_count":1,"created_on":"2019-12-30T14:41:55.153089+05:45"},{"idx":"q2wsopVQwonTt2oSJD4vJg","contest":"Model Superstar","episode":"Model Superstar","category":null,"contestant":{"voting_id":"04","name":"Sabita Maharjan"},"vote_count":1,"created_on":"2019-12-30T14:41:40.932612+05:45"},{"idx":"b5LwMbtJsJShtiz4GBmc8T","contest":"Model Superstar","episode":"Model Superstar","category":null,"contestant":{"voting_id":"04","name":"Sabita Maharjan"},"vote_count":1,"created_on":"2019-12-30T14:41:29.405210+05:45"},{"idx":"irkPHVPLD3xU7yiBnXuJgn","contest":"Model Superstar","episode":"Model Superstar","category":null,"contestant":{"voting_id":"04","name":"Sabita Maharjan"},"vote_count":1,"created_on":"2019-12-30T14:41:15.267633+05:45"},{"idx":"DseZNgPMLtueKVdNQ577AB","contest":"Model Superstar","episode":"Model Superstar","category":null,"contestant":{"voting_id":"04","name":"Sabita Maharjan"},"vote_count":1,"created_on":"2019-12-30T14:41:03.586758+05:45"},{"idx":"3xuZuqh84tkaX2eeoU3AnK","contest":"Model Superstar","episode":"Model Superstar","category":null,"contestant":{"voting_id":"04","name":"Sabita Maharjan"},"vote_count":1,"created_on":"2019-12-30T14:40:50.753530+05:45"},{"idx":"nm3fnSh6wL2fDKjaBh7Xqb","contest":"Model Superstar","episode":"Model Superstar","category":null,"contestant":{"voting_id":"24","name":"Elin Raut"},"vote_count":1,"created_on":"2019-12-30T14:17:00.616819+05:45"},{"idx":"2FwYuF5WFJadTG4ugMAX7G","contest":"NEPALBHASA STAR MUSIC VIDEO AWARDS-2019","episode":null,"category":"BEST MODEL, MALE","contestant":{"voting_id":"11G","name":"Dhiren Shakya"},"vote_count":1,"created_on":"2019-12-30T14:16:00.594299+05:45"},{"idx":"vuFirHpzgYkv3P64739wV2","contest":"NEPALBHASA STAR MUSIC VIDEO AWARDS-2019","episode":null,"category":"BEST DIRECTOR","contestant":{"voting_id":"20G","name":"Hriday Prasad Mishra"},"vote_count":1,"created_on":"2019-12-30T14:13:25.133907+05:45"},{"idx":"Ny4UNSgNDo25qov7ZiVmrY","contest":"NEPALBHASA STAR MUSIC VIDEO AWARDS-2019","episode":null,"category":"BEST MAKE UP ARTIST","contestant":{"voting_id":"2I","name":"Matina Maharjan"},"vote_count":1,"created_on":"2019-12-30T14:00:24.961094+05:45"},{"idx":"kTD6GDRWNsJNT5ucKAyWE3","contest":"Model Superstar","episode":"Model Superstar","category":null,"contestant":{"voting_id":"05","name":"Asmita Thapa Magar"},"vote_count":1,"created_on":"2019-12-30T13:35:59.702886+05:45"},{"idx":"dwsr2ciWMrYqGskk8cfNF2","contest":"NEPALBHASA STAR MUSIC VIDEO AWARDS-2019","episode":null,"category":"BEST Singer,FEMALE","contestant":{"voting_id":"17C","name":"Pooja Sunuwar"},"vote_count":1,"created_on":"2019-12-30T13:05:31.209994+05:45"},{"idx":"GkpopWij4vUi6qAGf2aHwk","contest":"NEPALBHASA STAR MUSIC VIDEO AWARDS-2019","episode":null,"category":"BEST RECORDING STUDIO","contestant":{"voting_id":"7C","name":"Artomuse Recording Studio"},"vote_count":1,"created_on":"2019-12-30T13:01:32.556884+05:45"}]}