{"total_pages":275,"total_records":13721,"next":"https://khalti.com/api/v2/vuservote/?page=192","previous":"https://khalti.com/api/v2/vuservote/?page=190","record_range":[9501,9550],"current_page":191,"records":[{"idx":"UpCPxf9HXGotJiTQADkNBa","contest":"Model Superstar","episode":"Model Superstar","category":null,"contestant":{"voting_id":"05","name":"Asmita Thapa Magar"},"vote_count":1,"created_on":"2019-12-30T12:58:01.759090+05:45"},{"idx":"7UcEmwKLctciAYesqrdpne","contest":"Model Superstar","episode":"Model Superstar","category":null,"contestant":{"voting_id":"28","name":"Pujan Tamang"},"vote_count":1,"created_on":"2019-12-30T12:57:54.588682+05:45"},{"idx":"F84U4y76526ckgY3uY2HCZ","contest":"Model Superstar","episode":"Model Superstar","category":null,"contestant":{"voting_id":"14","name":"Ashish Shakya"},"vote_count":1,"created_on":"2019-12-30T12:54:40.868767+05:45"},{"idx":"xW7DNPqLh4dhSmu9r6sA2Y","contest":"Model Superstar","episode":"Model Superstar","category":null,"contestant":{"voting_id":"09","name":"Sagar Ghimire"},"vote_count":1,"created_on":"2019-12-30T12:54:19.080536+05:45"},{"idx":"cXXcgF55fYt6Ntehkn3pYE","contest":"Model Superstar","episode":"Model Superstar","category":null,"contestant":{"voting_id":"14","name":"Ashish Shakya"},"vote_count":1,"created_on":"2019-12-30T12:53:44.647732+05:45"},{"idx":"VrdNL6zcPbZo2d6VJMvyue","contest":"Model Superstar","episode":"Model Superstar","category":null,"contestant":{"voting_id":"14","name":"Ashish Shakya"},"vote_count":1,"created_on":"2019-12-30T12:53:23.868189+05:45"},{"idx":"VE5pgycSvWNABZXWoY56zM","contest":"Model Superstar","episode":"Model Superstar","category":null,"contestant":{"voting_id":"24","name":"Elin Raut"},"vote_count":1,"created_on":"2019-12-30T12:37:50.864598+05:45"},{"idx":"QbtbWEqLE28mU7B8mkQcoW","contest":"Model Superstar","episode":"Model Superstar","category":null,"contestant":{"voting_id":"14","name":"Ashish Shakya"},"vote_count":1,"created_on":"2019-12-30T12:27:14.381750+05:45"},{"idx":"wGDzpUB9xV9QFUpDeKWxBR","contest":"Model Superstar","episode":"Model Superstar","category":null,"contestant":{"voting_id":"14","name":"Ashish Shakya"},"vote_count":1,"created_on":"2019-12-30T12:18:17.716847+05:45"},{"idx":"reukMNyAFJoPMScjrYWqBn","contest":"Model Superstar","episode":"Model Superstar","category":null,"contestant":{"voting_id":"10","name":"Sameep Sharma"},"vote_count":1,"created_on":"2019-12-30T11:13:14.937585+05:45"},{"idx":"8UUiKE85QLP3cu8qEnteYK","contest":"NEPALBHASA STAR MUSIC VIDEO AWARDS-2019","episode":null,"category":"BEST Singer,FEMALE","contestant":{"voting_id":"17G","name":"Saraswati Manandhar"},"vote_count":1,"created_on":"2019-12-30T11:05:22.375386+05:45"},{"idx":"VtrUfkw5GsURPqGyjbmdaU","contest":"Model Superstar","episode":"Model Superstar","category":null,"contestant":{"voting_id":"14","name":"Ashish Shakya"},"vote_count":1,"created_on":"2019-12-30T11:01:14.390821+05:45"},{"idx":"5Hyg2NFkDDvf2rvrs6kmAS","contest":"Model Superstar","episode":"Model Superstar","category":null,"contestant":{"voting_id":"07","name":"Narman Malla"},"vote_count":1,"created_on":"2019-12-30T10:31:00.629285+05:45"},{"idx":"vRrWnPj6ueDabqUPCjL4aJ","contest":"Model Superstar","episode":"Model Superstar","category":null,"contestant":{"voting_id":"12","name":"Rabin Ghising"},"vote_count":1,"created_on":"2019-12-30T10:25:00.403314+05:45"},{"idx":"mhAkpFgEFzBVtt4DfSSh9E","contest":"Model Superstar","episode":"Model Superstar","category":null,"contestant":{"voting_id":"14","name":"Ashish Shakya"},"vote_count":1,"created_on":"2019-12-30T10:03:25.254183+05:45"},{"idx":"tNMXGRHNusv5CRsGXqNA6F","contest":"Model Superstar","episode":"Model Superstar","category":null,"contestant":{"voting_id":"02","name":"Srijana Basnet"},"vote_count":1,"created_on":"2019-12-30T10:03:12.470663+05:45"},{"idx":"UjrfGMLCjwzV5hGvGMPKUk","contest":"Model Superstar","episode":"Model Superstar","category":null,"contestant":{"voting_id":"02","name":"Srijana Basnet"},"vote_count":1,"created_on":"2019-12-30T10:03:04.437754+05:45"},{"idx":"DEodQvfzx4nPsqafzCV2hd","contest":"Model Superstar","episode":"Model Superstar","category":null,"contestant":{"voting_id":"02","name":"Srijana Basnet"},"vote_count":1,"created_on":"2019-12-30T10:02:57.215831+05:45"},{"idx":"RRMey2cgatZpjT8YPAoCiB","contest":"Model Superstar","episode":"Model Superstar","category":null,"contestant":{"voting_id":"02","name":"Srijana Basnet"},"vote_count":1,"created_on":"2019-12-30T10:02:49.903935+05:45"},{"idx":"DoEKJ2rcGyDypGYBi9N6B5","contest":"Model Superstar","episode":"Model Superstar","category":null,"contestant":{"voting_id":"02","name":"Srijana Basnet"},"vote_count":1,"created_on":"2019-12-30T10:02:42.148651+05:45"},{"idx":"uQRDto2N7oA2U7RtMLd5BK","contest":"Model Superstar","episode":"Model Superstar","category":null,"contestant":{"voting_id":"02","name":"Srijana Basnet"},"vote_count":1,"created_on":"2019-12-30T10:02:35.204914+05:45"},{"idx":"gzgBrse5PRXmwxZwCQNzJe","contest":"Model Superstar","episode":"Model Superstar","category":null,"contestant":{"voting_id":"14","name":"Ashish Shakya"},"vote_count":1,"created_on":"2019-12-30T10:02:33.623470+05:45"},{"idx":"4YnYSPw7yJ3TLdixbGbiAQ","contest":"Model Superstar","episode":"Model Superstar","category":null,"contestant":{"voting_id":"14","name":"Ashish Shakya"},"vote_count":1,"created_on":"2019-12-30T10:02:18.055285+05:45"},{"idx":"ffRJQBAinL6FdvS9q3ycw2","contest":"Model Superstar","episode":"Model Superstar","category":null,"contestant":{"voting_id":"14","name":"Ashish Shakya"},"vote_count":1,"created_on":"2019-12-30T10:02:04.314553+05:45"},{"idx":"uA5PcU6mS7adKkQXWzSkDh","contest":"Model Superstar","episode":"Model Superstar","category":null,"contestant":{"voting_id":"14","name":"Ashish Shakya"},"vote_count":1,"created_on":"2019-12-30T10:01:49.305055+05:45"},{"idx":"A6vvGEvfibrCNkUbaSZanb","contest":"Model Superstar","episode":"Model Superstar","category":null,"contestant":{"voting_id":"02","name":"Srijana Basnet"},"vote_count":1,"created_on":"2019-12-30T10:01:47.106449+05:45"},{"idx":"kCRKADfxwGbam845UveURd","contest":"Model Superstar","episode":"Model Superstar","category":null,"contestant":{"voting_id":"14","name":"Ashish Shakya"},"vote_count":1,"created_on":"2019-12-30T10:01:36.838868+05:45"},{"idx":"CwJENRLQthYYJtj562gnTC","contest":"Model Superstar","episode":"Model Superstar","category":null,"contestant":{"voting_id":"14","name":"Ashish Shakya"},"vote_count":1,"created_on":"2019-12-30T10:01:20.601642+05:45"},{"idx":"AuTLaMfLQK3fx7gZpzSHS9","contest":"Model Superstar","episode":"Model Superstar","category":null,"contestant":{"voting_id":"14","name":"Ashish Shakya"},"vote_count":1,"created_on":"2019-12-30T10:00:58.084828+05:45"},{"idx":"GeHijYNJHPYmV4DavHQVgU","contest":"Model Superstar","episode":"Model Superstar","category":null,"contestant":{"voting_id":"14","name":"Ashish Shakya"},"vote_count":1,"created_on":"2019-12-30T10:00:35.568596+05:45"},{"idx":"FdmN9eCz96Z4CX8RHPQRXP","contest":"Model Superstar","episode":"Model Superstar","category":null,"contestant":{"voting_id":"14","name":"Ashish Shakya"},"vote_count":1,"created_on":"2019-12-30T10:00:19.501211+05:45"},{"idx":"vrVL5eJXeM3XmpiabWVknU","contest":"Model Superstar","episode":"Model Superstar","category":null,"contestant":{"voting_id":"14","name":"Ashish Shakya"},"vote_count":1,"created_on":"2019-12-30T10:00:03.070551+05:45"},{"idx":"UMSpfZzqj4dsrHwSTcYGyk","contest":"Model Superstar","episode":"Model Superstar","category":null,"contestant":{"voting_id":"02","name":"Srijana Basnet"},"vote_count":1,"created_on":"2019-12-30T09:59:45.409436+05:45"},{"idx":"uHBv3bcSKSpULiCZXf7Q7h","contest":"Model Superstar","episode":"Model Superstar","category":null,"contestant":{"voting_id":"14","name":"Ashish Shakya"},"vote_count":1,"created_on":"2019-12-30T09:59:44.634496+05:45"},{"idx":"nW4RjQK3MMv8a64j68A6A8","contest":"Model Superstar","episode":"Model Superstar","category":null,"contestant":{"voting_id":"02","name":"Srijana Basnet"},"vote_count":1,"created_on":"2019-12-30T09:59:35.550982+05:45"},{"idx":"FtqsDYiWHLBsNCxyJJEv5f","contest":"Model Superstar","episode":"Model Superstar","category":null,"contestant":{"voting_id":"02","name":"Srijana Basnet"},"vote_count":1,"created_on":"2019-12-30T09:59:28.207224+05:45"},{"idx":"gNzn6iLfXMoKBVZidVkd5i","contest":"Model Superstar","episode":"Model Superstar","category":null,"contestant":{"voting_id":"14","name":"Ashish Shakya"},"vote_count":1,"created_on":"2019-12-30T09:59:21.679122+05:45"},{"idx":"sxn7k6qGcdDfUTtbHVsHMZ","contest":"Model Superstar","episode":"Model Superstar","category":null,"contestant":{"voting_id":"02","name":"Srijana Basnet"},"vote_count":1,"created_on":"2019-12-30T09:59:20.609683+05:45"},{"idx":"NVdGwksQopCajwuBRepCjH","contest":"Model Superstar","episode":"Model Superstar","category":null,"contestant":{"voting_id":"02","name":"Srijana Basnet"},"vote_count":1,"created_on":"2019-12-30T09:59:13.178783+05:45"},{"idx":"L4MYb7GdR5FDLCo5hPSy8Z","contest":"Model Superstar","episode":"Model Superstar","category":null,"contestant":{"voting_id":"02","name":"Srijana Basnet"},"vote_count":1,"created_on":"2019-12-30T09:59:04.572049+05:45"},{"idx":"aNmFDGM2eAo5kfAVqxqj69","contest":"Model Superstar","episode":"Model Superstar","category":null,"contestant":{"voting_id":"02","name":"Srijana Basnet"},"vote_count":1,"created_on":"2019-12-30T09:58:53.748858+05:45"},{"idx":"EX4VoCMoNzARKMdcFEPfS6","contest":"Model Superstar","episode":"Model Superstar","category":null,"contestant":{"voting_id":"02","name":"Srijana Basnet"},"vote_count":1,"created_on":"2019-12-30T09:58:43.181832+05:45"},{"idx":"MbBxaZjMcngExG54WArnWR","contest":"Model Superstar","episode":"Model Superstar","category":null,"contestant":{"voting_id":"02","name":"Srijana Basnet"},"vote_count":1,"created_on":"2019-12-30T09:58:26.973699+05:45"},{"idx":"xk9tS8jVmBFQGZwxZVoKeG","contest":"Model Superstar","episode":"Model Superstar","category":null,"contestant":{"voting_id":"14","name":"Ashish Shakya"},"vote_count":1,"created_on":"2019-12-30T09:58:21.332243+05:45"},{"idx":"Y3zKhBE32R4JAcumSFMpUj","contest":"Model Superstar","episode":"Model Superstar","category":null,"contestant":{"voting_id":"02","name":"Srijana Basnet"},"vote_count":1,"created_on":"2019-12-30T09:58:13.925769+05:45"},{"idx":"5CmeGTMEf29gGrUtyHVnr3","contest":"Model Superstar","episode":"Model Superstar","category":null,"contestant":{"voting_id":"14","name":"Ashish Shakya"},"vote_count":1,"created_on":"2019-12-30T09:58:06.978937+05:45"},{"idx":"gHnGCiguYr8yYGqoVcEcNM","contest":"Model Superstar","episode":"Model Superstar","category":null,"contestant":{"voting_id":"02","name":"Srijana Basnet"},"vote_count":1,"created_on":"2019-12-30T09:57:52.581153+05:45"},{"idx":"ajZx5oVJDRchwn5x5n28zV","contest":"Model Superstar","episode":"Model Superstar","category":null,"contestant":{"voting_id":"02","name":"Srijana Basnet"},"vote_count":1,"created_on":"2019-12-30T09:57:38.755774+05:45"},{"idx":"xeAUXc9dJH4Looqiys5ze3","contest":"Model Superstar","episode":"Model Superstar","category":null,"contestant":{"voting_id":"14","name":"Ashish Shakya"},"vote_count":1,"created_on":"2019-12-30T09:57:32.455574+05:45"},{"idx":"xnXMukqGWLYbX6GHCCyCpi","contest":"Model Superstar","episode":"Model Superstar","category":null,"contestant":{"voting_id":"14","name":"Ashish Shakya"},"vote_count":1,"created_on":"2019-12-30T09:57:16.394783+05:45"}]}