{"total_pages":275,"total_records":13721,"next":"https://khalti.com/api/v2/vuservote/?page=193","previous":"https://khalti.com/api/v2/vuservote/?page=191","record_range":[9551,9600],"current_page":192,"records":[{"idx":"pRfLuaUaJoXJDnxkzp4yFB","contest":"Model Superstar","episode":"Model Superstar","category":null,"contestant":{"voting_id":"14","name":"Ashish Shakya"},"vote_count":1,"created_on":"2019-12-30T09:56:45.537403+05:45"},{"idx":"NcUDni2CHUNa4XBCFso9rk","contest":"Model Superstar","episode":"Model Superstar","category":null,"contestant":{"voting_id":"14","name":"Ashish Shakya"},"vote_count":1,"created_on":"2019-12-30T09:56:13.674659+05:45"},{"idx":"LQVamEaGhykrSByLBfUcA5","contest":"Model Superstar","episode":"Model Superstar","category":null,"contestant":{"voting_id":"14","name":"Ashish Shakya"},"vote_count":1,"created_on":"2019-12-30T09:55:55.042286+05:45"},{"idx":"aCoVr8Sv2HG2YBPCiUAvYj","contest":"Model Superstar","episode":"Model Superstar","category":null,"contestant":{"voting_id":"14","name":"Ashish Shakya"},"vote_count":1,"created_on":"2019-12-30T09:55:28.010472+05:45"},{"idx":"q74U5ZYbGWEdbSkiZhsoqk","contest":"Model Superstar","episode":"Model Superstar","category":null,"contestant":{"voting_id":"14","name":"Ashish Shakya"},"vote_count":1,"created_on":"2019-12-30T09:55:13.067557+05:45"},{"idx":"t56dhYr4NitcQXbfQYTaSA","contest":"Model Superstar","episode":"Model Superstar","category":null,"contestant":{"voting_id":"14","name":"Ashish Shakya"},"vote_count":1,"created_on":"2019-12-30T09:54:58.387671+05:45"},{"idx":"KF29quZ37ZjsXJtLNfxcXi","contest":"Model Superstar","episode":"Model Superstar","category":null,"contestant":{"voting_id":"14","name":"Ashish Shakya"},"vote_count":1,"created_on":"2019-12-30T09:54:40.550261+05:45"},{"idx":"egGQzby7xf2nx4zP53maRm","contest":"Model Superstar","episode":"Model Superstar","category":null,"contestant":{"voting_id":"14","name":"Ashish Shakya"},"vote_count":1,"created_on":"2019-12-30T09:54:25.365565+05:45"},{"idx":"4D7fzHn5aRMwxPcFY6nyL4","contest":"Model Superstar","episode":"Model Superstar","category":null,"contestant":{"voting_id":"14","name":"Ashish Shakya"},"vote_count":1,"created_on":"2019-12-30T09:54:08.631286+05:45"},{"idx":"eqx3bLDdXqfJvGychRYwtf","contest":"Model Superstar","episode":"Model Superstar","category":null,"contestant":{"voting_id":"14","name":"Ashish Shakya"},"vote_count":1,"created_on":"2019-12-30T09:53:50.217425+05:45"},{"idx":"LJ4qrvBKoL5NywJdeU9BUH","contest":"Model Superstar","episode":"Model Superstar","category":null,"contestant":{"voting_id":"14","name":"Ashish Shakya"},"vote_count":1,"created_on":"2019-12-30T09:53:13.645455+05:45"},{"idx":"SwJMnqHV27kTKFcciQuLV3","contest":"Model Superstar","episode":"Model Superstar","category":null,"contestant":{"voting_id":"14","name":"Ashish Shakya"},"vote_count":1,"created_on":"2019-12-30T09:52:56.849780+05:45"},{"idx":"emXGTMJuLLNtDZWdscSwNF","contest":"Model Superstar","episode":"Model Superstar","category":null,"contestant":{"voting_id":"14","name":"Ashish Shakya"},"vote_count":1,"created_on":"2019-12-30T09:52:42.054574+05:45"},{"idx":"WRxCQzPE5jK2hTHhcCce8V","contest":"Model Superstar","episode":"Model Superstar","category":null,"contestant":{"voting_id":"14","name":"Ashish Shakya"},"vote_count":1,"created_on":"2019-12-30T09:52:24.278552+05:45"},{"idx":"aURH66wCWXSyayA6Kojy7i","contest":"Model Superstar","episode":"Model Superstar","category":null,"contestant":{"voting_id":"14","name":"Ashish Shakya"},"vote_count":1,"created_on":"2019-12-30T09:52:07.095940+05:45"},{"idx":"QFQRRiqakWLG2WpGzMAyeP","contest":"Model Superstar","episode":"Model Superstar","category":null,"contestant":{"voting_id":"14","name":"Ashish Shakya"},"vote_count":1,"created_on":"2019-12-30T09:51:53.580251+05:45"},{"idx":"P4hJSFhaE62TbhfFXCVB7N","contest":"Model Superstar","episode":"Model Superstar","category":null,"contestant":{"voting_id":"14","name":"Ashish Shakya"},"vote_count":1,"created_on":"2019-12-30T09:51:20.533637+05:45"},{"idx":"6xBdKoJHnyxCqt3Too2sDM","contest":"Model Superstar","episode":"Model Superstar","category":null,"contestant":{"voting_id":"14","name":"Ashish Shakya"},"vote_count":1,"created_on":"2019-12-30T09:51:03.408572+05:45"},{"idx":"SDF5wDGnZ6oZ9XC283hN2L","contest":"Model Superstar","episode":"Model Superstar","category":null,"contestant":{"voting_id":"14","name":"Ashish Shakya"},"vote_count":1,"created_on":"2019-12-30T09:50:45.521028+05:45"},{"idx":"kDQVZoKp4Xy6m574JsWNt8","contest":"Model Superstar","episode":"Model Superstar","category":null,"contestant":{"voting_id":"14","name":"Ashish Shakya"},"vote_count":1,"created_on":"2019-12-30T09:50:30.746713+05:45"},{"idx":"U3X43WVSepBZWq95YcQJzm","contest":"Model Superstar","episode":"Model Superstar","category":null,"contestant":{"voting_id":"14","name":"Ashish Shakya"},"vote_count":1,"created_on":"2019-12-30T09:50:17.172192+05:45"},{"idx":"vhNwCfMRFxX3WLJWuBejcA","contest":"Model Superstar","episode":"Model Superstar","category":null,"contestant":{"voting_id":"14","name":"Ashish Shakya"},"vote_count":1,"created_on":"2019-12-30T09:50:00.619533+05:45"},{"idx":"q4MQyU6u3bqB4SJq7eQtZG","contest":"Model Superstar","episode":"Model Superstar","category":null,"contestant":{"voting_id":"28","name":"Pujan Tamang"},"vote_count":1,"created_on":"2019-12-30T09:37:52.737445+05:45"},{"idx":"csFPM3fDor6AQMEiPmfXHL","contest":"Model Superstar","episode":"Model Superstar","category":null,"contestant":{"voting_id":"04","name":"Sabita Maharjan"},"vote_count":1,"created_on":"2019-12-30T09:27:58.020851+05:45"},{"idx":"xcPVPPJrhb3D39zrK4odX3","contest":"Model Superstar","episode":"Model Superstar","category":null,"contestant":{"voting_id":"02","name":"Srijana Basnet"},"vote_count":1,"created_on":"2019-12-30T09:26:25.196643+05:45"},{"idx":"z8WwjGeWuUS3s6Xhi2gJBo","contest":"Model Superstar","episode":"Model Superstar","category":null,"contestant":{"voting_id":"12","name":"Rabin Ghising"},"vote_count":1,"created_on":"2019-12-30T09:25:45.377695+05:45"},{"idx":"YhgyJcVLL4FpQTaafkY7M3","contest":"Model Superstar","episode":"Model Superstar","category":null,"contestant":{"voting_id":"04","name":"Sabita Maharjan"},"vote_count":1,"created_on":"2019-12-30T08:53:26.387175+05:45"},{"idx":"ZdAdTBKfse2sVFk9uo9RDc","contest":"Model Superstar","episode":"Model Superstar","category":null,"contestant":{"voting_id":"04","name":"Sabita Maharjan"},"vote_count":1,"created_on":"2019-12-30T08:52:27.945904+05:45"},{"idx":"dNsCaQcaqCc6nNiCs2LSwC","contest":"Model Superstar","episode":"Model Superstar","category":null,"contestant":{"voting_id":"04","name":"Sabita Maharjan"},"vote_count":1,"created_on":"2019-12-30T08:51:47.355058+05:45"},{"idx":"WtbJTbjmiZYnQtL7pH6536","contest":"Model Superstar","episode":"Model Superstar","category":null,"contestant":{"voting_id":"04","name":"Sabita Maharjan"},"vote_count":1,"created_on":"2019-12-30T08:51:24.388346+05:45"},{"idx":"hPnNG37Lt9aaEvmqqP5YRk","contest":"Model Superstar","episode":"Model Superstar","category":null,"contestant":{"voting_id":"05","name":"Asmita Thapa Magar"},"vote_count":1,"created_on":"2019-12-30T07:21:21.223561+05:45"},{"idx":"hWYeTnx7P76pBWLchr7wGL","contest":"Model Superstar","episode":"Model Superstar","category":null,"contestant":{"voting_id":"12","name":"Rabin Ghising"},"vote_count":1,"created_on":"2019-12-30T06:54:44.765406+05:45"},{"idx":"RmfXBStR5rexQL5c3c6B4j","contest":"Model Superstar","episode":"Model Superstar","category":null,"contestant":{"voting_id":"14","name":"Ashish Shakya"},"vote_count":1,"created_on":"2019-12-30T05:22:09.538274+05:45"},{"idx":"qnKxugtBqyArhuPecXGYKD","contest":"Model Superstar","episode":"Model Superstar","category":null,"contestant":{"voting_id":"14","name":"Ashish Shakya"},"vote_count":1,"created_on":"2019-12-30T05:21:52.766648+05:45"},{"idx":"wjXZbW7zDxwCtPMnwZxUnY","contest":"Model Superstar","episode":"Model Superstar","category":null,"contestant":{"voting_id":"14","name":"Ashish Shakya"},"vote_count":1,"created_on":"2019-12-30T05:21:37.554386+05:45"},{"idx":"UnEWCX3rRRnXCsW9Ydr8t3","contest":"Model Superstar","episode":"Model Superstar","category":null,"contestant":{"voting_id":"14","name":"Ashish Shakya"},"vote_count":1,"created_on":"2019-12-30T05:21:21.045702+05:45"},{"idx":"FCKwSqsyMqBgdPuuJSCpin","contest":"Model Superstar","episode":"Model Superstar","category":null,"contestant":{"voting_id":"14","name":"Ashish Shakya"},"vote_count":1,"created_on":"2019-12-30T05:21:03.055891+05:45"},{"idx":"UqmGUJ9DwsamqmvBDZk52i","contest":"Model Superstar","episode":"Model Superstar","category":null,"contestant":{"voting_id":"14","name":"Ashish Shakya"},"vote_count":1,"created_on":"2019-12-30T05:20:46.970988+05:45"},{"idx":"m8a7Nf4pJCzdiVmDpAtMkD","contest":"Model Superstar","episode":"Model Superstar","category":null,"contestant":{"voting_id":"14","name":"Ashish Shakya"},"vote_count":1,"created_on":"2019-12-30T05:20:29.249347+05:45"},{"idx":"VXQEGiAvdbP8yLiA82QPhc","contest":"Model Superstar","episode":"Model Superstar","category":null,"contestant":{"voting_id":"14","name":"Ashish Shakya"},"vote_count":1,"created_on":"2019-12-30T05:20:12.136100+05:45"},{"idx":"3ryEDdfX4j3JrBkEPNV8Xe","contest":"Model Superstar","episode":"Model Superstar","category":null,"contestant":{"voting_id":"14","name":"Ashish Shakya"},"vote_count":1,"created_on":"2019-12-30T05:19:48.529404+05:45"},{"idx":"BkRVJRcyaQqiXf3VcQyvse","contest":"Model Superstar","episode":"Model Superstar","category":null,"contestant":{"voting_id":"14","name":"Ashish Shakya"},"vote_count":1,"created_on":"2019-12-30T05:19:27.424956+05:45"},{"idx":"PBcsohWC6KGBSphJMRr99j","contest":"Model Superstar","episode":"Model Superstar","category":null,"contestant":{"voting_id":"14","name":"Ashish Shakya"},"vote_count":1,"created_on":"2019-12-30T05:18:53.812263+05:45"},{"idx":"DXdmXQMJNRjtmVKhGUs8VV","contest":"Model Superstar","episode":"Model Superstar","category":null,"contestant":{"voting_id":"04","name":"Sabita Maharjan"},"vote_count":1,"created_on":"2019-12-30T03:57:52.401996+05:45"},{"idx":"KMX78CzhqYrsfp8ii6oB2D","contest":"Model Superstar","episode":"Model Superstar","category":null,"contestant":{"voting_id":"04","name":"Sabita Maharjan"},"vote_count":1,"created_on":"2019-12-30T03:57:38.457360+05:45"},{"idx":"ykocrEeeU8irTJ99hWJnyQ","contest":"Model Superstar","episode":"Model Superstar","category":null,"contestant":{"voting_id":"04","name":"Sabita Maharjan"},"vote_count":1,"created_on":"2019-12-30T03:57:25.581519+05:45"},{"idx":"Lqx8n8AvCSDLNCorBiy7WF","contest":"Model Superstar","episode":"Model Superstar","category":null,"contestant":{"voting_id":"04","name":"Sabita Maharjan"},"vote_count":1,"created_on":"2019-12-30T03:57:09.364440+05:45"},{"idx":"QNNkMFn9Ch72UCrCQKPmoe","contest":"Model Superstar","episode":"Model Superstar","category":null,"contestant":{"voting_id":"04","name":"Sabita Maharjan"},"vote_count":1,"created_on":"2019-12-30T03:56:55.466484+05:45"},{"idx":"ZcndQJC5hbTo57Pyd5MAYo","contest":"Model Superstar","episode":"Model Superstar","category":null,"contestant":{"voting_id":"04","name":"Sabita Maharjan"},"vote_count":1,"created_on":"2019-12-30T03:56:42.622008+05:45"},{"idx":"i2AR8PrSgPEMwRiZjMDUiQ","contest":"Model Superstar","episode":"Model Superstar","category":null,"contestant":{"voting_id":"04","name":"Sabita Maharjan"},"vote_count":1,"created_on":"2019-12-30T03:56:26.125275+05:45"}]}