{"total_pages":275,"total_records":13721,"next":"https://khalti.com/api/v2/vuservote/?page=194","previous":"https://khalti.com/api/v2/vuservote/?page=192","record_range":[9601,9650],"current_page":193,"records":[{"idx":"uMFPtYbok2zfGSxYcGcXAR","contest":"Model Superstar","episode":"Model Superstar","category":null,"contestant":{"voting_id":"04","name":"Sabita Maharjan"},"vote_count":1,"created_on":"2019-12-30T03:56:11.597093+05:45"},{"idx":"R5Dx63ZVRZZjN4uWNpbwhA","contest":"Model Superstar","episode":"Model Superstar","category":null,"contestant":{"voting_id":"04","name":"Sabita Maharjan"},"vote_count":1,"created_on":"2019-12-30T03:55:57.160345+05:45"},{"idx":"F7TgvQYn7ZSAC8e6j8THGX","contest":"Model Superstar","episode":"Model Superstar","category":null,"contestant":{"voting_id":"04","name":"Sabita Maharjan"},"vote_count":1,"created_on":"2019-12-30T03:55:40.552272+05:45"},{"idx":"Fz2ANgUiKmuUeELhjVmKsC","contest":"Model Superstar","episode":"Model Superstar","category":null,"contestant":{"voting_id":"04","name":"Sabita Maharjan"},"vote_count":1,"created_on":"2019-12-30T03:55:25.979341+05:45"},{"idx":"gt5oZygudd6fATDcrPB2ud","contest":"Model Superstar","episode":"Model Superstar","category":null,"contestant":{"voting_id":"04","name":"Sabita Maharjan"},"vote_count":1,"created_on":"2019-12-30T03:55:12.545721+05:45"},{"idx":"zw3Qm9ERCr9S2jUo2aLAri","contest":"Model Superstar","episode":"Model Superstar","category":null,"contestant":{"voting_id":"04","name":"Sabita Maharjan"},"vote_count":1,"created_on":"2019-12-30T03:54:56.537691+05:45"},{"idx":"8b4fXaK8CnzSfhWSM4jfdQ","contest":"Model Superstar","episode":"Model Superstar","category":null,"contestant":{"voting_id":"04","name":"Sabita Maharjan"},"vote_count":1,"created_on":"2019-12-30T03:54:39.918603+05:45"},{"idx":"UEjc5itsB2gWWPgxK4fZXU","contest":"Model Superstar","episode":"Model Superstar","category":null,"contestant":{"voting_id":"04","name":"Sabita Maharjan"},"vote_count":1,"created_on":"2019-12-30T03:54:26.632205+05:45"},{"idx":"s9TpPTpHnUxE8rHyRp2426","contest":"Model Superstar","episode":"Model Superstar","category":null,"contestant":{"voting_id":"04","name":"Sabita Maharjan"},"vote_count":1,"created_on":"2019-12-30T03:54:13.302306+05:45"},{"idx":"JzgY4KHxmHn7upYLDULYU5","contest":"Model Superstar","episode":"Model Superstar","category":null,"contestant":{"voting_id":"04","name":"Sabita Maharjan"},"vote_count":1,"created_on":"2019-12-30T03:53:49.729355+05:45"},{"idx":"5sZZRyRo9T7BNDQLTw4BS8","contest":"Model Superstar","episode":"Model Superstar","category":null,"contestant":{"voting_id":"04","name":"Sabita Maharjan"},"vote_count":1,"created_on":"2019-12-30T03:53:36.136193+05:45"},{"idx":"mbQRnLGH8CTNSarfP7TaqH","contest":"Model Superstar","episode":"Model Superstar","category":null,"contestant":{"voting_id":"04","name":"Sabita Maharjan"},"vote_count":1,"created_on":"2019-12-30T03:53:24.141019+05:45"},{"idx":"SqoRMnSRvnmxoHF9Vw5Hna","contest":"Model Superstar","episode":"Model Superstar","category":null,"contestant":{"voting_id":"04","name":"Sabita Maharjan"},"vote_count":1,"created_on":"2019-12-30T03:53:08.125396+05:45"},{"idx":"MxB6ZLsH52dpNeb8ZEQJFY","contest":"Model Superstar","episode":"Model Superstar","category":null,"contestant":{"voting_id":"04","name":"Sabita Maharjan"},"vote_count":1,"created_on":"2019-12-30T03:52:54.866465+05:45"},{"idx":"LygEANZBJAQuDwB83HpRXW","contest":"Model Superstar","episode":"Model Superstar","category":null,"contestant":{"voting_id":"04","name":"Sabita Maharjan"},"vote_count":1,"created_on":"2019-12-30T03:52:41.209521+05:45"},{"idx":"n42u42CDyrwqWtaWr5LyRK","contest":"Model Superstar","episode":"Model Superstar","category":null,"contestant":{"voting_id":"04","name":"Sabita Maharjan"},"vote_count":1,"created_on":"2019-12-30T03:52:26.112340+05:45"},{"idx":"DNhtdvyej5wDkY43n753LG","contest":"Model Superstar","episode":"Model Superstar","category":null,"contestant":{"voting_id":"04","name":"Sabita Maharjan"},"vote_count":1,"created_on":"2019-12-30T03:48:04.243481+05:45"},{"idx":"c4wi9RsGuoQ84jN5KkNt2H","contest":"Model Superstar","episode":"Model Superstar","category":null,"contestant":{"voting_id":"04","name":"Sabita Maharjan"},"vote_count":1,"created_on":"2019-12-30T03:47:50.504184+05:45"},{"idx":"McRKgjmCiWPjUwDgLFUXUA","contest":"Model Superstar","episode":"Model Superstar","category":null,"contestant":{"voting_id":"04","name":"Sabita Maharjan"},"vote_count":1,"created_on":"2019-12-30T03:47:37.112592+05:45"},{"idx":"x7upTSJrUqoaj8MC9wP4H6","contest":"Model Superstar","episode":"Model Superstar","category":null,"contestant":{"voting_id":"04","name":"Sabita Maharjan"},"vote_count":1,"created_on":"2019-12-30T03:47:23.369347+05:45"},{"idx":"RNSaFncrm7W3FDcQSdWiRZ","contest":"Model Superstar","episode":"Model Superstar","category":null,"contestant":{"voting_id":"04","name":"Sabita Maharjan"},"vote_count":1,"created_on":"2019-12-30T03:47:10.568318+05:45"},{"idx":"om3CgpKdnxBpNBTvPuo9pC","contest":"NEPALBHASA STAR MUSIC VIDEO AWARDS-2019","episode":null,"category":"BEST MUSIC ARRANGER","contestant":{"voting_id":"5H","name":" Jivit Jalmi"},"vote_count":1,"created_on":"2019-12-29T23:47:40.906036+05:45"},{"idx":"anLawjuP7y7VGuaULteLoG","contest":"NEPALBHASA STAR MUSIC VIDEO AWARDS-2019","episode":null,"category":"BEST RECORDING STUDIO","contestant":{"voting_id":"7F","name":"Platinum Recording Studio"},"vote_count":1,"created_on":"2019-12-29T23:46:47.826381+05:45"},{"idx":"Zc8TuwM6wiUPfpDUVguMuQ","contest":"NEPALBHASA STAR MUSIC VIDEO AWARDS-2019","episode":null,"category":"BEST DEBUT SINGER, FEMALE","contestant":{"voting_id":"18B","name":"Mohan Devi Maharjan"},"vote_count":1,"created_on":"2019-12-29T23:40:15.798116+05:45"},{"idx":"YySfBP6qxCoQyhZs2WoaWk","contest":"Model Superstar","episode":"Model Superstar","category":null,"contestant":{"voting_id":"14","name":"Ashish Shakya"},"vote_count":1,"created_on":"2019-12-29T23:39:17.692481+05:45"},{"idx":"o3JzLLAHXnVMUCGZC92JgL","contest":"Model Superstar","episode":"Model Superstar","category":null,"contestant":{"voting_id":"14","name":"Ashish Shakya"},"vote_count":1,"created_on":"2019-12-29T23:38:59.387079+05:45"},{"idx":"ZNtg6nN3wy6aEtwDpjFruE","contest":"Model Superstar","episode":"Model Superstar","category":null,"contestant":{"voting_id":"14","name":"Ashish Shakya"},"vote_count":1,"created_on":"2019-12-29T23:38:43.467960+05:45"},{"idx":"99kZXH4qLcTPX7WHjGs594","contest":"NEPALBHASA STAR MUSIC VIDEO AWARDS-2019","episode":null,"category":"BEST DIRECTOR","contestant":{"voting_id":"20E","name":"Lujaw Singh"},"vote_count":1,"created_on":"2019-12-29T23:38:29.949169+05:45"},{"idx":"ptFDK8y8CDAA7daPKJpMKi","contest":"Model Superstar","episode":"Model Superstar","category":null,"contestant":{"voting_id":"14","name":"Ashish Shakya"},"vote_count":1,"created_on":"2019-12-29T23:38:26.226148+05:45"},{"idx":"dy2QgpAmjCEKEcUJ3EfgT8","contest":"Model Superstar","episode":"Model Superstar","category":null,"contestant":{"voting_id":"14","name":"Ashish Shakya"},"vote_count":1,"created_on":"2019-12-29T23:38:08.027019+05:45"},{"idx":"uY4yAUcswujeEcLaWfFnUT","contest":"Model Superstar","episode":"Model Superstar","category":null,"contestant":{"voting_id":"14","name":"Ashish Shakya"},"vote_count":1,"created_on":"2019-12-29T23:37:49.608170+05:45"},{"idx":"txw2S43Ax3mx5ishptAzPM","contest":"Model Superstar","episode":"Model Superstar","category":null,"contestant":{"voting_id":"14","name":"Ashish Shakya"},"vote_count":1,"created_on":"2019-12-29T23:37:32.816840+05:45"},{"idx":"9DoAyuFs9Y7tNQTsnxxcQf","contest":"Model Superstar","episode":"Model Superstar","category":null,"contestant":{"voting_id":"14","name":"Ashish Shakya"},"vote_count":1,"created_on":"2019-12-29T23:37:15.307366+05:45"},{"idx":"E7QvMnMmvs5i2nweRAQ4e2","contest":"Model Superstar","episode":"Model Superstar","category":null,"contestant":{"voting_id":"14","name":"Ashish Shakya"},"vote_count":1,"created_on":"2019-12-29T23:36:57.454328+05:45"},{"idx":"6GNsPCV5kKvEd7ESH3CkcR","contest":"Model Superstar","episode":"Model Superstar","category":null,"contestant":{"voting_id":"14","name":"Ashish Shakya"},"vote_count":1,"created_on":"2019-12-29T23:36:35.778273+05:45"},{"idx":"oeUN9wzPhWiLp9aERSNVRF","contest":"Model Superstar","episode":"Model Superstar","category":null,"contestant":{"voting_id":"14","name":"Ashish Shakya"},"vote_count":1,"created_on":"2019-12-29T23:36:22.608697+05:45"},{"idx":"rMdyJ3pvpWWgqhrLs29STN","contest":"Model Superstar","episode":"Model Superstar","category":null,"contestant":{"voting_id":"14","name":"Ashish Shakya"},"vote_count":1,"created_on":"2019-12-29T23:36:07.405643+05:45"},{"idx":"CN59u9g7YK4qA6u8f54eaG","contest":"Model Superstar","episode":"Model Superstar","category":null,"contestant":{"voting_id":"14","name":"Ashish Shakya"},"vote_count":1,"created_on":"2019-12-29T23:35:51.583044+05:45"},{"idx":"J6nSuLNA7UjJywecxJeVRh","contest":"Model Superstar","episode":"Model Superstar","category":null,"contestant":{"voting_id":"14","name":"Ashish Shakya"},"vote_count":1,"created_on":"2019-12-29T23:35:36.625104+05:45"},{"idx":"wK3tyn9mmJDJeG5mMwXuYj","contest":"Model Superstar","episode":"Model Superstar","category":null,"contestant":{"voting_id":"14","name":"Ashish Shakya"},"vote_count":1,"created_on":"2019-12-29T23:35:20.014978+05:45"},{"idx":"5CGp4AVDJ5xsM8TMvk9T5S","contest":"Model Superstar","episode":"Model Superstar","category":null,"contestant":{"voting_id":"14","name":"Ashish Shakya"},"vote_count":1,"created_on":"2019-12-29T23:35:01.262812+05:45"},{"idx":"aRyQuumZ7FyZYz57tvYgcc","contest":"Model Superstar","episode":"Model Superstar","category":null,"contestant":{"voting_id":"14","name":"Ashish Shakya"},"vote_count":1,"created_on":"2019-12-29T23:33:21.920067+05:45"},{"idx":"FMoWF72YcF66Evpug95UNN","contest":"Model Superstar","episode":"Model Superstar","category":null,"contestant":{"voting_id":"14","name":"Ashish Shakya"},"vote_count":1,"created_on":"2019-12-29T23:33:02.784038+05:45"},{"idx":"tJoTWwT8ijxmNj4SsJNWon","contest":"Model Superstar","episode":"Model Superstar","category":null,"contestant":{"voting_id":"14","name":"Ashish Shakya"},"vote_count":1,"created_on":"2019-12-29T23:32:45.278735+05:45"},{"idx":"5nZmMxdrdDsDGqdkjS6N4g","contest":"Model Superstar","episode":"Model Superstar","category":null,"contestant":{"voting_id":"14","name":"Ashish Shakya"},"vote_count":1,"created_on":"2019-12-29T23:32:22.783039+05:45"},{"idx":"AjQdnCboFxkephUBgSVR8n","contest":"Model Superstar","episode":"Model Superstar","category":null,"contestant":{"voting_id":"14","name":"Ashish Shakya"},"vote_count":1,"created_on":"2019-12-29T23:32:02.786150+05:45"},{"idx":"Z9KUx6Yvpc6GUUMMEoHg97","contest":"Model Superstar","episode":"Model Superstar","category":null,"contestant":{"voting_id":"14","name":"Ashish Shakya"},"vote_count":1,"created_on":"2019-12-29T23:31:44.373986+05:45"},{"idx":"FeNJae36SBy4LBKobXXpNJ","contest":"Model Superstar","episode":"Model Superstar","category":null,"contestant":{"voting_id":"14","name":"Ashish Shakya"},"vote_count":1,"created_on":"2019-12-29T23:31:22.517547+05:45"},{"idx":"ZQrr3gUfBzu3mepPwdk6DL","contest":"Model Superstar","episode":"Model Superstar","category":null,"contestant":{"voting_id":"14","name":"Ashish Shakya"},"vote_count":1,"created_on":"2019-12-29T23:31:05.723599+05:45"},{"idx":"4JcJe4nzPwmGBa8CMgyzDX","contest":"Model Superstar","episode":"Model Superstar","category":null,"contestant":{"voting_id":"14","name":"Ashish Shakya"},"vote_count":1,"created_on":"2019-12-29T23:30:45.119735+05:45"}]}