{"total_pages":275,"total_records":13721,"next":"https://khalti.com/api/v2/vuservote/?page=195","previous":"https://khalti.com/api/v2/vuservote/?page=193","record_range":[9651,9700],"current_page":194,"records":[{"idx":"HkrwQDWghvzBmAP3UcpzP5","contest":"Model Superstar","episode":"Model Superstar","category":null,"contestant":{"voting_id":"14","name":"Ashish Shakya"},"vote_count":1,"created_on":"2019-12-29T23:30:27.697389+05:45"},{"idx":"grQeNzyZbkBfzNfD2QmTe4","contest":"Model Superstar","episode":"Model Superstar","category":null,"contestant":{"voting_id":"14","name":"Ashish Shakya"},"vote_count":1,"created_on":"2019-12-29T23:30:16.251421+05:45"},{"idx":"hAZQ4NABdLncJ7K8VvT7DY","contest":"Model Superstar","episode":"Model Superstar","category":null,"contestant":{"voting_id":"14","name":"Ashish Shakya"},"vote_count":1,"created_on":"2019-12-29T23:30:06.430050+05:45"},{"idx":"zz2NNkCN9oUi5qZjke3akn","contest":"Model Superstar","episode":"Model Superstar","category":null,"contestant":{"voting_id":"14","name":"Ashish Shakya"},"vote_count":1,"created_on":"2019-12-29T23:29:55.619930+05:45"},{"idx":"ARUBhRoMXJaBYcwCPHVQQT","contest":"Model Superstar","episode":"Model Superstar","category":null,"contestant":{"voting_id":"14","name":"Ashish Shakya"},"vote_count":1,"created_on":"2019-12-29T23:29:45.469140+05:45"},{"idx":"JyaP59io8yX3H43L3GZEyG","contest":"Model Superstar","episode":"Model Superstar","category":null,"contestant":{"voting_id":"14","name":"Ashish Shakya"},"vote_count":1,"created_on":"2019-12-29T23:29:35.767352+05:45"},{"idx":"AeotLyHDaqbEazQ5Wj3F3E","contest":"Model Superstar","episode":"Model Superstar","category":null,"contestant":{"voting_id":"14","name":"Ashish Shakya"},"vote_count":1,"created_on":"2019-12-29T23:29:23.553693+05:45"},{"idx":"uNXJwihc37wtERnAsZJSAn","contest":"Model Superstar","episode":"Model Superstar","category":null,"contestant":{"voting_id":"14","name":"Ashish Shakya"},"vote_count":1,"created_on":"2019-12-29T23:29:07.650773+05:45"},{"idx":"hD2mXhhigdDRGMcFbhqowa","contest":"Model Superstar","episode":"Model Superstar","category":null,"contestant":{"voting_id":"14","name":"Ashish Shakya"},"vote_count":1,"created_on":"2019-12-29T23:28:51.255044+05:45"},{"idx":"bXQSdjK6V5fLYBytSNeK8Z","contest":"Model Superstar","episode":"Model Superstar","category":null,"contestant":{"voting_id":"14","name":"Ashish Shakya"},"vote_count":1,"created_on":"2019-12-29T23:28:40.712387+05:45"},{"idx":"nSVWYTJKG3nWwysCyWirHR","contest":"Model Superstar","episode":"Model Superstar","category":null,"contestant":{"voting_id":"14","name":"Ashish Shakya"},"vote_count":1,"created_on":"2019-12-29T23:28:31.097147+05:45"},{"idx":"ZJJ7UTr43y7RjwGCFNDbGU","contest":"Model Superstar","episode":"Model Superstar","category":null,"contestant":{"voting_id":"14","name":"Ashish Shakya"},"vote_count":1,"created_on":"2019-12-29T23:28:21.746764+05:45"},{"idx":"QvV64yVssT5uiCFpmGZVLZ","contest":"Model Superstar","episode":"Model Superstar","category":null,"contestant":{"voting_id":"14","name":"Ashish Shakya"},"vote_count":1,"created_on":"2019-12-29T23:28:11.815804+05:45"},{"idx":"7hNEQkTqkSuenhwcTaCvGB","contest":"Model Superstar","episode":"Model Superstar","category":null,"contestant":{"voting_id":"14","name":"Ashish Shakya"},"vote_count":1,"created_on":"2019-12-29T23:28:00.545650+05:45"},{"idx":"RGPn6oxmpJVrGrM7BxQrBL","contest":"Model Superstar","episode":"Model Superstar","category":null,"contestant":{"voting_id":"14","name":"Ashish Shakya"},"vote_count":1,"created_on":"2019-12-29T23:27:49.927448+05:45"},{"idx":"ycM7qMsWe3uCgw2eSAi7fY","contest":"Model Superstar","episode":"Model Superstar","category":null,"contestant":{"voting_id":"14","name":"Ashish Shakya"},"vote_count":1,"created_on":"2019-12-29T23:27:38.757751+05:45"},{"idx":"kUxYmQxXduRVg2AbKrdHu2","contest":"Model Superstar","episode":"Model Superstar","category":null,"contestant":{"voting_id":"14","name":"Ashish Shakya"},"vote_count":1,"created_on":"2019-12-29T23:27:29.364088+05:45"},{"idx":"LeCEm2BgAfRuEGwXLVaMin","contest":"Model Superstar","episode":"Model Superstar","category":null,"contestant":{"voting_id":"14","name":"Ashish Shakya"},"vote_count":1,"created_on":"2019-12-29T23:27:20.309405+05:45"},{"idx":"9gFqCVPiZAsr7EJ5SrgsGP","contest":"Model Superstar","episode":"Model Superstar","category":null,"contestant":{"voting_id":"14","name":"Ashish Shakya"},"vote_count":1,"created_on":"2019-12-29T23:27:10.708609+05:45"},{"idx":"d9AcvnJkCPxGWLZw3nwzBn","contest":"Model Superstar","episode":"Model Superstar","category":null,"contestant":{"voting_id":"14","name":"Ashish Shakya"},"vote_count":1,"created_on":"2019-12-29T23:27:00.926810+05:45"},{"idx":"TTJ9MGf8TPD2G6saqK4kPJ","contest":"Model Superstar","episode":"Model Superstar","category":null,"contestant":{"voting_id":"14","name":"Ashish Shakya"},"vote_count":1,"created_on":"2019-12-29T23:26:49.686352+05:45"},{"idx":"sBrAkw5RKM69tjpeM97GVV","contest":"Model Superstar","episode":"Model Superstar","category":null,"contestant":{"voting_id":"14","name":"Ashish Shakya"},"vote_count":1,"created_on":"2019-12-29T23:26:35.677467+05:45"},{"idx":"2x8ku94RxDcYUkZ3miKH3m","contest":"Model Superstar","episode":"Model Superstar","category":null,"contestant":{"voting_id":"14","name":"Ashish Shakya"},"vote_count":1,"created_on":"2019-12-29T23:26:24.259321+05:45"},{"idx":"mfu4xPKyt4hKPuwRnF8moN","contest":"Model Superstar","episode":"Model Superstar","category":null,"contestant":{"voting_id":"14","name":"Ashish Shakya"},"vote_count":1,"created_on":"2019-12-29T23:26:14.923860+05:45"},{"idx":"4G9ySTvHuoQuwepCgsrUrM","contest":"Model Superstar","episode":"Model Superstar","category":null,"contestant":{"voting_id":"14","name":"Ashish Shakya"},"vote_count":1,"created_on":"2019-12-29T23:26:05.797573+05:45"},{"idx":"3TfgDUmLbmKMk2McsRgA3D","contest":"Model Superstar","episode":"Model Superstar","category":null,"contestant":{"voting_id":"14","name":"Ashish Shakya"},"vote_count":1,"created_on":"2019-12-29T23:25:54.921945+05:45"},{"idx":"hXwX9x2AemjVZCkvRGhZYM","contest":"Model Superstar","episode":"Model Superstar","category":null,"contestant":{"voting_id":"14","name":"Ashish Shakya"},"vote_count":1,"created_on":"2019-12-29T23:25:43.247991+05:45"},{"idx":"roK67EuoDXiWJbPef5wcsC","contest":"Model Superstar","episode":"Model Superstar","category":null,"contestant":{"voting_id":"14","name":"Ashish Shakya"},"vote_count":1,"created_on":"2019-12-29T23:25:28.389283+05:45"},{"idx":"PP3pyqYAEqQX58cfvNXS9e","contest":"Model Superstar","episode":"Model Superstar","category":null,"contestant":{"voting_id":"14","name":"Ashish Shakya"},"vote_count":1,"created_on":"2019-12-29T23:25:18.363751+05:45"},{"idx":"UBJoWsD6mUFpYUzTcYsusK","contest":"Model Superstar","episode":"Model Superstar","category":null,"contestant":{"voting_id":"14","name":"Ashish Shakya"},"vote_count":1,"created_on":"2019-12-29T23:25:09.730351+05:45"},{"idx":"KruLinWwkJACEgK9BiWHRR","contest":"Model Superstar","episode":"Model Superstar","category":null,"contestant":{"voting_id":"14","name":"Ashish Shakya"},"vote_count":1,"created_on":"2019-12-29T23:24:59.677152+05:45"},{"idx":"dzZBKp6T8AcU8EmKUmZyqM","contest":"Model Superstar","episode":"Model Superstar","category":null,"contestant":{"voting_id":"14","name":"Ashish Shakya"},"vote_count":1,"created_on":"2019-12-29T23:24:44.734843+05:45"},{"idx":"abHdm6V8EbxnPPdD6abnYn","contest":"Model Superstar","episode":"Model Superstar","category":null,"contestant":{"voting_id":"14","name":"Ashish Shakya"},"vote_count":1,"created_on":"2019-12-29T23:24:33.864816+05:45"},{"idx":"giKDWzyuhXT5MKWmdhMoNS","contest":"Model Superstar","episode":"Model Superstar","category":null,"contestant":{"voting_id":"14","name":"Ashish Shakya"},"vote_count":1,"created_on":"2019-12-29T23:24:24.712961+05:45"},{"idx":"RygaPVevgAJUgkM4ZnPU7G","contest":"Model Superstar","episode":"Model Superstar","category":null,"contestant":{"voting_id":"14","name":"Ashish Shakya"},"vote_count":1,"created_on":"2019-12-29T23:24:14.183195+05:45"},{"idx":"xWmuRhs87YpEFBaZAQArMN","contest":"Model Superstar","episode":"Model Superstar","category":null,"contestant":{"voting_id":"14","name":"Ashish Shakya"},"vote_count":1,"created_on":"2019-12-29T23:24:01.870640+05:45"},{"idx":"uNKqhDgrWswsHSAqbSMNfh","contest":"Model Superstar","episode":"Model Superstar","category":null,"contestant":{"voting_id":"14","name":"Ashish Shakya"},"vote_count":1,"created_on":"2019-12-29T23:23:51.424664+05:45"},{"idx":"xrHPevPZZjXrZoCRHSR5Eg","contest":"Model Superstar","episode":"Model Superstar","category":null,"contestant":{"voting_id":"14","name":"Ashish Shakya"},"vote_count":1,"created_on":"2019-12-29T23:23:41.346044+05:45"},{"idx":"T8ar4Lr598esovfVySWAGg","contest":"Model Superstar","episode":"Model Superstar","category":null,"contestant":{"voting_id":"14","name":"Ashish Shakya"},"vote_count":1,"created_on":"2019-12-29T23:23:29.944409+05:45"},{"idx":"zyuSz8hiphkd7LQgsjubUQ","contest":"Model Superstar","episode":"Model Superstar","category":null,"contestant":{"voting_id":"14","name":"Ashish Shakya"},"vote_count":1,"created_on":"2019-12-29T23:23:19.404050+05:45"},{"idx":"MJFaoxcLgJdpdgBLzeHDND","contest":"Model Superstar","episode":"Model Superstar","category":null,"contestant":{"voting_id":"14","name":"Ashish Shakya"},"vote_count":1,"created_on":"2019-12-29T23:23:07.776171+05:45"},{"idx":"TH9J8Xs6nnXeUCPUutJYpT","contest":"Model Superstar","episode":"Model Superstar","category":null,"contestant":{"voting_id":"14","name":"Ashish Shakya"},"vote_count":1,"created_on":"2019-12-29T23:23:02.773190+05:45"},{"idx":"koxVnZWG9cakvYrnS5ZL95","contest":"Model Superstar","episode":"Model Superstar","category":null,"contestant":{"voting_id":"14","name":"Ashish Shakya"},"vote_count":1,"created_on":"2019-12-29T23:22:56.460201+05:45"},{"idx":"XSV8M4a5AJx7Sd9g6A5Xy4","contest":"Model Superstar","episode":"Model Superstar","category":null,"contestant":{"voting_id":"14","name":"Ashish Shakya"},"vote_count":1,"created_on":"2019-12-29T23:22:44.634110+05:45"},{"idx":"fze3uPgAKSdy7hjYtdC4mB","contest":"Model Superstar","episode":"Model Superstar","category":null,"contestant":{"voting_id":"14","name":"Ashish Shakya"},"vote_count":1,"created_on":"2019-12-29T23:22:38.168805+05:45"},{"idx":"sfVWJA24toHr4jxaUFZSKk","contest":"Model Superstar","episode":"Model Superstar","category":null,"contestant":{"voting_id":"14","name":"Ashish Shakya"},"vote_count":1,"created_on":"2019-12-29T23:22:32.480585+05:45"},{"idx":"zTSgAa4JCrdFRopn62Y9F5","contest":"Model Superstar","episode":"Model Superstar","category":null,"contestant":{"voting_id":"14","name":"Ashish Shakya"},"vote_count":1,"created_on":"2019-12-29T23:22:20.084115+05:45"},{"idx":"n6v6wdeK5rs7V3nXEGZC4e","contest":"Model Superstar","episode":"Model Superstar","category":null,"contestant":{"voting_id":"14","name":"Ashish Shakya"},"vote_count":1,"created_on":"2019-12-29T23:22:07.715531+05:45"},{"idx":"44tA9f4g4hModtczWjNZNB","contest":"Model Superstar","episode":"Model Superstar","category":null,"contestant":{"voting_id":"14","name":"Ashish Shakya"},"vote_count":1,"created_on":"2019-12-29T23:21:57.560842+05:45"},{"idx":"xsSjrTWUfrdWe2t59SSAFc","contest":"Model Superstar","episode":"Model Superstar","category":null,"contestant":{"voting_id":"14","name":"Ashish Shakya"},"vote_count":1,"created_on":"2019-12-29T23:21:43.804975+05:45"}]}