{"total_pages":275,"total_records":13721,"next":"https://khalti.com/api/v2/vuservote/?page=196","previous":"https://khalti.com/api/v2/vuservote/?page=194","record_range":[9701,9750],"current_page":195,"records":[{"idx":"AKdNb8GhgpSn5H4K6FzBxg","contest":"Model Superstar","episode":"Model Superstar","category":null,"contestant":{"voting_id":"14","name":"Ashish Shakya"},"vote_count":1,"created_on":"2019-12-29T23:21:33.256599+05:45"},{"idx":"Wp8apW2KeaNtZpZSxJR9hb","contest":"Model Superstar","episode":"Model Superstar","category":null,"contestant":{"voting_id":"14","name":"Ashish Shakya"},"vote_count":1,"created_on":"2019-12-29T23:21:27.003657+05:45"},{"idx":"PZWFCQgrdWveVZ9xg2X3Xc","contest":"Model Superstar","episode":"Model Superstar","category":null,"contestant":{"voting_id":"14","name":"Ashish Shakya"},"vote_count":1,"created_on":"2019-12-29T23:21:21.330619+05:45"},{"idx":"zC2dYmrWW6muCFJUExFog9","contest":"Model Superstar","episode":"Model Superstar","category":null,"contestant":{"voting_id":"14","name":"Ashish Shakya"},"vote_count":1,"created_on":"2019-12-29T23:21:08.982194+05:45"},{"idx":"aaHP39wK44bLvfzkQKve4i","contest":"Model Superstar","episode":"Model Superstar","category":null,"contestant":{"voting_id":"14","name":"Ashish Shakya"},"vote_count":1,"created_on":"2019-12-29T23:21:05.305463+05:45"},{"idx":"QYZzY76UvWPk3br3sWn2P9","contest":"Model Superstar","episode":"Model Superstar","category":null,"contestant":{"voting_id":"14","name":"Ashish Shakya"},"vote_count":1,"created_on":"2019-12-29T23:20:54.054952+05:45"},{"idx":"zemBNWPN8f3iDZB32N5KwJ","contest":"Model Superstar","episode":"Model Superstar","category":null,"contestant":{"voting_id":"14","name":"Ashish Shakya"},"vote_count":1,"created_on":"2019-12-29T23:20:41.349762+05:45"},{"idx":"YbQfJxHAdmeXFYMugcwoPU","contest":"Model Superstar","episode":"Model Superstar","category":null,"contestant":{"voting_id":"14","name":"Ashish Shakya"},"vote_count":1,"created_on":"2019-12-29T23:20:20.927352+05:45"},{"idx":"4EJUaaerbgk8SGffGkyYsB","contest":"Model Superstar","episode":"Model Superstar","category":null,"contestant":{"voting_id":"14","name":"Ashish Shakya"},"vote_count":1,"created_on":"2019-12-29T23:20:01.596444+05:45"},{"idx":"vqPbUnN6UqKgtS9n3TMFe9","contest":"Model Superstar","episode":"Model Superstar","category":null,"contestant":{"voting_id":"14","name":"Ashish Shakya"},"vote_count":1,"created_on":"2019-12-29T23:19:42.302759+05:45"},{"idx":"LHMDeH8UXFWsfRLHUBGRC4","contest":"Model Superstar","episode":"Model Superstar","category":null,"contestant":{"voting_id":"14","name":"Ashish Shakya"},"vote_count":1,"created_on":"2019-12-29T23:19:24.218110+05:45"},{"idx":"x7xCFhaAj7mT6RYUhvcp4P","contest":"Model Superstar","episode":"Model Superstar","category":null,"contestant":{"voting_id":"14","name":"Ashish Shakya"},"vote_count":1,"created_on":"2019-12-29T23:19:06.158989+05:45"},{"idx":"xLFvEWejZLzkvnfhxdmRe9","contest":"Model Superstar","episode":"Model Superstar","category":null,"contestant":{"voting_id":"14","name":"Ashish Shakya"},"vote_count":1,"created_on":"2019-12-29T23:18:41.383872+05:45"},{"idx":"Bpkkt53CvHcUwVt82C9neL","contest":"Model Superstar","episode":"Model Superstar","category":null,"contestant":{"voting_id":"14","name":"Ashish Shakya"},"vote_count":1,"created_on":"2019-12-29T23:18:25.354474+05:45"},{"idx":"4eg6Npmm7Wz6bLVLSb9rFF","contest":"Model Superstar","episode":"Model Superstar","category":null,"contestant":{"voting_id":"14","name":"Ashish Shakya"},"vote_count":1,"created_on":"2019-12-29T23:18:13.614555+05:45"},{"idx":"phF4DGi2AowoVYWwsoLLsS","contest":"Model Superstar","episode":"Model Superstar","category":null,"contestant":{"voting_id":"14","name":"Ashish Shakya"},"vote_count":1,"created_on":"2019-12-29T23:18:08.406444+05:45"},{"idx":"zxJjwckVkW8VdTzchfmpc9","contest":"Model Superstar","episode":"Model Superstar","category":null,"contestant":{"voting_id":"14","name":"Ashish Shakya"},"vote_count":1,"created_on":"2019-12-29T23:17:49.935618+05:45"},{"idx":"wzjZ8w8nTg2AxSwuBLwhyU","contest":"Model Superstar","episode":"Model Superstar","category":null,"contestant":{"voting_id":"14","name":"Ashish Shakya"},"vote_count":1,"created_on":"2019-12-29T23:17:38.656227+05:45"},{"idx":"6WuZpYEZaxWupWjmnF43bb","contest":"Model Superstar","episode":"Model Superstar","category":null,"contestant":{"voting_id":"14","name":"Ashish Shakya"},"vote_count":1,"created_on":"2019-12-29T23:17:28.993369+05:45"},{"idx":"hKcqVVJDqWCnzFNy66BeGA","contest":"Model Superstar","episode":"Model Superstar","category":null,"contestant":{"voting_id":"14","name":"Ashish Shakya"},"vote_count":1,"created_on":"2019-12-29T23:17:17.539099+05:45"},{"idx":"z4TXsmysJmpevhMs349vHE","contest":"Model Superstar","episode":"Model Superstar","category":null,"contestant":{"voting_id":"14","name":"Ashish Shakya"},"vote_count":1,"created_on":"2019-12-29T23:17:06.335163+05:45"},{"idx":"kVui46uuYGLniSFc2Dzi28","contest":"Model Superstar","episode":"Model Superstar","category":null,"contestant":{"voting_id":"14","name":"Ashish Shakya"},"vote_count":1,"created_on":"2019-12-29T23:17:02.348457+05:45"},{"idx":"zZ5J8jfxRSf9iq9S5iYsFm","contest":"Model Superstar","episode":"Model Superstar","category":null,"contestant":{"voting_id":"14","name":"Ashish Shakya"},"vote_count":1,"created_on":"2019-12-29T23:16:55.188735+05:45"},{"idx":"joHpwUSGFUQbLRc4GfQhND","contest":"Model Superstar","episode":"Model Superstar","category":null,"contestant":{"voting_id":"14","name":"Ashish Shakya"},"vote_count":1,"created_on":"2019-12-29T23:16:43.802412+05:45"},{"idx":"F6vcBBMxXGeadvMrp6aTrC","contest":"Model Superstar","episode":"Model Superstar","category":null,"contestant":{"voting_id":"14","name":"Ashish Shakya"},"vote_count":1,"created_on":"2019-12-29T23:16:43.484052+05:45"},{"idx":"KcTb4xYfAuLjtWneXQDHMK","contest":"Model Superstar","episode":"Model Superstar","category":null,"contestant":{"voting_id":"14","name":"Ashish Shakya"},"vote_count":1,"created_on":"2019-12-29T23:16:29.528626+05:45"},{"idx":"vBr5fPUKZtBdeY7JZYT7Tm","contest":"Model Superstar","episode":"Model Superstar","category":null,"contestant":{"voting_id":"14","name":"Ashish Shakya"},"vote_count":1,"created_on":"2019-12-29T23:16:26.725327+05:45"},{"idx":"mj2h3d78T7Y2Xshjw8FbJ9","contest":"Model Superstar","episode":"Model Superstar","category":null,"contestant":{"voting_id":"14","name":"Ashish Shakya"},"vote_count":1,"created_on":"2019-12-29T23:16:18.682619+05:45"},{"idx":"9Y8hudH5UQHLDy7hnvQbkT","contest":"Model Superstar","episode":"Model Superstar","category":null,"contestant":{"voting_id":"14","name":"Ashish Shakya"},"vote_count":1,"created_on":"2019-12-29T23:16:10.051318+05:45"},{"idx":"sBLishWkm9K49Hy7EhBi3k","contest":"Model Superstar","episode":"Model Superstar","category":null,"contestant":{"voting_id":"14","name":"Ashish Shakya"},"vote_count":1,"created_on":"2019-12-29T23:16:08.286665+05:45"},{"idx":"AJVhMMjrNRGSJPEUhZMgud","contest":"Model Superstar","episode":"Model Superstar","category":null,"contestant":{"voting_id":"14","name":"Ashish Shakya"},"vote_count":1,"created_on":"2019-12-29T23:15:55.990422+05:45"},{"idx":"2esaLkojDVA2irgmiVYcgS","contest":"Model Superstar","episode":"Model Superstar","category":null,"contestant":{"voting_id":"14","name":"Ashish Shakya"},"vote_count":1,"created_on":"2019-12-29T23:15:51.626984+05:45"},{"idx":"VvqFsiecNdHtgNUY435G7T","contest":"Model Superstar","episode":"Model Superstar","category":null,"contestant":{"voting_id":"14","name":"Ashish Shakya"},"vote_count":1,"created_on":"2019-12-29T23:15:39.682804+05:45"},{"idx":"ffvbLvLdtYAoS6j6yL4AqH","contest":"Model Superstar","episode":"Model Superstar","category":null,"contestant":{"voting_id":"14","name":"Ashish Shakya"},"vote_count":1,"created_on":"2019-12-29T23:15:29.718807+05:45"},{"idx":"ppWmxeNmFB4mkyajjXAs8R","contest":"Model Superstar","episode":"Model Superstar","category":null,"contestant":{"voting_id":"14","name":"Ashish Shakya"},"vote_count":1,"created_on":"2019-12-29T23:15:26.606739+05:45"},{"idx":"9d64BLVQntSDoRzgWdmzcc","contest":"Model Superstar","episode":"Model Superstar","category":null,"contestant":{"voting_id":"14","name":"Ashish Shakya"},"vote_count":1,"created_on":"2019-12-29T23:15:15.720552+05:45"},{"idx":"h5zXWr45tcGiw3u2cMVw4j","contest":"Model Superstar","episode":"Model Superstar","category":null,"contestant":{"voting_id":"14","name":"Ashish Shakya"},"vote_count":1,"created_on":"2019-12-29T23:15:05.167638+05:45"},{"idx":"33JiJ3nUFJaghekPgBRy9F","contest":"Model Superstar","episode":"Model Superstar","category":null,"contestant":{"voting_id":"14","name":"Ashish Shakya"},"vote_count":1,"created_on":"2019-12-29T23:15:03.014833+05:45"},{"idx":"9AGwTycJhW48pPuYr2zYnT","contest":"Model Superstar","episode":"Model Superstar","category":null,"contestant":{"voting_id":"14","name":"Ashish Shakya"},"vote_count":1,"created_on":"2019-12-29T23:14:54.442217+05:45"},{"idx":"CUcYggfn92fvDYPX8cST3K","contest":"Model Superstar","episode":"Model Superstar","category":null,"contestant":{"voting_id":"14","name":"Ashish Shakya"},"vote_count":1,"created_on":"2019-12-29T23:14:38.901170+05:45"},{"idx":"TRU4foAYxucEoJ9PWQnJxC","contest":"Model Superstar","episode":"Model Superstar","category":null,"contestant":{"voting_id":"14","name":"Ashish Shakya"},"vote_count":1,"created_on":"2019-12-29T23:14:35.816083+05:45"},{"idx":"GzT3aXTwEtiUgf3UihLouF","contest":"Model Superstar","episode":"Model Superstar","category":null,"contestant":{"voting_id":"14","name":"Ashish Shakya"},"vote_count":1,"created_on":"2019-12-29T23:14:25.868764+05:45"},{"idx":"xf3um5UHuWcjshSdzKdR7Q","contest":"Model Superstar","episode":"Model Superstar","category":null,"contestant":{"voting_id":"14","name":"Ashish Shakya"},"vote_count":1,"created_on":"2019-12-29T23:14:13.863886+05:45"},{"idx":"3QgHFj3kmLWVTVu4tQLAaA","contest":"Model Superstar","episode":"Model Superstar","category":null,"contestant":{"voting_id":"14","name":"Ashish Shakya"},"vote_count":1,"created_on":"2019-12-29T23:14:11.408671+05:45"},{"idx":"5QmwDcfiYNnboWmE6QGKwJ","contest":"Model Superstar","episode":"Model Superstar","category":null,"contestant":{"voting_id":"14","name":"Ashish Shakya"},"vote_count":1,"created_on":"2019-12-29T23:14:01.846662+05:45"},{"idx":"vncyftas9TwwBZHswX2axd","contest":"Model Superstar","episode":"Model Superstar","category":null,"contestant":{"voting_id":"14","name":"Ashish Shakya"},"vote_count":1,"created_on":"2019-12-29T23:13:53.530583+05:45"},{"idx":"ZjzdLcXerKQ4JURWwy2Uf8","contest":"Model Superstar","episode":"Model Superstar","category":null,"contestant":{"voting_id":"14","name":"Ashish Shakya"},"vote_count":1,"created_on":"2019-12-29T23:13:50.914251+05:45"},{"idx":"jFtqsKmSWLBbunQisCB4NV","contest":"Model Superstar","episode":"Model Superstar","category":null,"contestant":{"voting_id":"14","name":"Ashish Shakya"},"vote_count":1,"created_on":"2019-12-29T23:13:39.613198+05:45"},{"idx":"CQQxDrHU8c7EvtpQP5698J","contest":"Model Superstar","episode":"Model Superstar","category":null,"contestant":{"voting_id":"14","name":"Ashish Shakya"},"vote_count":1,"created_on":"2019-12-29T23:13:34.415552+05:45"},{"idx":"naMXS9XkbHBStGiY44DRzk","contest":"Model Superstar","episode":"Model Superstar","category":null,"contestant":{"voting_id":"14","name":"Ashish Shakya"},"vote_count":1,"created_on":"2019-12-29T23:13:27.981943+05:45"}]}