{"total_pages":275,"total_records":13721,"next":"https://khalti.com/api/v2/vuservote/?page=197","previous":"https://khalti.com/api/v2/vuservote/?page=195","record_range":[9751,9800],"current_page":196,"records":[{"idx":"ZEX3EVp5V6sehmKSSUfkb6","contest":"Model Superstar","episode":"Model Superstar","category":null,"contestant":{"voting_id":"14","name":"Ashish Shakya"},"vote_count":1,"created_on":"2019-12-29T23:13:17.267025+05:45"},{"idx":"MVLzHzFcF5XPN7YfkKHR6B","contest":"Model Superstar","episode":"Model Superstar","category":null,"contestant":{"voting_id":"14","name":"Ashish Shakya"},"vote_count":1,"created_on":"2019-12-29T23:13:10.092965+05:45"},{"idx":"UsGbbuRDKUE4QtARW8fKTe","contest":"Model Superstar","episode":"Model Superstar","category":null,"contestant":{"voting_id":"14","name":"Ashish Shakya"},"vote_count":1,"created_on":"2019-12-29T23:13:04.564899+05:45"},{"idx":"Ga4fRNgHgGgebYchNworQL","contest":"Model Superstar","episode":"Model Superstar","category":null,"contestant":{"voting_id":"14","name":"Ashish Shakya"},"vote_count":1,"created_on":"2019-12-29T23:12:53.472704+05:45"},{"idx":"EBfEgVn2xHc4xVmgy8oTdb","contest":"Model Superstar","episode":"Model Superstar","category":null,"contestant":{"voting_id":"14","name":"Ashish Shakya"},"vote_count":1,"created_on":"2019-12-29T23:12:45.957414+05:45"},{"idx":"xW2GrhL9Z6ovAUDYZHcXyF","contest":"Model Superstar","episode":"Model Superstar","category":null,"contestant":{"voting_id":"14","name":"Ashish Shakya"},"vote_count":1,"created_on":"2019-12-29T23:12:41.219367+05:45"},{"idx":"Mqq5k6x3HmF95YsGy27SsF","contest":"Model Superstar","episode":"Model Superstar","category":null,"contestant":{"voting_id":"14","name":"Ashish Shakya"},"vote_count":1,"created_on":"2019-12-29T23:12:31.396215+05:45"},{"idx":"MbxBzuyiAqTQeiwWyUUN7K","contest":"Model Superstar","episode":"Model Superstar","category":null,"contestant":{"voting_id":"14","name":"Ashish Shakya"},"vote_count":1,"created_on":"2019-12-29T23:12:26.976522+05:45"},{"idx":"BrPnvkXPuZsg2jRQQWs8EV","contest":"Model Superstar","episode":"Model Superstar","category":null,"contestant":{"voting_id":"14","name":"Ashish Shakya"},"vote_count":1,"created_on":"2019-12-29T23:12:21.581784+05:45"},{"idx":"Z7s795U9sYvbx9MWPKC59X","contest":"Model Superstar","episode":"Model Superstar","category":null,"contestant":{"voting_id":"14","name":"Ashish Shakya"},"vote_count":1,"created_on":"2019-12-29T23:12:09.245162+05:45"},{"idx":"rNYZayFVqnzTvqL3fbfbYD","contest":"Model Superstar","episode":"Model Superstar","category":null,"contestant":{"voting_id":"14","name":"Ashish Shakya"},"vote_count":1,"created_on":"2019-12-29T23:12:07.234303+05:45"},{"idx":"kPtfqJM39WxPFg4B86xwrB","contest":"Model Superstar","episode":"Model Superstar","category":null,"contestant":{"voting_id":"14","name":"Ashish Shakya"},"vote_count":1,"created_on":"2019-12-29T23:11:58.322298+05:45"},{"idx":"6UYcrM7roTYn8bMGu38PgY","contest":"Model Superstar","episode":"Model Superstar","category":null,"contestant":{"voting_id":"14","name":"Ashish Shakya"},"vote_count":1,"created_on":"2019-12-29T23:11:43.602296+05:45"},{"idx":"3Sn4cEjEiDSSWD5FTRDWYc","contest":"Model Superstar","episode":"Model Superstar","category":null,"contestant":{"voting_id":"14","name":"Ashish Shakya"},"vote_count":1,"created_on":"2019-12-29T23:11:42.360107+05:45"},{"idx":"5yAqFtdN4VA7X4nA8Ss8CB","contest":"Model Superstar","episode":"Model Superstar","category":null,"contestant":{"voting_id":"14","name":"Ashish Shakya"},"vote_count":1,"created_on":"2019-12-29T23:11:30.314523+05:45"},{"idx":"n6TRNALhEVNhJcymkoN37n","contest":"Model Superstar","episode":"Model Superstar","category":null,"contestant":{"voting_id":"14","name":"Ashish Shakya"},"vote_count":1,"created_on":"2019-12-29T23:11:26.168000+05:45"},{"idx":"A2h9ppeCZNm6EWUMoPW7k7","contest":"Model Superstar","episode":"Model Superstar","category":null,"contestant":{"voting_id":"14","name":"Ashish Shakya"},"vote_count":1,"created_on":"2019-12-29T23:11:19.346572+05:45"},{"idx":"GQNUy2MwQCJkEkxBQduQBW","contest":"Model Superstar","episode":"Model Superstar","category":null,"contestant":{"voting_id":"14","name":"Ashish Shakya"},"vote_count":1,"created_on":"2019-12-29T23:11:06.805226+05:45"},{"idx":"FBZxeqakC3WRtZbrroKDfC","contest":"Model Superstar","episode":"Model Superstar","category":null,"contestant":{"voting_id":"14","name":"Ashish Shakya"},"vote_count":1,"created_on":"2019-12-29T23:11:06.255461+05:45"},{"idx":"khfSghgmWEpjRqgPjDRHoT","contest":"Model Superstar","episode":"Model Superstar","category":null,"contestant":{"voting_id":"14","name":"Ashish Shakya"},"vote_count":1,"created_on":"2019-12-29T23:10:55.761133+05:45"},{"idx":"4THMHgpih7bM8XXx8ejts3","contest":"Model Superstar","episode":"Model Superstar","category":null,"contestant":{"voting_id":"14","name":"Ashish Shakya"},"vote_count":1,"created_on":"2019-12-29T23:10:41.031840+05:45"},{"idx":"nddSxTWkFMSAV9d4WnpVSm","contest":"Model Superstar","episode":"Model Superstar","category":null,"contestant":{"voting_id":"14","name":"Ashish Shakya"},"vote_count":1,"created_on":"2019-12-29T23:10:39.330661+05:45"},{"idx":"Mw4dzQGrframSRwqDFdBjb","contest":"Model Superstar","episode":"Model Superstar","category":null,"contestant":{"voting_id":"14","name":"Ashish Shakya"},"vote_count":1,"created_on":"2019-12-29T23:10:29.606932+05:45"},{"idx":"TP5UxE8mJpzs2mnWYLsBV5","contest":"Model Superstar","episode":"Model Superstar","category":null,"contestant":{"voting_id":"14","name":"Ashish Shakya"},"vote_count":1,"created_on":"2019-12-29T23:10:16.472758+05:45"},{"idx":"HuRQmkzyyGQUVMVWeQCzie","contest":"Model Superstar","episode":"Model Superstar","category":null,"contestant":{"voting_id":"14","name":"Ashish Shakya"},"vote_count":1,"created_on":"2019-12-29T23:10:05.094059+05:45"},{"idx":"8bR7GLSxWDF3mabDSHpq9Y","contest":"Model Superstar","episode":"Model Superstar","category":null,"contestant":{"voting_id":"14","name":"Ashish Shakya"},"vote_count":1,"created_on":"2019-12-29T23:09:59.681590+05:45"},{"idx":"Fq8YktXpy4RiyPXyrTnUae","contest":"Model Superstar","episode":"Model Superstar","category":null,"contestant":{"voting_id":"14","name":"Ashish Shakya"},"vote_count":1,"created_on":"2019-12-29T23:09:53.927399+05:45"},{"idx":"4prrKtZJihrHKfgBRsbiVJ","contest":"Model Superstar","episode":"Model Superstar","category":null,"contestant":{"voting_id":"14","name":"Ashish Shakya"},"vote_count":1,"created_on":"2019-12-29T23:09:41.957161+05:45"},{"idx":"5QggYVnX3vxZ8zJxB6KtD9","contest":"Model Superstar","episode":"Model Superstar","category":null,"contestant":{"voting_id":"14","name":"Ashish Shakya"},"vote_count":1,"created_on":"2019-12-29T23:09:30.740426+05:45"},{"idx":"HYchHnj9hKnpzhCdPeizKL","contest":"Model Superstar","episode":"Model Superstar","category":null,"contestant":{"voting_id":"14","name":"Ashish Shakya"},"vote_count":1,"created_on":"2019-12-29T23:09:28.689230+05:45"},{"idx":"M2Khk8azy5wcmxqWDcV9R4","contest":"Model Superstar","episode":"Model Superstar","category":null,"contestant":{"voting_id":"14","name":"Ashish Shakya"},"vote_count":1,"created_on":"2019-12-29T23:09:16.581008+05:45"},{"idx":"QAwBtj7xMvV7KFwbs6jGGf","contest":"Model Superstar","episode":"Model Superstar","category":null,"contestant":{"voting_id":"14","name":"Ashish Shakya"},"vote_count":1,"created_on":"2019-12-29T23:09:08.048120+05:45"},{"idx":"V4DjWY6nrM4mT2KPXo4Dph","contest":"Model Superstar","episode":"Model Superstar","category":null,"contestant":{"voting_id":"14","name":"Ashish Shakya"},"vote_count":1,"created_on":"2019-12-29T23:09:05.889040+05:45"},{"idx":"wccK2qfL7MDAmw4DWqFEbJ","contest":"Model Superstar","episode":"Model Superstar","category":null,"contestant":{"voting_id":"14","name":"Ashish Shakya"},"vote_count":1,"created_on":"2019-12-29T23:08:54.559260+05:45"},{"idx":"58pBhaWKACsR4Y84RuXngH","contest":"Model Superstar","episode":"Model Superstar","category":null,"contestant":{"voting_id":"14","name":"Ashish Shakya"},"vote_count":1,"created_on":"2019-12-29T23:08:45.909643+05:45"},{"idx":"ppiA77HQK7XvH2ig4trLYU","contest":"Model Superstar","episode":"Model Superstar","category":null,"contestant":{"voting_id":"14","name":"Ashish Shakya"},"vote_count":1,"created_on":"2019-12-29T23:08:44.426274+05:45"},{"idx":"QXMHpmSa55V8jk2JhtFFsV","contest":"Model Superstar","episode":"Model Superstar","category":null,"contestant":{"voting_id":"14","name":"Ashish Shakya"},"vote_count":1,"created_on":"2019-12-29T23:08:33.679265+05:45"},{"idx":"pvVHXXQpHPBbRfSUj7pPbT","contest":"Model Superstar","episode":"Model Superstar","category":null,"contestant":{"voting_id":"14","name":"Ashish Shakya"},"vote_count":1,"created_on":"2019-12-29T23:08:22.412007+05:45"},{"idx":"Cn6KFTebNBV6eiMskVgHE9","contest":"Model Superstar","episode":"Model Superstar","category":null,"contestant":{"voting_id":"14","name":"Ashish Shakya"},"vote_count":1,"created_on":"2019-12-29T23:08:21.848533+05:45"},{"idx":"fNkvQZ7upBA3GqGmxJzB8N","contest":"Model Superstar","episode":"Model Superstar","category":null,"contestant":{"voting_id":"14","name":"Ashish Shakya"},"vote_count":1,"created_on":"2019-12-29T23:08:10.882617+05:45"},{"idx":"ncFmAf2NNzpG8rumftMh8o","contest":"Model Superstar","episode":"Model Superstar","category":null,"contestant":{"voting_id":"14","name":"Ashish Shakya"},"vote_count":1,"created_on":"2019-12-29T23:08:00.272168+05:45"},{"idx":"2qbJJJsrvWr58nNwbzGfiF","contest":"Model Superstar","episode":"Model Superstar","category":null,"contestant":{"voting_id":"14","name":"Ashish Shakya"},"vote_count":1,"created_on":"2019-12-29T23:07:54.698478+05:45"},{"idx":"LSLvfjVFwPm535gBh5vB27","contest":"Model Superstar","episode":"Model Superstar","category":null,"contestant":{"voting_id":"14","name":"Ashish Shakya"},"vote_count":1,"created_on":"2019-12-29T23:07:49.403341+05:45"},{"idx":"TDeYvMABPYFJwt6cXztTC8","contest":"Model Superstar","episode":"Model Superstar","category":null,"contestant":{"voting_id":"14","name":"Ashish Shakya"},"vote_count":1,"created_on":"2019-12-29T23:07:37.799683+05:45"},{"idx":"2d7EDvs6rScW2nhNegC9UC","contest":"Model Superstar","episode":"Model Superstar","category":null,"contestant":{"voting_id":"14","name":"Ashish Shakya"},"vote_count":1,"created_on":"2019-12-29T23:07:30.619991+05:45"},{"idx":"DDHNSGTpnivmbtv8FBt5nW","contest":"Model Superstar","episode":"Model Superstar","category":null,"contestant":{"voting_id":"14","name":"Ashish Shakya"},"vote_count":1,"created_on":"2019-12-29T23:07:26.724824+05:45"},{"idx":"ARqNPWB6k9H5SZ36uuccS3","contest":"Model Superstar","episode":"Model Superstar","category":null,"contestant":{"voting_id":"14","name":"Ashish Shakya"},"vote_count":1,"created_on":"2019-12-29T23:07:14.445022+05:45"},{"idx":"CTvx6WLiKzsrD4BXs2RZD7","contest":"Model Superstar","episode":"Model Superstar","category":null,"contestant":{"voting_id":"14","name":"Ashish Shakya"},"vote_count":1,"created_on":"2019-12-29T23:07:11.039395+05:45"},{"idx":"XpGSbZXnhyg8vxNoxud4Mm","contest":"Model Superstar","episode":"Model Superstar","category":null,"contestant":{"voting_id":"14","name":"Ashish Shakya"},"vote_count":1,"created_on":"2019-12-29T23:06:59.652800+05:45"},{"idx":"dnhyAquDxAsUauqrnYmwNh","contest":"Model Superstar","episode":"Model Superstar","category":null,"contestant":{"voting_id":"14","name":"Ashish Shakya"},"vote_count":1,"created_on":"2019-12-29T23:06:51.150959+05:45"}]}