{"total_pages":275,"total_records":13721,"next":"https://khalti.com/api/v2/vuservote/?page=198","previous":"https://khalti.com/api/v2/vuservote/?page=196","record_range":[9801,9850],"current_page":197,"records":[{"idx":"kXbYx2KRfKWQbn8vzbrxtg","contest":"Model Superstar","episode":"Model Superstar","category":null,"contestant":{"voting_id":"14","name":"Ashish Shakya"},"vote_count":1,"created_on":"2019-12-29T23:06:49.457120+05:45"},{"idx":"mxTqyfuVFZagukbpESeJXe","contest":"Model Superstar","episode":"Model Superstar","category":null,"contestant":{"voting_id":"14","name":"Ashish Shakya"},"vote_count":1,"created_on":"2019-12-29T23:06:36.855665+05:45"},{"idx":"tbmXRK3fcLvZChYZKDVMj4","contest":"Model Superstar","episode":"Model Superstar","category":null,"contestant":{"voting_id":"14","name":"Ashish Shakya"},"vote_count":1,"created_on":"2019-12-29T23:06:27.399028+05:45"},{"idx":"rK9zH9ssFdrChVi92YWBjE","contest":"Model Superstar","episode":"Model Superstar","category":null,"contestant":{"voting_id":"14","name":"Ashish Shakya"},"vote_count":1,"created_on":"2019-12-29T23:06:22.530177+05:45"},{"idx":"dRKSVfgsK75YZkBvRPSAdC","contest":"Model Superstar","episode":"Model Superstar","category":null,"contestant":{"voting_id":"14","name":"Ashish Shakya"},"vote_count":1,"created_on":"2019-12-29T23:06:08.199804+05:45"},{"idx":"ieSAFU4YstmjX2YaCCKACQ","contest":"Model Superstar","episode":"Model Superstar","category":null,"contestant":{"voting_id":"14","name":"Ashish Shakya"},"vote_count":1,"created_on":"2019-12-29T23:06:04.868432+05:45"},{"idx":"yLa9Fg5TGRc4X828NzLuBE","contest":"Model Superstar","episode":"Model Superstar","category":null,"contestant":{"voting_id":"14","name":"Ashish Shakya"},"vote_count":1,"created_on":"2019-12-29T23:05:57.124131+05:45"},{"idx":"rW35woTXH77U68yRLdxUzN","contest":"Model Superstar","episode":"Model Superstar","category":null,"contestant":{"voting_id":"14","name":"Ashish Shakya"},"vote_count":1,"created_on":"2019-12-29T23:05:46.478733+05:45"},{"idx":"CkpmPNxKtWLLnUdKQK9R5Z","contest":"Model Superstar","episode":"Model Superstar","category":null,"contestant":{"voting_id":"14","name":"Ashish Shakya"},"vote_count":1,"created_on":"2019-12-29T23:05:46.345468+05:45"},{"idx":"TVxBgum3LdhiZxzoc4T7Be","contest":"Model Superstar","episode":"Model Superstar","category":null,"contestant":{"voting_id":"14","name":"Ashish Shakya"},"vote_count":1,"created_on":"2019-12-29T23:05:34.912695+05:45"},{"idx":"g58MAPDc3zgRqy7aE7wPK5","contest":"Model Superstar","episode":"Model Superstar","category":null,"contestant":{"voting_id":"14","name":"Ashish Shakya"},"vote_count":1,"created_on":"2019-12-29T23:05:23.100898+05:45"},{"idx":"ih5NTPWmXWAhxAWRifNaB6","contest":"Model Superstar","episode":"Model Superstar","category":null,"contestant":{"voting_id":"14","name":"Ashish Shakya"},"vote_count":1,"created_on":"2019-12-29T23:05:11.843888+05:45"},{"idx":"mUWEJWdoRznq9gz3bdM9LC","contest":"Model Superstar","episode":"Model Superstar","category":null,"contestant":{"voting_id":"14","name":"Ashish Shakya"},"vote_count":1,"created_on":"2019-12-29T23:05:09.211116+05:45"},{"idx":"6Yyz2kSJDZAQFdp96bqEXM","contest":"Model Superstar","episode":"Model Superstar","category":null,"contestant":{"voting_id":"14","name":"Ashish Shakya"},"vote_count":1,"created_on":"2019-12-29T23:05:00.420011+05:45"},{"idx":"FiPXbZGx7hBDy8W6QQUfHL","contest":"Model Superstar","episode":"Model Superstar","category":null,"contestant":{"voting_id":"14","name":"Ashish Shakya"},"vote_count":1,"created_on":"2019-12-29T23:04:50.018411+05:45"},{"idx":"WTWitegLUoZLasuNauSjFb","contest":"Model Superstar","episode":"Model Superstar","category":null,"contestant":{"voting_id":"14","name":"Ashish Shakya"},"vote_count":1,"created_on":"2019-12-29T23:04:40.072662+05:45"},{"idx":"KGdQ7gAphNsWf4xMY6Skq3","contest":"Model Superstar","episode":"Model Superstar","category":null,"contestant":{"voting_id":"14","name":"Ashish Shakya"},"vote_count":1,"created_on":"2019-12-29T23:04:39.504720+05:45"},{"idx":"6ENYRfe2ohAkRvguQGtW3M","contest":"Model Superstar","episode":"Model Superstar","category":null,"contestant":{"voting_id":"14","name":"Ashish Shakya"},"vote_count":1,"created_on":"2019-12-29T23:04:27.903867+05:45"},{"idx":"PHjWCZRbRJFRiTq6pkbtEY","contest":"Model Superstar","episode":"Model Superstar","category":null,"contestant":{"voting_id":"14","name":"Ashish Shakya"},"vote_count":1,"created_on":"2019-12-29T23:04:21.238137+05:45"},{"idx":"ouNzH4yLp4U8fPqpP2vXr3","contest":"Model Superstar","episode":"Model Superstar","category":null,"contestant":{"voting_id":"14","name":"Ashish Shakya"},"vote_count":1,"created_on":"2019-12-29T23:04:17.759656+05:45"},{"idx":"FRnzyPoChkgvpyUdbsCr3H","contest":"Model Superstar","episode":"Model Superstar","category":null,"contestant":{"voting_id":"14","name":"Ashish Shakya"},"vote_count":1,"created_on":"2019-12-29T23:04:06.923874+05:45"},{"idx":"PYr6kTEPKWTtEVoTLpGPvW","contest":"Model Superstar","episode":"Model Superstar","category":null,"contestant":{"voting_id":"14","name":"Ashish Shakya"},"vote_count":1,"created_on":"2019-12-29T23:04:00.438674+05:45"},{"idx":"djaSesm2i3GfjL3hhozfhP","contest":"Model Superstar","episode":"Model Superstar","category":null,"contestant":{"voting_id":"14","name":"Ashish Shakya"},"vote_count":1,"created_on":"2019-12-29T23:03:53.492798+05:45"},{"idx":"bfCMLTTfPVxT9LUgUDigxE","contest":"Model Superstar","episode":"Model Superstar","category":null,"contestant":{"voting_id":"14","name":"Ashish Shakya"},"vote_count":1,"created_on":"2019-12-29T23:03:43.053377+05:45"},{"idx":"qXWHiVq57Zikv8x6vPUot9","contest":"Model Superstar","episode":"Model Superstar","category":null,"contestant":{"voting_id":"14","name":"Ashish Shakya"},"vote_count":1,"created_on":"2019-12-29T23:03:37.168081+05:45"},{"idx":"XtAd8NwXrGEEKhDnKheL8V","contest":"Model Superstar","episode":"Model Superstar","category":null,"contestant":{"voting_id":"14","name":"Ashish Shakya"},"vote_count":1,"created_on":"2019-12-29T23:03:32.769722+05:45"},{"idx":"4g3JR3MR2kKpr5RUfNxrMX","contest":"Model Superstar","episode":"Model Superstar","category":null,"contestant":{"voting_id":"14","name":"Ashish Shakya"},"vote_count":1,"created_on":"2019-12-29T23:03:20.604648+05:45"},{"idx":"Qbz8hG3wLSAuDffFCBqFie","contest":"Model Superstar","episode":"Model Superstar","category":null,"contestant":{"voting_id":"14","name":"Ashish Shakya"},"vote_count":1,"created_on":"2019-12-29T23:03:17.119681+05:45"},{"idx":"crpzugb7eTDzK8dqFq9CcX","contest":"Model Superstar","episode":"Model Superstar","category":null,"contestant":{"voting_id":"14","name":"Ashish Shakya"},"vote_count":1,"created_on":"2019-12-29T23:03:06.392420+05:45"},{"idx":"xLMWAeGYdR8upGjqoztiyd","contest":"Model Superstar","episode":"Model Superstar","category":null,"contestant":{"voting_id":"14","name":"Ashish Shakya"},"vote_count":1,"created_on":"2019-12-29T23:02:54.904583+05:45"},{"idx":"ZGtzyB55wmmnShiMws2ME2","contest":"Model Superstar","episode":"Model Superstar","category":null,"contestant":{"voting_id":"14","name":"Ashish Shakya"},"vote_count":1,"created_on":"2019-12-29T23:02:50.952530+05:45"},{"idx":"mVjxVijEumTu5f2G9ouKv4","contest":"Model Superstar","episode":"Model Superstar","category":null,"contestant":{"voting_id":"14","name":"Ashish Shakya"},"vote_count":1,"created_on":"2019-12-29T23:02:42.970490+05:45"},{"idx":"zMVz6fZGLnTfqrGULKFcB9","contest":"Model Superstar","episode":"Model Superstar","category":null,"contestant":{"voting_id":"14","name":"Ashish Shakya"},"vote_count":1,"created_on":"2019-12-29T23:02:30.426281+05:45"},{"idx":"26VCKpvQxvZVvpXzEvByW4","contest":"Model Superstar","episode":"Model Superstar","category":null,"contestant":{"voting_id":"14","name":"Ashish Shakya"},"vote_count":1,"created_on":"2019-12-29T23:02:30.299971+05:45"},{"idx":"7TSfnPx6Dg2owJ6c3dvkvE","contest":"Model Superstar","episode":"Model Superstar","category":null,"contestant":{"voting_id":"14","name":"Ashish Shakya"},"vote_count":1,"created_on":"2019-12-29T23:02:19.603630+05:45"},{"idx":"xuLUACGFUSdjrpHActRbSX","contest":"Model Superstar","episode":"Model Superstar","category":null,"contestant":{"voting_id":"14","name":"Ashish Shakya"},"vote_count":1,"created_on":"2019-12-29T23:02:08.323785+05:45"},{"idx":"5BKLugLcZCRFvaGLhY3iEX","contest":"Model Superstar","episode":"Model Superstar","category":null,"contestant":{"voting_id":"14","name":"Ashish Shakya"},"vote_count":1,"created_on":"2019-12-29T23:01:57.005892+05:45"},{"idx":"Cqb2Uhs94MbKy9Zf9WM7sh","contest":"Model Superstar","episode":"Model Superstar","category":null,"contestant":{"voting_id":"14","name":"Ashish Shakya"},"vote_count":1,"created_on":"2019-12-29T23:01:55.928022+05:45"},{"idx":"P4eoob3Pgr8z6twK4uVt6W","contest":"Model Superstar","episode":"Model Superstar","category":null,"contestant":{"voting_id":"14","name":"Ashish Shakya"},"vote_count":1,"created_on":"2019-12-29T23:01:46.216167+05:45"},{"idx":"D5Nnq3anu3CnLHJncMFbZK","contest":"Model Superstar","episode":"Model Superstar","category":null,"contestant":{"voting_id":"14","name":"Ashish Shakya"},"vote_count":1,"created_on":"2019-12-29T23:01:33.704175+05:45"},{"idx":"Fgv9uCu3UQWM2CupbTCdZh","contest":"Model Superstar","episode":"Model Superstar","category":null,"contestant":{"voting_id":"14","name":"Ashish Shakya"},"vote_count":1,"created_on":"2019-12-29T23:01:32.754448+05:45"},{"idx":"Kxrxa8NeEDLZ6ZPHJbTsaF","contest":"Model Superstar","episode":"Model Superstar","category":null,"contestant":{"voting_id":"14","name":"Ashish Shakya"},"vote_count":1,"created_on":"2019-12-29T23:01:20.423746+05:45"},{"idx":"S4Tpb7jaYnT6N3tJ7gvdoW","contest":"Model Superstar","episode":"Model Superstar","category":null,"contestant":{"voting_id":"14","name":"Ashish Shakya"},"vote_count":1,"created_on":"2019-12-29T23:01:08.704708+05:45"},{"idx":"S7zQQ5uU6JyyB9UpwyDSsW","contest":"Model Superstar","episode":"Model Superstar","category":null,"contestant":{"voting_id":"14","name":"Ashish Shakya"},"vote_count":1,"created_on":"2019-12-29T23:01:08.206804+05:45"},{"idx":"xzhvsS5CYM57JJY2GRZ3pD","contest":"Model Superstar","episode":"Model Superstar","category":null,"contestant":{"voting_id":"14","name":"Ashish Shakya"},"vote_count":1,"created_on":"2019-12-29T23:00:58.157295+05:45"},{"idx":"8bMzK5FW9dyUgBo8oVP3SV","contest":"Model Superstar","episode":"Model Superstar","category":null,"contestant":{"voting_id":"14","name":"Ashish Shakya"},"vote_count":1,"created_on":"2019-12-29T23:00:49.215869+05:45"},{"idx":"JDnrB4JiD9LpzZiTfMuSfQ","contest":"Model Superstar","episode":"Model Superstar","category":null,"contestant":{"voting_id":"14","name":"Ashish Shakya"},"vote_count":1,"created_on":"2019-12-29T23:00:46.980213+05:45"},{"idx":"nBQmmVuD4wSMmaCEYz3vvZ","contest":"Model Superstar","episode":"Model Superstar","category":null,"contestant":{"voting_id":"14","name":"Ashish Shakya"},"vote_count":1,"created_on":"2019-12-29T23:00:35.575451+05:45"},{"idx":"7oUbAnTohuBJqomGho9VfF","contest":"Model Superstar","episode":"Model Superstar","category":null,"contestant":{"voting_id":"14","name":"Ashish Shakya"},"vote_count":1,"created_on":"2019-12-29T23:00:23.014604+05:45"},{"idx":"pNH8xMFisGLUkMhwPZdvUC","contest":"Model Superstar","episode":"Model Superstar","category":null,"contestant":{"voting_id":"14","name":"Ashish Shakya"},"vote_count":1,"created_on":"2019-12-29T23:00:17.025323+05:45"}]}