{"total_pages":275,"total_records":13721,"next":"https://khalti.com/api/v2/vuservote/?page=199","previous":"https://khalti.com/api/v2/vuservote/?page=197","record_range":[9851,9900],"current_page":198,"records":[{"idx":"Z3MEjzWEWggZepBJFcdg5J","contest":"Model Superstar","episode":"Model Superstar","category":null,"contestant":{"voting_id":"14","name":"Ashish Shakya"},"vote_count":1,"created_on":"2019-12-29T23:00:12.094541+05:45"},{"idx":"neoJG4CRtHoyUTcJLmUqeV","contest":"Model Superstar","episode":"Model Superstar","category":null,"contestant":{"voting_id":"14","name":"Ashish Shakya"},"vote_count":1,"created_on":"2019-12-29T23:00:01.340594+05:45"},{"idx":"2T8JQ5UBh7pukX5s74vCE2","contest":"Model Superstar","episode":"Model Superstar","category":null,"contestant":{"voting_id":"14","name":"Ashish Shakya"},"vote_count":1,"created_on":"2019-12-29T22:59:55.433210+05:45"},{"idx":"qeRFy2dsUdi3a9HUpwvQ63","contest":"Model Superstar","episode":"Model Superstar","category":null,"contestant":{"voting_id":"14","name":"Ashish Shakya"},"vote_count":1,"created_on":"2019-12-29T22:59:49.989915+05:45"},{"idx":"zsj8xFScQRnkXCsmw9kU3n","contest":"Model Superstar","episode":"Model Superstar","category":null,"contestant":{"voting_id":"14","name":"Ashish Shakya"},"vote_count":1,"created_on":"2019-12-29T22:59:37.290114+05:45"},{"idx":"JEDevqP5mLVuQAxBztrbLj","contest":"Model Superstar","episode":"Model Superstar","category":null,"contestant":{"voting_id":"14","name":"Ashish Shakya"},"vote_count":1,"created_on":"2019-12-29T22:59:26.126549+05:45"},{"idx":"NkRwPjDxrRXBU92NZuxL43","contest":"Model Superstar","episode":"Model Superstar","category":null,"contestant":{"voting_id":"14","name":"Ashish Shakya"},"vote_count":1,"created_on":"2019-12-29T22:59:15.856214+05:45"},{"idx":"ModTLryg8qZbHYgJ8LnT5J","contest":"Model Superstar","episode":"Model Superstar","category":null,"contestant":{"voting_id":"14","name":"Ashish Shakya"},"vote_count":1,"created_on":"2019-12-29T22:59:05.948875+05:45"},{"idx":"SZYBVaiBmCUzdbTSoqbQwM","contest":"Model Superstar","episode":"Model Superstar","category":null,"contestant":{"voting_id":"14","name":"Ashish Shakya"},"vote_count":1,"created_on":"2019-12-29T22:59:05.138085+05:45"},{"idx":"mevx4NSWgrkq2ZKoWK9vAU","contest":"Model Superstar","episode":"Model Superstar","category":null,"contestant":{"voting_id":"14","name":"Ashish Shakya"},"vote_count":1,"created_on":"2019-12-29T22:58:48.714461+05:45"},{"idx":"BERjhJUCxHmjc5uiwPatoG","contest":"Model Superstar","episode":"Model Superstar","category":null,"contestant":{"voting_id":"14","name":"Ashish Shakya"},"vote_count":1,"created_on":"2019-12-29T22:58:36.502501+05:45"},{"idx":"d7Qg4hv9UTqnGCM7K3GHR3","contest":"Model Superstar","episode":"Model Superstar","category":null,"contestant":{"voting_id":"14","name":"Ashish Shakya"},"vote_count":1,"created_on":"2019-12-29T22:58:35.680459+05:45"},{"idx":"8qfzr6DVAoCWKrKypQUZpJ","contest":"Model Superstar","episode":"Model Superstar","category":null,"contestant":{"voting_id":"14","name":"Ashish Shakya"},"vote_count":1,"created_on":"2019-12-29T22:58:24.666326+05:45"},{"idx":"Rtiq7xZfvm4X95Qmt8RXo8","contest":"Model Superstar","episode":"Model Superstar","category":null,"contestant":{"voting_id":"14","name":"Ashish Shakya"},"vote_count":1,"created_on":"2019-12-29T22:58:14.048350+05:45"},{"idx":"fFV6J3BbAwef5uBfJPhFva","contest":"Model Superstar","episode":"Model Superstar","category":null,"contestant":{"voting_id":"14","name":"Ashish Shakya"},"vote_count":1,"created_on":"2019-12-29T22:58:10.755252+05:45"},{"idx":"mtYNnrnvvdXXwxJ3PAm8yM","contest":"Model Superstar","episode":"Model Superstar","category":null,"contestant":{"voting_id":"14","name":"Ashish Shakya"},"vote_count":1,"created_on":"2019-12-29T22:58:00.255208+05:45"},{"idx":"CeCYdaBbuK7viyram4pDvT","contest":"Model Superstar","episode":"Model Superstar","category":null,"contestant":{"voting_id":"14","name":"Ashish Shakya"},"vote_count":1,"created_on":"2019-12-29T22:57:43.480143+05:45"},{"idx":"oWrBbCvboSkFbaaqRwr2aD","contest":"Model Superstar","episode":"Model Superstar","category":null,"contestant":{"voting_id":"14","name":"Ashish Shakya"},"vote_count":1,"created_on":"2019-12-29T22:57:29.233777+05:45"},{"idx":"MFQi24Vr3TSV3Rww4gikha","contest":"Model Superstar","episode":"Model Superstar","category":null,"contestant":{"voting_id":"14","name":"Ashish Shakya"},"vote_count":1,"created_on":"2019-12-29T22:57:22.821755+05:45"},{"idx":"y68DK4DdkSmxsfFkK9d72i","contest":"Model Superstar","episode":"Model Superstar","category":null,"contestant":{"voting_id":"14","name":"Ashish Shakya"},"vote_count":1,"created_on":"2019-12-29T22:57:08.769010+05:45"},{"idx":"26XwyDV8fbre5rVrgeN3ZL","contest":"Model Superstar","episode":"Model Superstar","category":null,"contestant":{"voting_id":"14","name":"Ashish Shakya"},"vote_count":1,"created_on":"2019-12-29T22:57:01.033916+05:45"},{"idx":"8WhgXSVju9AssrrK4gGQeb","contest":"Model Superstar","episode":"Model Superstar","category":null,"contestant":{"voting_id":"14","name":"Ashish Shakya"},"vote_count":1,"created_on":"2019-12-29T22:56:51.581071+05:45"},{"idx":"Rpx2KAsxW3FDQAVhsgne8L","contest":"Model Superstar","episode":"Model Superstar","category":null,"contestant":{"voting_id":"14","name":"Ashish Shakya"},"vote_count":1,"created_on":"2019-12-29T22:56:38.616253+05:45"},{"idx":"pxRr8BNSE4LgSbPMcDE9Qh","contest":"Model Superstar","episode":"Model Superstar","category":null,"contestant":{"voting_id":"14","name":"Ashish Shakya"},"vote_count":1,"created_on":"2019-12-29T22:56:32.754214+05:45"},{"idx":"3ca6sjr7Z69rFU7om9sHTm","contest":"Model Superstar","episode":"Model Superstar","category":null,"contestant":{"voting_id":"14","name":"Ashish Shakya"},"vote_count":1,"created_on":"2019-12-29T22:56:21.552776+05:45"},{"idx":"y5xESxbEkrAj6bwPtoTbrb","contest":"Model Superstar","episode":"Model Superstar","category":null,"contestant":{"voting_id":"14","name":"Ashish Shakya"},"vote_count":1,"created_on":"2019-12-29T22:56:11.513977+05:45"},{"idx":"WatyzGuQx2esfWbKCBf5D5","contest":"Model Superstar","episode":"Model Superstar","category":null,"contestant":{"voting_id":"14","name":"Ashish Shakya"},"vote_count":1,"created_on":"2019-12-29T22:56:02.091634+05:45"},{"idx":"DZprFFYuo55bqVBqXHgjxJ","contest":"Model Superstar","episode":"Model Superstar","category":null,"contestant":{"voting_id":"14","name":"Ashish Shakya"},"vote_count":1,"created_on":"2019-12-29T22:56:01.869901+05:45"},{"idx":"gqH37mXPMsuCxah9URtmBW","contest":"Model Superstar","episode":"Model Superstar","category":null,"contestant":{"voting_id":"14","name":"Ashish Shakya"},"vote_count":1,"created_on":"2019-12-29T22:55:52.505295+05:45"},{"idx":"UFifpoaH4wKxMsFwMakCcS","contest":"Model Superstar","episode":"Model Superstar","category":null,"contestant":{"voting_id":"14","name":"Ashish Shakya"},"vote_count":1,"created_on":"2019-12-29T22:55:42.655438+05:45"},{"idx":"7Y3qvG4xk7JLWFVL9cpUd6","contest":"Model Superstar","episode":"Model Superstar","category":null,"contestant":{"voting_id":"14","name":"Ashish Shakya"},"vote_count":1,"created_on":"2019-12-29T22:55:32.107827+05:45"},{"idx":"UBykrYJVrCbPLxrBAjtbCi","contest":"Model Superstar","episode":"Model Superstar","category":null,"contestant":{"voting_id":"14","name":"Ashish Shakya"},"vote_count":1,"created_on":"2019-12-29T22:55:22.877947+05:45"},{"idx":"QP5MUb6yPCK27wuzBPGuQB","contest":"Model Superstar","episode":"Model Superstar","category":null,"contestant":{"voting_id":"14","name":"Ashish Shakya"},"vote_count":1,"created_on":"2019-12-29T22:55:13.706568+05:45"},{"idx":"uMYhaUJKAneNtFZQ9gm2LQ","contest":"Model Superstar","episode":"Model Superstar","category":null,"contestant":{"voting_id":"14","name":"Ashish Shakya"},"vote_count":1,"created_on":"2019-12-29T22:55:04.864141+05:45"},{"idx":"y9HF8kgevMXXKKsYAQ5hkZ","contest":"Model Superstar","episode":"Model Superstar","category":null,"contestant":{"voting_id":"14","name":"Ashish Shakya"},"vote_count":1,"created_on":"2019-12-29T22:55:04.602578+05:45"},{"idx":"haEecAcdKsscQqWhizfnwD","contest":"Model Superstar","episode":"Model Superstar","category":null,"contestant":{"voting_id":"14","name":"Ashish Shakya"},"vote_count":1,"created_on":"2019-12-29T22:54:54.995787+05:45"},{"idx":"nZeiixGCCg6x3qFr2yYVTJ","contest":"Model Superstar","episode":"Model Superstar","category":null,"contestant":{"voting_id":"14","name":"Ashish Shakya"},"vote_count":1,"created_on":"2019-12-29T22:54:43.805861+05:45"},{"idx":"EbCZoHqjU7Wy7sn2vgc9wB","contest":"Model Superstar","episode":"Model Superstar","category":null,"contestant":{"voting_id":"14","name":"Ashish Shakya"},"vote_count":1,"created_on":"2019-12-29T22:54:32.952637+05:45"},{"idx":"k8ucZcbMpj8cqHkWWKZq4X","contest":"Model Superstar","episode":"Model Superstar","category":null,"contestant":{"voting_id":"14","name":"Ashish Shakya"},"vote_count":1,"created_on":"2019-12-29T22:54:21.729034+05:45"},{"idx":"fX6socv2M5yRPcHdDi4DRX","contest":"Model Superstar","episode":"Model Superstar","category":null,"contestant":{"voting_id":"14","name":"Ashish Shakya"},"vote_count":1,"created_on":"2019-12-29T22:54:19.648237+05:45"},{"idx":"vD4nRRV78XLpMbLZRo9dnn","contest":"Model Superstar","episode":"Model Superstar","category":null,"contestant":{"voting_id":"14","name":"Ashish Shakya"},"vote_count":1,"created_on":"2019-12-29T22:54:10.503349+05:45"},{"idx":"JsmYEEDZaJVDVwxMsxtKq3","contest":"Model Superstar","episode":"Model Superstar","category":null,"contestant":{"voting_id":"14","name":"Ashish Shakya"},"vote_count":1,"created_on":"2019-12-29T22:53:59.318233+05:45"},{"idx":"L3YNAGLGFaCbib6mctLFkH","contest":"Model Superstar","episode":"Model Superstar","category":null,"contestant":{"voting_id":"14","name":"Ashish Shakya"},"vote_count":1,"created_on":"2019-12-29T22:53:48.535486+05:45"},{"idx":"euUEwR4SDw3FHt54uu4RZF","contest":"Model Superstar","episode":"Model Superstar","category":null,"contestant":{"voting_id":"14","name":"Ashish Shakya"},"vote_count":1,"created_on":"2019-12-29T22:53:40.197445+05:45"},{"idx":"MTMrCjxqUzufgwyhSsRrD6","contest":"Model Superstar","episode":"Model Superstar","category":null,"contestant":{"voting_id":"14","name":"Ashish Shakya"},"vote_count":1,"created_on":"2019-12-29T22:53:36.559381+05:45"},{"idx":"jNzC59XQPNZSCSzCVfK32f","contest":"Model Superstar","episode":"Model Superstar","category":null,"contestant":{"voting_id":"14","name":"Ashish Shakya"},"vote_count":1,"created_on":"2019-12-29T22:53:26.331560+05:45"},{"idx":"8AzgzoV88PX5WKhsuzMyFc","contest":"Model Superstar","episode":"Model Superstar","category":null,"contestant":{"voting_id":"14","name":"Ashish Shakya"},"vote_count":1,"created_on":"2019-12-29T22:53:15.621202+05:45"},{"idx":"MiQL6GUF4PgjWTNKxmLMnQ","contest":"Model Superstar","episode":"Model Superstar","category":null,"contestant":{"voting_id":"14","name":"Ashish Shakya"},"vote_count":1,"created_on":"2019-12-29T22:53:03.610371+05:45"},{"idx":"TXMc6wFBDGPikkamhNFuWD","contest":"Model Superstar","episode":"Model Superstar","category":null,"contestant":{"voting_id":"14","name":"Ashish Shakya"},"vote_count":1,"created_on":"2019-12-29T22:52:51.674017+05:45"},{"idx":"wNmaopqKCSagQkUvSJPZK6","contest":"Model Superstar","episode":"Model Superstar","category":null,"contestant":{"voting_id":"14","name":"Ashish Shakya"},"vote_count":1,"created_on":"2019-12-29T22:52:51.363128+05:45"}]}