{"total_pages":275,"total_records":13721,"next":"https://khalti.com/api/v2/vuservote/?page=200","previous":"https://khalti.com/api/v2/vuservote/?page=198","record_range":[9901,9950],"current_page":199,"records":[{"idx":"Xo9xsJNnahkaFNc2hnCR6A","contest":"Model Superstar","episode":"Model Superstar","category":null,"contestant":{"voting_id":"14","name":"Ashish Shakya"},"vote_count":1,"created_on":"2019-12-29T22:52:38.787784+05:45"},{"idx":"ZkUuQqCtVemAeEcVeaJb8W","contest":"Model Superstar","episode":"Model Superstar","category":null,"contestant":{"voting_id":"14","name":"Ashish Shakya"},"vote_count":1,"created_on":"2019-12-29T22:52:24.986255+05:45"},{"idx":"WYute78FCdJGwa4p9m4KYX","contest":"Model Superstar","episode":"Model Superstar","category":null,"contestant":{"voting_id":"14","name":"Ashish Shakya"},"vote_count":1,"created_on":"2019-12-29T22:52:16.063539+05:45"},{"idx":"PM3za8DgHbcGLFHHmL7iec","contest":"Model Superstar","episode":"Model Superstar","category":null,"contestant":{"voting_id":"14","name":"Ashish Shakya"},"vote_count":1,"created_on":"2019-12-29T22:52:12.627712+05:45"},{"idx":"9k4tgpwnGRqkT7BCmZKgWD","contest":"Model Superstar","episode":"Model Superstar","category":null,"contestant":{"voting_id":"14","name":"Ashish Shakya"},"vote_count":1,"created_on":"2019-12-29T22:52:03.254437+05:45"},{"idx":"HZ4U9iq7tL2ct9vaqyXpwR","contest":"Model Superstar","episode":"Model Superstar","category":null,"contestant":{"voting_id":"14","name":"Ashish Shakya"},"vote_count":1,"created_on":"2019-12-29T22:51:53.557756+05:45"},{"idx":"rLe5yYqrTdkU5TzWSbVxv8","contest":"Model Superstar","episode":"Model Superstar","category":null,"contestant":{"voting_id":"14","name":"Ashish Shakya"},"vote_count":1,"created_on":"2019-12-29T22:51:42.352030+05:45"},{"idx":"t8VYuLKmnoshiNg83Gvnxj","contest":"Model Superstar","episode":"Model Superstar","category":null,"contestant":{"voting_id":"14","name":"Ashish Shakya"},"vote_count":1,"created_on":"2019-12-29T22:51:27.153533+05:45"},{"idx":"9VhMRBXHvM6EqCFdExyzrd","contest":"Model Superstar","episode":"Model Superstar","category":null,"contestant":{"voting_id":"14","name":"Ashish Shakya"},"vote_count":1,"created_on":"2019-12-29T22:49:30.470743+05:45"},{"idx":"5aYUcuDzJDDmdyhBZr7ztX","contest":"Model Superstar","episode":"Model Superstar","category":null,"contestant":{"voting_id":"14","name":"Ashish Shakya"},"vote_count":1,"created_on":"2019-12-29T22:49:11.032904+05:45"},{"idx":"EYXsUfAJhjLjUacPjVuu3L","contest":"Model Superstar","episode":"Model Superstar","category":null,"contestant":{"voting_id":"14","name":"Ashish Shakya"},"vote_count":1,"created_on":"2019-12-29T22:49:00.153936+05:45"},{"idx":"w6fhbfVUQuxcmMwwCvptaC","contest":"Model Superstar","episode":"Model Superstar","category":null,"contestant":{"voting_id":"14","name":"Ashish Shakya"},"vote_count":1,"created_on":"2019-12-29T22:48:59.453906+05:45"},{"idx":"RQMwDp6AteJ3o5YsFmBSa2","contest":"Model Superstar","episode":"Model Superstar","category":null,"contestant":{"voting_id":"14","name":"Ashish Shakya"},"vote_count":1,"created_on":"2019-12-29T22:48:29.839838+05:45"},{"idx":"xisyknuXkZKm4Z4ZG3ygKb","contest":"Model Superstar","episode":"Model Superstar","category":null,"contestant":{"voting_id":"14","name":"Ashish Shakya"},"vote_count":1,"created_on":"2019-12-29T22:48:20.353585+05:45"},{"idx":"ZzKR2sao7MykE6aCkxjECi","contest":"Model Superstar","episode":"Model Superstar","category":null,"contestant":{"voting_id":"14","name":"Ashish Shakya"},"vote_count":1,"created_on":"2019-12-29T22:48:13.023686+05:45"},{"idx":"yzARFiGDHnoN3P3rC52XAE","contest":"Model Superstar","episode":"Model Superstar","category":null,"contestant":{"voting_id":"14","name":"Ashish Shakya"},"vote_count":1,"created_on":"2019-12-29T22:48:10.880943+05:45"},{"idx":"MW3ZyfzkSAANgZPU3iGYR7","contest":"Model Superstar","episode":"Model Superstar","category":null,"contestant":{"voting_id":"14","name":"Ashish Shakya"},"vote_count":1,"created_on":"2019-12-29T22:47:59.575308+05:45"},{"idx":"PJRjTSUMRVAECS2bqDdMcM","contest":"Model Superstar","episode":"Model Superstar","category":null,"contestant":{"voting_id":"14","name":"Ashish Shakya"},"vote_count":1,"created_on":"2019-12-29T22:47:49.532131+05:45"},{"idx":"ATN3aGuUppvzCZwqG8PeZP","contest":"Model Superstar","episode":"Model Superstar","category":null,"contestant":{"voting_id":"14","name":"Ashish Shakya"},"vote_count":1,"created_on":"2019-12-29T22:47:38.823812+05:45"},{"idx":"VD95mUzCDVYEE7uni8j6GQ","contest":"Model Superstar","episode":"Model Superstar","category":null,"contestant":{"voting_id":"14","name":"Ashish Shakya"},"vote_count":1,"created_on":"2019-12-29T22:47:28.613758+05:45"},{"idx":"nVVX8hxKWhBSwLGzWiQaCc","contest":"Model Superstar","episode":"Model Superstar","category":null,"contestant":{"voting_id":"14","name":"Ashish Shakya"},"vote_count":1,"created_on":"2019-12-29T22:47:18.887100+05:45"},{"idx":"cnaYmMsUw7jy4ZFyd6XRCi","contest":"Model Superstar","episode":"Model Superstar","category":null,"contestant":{"voting_id":"14","name":"Ashish Shakya"},"vote_count":1,"created_on":"2019-12-29T22:46:55.914650+05:45"},{"idx":"dvv6Z2eYmzLNYNGwPLEzBj","contest":"Model Superstar","episode":"Model Superstar","category":null,"contestant":{"voting_id":"14","name":"Ashish Shakya"},"vote_count":1,"created_on":"2019-12-29T22:46:44.572604+05:45"},{"idx":"4XwHCfmb9gUhrEJdyEuSnE","contest":"Model Superstar","episode":"Model Superstar","category":null,"contestant":{"voting_id":"14","name":"Ashish Shakya"},"vote_count":1,"created_on":"2019-12-29T22:46:33.351273+05:45"},{"idx":"oQKPPowHAMMNWaQsCmG8Wc","contest":"Model Superstar","episode":"Model Superstar","category":null,"contestant":{"voting_id":"14","name":"Ashish Shakya"},"vote_count":1,"created_on":"2019-12-29T22:46:23.312767+05:45"},{"idx":"ECpTwSxE3sC6sEj3ZJXT79","contest":"Model Superstar","episode":"Model Superstar","category":null,"contestant":{"voting_id":"14","name":"Ashish Shakya"},"vote_count":1,"created_on":"2019-12-29T22:46:17.077007+05:45"},{"idx":"Jrj6kyiEyPGKcRaubBdHbn","contest":"Model Superstar","episode":"Model Superstar","category":null,"contestant":{"voting_id":"14","name":"Ashish Shakya"},"vote_count":1,"created_on":"2019-12-29T22:46:13.274686+05:45"},{"idx":"kFMND2zkCDmW5Aro3sqNZ4","contest":"Model Superstar","episode":"Model Superstar","category":null,"contestant":{"voting_id":"14","name":"Ashish Shakya"},"vote_count":1,"created_on":"2019-12-29T22:46:03.269320+05:45"},{"idx":"QkdsYjJMbNeJAwkryLeqrT","contest":"Model Superstar","episode":"Model Superstar","category":null,"contestant":{"voting_id":"14","name":"Ashish Shakya"},"vote_count":1,"created_on":"2019-12-29T22:45:52.426738+05:45"},{"idx":"FkCVY7RGoMcm8d3Q5bPRt5","contest":"Model Superstar","episode":"Model Superstar","category":null,"contestant":{"voting_id":"14","name":"Ashish Shakya"},"vote_count":1,"created_on":"2019-12-29T22:45:34.814649+05:45"},{"idx":"6iPGLQhJ6RZ4i6esi7Q4B2","contest":"Model Superstar","episode":"Model Superstar","category":null,"contestant":{"voting_id":"14","name":"Ashish Shakya"},"vote_count":1,"created_on":"2019-12-29T22:45:31.315836+05:45"},{"idx":"V9QEdGBVvto62GVR7uZur9","contest":"Model Superstar","episode":"Model Superstar","category":null,"contestant":{"voting_id":"14","name":"Ashish Shakya"},"vote_count":1,"created_on":"2019-12-29T22:45:23.835012+05:45"},{"idx":"rDkh7GHxRsiGJq2jQcmRb2","contest":"Model Superstar","episode":"Model Superstar","category":null,"contestant":{"voting_id":"14","name":"Ashish Shakya"},"vote_count":1,"created_on":"2019-12-29T22:45:13.640466+05:45"},{"idx":"TUJmg5SzN9XQQLeXUVsh5M","contest":"Model Superstar","episode":"Model Superstar","category":null,"contestant":{"voting_id":"14","name":"Ashish Shakya"},"vote_count":1,"created_on":"2019-12-29T22:45:03.763251+05:45"},{"idx":"JbUfYGGDapgPPhgfKeSL54","contest":"Model Superstar","episode":"Model Superstar","category":null,"contestant":{"voting_id":"14","name":"Ashish Shakya"},"vote_count":1,"created_on":"2019-12-29T22:44:53.950708+05:45"},{"idx":"nJ6R7LwkScqGEjJ7rHYGoc","contest":"Model Superstar","episode":"Model Superstar","category":null,"contestant":{"voting_id":"14","name":"Ashish Shakya"},"vote_count":1,"created_on":"2019-12-29T22:44:53.706789+05:45"},{"idx":"sTKwEoHsj3CpzZQheWzkST","contest":"Model Superstar","episode":"Model Superstar","category":null,"contestant":{"voting_id":"14","name":"Ashish Shakya"},"vote_count":1,"created_on":"2019-12-29T22:44:43.858066+05:45"},{"idx":"5HTroBzuiSDUjapbwn6Rg7","contest":"Model Superstar","episode":"Model Superstar","category":null,"contestant":{"voting_id":"14","name":"Ashish Shakya"},"vote_count":1,"created_on":"2019-12-29T22:44:33.962709+05:45"},{"idx":"kKKG4B79xvNeFMQPdxTAmP","contest":"Model Superstar","episode":"Model Superstar","category":null,"contestant":{"voting_id":"14","name":"Ashish Shakya"},"vote_count":1,"created_on":"2019-12-29T22:44:21.563861+05:45"},{"idx":"qbhnpr9vqsu68XpFWHA47V","contest":"Model Superstar","episode":"Model Superstar","category":null,"contestant":{"voting_id":"14","name":"Ashish Shakya"},"vote_count":1,"created_on":"2019-12-29T22:44:10.462135+05:45"},{"idx":"9CpcRemBc5yo9zzHMVgyxj","contest":"Model Superstar","episode":"Model Superstar","category":null,"contestant":{"voting_id":"14","name":"Ashish Shakya"},"vote_count":1,"created_on":"2019-12-29T22:43:58.413527+05:45"},{"idx":"byRkusDvuuLfNF6PetTpyi","contest":"Model Superstar","episode":"Model Superstar","category":null,"contestant":{"voting_id":"14","name":"Ashish Shakya"},"vote_count":1,"created_on":"2019-12-29T22:43:46.798735+05:45"},{"idx":"fomWWeSBPYnG6T4mj5ar4F","contest":"Model Superstar","episode":"Model Superstar","category":null,"contestant":{"voting_id":"14","name":"Ashish Shakya"},"vote_count":1,"created_on":"2019-12-29T22:43:36.329483+05:45"},{"idx":"uK4bwnHCRYJC5KS6SyHT3Y","contest":"Model Superstar","episode":"Model Superstar","category":null,"contestant":{"voting_id":"14","name":"Ashish Shakya"},"vote_count":1,"created_on":"2019-12-29T22:43:25.354586+05:45"},{"idx":"4zBHh9WEGRipMtMXjCvaN2","contest":"Model Superstar","episode":"Model Superstar","category":null,"contestant":{"voting_id":"14","name":"Ashish Shakya"},"vote_count":1,"created_on":"2019-12-29T22:43:24.100350+05:45"},{"idx":"E75vbSBgBDUTDHH9RHQuyE","contest":"Model Superstar","episode":"Model Superstar","category":null,"contestant":{"voting_id":"14","name":"Ashish Shakya"},"vote_count":1,"created_on":"2019-12-29T22:43:11.342185+05:45"},{"idx":"wFTtcENLKbWR2rUURv7XG5","contest":"Model Superstar","episode":"Model Superstar","category":null,"contestant":{"voting_id":"14","name":"Ashish Shakya"},"vote_count":1,"created_on":"2019-12-29T22:42:58.035707+05:45"},{"idx":"C8URKupAftGgqTtayNmFEB","contest":"Model Superstar","episode":"Model Superstar","category":null,"contestant":{"voting_id":"14","name":"Ashish Shakya"},"vote_count":1,"created_on":"2019-12-29T22:42:47.330037+05:45"},{"idx":"JqjmtwqDxuZzScjHbWfiea","contest":"Model Superstar","episode":"Model Superstar","category":null,"contestant":{"voting_id":"14","name":"Ashish Shakya"},"vote_count":1,"created_on":"2019-12-29T22:42:36.524308+05:45"},{"idx":"vKyd22CbvQfjsz5rQqscyT","contest":"Model Superstar","episode":"Model Superstar","category":null,"contestant":{"voting_id":"14","name":"Ashish Shakya"},"vote_count":1,"created_on":"2019-12-29T22:42:25.759652+05:45"}]}