{"total_pages":275,"total_records":13717,"next":"https://khalti.com/api/v2/vuservote/?page=3","previous":"https://khalti.com/api/v2/vuservote/","record_range":[51,100],"current_page":2,"records":[{"idx":"tjuR7GR94MPUBJ3HMkYM3Y","contest":"Locus 2020","episode":"Locus 2020","category":null,"contestant":{"voting_id":"66","name":"Project Alexa Pi"},"vote_count":1,"created_on":"2020-02-03T15:05:52.532468+05:45"},{"idx":"bQ7sXVj4GguF5eru2Jrs7A","contest":"Model Superstar","episode":"Model Superstar Finale","category":null,"contestant":{"voting_id":"04","name":"Sabita Maharjan"},"vote_count":1,"created_on":"2020-02-03T14:59:48.865070+05:45"},{"idx":"B3yZYAAC9jD8B8UFCEiphb","contest":"Locus 2020","episode":"Locus 2020","category":null,"contestant":{"voting_id":"08","name":"Project A Smart Approach Towards Lifestyle in Nepal"},"vote_count":1,"created_on":"2020-02-03T14:57:26.675434+05:45"},{"idx":"Mjb3JHH2ZCMNhGBV5vobn6","contest":"Locus 2020","episode":"Locus 2020","category":null,"contestant":{"voting_id":"43","name":"Project Tesla Coil"},"vote_count":1,"created_on":"2020-02-03T14:50:18.842251+05:45"},{"idx":"zLD3JG2tCdhb8ApGa7HB9d","contest":"Locus 2020","episode":"Locus 2020","category":null,"contestant":{"voting_id":"08","name":"Project A Smart Approach Towards Lifestyle in Nepal"},"vote_count":1,"created_on":"2020-02-03T14:49:05.089327+05:45"},{"idx":"H4nHPiGKEFrBYDBjSUdjuH","contest":"Model Superstar","episode":"Model Superstar Finale","category":null,"contestant":{"voting_id":"03","name":"Smriti Shah"},"vote_count":1,"created_on":"2020-02-03T14:48:20.318867+05:45"},{"idx":"dVMG3jUUGu6VF3aNCi8TDN","contest":"Locus 2020","episode":"Locus 2020","category":null,"contestant":{"voting_id":"75","name":"Project Hand Gesture Control Car"},"vote_count":1,"created_on":"2020-02-03T14:47:24.309241+05:45"},{"idx":"TbGwnPtzATQoQBFPG8KWVW","contest":"Locus 2020","episode":"Locus 2020","category":null,"contestant":{"voting_id":"60","name":"Project EMG Contolled Prosthetic Arm"},"vote_count":1,"created_on":"2020-02-03T14:20:31.298786+05:45"},{"idx":"XEYZffjhUuoU8JX9cdeFjg","contest":"Model Superstar","episode":"Model Superstar Finale","category":null,"contestant":{"voting_id":"32","name":"Ichhya Adhikari"},"vote_count":1,"created_on":"2020-02-03T14:18:55.390551+05:45"},{"idx":"9RKcyC97sdiyVuuEWwEkEX","contest":"Model Superstar","episode":"Model Superstar Finale","category":null,"contestant":{"voting_id":"04","name":"Sabita Maharjan"},"vote_count":1,"created_on":"2020-02-03T14:17:44.206828+05:45"},{"idx":"Dz5vFubTFZDdkDn9T7NU9m","contest":"Model Superstar","episode":"Model Superstar Finale","category":null,"contestant":{"voting_id":"01","name":"Sajina Subba"},"vote_count":1,"created_on":"2020-02-03T14:17:01.648297+05:45"},{"idx":"jJvQVh5BgWepReU3Dgery2","contest":"Locus 2020","episode":"Locus 2020","category":null,"contestant":{"voting_id":"08","name":"Project A Smart Approach Towards Lifestyle in Nepal"},"vote_count":1,"created_on":"2020-02-03T14:13:44.743720+05:45"},{"idx":"cucfRY8eTY6KVR8i5ZKZYk","contest":"Model Superstar","episode":"Model Superstar Finale","category":null,"contestant":{"voting_id":"03","name":"Smriti Shah"},"vote_count":1,"created_on":"2020-02-03T14:09:28.395920+05:45"},{"idx":"CtkjbDEELo6o58nVHm8TeM","contest":"Locus 2020","episode":"Locus 2020","category":null,"contestant":{"voting_id":"31","name":"Project 3 in 1 Cartesian 3D Printer"},"vote_count":1,"created_on":"2020-02-03T14:08:51.253095+05:45"},{"idx":"jeGiMqW4NHKLsrWPg2JCjb","contest":"Locus 2020","episode":"Locus 2020","category":null,"contestant":{"voting_id":"08","name":"Project A Smart Approach Towards Lifestyle in Nepal"},"vote_count":1,"created_on":"2020-02-03T14:03:11.207505+05:45"},{"idx":"djpwFgmyPNmRwDWhoKTeHB","contest":"Locus 2020","episode":"Locus 2020","category":null,"contestant":{"voting_id":"31","name":"Project 3 in 1 Cartesian 3D Printer"},"vote_count":1,"created_on":"2020-02-03T13:57:23.002825+05:45"},{"idx":"TbttihNJ289b7L7EXTRNXJ","contest":"Locus 2020","episode":"Locus 2020","category":null,"contestant":{"voting_id":"31","name":"Project 3 in 1 Cartesian 3D Printer"},"vote_count":1,"created_on":"2020-02-03T13:56:18.896407+05:45"},{"idx":"km2Btx7qLrTtf7U3UBifZn","contest":"Locus 2020","episode":"Locus 2020","category":null,"contestant":{"voting_id":"08","name":"Project A Smart Approach Towards Lifestyle in Nepal"},"vote_count":1,"created_on":"2020-02-03T13:49:04.645829+05:45"},{"idx":"bVFef4UudTBywaQtQboLDN","contest":"Locus 2020","episode":"Locus 2020","category":null,"contestant":{"voting_id":"31","name":"Project 3 in 1 Cartesian 3D Printer"},"vote_count":1,"created_on":"2020-02-03T13:47:31.800018+05:45"},{"idx":"u7dvREUJsbbvJZDM8RgbCR","contest":"Locus 2020","episode":"Locus 2020","category":null,"contestant":{"voting_id":"27","name":"Project Online Entrance System ( IOE Entrance)"},"vote_count":1,"created_on":"2020-02-03T13:38:22.951132+05:45"},{"idx":"w5iH2UbTMetaVdJW2KubSN","contest":"Locus 2020","episode":"Locus 2020","category":null,"contestant":{"voting_id":"66","name":"Project Alexa Pi"},"vote_count":1,"created_on":"2020-02-03T13:37:26.486345+05:45"},{"idx":"S87koXXNWCbtvbAtWWso2i","contest":"Locus 2020","episode":"Locus 2020","category":null,"contestant":{"voting_id":"66","name":"Project Alexa Pi"},"vote_count":1,"created_on":"2020-02-03T13:33:39.685355+05:45"},{"idx":"9qUCf3cxqzDnXv3P7XVmBX","contest":"Locus 2020","episode":"Locus 2020","category":null,"contestant":{"voting_id":"66","name":"Project Alexa Pi"},"vote_count":1,"created_on":"2020-02-03T13:26:00.280989+05:45"},{"idx":"E39QxowvuTeVDneYM45YZH","contest":"Locus 2020","episode":"Locus 2020","category":null,"contestant":{"voting_id":"66","name":"Project Alexa Pi"},"vote_count":1,"created_on":"2020-02-03T13:23:26.887303+05:45"},{"idx":"KmvGY7urCfNDwfhsqyYHu6","contest":"Locus 2020","episode":"Locus 2020","category":null,"contestant":{"voting_id":"66","name":"Project Alexa Pi"},"vote_count":1,"created_on":"2020-02-03T13:21:07.291919+05:45"},{"idx":"GPmYnufaJLnHkN537VcWHQ","contest":"Locus 2020","episode":"Locus 2020","category":null,"contestant":{"voting_id":"66","name":"Project Alexa Pi"},"vote_count":1,"created_on":"2020-02-03T13:15:35.942700+05:45"},{"idx":"dJST2LA3ikvuPD6WxW8YMk","contest":"Locus 2020","episode":"Locus 2020","category":null,"contestant":{"voting_id":"86","name":"Project Target Shooter"},"vote_count":1,"created_on":"2020-02-03T13:13:34.004529+05:45"},{"idx":"kkiyp52FUVCemo9m3yLnxD","contest":"Locus 2020","episode":"Locus 2020","category":null,"contestant":{"voting_id":"54","name":"Project LCR Meter"},"vote_count":1,"created_on":"2020-02-03T13:13:09.260111+05:45"},{"idx":"tyWs6Xt6doKfvSdbizS2UH","contest":"Locus 2020","episode":"Locus 2020","category":null,"contestant":{"voting_id":"46","name":"Project Immune"},"vote_count":1,"created_on":"2020-02-03T13:12:58.464124+05:45"},{"idx":"ktDEZnWyBG5winWGSPz7FA","contest":"Locus 2020","episode":"Locus 2020","category":null,"contestant":{"voting_id":"66","name":"Project Alexa Pi"},"vote_count":1,"created_on":"2020-02-03T13:10:35.727454+05:45"},{"idx":"opdY6jXkb9HzZhL8bvzkKU","contest":"Model Superstar","episode":"Model Superstar Finale","category":null,"contestant":{"voting_id":"02","name":"Srijana Basnet"},"vote_count":1,"created_on":"2020-02-03T13:07:23.376856+05:45"},{"idx":"uf8VDFfBVep7Si9cjVjwCd","contest":"Locus 2020","episode":"Locus 2020","category":null,"contestant":{"voting_id":"66","name":"Project Alexa Pi"},"vote_count":1,"created_on":"2020-02-03T13:04:49.186358+05:45"},{"idx":"VN5tHVKV7MLKJaoxYTmwuc","contest":"Locus 2020","episode":"Locus 2020","category":null,"contestant":{"voting_id":"66","name":"Project Alexa Pi"},"vote_count":1,"created_on":"2020-02-03T13:02:58.413186+05:45"},{"idx":"xdmnabyUa7CPL2SvxTmHnN","contest":"Locus 2020","episode":"Locus 2020","category":null,"contestant":{"voting_id":"66","name":"Project Alexa Pi"},"vote_count":1,"created_on":"2020-02-03T13:01:06.195315+05:45"},{"idx":"g4tayzfRxJy8CpsTgURjod","contest":"Locus 2020","episode":"Locus 2020","category":null,"contestant":{"voting_id":"31","name":"Project 3 in 1 Cartesian 3D Printer"},"vote_count":1,"created_on":"2020-02-03T12:50:31.352436+05:45"},{"idx":"3YbGeDddrdG4oceQUzZ7mA","contest":"Model Superstar","episode":"Model Superstar Finale","category":null,"contestant":{"voting_id":"01","name":"Sajina Subba"},"vote_count":1,"created_on":"2020-02-03T12:48:59.430217+05:45"},{"idx":"dq7Lz3TawsNTKDBxcJ4Q9B","contest":"Model Superstar","episode":"Model Superstar Finale","category":null,"contestant":{"voting_id":"04","name":"Sabita Maharjan"},"vote_count":1,"created_on":"2020-02-03T12:21:51.930016+05:45"},{"idx":"3kzEeRb5S88HHkStWrcxsg","contest":"Locus 2020","episode":"Locus 2020","category":null,"contestant":{"voting_id":"13","name":"Project Smart Fire Detector"},"vote_count":1,"created_on":"2020-02-03T12:20:55.946401+05:45"},{"idx":"GMzrAJ55UvTxhV5J6PdXVG","contest":"Model Superstar","episode":"Model Superstar Finale","category":null,"contestant":{"voting_id":"32","name":"Ichhya Adhikari"},"vote_count":1,"created_on":"2020-02-03T12:18:02.765221+05:45"},{"idx":"qcR4goDWKBZARZ35eYCY3m","contest":"Locus 2020","episode":"Locus 2020","category":null,"contestant":{"voting_id":"60","name":"Project EMG Contolled Prosthetic Arm"},"vote_count":1,"created_on":"2020-02-03T12:16:59.335642+05:45"},{"idx":"BEhtaUNc8FiFxSppWQWmAE","contest":"Locus 2020","episode":"Locus 2020","category":null,"contestant":{"voting_id":"19","name":"Project CNC Drawing Machine"},"vote_count":1,"created_on":"2020-02-03T12:13:40.644552+05:45"},{"idx":"UfW6zAt43CBPYkKdM9NRkT","contest":"Locus 2020","episode":"Locus 2020","category":null,"contestant":{"voting_id":"31","name":"Project 3 in 1 Cartesian 3D Printer"},"vote_count":1,"created_on":"2020-02-03T12:06:08.926968+05:45"},{"idx":"VuNeA4fEh4uvYQWy8RnsMn","contest":"Locus 2020","episode":"Locus 2020","category":null,"contestant":{"voting_id":"31","name":"Project 3 in 1 Cartesian 3D Printer"},"vote_count":1,"created_on":"2020-02-03T12:04:28.123977+05:45"},{"idx":"ydHTGZADRbffztWPa8oMSa","contest":"Locus 2020","episode":"Locus 2020","category":null,"contestant":{"voting_id":"09","name":"Project Solar Powered Water Surface Garbage Collecting Boat"},"vote_count":1,"created_on":"2020-02-03T12:00:47.099737+05:45"},{"idx":"58AQJPJBFqPfuKDJkwZBYR","contest":"Model Superstar","episode":"Model Superstar Finale","category":null,"contestant":{"voting_id":"14","name":"Ashish Shakya"},"vote_count":1,"created_on":"2020-02-03T12:00:15.400975+05:45"},{"idx":"h4Hda9JDHSJw6bfHPz76m6","contest":"Model Superstar","episode":"Model Superstar Finale","category":null,"contestant":{"voting_id":"11","name":"Rachana Karki"},"vote_count":1,"created_on":"2020-02-03T11:57:45.412553+05:45"},{"idx":"W7iFitNxta9HNFBw8RZVLR","contest":"Locus 2020","episode":"Locus 2020","category":null,"contestant":{"voting_id":"31","name":"Project 3 in 1 Cartesian 3D Printer"},"vote_count":1,"created_on":"2020-02-03T11:53:58.442275+05:45"},{"idx":"QUcKq4NARcaLk3pvJ3SgQ4","contest":"Locus 2020","episode":"Locus 2020","category":null,"contestant":{"voting_id":"01","name":"Project Fire Robo"},"vote_count":1,"created_on":"2020-02-03T11:53:56.436438+05:45"},{"idx":"eYq9rqyGbTtkUamXjmuBVm","contest":"Locus 2020","episode":"Locus 2020","category":null,"contestant":{"voting_id":"31","name":"Project 3 in 1 Cartesian 3D Printer"},"vote_count":1,"created_on":"2020-02-03T11:51:20.521641+05:45"},{"idx":"Cp5HayKzhdVqY5mBuqDuv3","contest":"Model Superstar","episode":"Model Superstar Finale","category":null,"contestant":{"voting_id":"12","name":"Rabin Ghising"},"vote_count":1,"created_on":"2020-02-03T11:42:38.118922+05:45"}]}