{"total_pages":275,"total_records":13717,"next":"https://khalti.com/api/v2/vuservote/?page=21","previous":"https://khalti.com/api/v2/vuservote/?page=19","record_range":[951,1000],"current_page":20,"records":[{"idx":"FiUCmYv9LqC2SB5bru83bY","contest":"Music Eve 2020","episode":"Music Eve 2020 IOE","category":null,"contestant":{"voting_id":"22","name":"swayam dhakal"},"vote_count":1,"created_on":"2020-02-01T13:14:20.318422+05:45"},{"idx":"wzMMtPeQVo4vDbSqdRQJSg","contest":"Locus 2020","episode":"Locus 2020","category":null,"contestant":{"voting_id":"46","name":"Project Immune"},"vote_count":1,"created_on":"2020-02-01T13:13:34.267842+05:45"},{"idx":"ET5PikbjMxfrjN2fyirmFR","contest":"Locus 2020","episode":"Locus 2020","category":null,"contestant":{"voting_id":"46","name":"Project Immune"},"vote_count":1,"created_on":"2020-02-01T13:13:10.262562+05:45"},{"idx":"sQNG49m3m7M5ySGSXMBzSG","contest":"Locus 2020","episode":"Locus 2020","category":null,"contestant":{"voting_id":"38","name":"Project Project -N"},"vote_count":1,"created_on":"2020-02-01T13:11:36.998570+05:45"},{"idx":"id4UHdQkrNw8HGwhpEn9Se","contest":"Locus 2020","episode":"Locus 2020","category":null,"contestant":{"voting_id":"32","name":"Project Health and Environment Checker"},"vote_count":1,"created_on":"2020-02-01T13:11:02.699385+05:45"},{"idx":"32dRLQVaNMWxk5vKpYdY6E","contest":"Locus 2020","episode":"Locus 2020","category":null,"contestant":{"voting_id":"41","name":"Project मनसा- The Nepali Programming Language"},"vote_count":1,"created_on":"2020-02-01T13:10:07.724435+05:45"},{"idx":"R8BMh7pkb4uxciDxDUkYTV","contest":"Locus 2020","episode":"Locus 2020","category":null,"contestant":{"voting_id":"46","name":"Project Immune"},"vote_count":1,"created_on":"2020-02-01T13:09:31.049313+05:45"},{"idx":"QB2YcZUwLovMTqsFhzRg54","contest":"Locus 2020","episode":"Locus 2020","category":null,"contestant":{"voting_id":"46","name":"Project Immune"},"vote_count":1,"created_on":"2020-02-01T13:09:20.257266+05:45"},{"idx":"4r3joKDpzBcEMneNCJvhP5","contest":"Locus 2020","episode":"Locus 2020","category":null,"contestant":{"voting_id":"32","name":"Project Health and Environment Checker"},"vote_count":1,"created_on":"2020-02-01T13:08:38.300131+05:45"},{"idx":"8gNfwQYqnYcnsdVvYFpJcd","contest":"Locus 2020","episode":"Locus 2020","category":null,"contestant":{"voting_id":"46","name":"Project Immune"},"vote_count":1,"created_on":"2020-02-01T13:06:00.213564+05:45"},{"idx":"vzzcezkigCPCg4zwTMVSWU","contest":"Locus 2020","episode":"Locus 2020","category":null,"contestant":{"voting_id":"46","name":"Project Immune"},"vote_count":1,"created_on":"2020-02-01T13:04:31.560493+05:45"},{"idx":"PgUzYcaRZrztJ9BsD4pj99","contest":"Locus 2020","episode":"Locus 2020","category":null,"contestant":{"voting_id":"46","name":"Project Immune"},"vote_count":1,"created_on":"2020-02-01T13:03:31.302805+05:45"},{"idx":"CiCNGNiYVd337kXMhsZ7Ke","contest":"Locus 2020","episode":"Locus 2020","category":null,"contestant":{"voting_id":"32","name":"Project Health and Environment Checker"},"vote_count":1,"created_on":"2020-02-01T13:01:32.514229+05:45"},{"idx":"c8LqBzLp6geBLKeiQ8yMSJ","contest":"Locus 2020","episode":"Locus 2020","category":null,"contestant":{"voting_id":"34","name":"Project Femicoders"},"vote_count":1,"created_on":"2020-02-01T12:58:11.859573+05:45"},{"idx":"HRWxvKJGUE2bVYcvD6qvmh","contest":"Locus 2020","episode":"Locus 2020","category":null,"contestant":{"voting_id":"47","name":"Project IOT Based Alcohol Detection system for drivers"},"vote_count":1,"created_on":"2020-02-01T12:54:14.098411+05:45"},{"idx":"nA6MU63fPrXhDHQbZZq9oH","contest":"Locus 2020","episode":"Locus 2020","category":null,"contestant":{"voting_id":"34","name":"Project Femicoders"},"vote_count":1,"created_on":"2020-02-01T12:52:13.191659+05:45"},{"idx":"4LuYCZAGD2yni3oLTLg4Jn","contest":"Locus 2020","episode":"Locus 2020","category":null,"contestant":{"voting_id":"62","name":"Project 2D CNC Plotter"},"vote_count":1,"created_on":"2020-02-01T12:48:00.026155+05:45"},{"idx":"jdfp4mmg6ayAysjC4ujyYV","contest":"Locus 2020","episode":"Locus 2020","category":null,"contestant":{"voting_id":"46","name":"Project Immune"},"vote_count":1,"created_on":"2020-02-01T12:47:14.621470+05:45"},{"idx":"k4gBxGth9nDMestsgrAieW","contest":"Locus 2020","episode":"Locus 2020","category":null,"contestant":{"voting_id":"32","name":"Project Health and Environment Checker"},"vote_count":1,"created_on":"2020-02-01T12:46:41.126116+05:45"},{"idx":"bkEA52GrYvhxWkZ8HSCCZ5","contest":"Locus 2020","episode":"Locus 2020","category":null,"contestant":{"voting_id":"52","name":"Project Trivram"},"vote_count":1,"created_on":"2020-02-01T12:46:18.989761+05:45"},{"idx":"te9xoKHZW8WMxBTtKzy38n","contest":"Model Superstar","episode":"Model Superstar Finale","category":null,"contestant":{"voting_id":"07","name":"Narman Malla"},"vote_count":1,"created_on":"2020-02-01T12:45:45.995531+05:45"},{"idx":"3FW6n6gBX2oBFuT6pbpi6K","contest":"Locus 2020","episode":"Locus 2020","category":null,"contestant":{"voting_id":"17","name":"Project EN SAT"},"vote_count":1,"created_on":"2020-02-01T12:44:56.745347+05:45"},{"idx":"hzJ6CXjTjjyByzgUspXRpX","contest":"Locus 2020","episode":"Locus 2020","category":null,"contestant":{"voting_id":"32","name":"Project Health and Environment Checker"},"vote_count":1,"created_on":"2020-02-01T12:43:20.791838+05:45"},{"idx":"9nFaoLNEPrAjSgxhChcWSA","contest":"Locus 2020","episode":"Locus 2020","category":null,"contestant":{"voting_id":"24","name":"Project Library App"},"vote_count":1,"created_on":"2020-02-01T12:42:00.413024+05:45"},{"idx":"iXBpGc989Cd66jEopGzhMj","contest":"Locus 2020","episode":"Locus 2020","category":null,"contestant":{"voting_id":"07","name":"Project Automatic Irrigation System"},"vote_count":1,"created_on":"2020-02-01T12:41:31.165867+05:45"},{"idx":"NcJRG8KasXSEoC6edLHUDX","contest":"Locus 2020","episode":"Locus 2020","category":null,"contestant":{"voting_id":"46","name":"Project Immune"},"vote_count":5,"created_on":"2020-02-01T12:41:20.574190+05:45"},{"idx":"pLgSyCcNDhMZ5fhNAbYswR","contest":"Locus 2020","episode":"Locus 2020","category":null,"contestant":{"voting_id":"46","name":"Project Immune"},"vote_count":1,"created_on":"2020-02-01T12:40:18.520351+05:45"},{"idx":"KDa8KNRS8gpaeGPDvKtTVD","contest":"Locus 2020","episode":"Locus 2020","category":null,"contestant":{"voting_id":"60","name":"Project EMG Contolled Prosthetic Arm"},"vote_count":1,"created_on":"2020-02-01T12:38:42.851297+05:45"},{"idx":"xy64XdpUbpFofwLHEGjppJ","contest":"Locus 2020","episode":"Locus 2020","category":null,"contestant":{"voting_id":"32","name":"Project Health and Environment Checker"},"vote_count":1,"created_on":"2020-02-01T12:37:05.349712+05:45"},{"idx":"4KCbQBfaoDwnUtvvfNC6WM","contest":"Model Superstar","episode":"Model Superstar Finale","category":null,"contestant":{"voting_id":"02","name":"Srijana Basnet"},"vote_count":1,"created_on":"2020-02-01T12:35:40.314308+05:45"},{"idx":"F4UXhReKstL87RTmAKuHxk","contest":"Model Superstar","episode":"Model Superstar Finale","category":null,"contestant":{"voting_id":"02","name":"Srijana Basnet"},"vote_count":1,"created_on":"2020-02-01T12:35:24.790637+05:45"},{"idx":"Rfe3mHAPUBqQmoRHDniaMQ","contest":"Locus 2020","episode":"Locus 2020","category":null,"contestant":{"voting_id":"46","name":"Project Immune"},"vote_count":1,"created_on":"2020-02-01T12:34:07.004537+05:45"},{"idx":"Yn4B6gU4z5vEP337nK7Ys5","contest":"Locus 2020","episode":"Locus 2020","category":null,"contestant":{"voting_id":"66","name":"Project Alexa Pi"},"vote_count":1,"created_on":"2020-02-01T12:33:52.051870+05:45"},{"idx":"SEPv4yWELJNk23vt48cBxX","contest":"Locus 2020","episode":"Locus 2020","category":null,"contestant":{"voting_id":"34","name":"Project Femicoders"},"vote_count":1,"created_on":"2020-02-01T12:32:17.076764+05:45"},{"idx":"rsBVgLZWgCTiLwLVXNzRGK","contest":"Locus 2020","episode":"Locus 2020","category":null,"contestant":{"voting_id":"32","name":"Project Health and Environment Checker"},"vote_count":1,"created_on":"2020-02-01T12:30:31.961206+05:45"},{"idx":"pSyKyfban793j78juMgr7Y","contest":"Locus 2020","episode":"Locus 2020","category":null,"contestant":{"voting_id":"38","name":"Project Project -N"},"vote_count":1,"created_on":"2020-02-01T12:30:30.629870+05:45"},{"idx":"xiT8LiShNqU9eo2BURRQdM","contest":"Model Superstar","episode":"Model Superstar Finale","category":null,"contestant":{"voting_id":"08","name":"Roshan Sunam"},"vote_count":1,"created_on":"2020-02-01T12:29:26.089253+05:45"},{"idx":"DjgN258MAgtfvzQEX3fY6A","contest":"Locus 2020","episode":"Locus 2020","category":null,"contestant":{"voting_id":"84","name":"Project Margadarshan"},"vote_count":1,"created_on":"2020-02-01T12:24:33.584910+05:45"},{"idx":"xDnGM9YkLFzRFhhEkTXtTn","contest":"Locus 2020","episode":"Locus 2020","category":null,"contestant":{"voting_id":"57","name":"Project Classroom Attendance using facial recognition"},"vote_count":1,"created_on":"2020-02-01T12:21:16.286748+05:45"},{"idx":"LScC88GUWYh9MLBFKcEJXK","contest":"Model Superstar","episode":"Model Superstar Finale","category":null,"contestant":{"voting_id":"02","name":"Srijana Basnet"},"vote_count":1,"created_on":"2020-02-01T12:17:31.767600+05:45"},{"idx":"EFhByaoPhNAt8U8azjnH59","contest":"Locus 2020","episode":"Locus 2020","category":null,"contestant":{"voting_id":"04","name":"Project IRB -Robo Arm"},"vote_count":1,"created_on":"2020-02-01T12:12:57.144598+05:45"},{"idx":"iymEFsBBv7pF3M4aoyBWN8","contest":"Locus 2020","episode":"Locus 2020","category":null,"contestant":{"voting_id":"66","name":"Project Alexa Pi"},"vote_count":1,"created_on":"2020-02-01T12:12:20.269177+05:45"},{"idx":"akyb8HXSVNVmP4toJwwoJF","contest":"Locus 2020","episode":"Locus 2020","category":null,"contestant":{"voting_id":"08","name":"Project A Smart Approach Towards Lifestyle in Nepal"},"vote_count":1,"created_on":"2020-02-01T12:12:12.567627+05:45"},{"idx":"e6G8zUvQSWvNChiq8CtN2m","contest":"Locus 2020","episode":"Locus 2020","category":null,"contestant":{"voting_id":"04","name":"Project IRB -Robo Arm"},"vote_count":1,"created_on":"2020-02-01T12:12:00.255207+05:45"},{"idx":"US3AajBTdRyZuHTRjuwCd3","contest":"Locus 2020","episode":"Locus 2020","category":null,"contestant":{"voting_id":"66","name":"Project Alexa Pi"},"vote_count":1,"created_on":"2020-02-01T12:11:02.453345+05:45"},{"idx":"fFwJhgcJW2SeUX7RkKSvMA","contest":"Model Superstar","episode":"Model Superstar Finale","category":null,"contestant":{"voting_id":"02","name":"Srijana Basnet"},"vote_count":1,"created_on":"2020-02-01T12:06:25.310274+05:45"},{"idx":"GDMb9CTHid4vCCySd4NyNn","contest":"Model Superstar","episode":"Model Superstar Finale","category":null,"contestant":{"voting_id":"16","name":"Anil Karki"},"vote_count":1,"created_on":"2020-02-01T12:04:27.180966+05:45"},{"idx":"xupzx6S8NX3kPRDMwkEDTR","contest":"Locus 2020","episode":"Locus 2020","category":null,"contestant":{"voting_id":"66","name":"Project Alexa Pi"},"vote_count":1,"created_on":"2020-02-01T12:00:39.384150+05:45"},{"idx":"9pD8JNVD9R2Um9ZL5knWwR","contest":"Locus 2020","episode":"Locus 2020","category":null,"contestant":{"voting_id":"66","name":"Project Alexa Pi"},"vote_count":1,"created_on":"2020-02-01T11:59:17.350635+05:45"},{"idx":"qQYcReGufVKTXsgn3WxtJ7","contest":"Locus 2020","episode":"Locus 2020","category":null,"contestant":{"voting_id":"31","name":"Project 3 in 1 Cartesian 3D Printer"},"vote_count":1,"created_on":"2020-02-01T11:58:32.047645+05:45"}]}