{"total_pages":275,"total_records":13721,"next":"https://khalti.com/api/v2/vuservote/?page=201","previous":"https://khalti.com/api/v2/vuservote/?page=199","record_range":[9951,10000],"current_page":200,"records":[{"idx":"mcKtDUfbJmdLVGpY9qqAUX","contest":"Model Superstar","episode":"Model Superstar","category":null,"contestant":{"voting_id":"14","name":"Ashish Shakya"},"vote_count":1,"created_on":"2019-12-29T22:42:13.208286+05:45"},{"idx":"2asPrXBDHZMvUFfZFY7EgB","contest":"Model Superstar","episode":"Model Superstar","category":null,"contestant":{"voting_id":"14","name":"Ashish Shakya"},"vote_count":1,"created_on":"2019-12-29T22:42:00.944051+05:45"},{"idx":"cqhWuHwyRBNG6WCZSrcGVn","contest":"Model Superstar","episode":"Model Superstar","category":null,"contestant":{"voting_id":"14","name":"Ashish Shakya"},"vote_count":1,"created_on":"2019-12-29T22:41:49.678642+05:45"},{"idx":"QQFHd2STfVAaagio5oA62D","contest":"Model Superstar","episode":"Model Superstar","category":null,"contestant":{"voting_id":"14","name":"Ashish Shakya"},"vote_count":1,"created_on":"2019-12-29T22:41:36.912935+05:45"},{"idx":"omf3XuYbfwZPfbEH2xLo8F","contest":"Model Superstar","episode":"Model Superstar","category":null,"contestant":{"voting_id":"14","name":"Ashish Shakya"},"vote_count":1,"created_on":"2019-12-29T22:41:23.757632+05:45"},{"idx":"kuZyxMuWJ4ann2rj78S6oX","contest":"Model Superstar","episode":"Model Superstar","category":null,"contestant":{"voting_id":"14","name":"Ashish Shakya"},"vote_count":1,"created_on":"2019-12-29T22:40:38.700646+05:45"},{"idx":"RPn7oyzL2UM9MDJzTCck8Z","contest":"Model Superstar","episode":"Model Superstar","category":null,"contestant":{"voting_id":"14","name":"Ashish Shakya"},"vote_count":1,"created_on":"2019-12-29T22:38:05.147432+05:45"},{"idx":"39ef52jdnB9wBMmheeb2Eg","contest":"Model Superstar","episode":"Model Superstar","category":null,"contestant":{"voting_id":"14","name":"Ashish Shakya"},"vote_count":1,"created_on":"2019-12-29T22:37:51.860915+05:45"},{"idx":"dQT73ftXaG5PbbPAk9SBKc","contest":"Model Superstar","episode":"Model Superstar","category":null,"contestant":{"voting_id":"14","name":"Ashish Shakya"},"vote_count":1,"created_on":"2019-12-29T22:37:37.112531+05:45"},{"idx":"f7gphA8HCqzDnvAHAsMqtK","contest":"Model Superstar","episode":"Model Superstar","category":null,"contestant":{"voting_id":"22","name":"Sunil Laudrey"},"vote_count":1,"created_on":"2019-12-29T22:32:58.224326+05:45"},{"idx":"G8GmMFrX9XFj6zvdDhNV89","contest":"Model Superstar","episode":"Model Superstar","category":null,"contestant":{"voting_id":"07","name":"Narman Malla"},"vote_count":1,"created_on":"2019-12-29T22:00:14.831942+05:45"},{"idx":"8TSfyuvfsaS4jVsxZS8tdW","contest":"Model Superstar","episode":"Model Superstar","category":null,"contestant":{"voting_id":"07","name":"Narman Malla"},"vote_count":1,"created_on":"2019-12-29T21:39:56.202704+05:45"},{"idx":"WaWpLnChFwrRT3rhJScwga","contest":"Model Superstar","episode":"Model Superstar","category":null,"contestant":{"voting_id":"12","name":"Rabin Ghising"},"vote_count":1,"created_on":"2019-12-29T21:06:58.947709+05:45"},{"idx":"yQhq8F5RvCBPyBTEoMbU9Y","contest":"Model Superstar","episode":"Model Superstar","category":null,"contestant":{"voting_id":"12","name":"Rabin Ghising"},"vote_count":1,"created_on":"2019-12-29T21:06:54.530690+05:45"},{"idx":"rZww9jq37xfqNa3MgqL4j2","contest":"Model Superstar","episode":"Model Superstar","category":null,"contestant":{"voting_id":"12","name":"Rabin Ghising"},"vote_count":1,"created_on":"2019-12-29T21:06:51.120041+05:45"},{"idx":"HMQzKyjxg9VmcjCLPFcaVG","contest":"NEPALBHASA STAR MUSIC VIDEO AWARDS-2019","episode":null,"category":"BEST MODEL, FEMALE","contestant":{"voting_id":"13B","name":"Ashishma Nakarmi"},"vote_count":1,"created_on":"2019-12-29T20:23:00.282295+05:45"},{"idx":"NzJHvtfb5SvQvvdLyCy8zJ","contest":"Model Superstar","episode":"Model Superstar","category":null,"contestant":{"voting_id":"02","name":"Srijana Basnet"},"vote_count":1,"created_on":"2019-12-29T20:21:09.596915+05:45"},{"idx":"WBZ48dWDjtJVd3qG3HUf7Y","contest":"Model Superstar","episode":"Model Superstar","category":null,"contestant":{"voting_id":"01","name":"Sajina Subba"},"vote_count":1,"created_on":"2019-12-29T20:10:24.792128+05:45"},{"idx":"CtRfHpcnhV33uUsY9D58Lc","contest":"NEPALBHASA STAR MUSIC VIDEO AWARDS-2019","episode":null,"category":"BEST MUSIC VIDEO","contestant":{"voting_id":"1I","name":"Raj kumar Manandhar"},"vote_count":1,"created_on":"2019-12-29T19:49:06.188811+05:45"},{"idx":"mK95n3USaecvUrwHdUrL5d","contest":"Model Superstar","episode":"Model Superstar","category":null,"contestant":{"voting_id":"03","name":"Smriti Shah"},"vote_count":1,"created_on":"2019-12-29T19:47:39.359861+05:45"},{"idx":"hcyLVWzK2XSVi6QGBQNwdk","contest":"NEPALBHASA STAR MUSIC VIDEO AWARDS-2019","episode":null,"category":"BEST Singer,FEMALE","contestant":{"voting_id":"17D","name":"Sarita Shahi"},"vote_count":1,"created_on":"2019-12-29T19:46:32.169854+05:45"},{"idx":"6Vt8kT3c5YTNQD9BbufHoc","contest":"Model Superstar","episode":"Model Superstar","category":null,"contestant":{"voting_id":"01","name":"Sajina Subba"},"vote_count":1,"created_on":"2019-12-29T19:45:51.737943+05:45"},{"idx":"FjBfCqbmcyv5ukKB6RbWrR","contest":"Model Superstar","episode":"Model Superstar","category":null,"contestant":{"voting_id":"12","name":"Rabin Ghising"},"vote_count":1,"created_on":"2019-12-29T19:18:51.002276+05:45"},{"idx":"WBJRWgTquRHbBwxSqAH4tV","contest":"Model Superstar","episode":"Model Superstar","category":null,"contestant":{"voting_id":"01","name":"Sajina Subba"},"vote_count":1,"created_on":"2019-12-29T18:48:53.215720+05:45"},{"idx":"oPGmdPJuCYEdrhbUwULzQ8","contest":"Model Superstar","episode":"Model Superstar","category":null,"contestant":{"voting_id":"02","name":"Srijana Basnet"},"vote_count":1,"created_on":"2019-12-29T18:37:36.479419+05:45"},{"idx":"5hhqMQioD2hxgUD6oYCthj","contest":"Model Superstar","episode":"Model Superstar","category":null,"contestant":{"voting_id":"28","name":"Pujan Tamang"},"vote_count":1,"created_on":"2019-12-29T18:36:50.865788+05:45"},{"idx":"nEymovY3Z2zDRFjnLAcULA","contest":"Model Superstar","episode":"Model Superstar","category":null,"contestant":{"voting_id":"01","name":"Sajina Subba"},"vote_count":1,"created_on":"2019-12-29T18:25:31.689243+05:45"},{"idx":"h6kQtGHt2Se3obYYn6UdXV","contest":"Model Superstar","episode":"Model Superstar","category":null,"contestant":{"voting_id":"17","name":"Sajana Panta"},"vote_count":1,"created_on":"2019-12-29T17:51:44.418927+05:45"},{"idx":"fS5azqjKaheaLY23KNEmfY","contest":"NEPALBHASA STAR MUSIC VIDEO AWARDS-2019","episode":null,"category":"BEST Singer,FEMALE","contestant":{"voting_id":"17F","name":"Sonam Maharjan"},"vote_count":1,"created_on":"2019-12-29T17:49:47.128065+05:45"},{"idx":"gEBvjhZj5XQPCa4F3qJGLP","contest":"NEPALBHASA STAR MUSIC VIDEO AWARDS-2019","episode":null,"category":"THE RISING STAR SINGER","contestant":{"voting_id":"21B","name":"Ves Maharjan"},"vote_count":1,"created_on":"2019-12-29T17:48:14.333041+05:45"},{"idx":"sEyVd4jJzVWfbw3S5nGfV3","contest":"Model Superstar","episode":"Model Superstar","category":null,"contestant":{"voting_id":"07","name":"Narman Malla"},"vote_count":1,"created_on":"2019-12-29T17:04:01.220192+05:45"},{"idx":"xKsUThwUbNq36Ue4eLAFWK","contest":"Model Superstar","episode":"Model Superstar","category":null,"contestant":{"voting_id":"14","name":"Ashish Shakya"},"vote_count":1,"created_on":"2019-12-29T17:03:35.454202+05:45"},{"idx":"xoQe4GcgRmkmHFmD69k99S","contest":"Model Superstar","episode":"Model Superstar","category":null,"contestant":{"voting_id":"10","name":"Sameep Sharma"},"vote_count":1,"created_on":"2019-12-29T17:02:49.176037+05:45"},{"idx":"GqFERJCJC8MXDiLssWVWKA","contest":"Model Superstar","episode":"Model Superstar","category":null,"contestant":{"voting_id":"06","name":"Sujan Basnet"},"vote_count":1,"created_on":"2019-12-29T17:02:34.296034+05:45"},{"idx":"4LQfgYfRcV6ugC3rLwazbe","contest":"Model Superstar","episode":"Model Superstar","category":null,"contestant":{"voting_id":"07","name":"Narman Malla"},"vote_count":1,"created_on":"2019-12-29T17:02:22.191698+05:45"},{"idx":"KyzopRepSohLBHu4geasWR","contest":"Model Superstar","episode":"Model Superstar","category":null,"contestant":{"voting_id":"05","name":"Asmita Thapa Magar"},"vote_count":1,"created_on":"2019-12-29T17:02:07.039473+05:45"},{"idx":"NnCCwtwfGHPNLRjFVshGiP","contest":"Model Superstar","episode":"Model Superstar","category":null,"contestant":{"voting_id":"04","name":"Sabita Maharjan"},"vote_count":1,"created_on":"2019-12-29T17:01:50.801336+05:45"},{"idx":"5dg38L3ZkFgKGRQETcpR2i","contest":"Model Superstar","episode":"Model Superstar","category":null,"contestant":{"voting_id":"02","name":"Srijana Basnet"},"vote_count":1,"created_on":"2019-12-29T17:01:31.578349+05:45"},{"idx":"wYXXgXnuFQc9EG2BEuccYS","contest":"NEPALBHASA STAR MUSIC VIDEO AWARDS-2019","episode":null,"category":"BEST MUSIC DIRECTOR","contestant":{"voting_id":"6C","name":"Purna Man Maharjan "},"vote_count":1,"created_on":"2019-12-29T15:46:29.436007+05:45"},{"idx":"T8PPn7qkSttGWf6RkcxSvc","contest":"NEPALBHASA STAR MUSIC VIDEO AWARDS-2019","episode":null,"category":"THE RISING STAR SINGER","contestant":{"voting_id":"21E","name":"Purna Man Maharjan"},"vote_count":1,"created_on":"2019-12-29T15:42:40.710396+05:45"},{"idx":"4oMgs9E4CBqrAYoriqkfGR","contest":"Model Superstar","episode":"Model Superstar","category":null,"contestant":{"voting_id":"02","name":"Srijana Basnet"},"vote_count":1,"created_on":"2019-12-29T15:35:28.721148+05:45"},{"idx":"4obzSbopzAEvdEkVibSaMn","contest":"Model Superstar","episode":"Model Superstar","category":null,"contestant":{"voting_id":"03","name":"Smriti Shah"},"vote_count":1,"created_on":"2019-12-29T15:33:42.322831+05:45"},{"idx":"WGpprAMzyKA2zAYmktCS4Z","contest":"Model Superstar","episode":"Model Superstar","category":null,"contestant":{"voting_id":"04","name":"Sabita Maharjan"},"vote_count":1,"created_on":"2019-12-29T15:33:03.580725+05:45"},{"idx":"DS2AzkTpssja2cKV9mJVb8","contest":"Model Superstar","episode":"Model Superstar","category":null,"contestant":{"voting_id":"04","name":"Sabita Maharjan"},"vote_count":1,"created_on":"2019-12-29T14:36:07.166031+05:45"},{"idx":"gqJrkVLAz9gbCbN7JWdANK","contest":"Model Superstar","episode":"Model Superstar","category":null,"contestant":{"voting_id":"04","name":"Sabita Maharjan"},"vote_count":1,"created_on":"2019-12-29T14:35:53.861735+05:45"},{"idx":"VPsWAv9DsX6Kg5onwMKZRV","contest":"Model Superstar","episode":"Model Superstar","category":null,"contestant":{"voting_id":"04","name":"Sabita Maharjan"},"vote_count":1,"created_on":"2019-12-29T14:35:40.774641+05:45"},{"idx":"m4WPxtMNTrpoXybQfV4kK4","contest":"Model Superstar","episode":"Model Superstar","category":null,"contestant":{"voting_id":"04","name":"Sabita Maharjan"},"vote_count":1,"created_on":"2019-12-29T14:35:25.089922+05:45"},{"idx":"gKfoZFS8KSbWDrUVBx9MdS","contest":"Model Superstar","episode":"Model Superstar","category":null,"contestant":{"voting_id":"04","name":"Sabita Maharjan"},"vote_count":1,"created_on":"2019-12-29T14:35:11.036831+05:45"},{"idx":"d9AAc3JJfn3wQkAKaFLZXW","contest":"Model Superstar","episode":"Model Superstar","category":null,"contestant":{"voting_id":"04","name":"Sabita Maharjan"},"vote_count":1,"created_on":"2019-12-29T14:33:53.964913+05:45"},{"idx":"VUQL4QHSopqLnouGHng3tF","contest":"Model Superstar","episode":"Model Superstar","category":null,"contestant":{"voting_id":"04","name":"Sabita Maharjan"},"vote_count":1,"created_on":"2019-12-29T14:33:41.359301+05:45"}]}