{"total_pages":275,"total_records":13721,"next":"https://khalti.com/api/v2/vuservote/?page=202","previous":"https://khalti.com/api/v2/vuservote/?page=200","record_range":[10001,10050],"current_page":201,"records":[{"idx":"UxHAiiphqd4arGzZJZ8PFK","contest":"Model Superstar","episode":"Model Superstar","category":null,"contestant":{"voting_id":"04","name":"Sabita Maharjan"},"vote_count":1,"created_on":"2019-12-29T14:33:24.198850+05:45"},{"idx":"SXQABJktg8uTervoZ79k3W","contest":"Model Superstar","episode":"Model Superstar","category":null,"contestant":{"voting_id":"04","name":"Sabita Maharjan"},"vote_count":1,"created_on":"2019-12-29T14:33:10.894698+05:45"},{"idx":"aVRdfwdFf5dFtwaAk3gzdK","contest":"Model Superstar","episode":"Model Superstar","category":null,"contestant":{"voting_id":"04","name":"Sabita Maharjan"},"vote_count":1,"created_on":"2019-12-29T14:32:57.718213+05:45"},{"idx":"a2NsJLPxnnucW4jEUqEau9","contest":"Model Superstar","episode":"Model Superstar","category":null,"contestant":{"voting_id":"04","name":"Sabita Maharjan"},"vote_count":1,"created_on":"2019-12-29T14:32:44.958059+05:45"},{"idx":"n4SmTMWM3SsSccpWk4HRjS","contest":"Model Superstar","episode":"Model Superstar","category":null,"contestant":{"voting_id":"04","name":"Sabita Maharjan"},"vote_count":1,"created_on":"2019-12-29T14:32:31.733201+05:45"},{"idx":"TDirUqimPWiLwRBmvYeLRb","contest":"Model Superstar","episode":"Model Superstar","category":null,"contestant":{"voting_id":"04","name":"Sabita Maharjan"},"vote_count":1,"created_on":"2019-12-29T14:32:17.788762+05:45"},{"idx":"ydjiZFr2CXTrHKvpzbkqiA","contest":"Model Superstar","episode":"Model Superstar","category":null,"contestant":{"voting_id":"04","name":"Sabita Maharjan"},"vote_count":1,"created_on":"2019-12-29T14:32:02.026118+05:45"},{"idx":"W8cU4QqMmrMTsr5yJAop3M","contest":"Model Superstar","episode":"Model Superstar","category":null,"contestant":{"voting_id":"04","name":"Sabita Maharjan"},"vote_count":1,"created_on":"2019-12-29T14:31:48.917631+05:45"},{"idx":"CnAcSeA89JBUVw57VJgSpP","contest":"Model Superstar","episode":"Model Superstar","category":null,"contestant":{"voting_id":"04","name":"Sabita Maharjan"},"vote_count":1,"created_on":"2019-12-29T14:31:35.616471+05:45"},{"idx":"B8NX8DnrFwfDhV4ek52fnT","contest":"Model Superstar","episode":"Model Superstar","category":null,"contestant":{"voting_id":"04","name":"Sabita Maharjan"},"vote_count":1,"created_on":"2019-12-29T14:31:22.680138+05:45"},{"idx":"QSDN5C2QaQgz7XTKUarVe7","contest":"Model Superstar","episode":"Model Superstar","category":null,"contestant":{"voting_id":"04","name":"Sabita Maharjan"},"vote_count":1,"created_on":"2019-12-29T14:31:10.689918+05:45"},{"idx":"zEYMzpsq7snAvVZQkQbzJh","contest":"Model Superstar","episode":"Model Superstar","category":null,"contestant":{"voting_id":"04","name":"Sabita Maharjan"},"vote_count":1,"created_on":"2019-12-29T14:30:57.624295+05:45"},{"idx":"H7c6bFYnMMjm2n5SfUE8nW","contest":"Model Superstar","episode":"Model Superstar","category":null,"contestant":{"voting_id":"04","name":"Sabita Maharjan"},"vote_count":1,"created_on":"2019-12-29T14:30:43.622366+05:45"},{"idx":"hULs4qAgCGtmW6SKJEKJGK","contest":"Model Superstar","episode":"Model Superstar","category":null,"contestant":{"voting_id":"04","name":"Sabita Maharjan"},"vote_count":1,"created_on":"2019-12-29T14:30:30.545692+05:45"},{"idx":"ADryNarx5XHhVKSeEUK67N","contest":"Model Superstar","episode":"Model Superstar","category":null,"contestant":{"voting_id":"04","name":"Sabita Maharjan"},"vote_count":1,"created_on":"2019-12-29T14:30:16.864573+05:45"},{"idx":"vmbaXQYyGJTq4So95BVyzV","contest":"Model Superstar","episode":"Model Superstar","category":null,"contestant":{"voting_id":"04","name":"Sabita Maharjan"},"vote_count":1,"created_on":"2019-12-29T14:30:04.727290+05:45"},{"idx":"ubCpGiErt8T2zGyij4nb9U","contest":"Model Superstar","episode":"Model Superstar","category":null,"contestant":{"voting_id":"04","name":"Sabita Maharjan"},"vote_count":1,"created_on":"2019-12-29T14:29:45.255149+05:45"},{"idx":"bsxwDVLGGYrqgV9BJGBUMS","contest":"Model Superstar","episode":"Model Superstar","category":null,"contestant":{"voting_id":"04","name":"Sabita Maharjan"},"vote_count":1,"created_on":"2019-12-29T14:29:30.949377+05:45"},{"idx":"EUkw4K6XipshoWpcBw929c","contest":"Model Superstar","episode":"Model Superstar","category":null,"contestant":{"voting_id":"04","name":"Sabita Maharjan"},"vote_count":1,"created_on":"2019-12-29T14:29:17.495126+05:45"},{"idx":"3uUe7FGZ4BEcFBhmKDzBYW","contest":"Model Superstar","episode":"Model Superstar","category":null,"contestant":{"voting_id":"04","name":"Sabita Maharjan"},"vote_count":1,"created_on":"2019-12-29T14:28:59.604736+05:45"},{"idx":"rLBasTcHG5fbSZ8kAUVYAC","contest":"Model Superstar","episode":"Model Superstar","category":null,"contestant":{"voting_id":"04","name":"Sabita Maharjan"},"vote_count":1,"created_on":"2019-12-29T14:28:46.210342+05:45"},{"idx":"MdWbb8deD3zMHYYmzK2vuk","contest":"Model Superstar","episode":"Model Superstar","category":null,"contestant":{"voting_id":"04","name":"Sabita Maharjan"},"vote_count":1,"created_on":"2019-12-29T14:28:31.865668+05:45"},{"idx":"iVDZVzGM56y5yp6j6ocLVi","contest":"Model Superstar","episode":"Model Superstar","category":null,"contestant":{"voting_id":"04","name":"Sabita Maharjan"},"vote_count":1,"created_on":"2019-12-29T14:28:15.221710+05:45"},{"idx":"5KXrgeqfBDz3KhVGfxDvL2","contest":"Model Superstar","episode":"Model Superstar","category":null,"contestant":{"voting_id":"04","name":"Sabita Maharjan"},"vote_count":1,"created_on":"2019-12-29T14:28:01.604305+05:45"},{"idx":"3xysyzuB3sGNv7tSFo9844","contest":"Model Superstar","episode":"Model Superstar","category":null,"contestant":{"voting_id":"04","name":"Sabita Maharjan"},"vote_count":1,"created_on":"2019-12-29T14:27:47.047394+05:45"},{"idx":"dTvEfosLSTpbuVcbgZu4oM","contest":"Model Superstar","episode":"Model Superstar","category":null,"contestant":{"voting_id":"04","name":"Sabita Maharjan"},"vote_count":1,"created_on":"2019-12-29T14:27:34.446338+05:45"},{"idx":"4GzczrLNaMf2AVTgw6SieQ","contest":"Model Superstar","episode":"Model Superstar","category":null,"contestant":{"voting_id":"27","name":"Suweta Shrestha"},"vote_count":1,"created_on":"2019-12-29T13:56:59.517444+05:45"},{"idx":"hodaBNEDRT9ogRsvcCGehT","contest":"Model Superstar","episode":"Model Superstar","category":null,"contestant":{"voting_id":"28","name":"Pujan Tamang"},"vote_count":1,"created_on":"2019-12-29T13:49:45.615722+05:45"},{"idx":"yvnj6LU9LbqwC3YHhVmE3F","contest":"Model Superstar","episode":"Model Superstar","category":null,"contestant":{"voting_id":"27","name":"Suweta Shrestha"},"vote_count":100,"created_on":"2019-12-29T13:45:07.665317+05:45"},{"idx":"WutN9gLtuQVaN96qm9L3zX","contest":"Model Superstar","episode":"Model Superstar","category":null,"contestant":{"voting_id":"04","name":"Sabita Maharjan"},"vote_count":1,"created_on":"2019-12-29T13:37:31.260713+05:45"},{"idx":"ZpfGGbPBYHaM4og5AjFBqB","contest":"Model Superstar","episode":"Model Superstar","category":null,"contestant":{"voting_id":"01","name":"Sajina Subba"},"vote_count":1,"created_on":"2019-12-29T13:16:51.965405+05:45"},{"idx":"VvzzqJtxZnj3vPLswpoC2n","contest":"NEPALBHASA STAR MUSIC VIDEO AWARDS-2019","episode":null,"category":"THE RISING STAR SINGER","contestant":{"voting_id":"21E","name":"Purna Man Maharjan"},"vote_count":1,"created_on":"2019-12-29T13:15:33.435023+05:45"},{"idx":"42YtZheVFGpxXZ4ZFUe4BV","contest":"Model Superstar","episode":"Model Superstar","category":null,"contestant":{"voting_id":"01","name":"Sajina Subba"},"vote_count":1,"created_on":"2019-12-29T13:15:08.461095+05:45"},{"idx":"bj9hKqmjHqRe7t3yabFGYE","contest":"Model Superstar","episode":"Model Superstar","category":null,"contestant":{"voting_id":"17","name":"Sajana Panta"},"vote_count":1,"created_on":"2019-12-29T12:47:26.416837+05:45"},{"idx":"4EGhTtebeYJ9vFJDtBjESN","contest":"Model Superstar","episode":"Model Superstar","category":null,"contestant":{"voting_id":"02","name":"Srijana Basnet"},"vote_count":1,"created_on":"2019-12-29T12:18:15.956216+05:45"},{"idx":"pAjbpfnpwMgUvVo5HQBWtV","contest":"Model Superstar","episode":"Model Superstar","category":null,"contestant":{"voting_id":"02","name":"Srijana Basnet"},"vote_count":1,"created_on":"2019-12-29T12:17:58.351393+05:45"},{"idx":"Zdg4gdACNYufuWvt6TVdSo","contest":"Model Superstar","episode":"Model Superstar","category":null,"contestant":{"voting_id":"05","name":"Asmita Thapa Magar"},"vote_count":1,"created_on":"2019-12-29T12:17:31.825831+05:45"},{"idx":"WujEGFcQBDjC859oTcske5","contest":"Model Superstar","episode":"Model Superstar","category":null,"contestant":{"voting_id":"17","name":"Sajana Panta"},"vote_count":1,"created_on":"2019-12-29T12:12:31.260989+05:45"},{"idx":"z9U7JmtW6eEWRvJmjVvE7f","contest":"Model Superstar","episode":"Model Superstar","category":null,"contestant":{"voting_id":"17","name":"Sajana Panta"},"vote_count":1,"created_on":"2019-12-29T12:11:54.378535+05:45"},{"idx":"ZTvbB97qmxbuChaax2nxr3","contest":"Model Superstar","episode":"Model Superstar","category":null,"contestant":{"voting_id":"12","name":"Rabin Ghising"},"vote_count":1,"created_on":"2019-12-29T12:11:47.383236+05:45"},{"idx":"ME2wUWSsbKhsg4VMdCfnbh","contest":"Model Superstar","episode":"Model Superstar","category":null,"contestant":{"voting_id":"12","name":"Rabin Ghising"},"vote_count":1,"created_on":"2019-12-29T12:05:52.203056+05:45"},{"idx":"6TWHPqisVyQjzCzPBdmgWP","contest":"Model Superstar","episode":"Model Superstar","category":null,"contestant":{"voting_id":"12","name":"Rabin Ghising"},"vote_count":1,"created_on":"2019-12-29T12:05:26.328671+05:45"},{"idx":"dWs2HrdKvQHkwzywp35NJM","contest":"Model Superstar","episode":"Model Superstar","category":null,"contestant":{"voting_id":"02","name":"Srijana Basnet"},"vote_count":1,"created_on":"2019-12-29T12:05:09.059803+05:45"},{"idx":"8kVrCPGY8dWfYwwNKAqqD7","contest":"Model Superstar","episode":"Model Superstar","category":null,"contestant":{"voting_id":"17","name":"Sajana Panta"},"vote_count":1,"created_on":"2019-12-29T12:05:07.861100+05:45"},{"idx":"hdryiTysQgg6bGpHjfWNU9","contest":"Model Superstar","episode":"Model Superstar","category":null,"contestant":{"voting_id":"27","name":"Suweta Shrestha"},"vote_count":5,"created_on":"2019-12-29T11:45:36.448725+05:45"},{"idx":"BxXHbzJPxM5YjsGAqjyyyS","contest":"Model Superstar","episode":"Model Superstar","category":null,"contestant":{"voting_id":"27","name":"Suweta Shrestha"},"vote_count":1,"created_on":"2019-12-29T11:45:10.220654+05:45"},{"idx":"Tq3AEHxYjdNCeWaiLNiTYg","contest":"NEPALBHASA STAR MUSIC VIDEO AWARDS-2019","episode":null,"category":"BEST MODEL, FEMALE","contestant":{"voting_id":"13H","name":"Sarita Bajracharya"},"vote_count":1,"created_on":"2019-12-29T11:38:42.963485+05:45"},{"idx":"P9mBkW8tHzyCe6Dnj2CeRd","contest":"NEPALBHASA STAR MUSIC VIDEO AWARDS-2019","episode":null,"category":"BEST MODEL, MALE","contestant":{"voting_id":"11J","name":"Rajendra Kumar Maharjan"},"vote_count":1,"created_on":"2019-12-29T11:34:46.558409+05:45"},{"idx":"3RRzwNZ6phGj9n4iuHbkLd","contest":"NEPALBHASA STAR MUSIC VIDEO AWARDS-2019","episode":null,"category":"BEST MUSIC VIDEO","contestant":{"voting_id":"1C","name":"Ves Maharjan"},"vote_count":1,"created_on":"2019-12-29T11:33:09.884518+05:45"},{"idx":"UY7PLzkNkqHQZ8ZTYZtT3m","contest":"Model Superstar","episode":"Model Superstar","category":null,"contestant":{"voting_id":"07","name":"Narman Malla"},"vote_count":1,"created_on":"2019-12-29T11:27:44.641942+05:45"}]}