{"total_pages":275,"total_records":13721,"next":"https://khalti.com/api/v2/vuservote/?page=203","previous":"https://khalti.com/api/v2/vuservote/?page=201","record_range":[10051,10100],"current_page":202,"records":[{"idx":"NWnKXSCwxxKxwzEAG5vuvd","contest":"Model Superstar","episode":"Model Superstar","category":null,"contestant":{"voting_id":"28","name":"Pujan Tamang"},"vote_count":1,"created_on":"2019-12-29T11:26:57.987426+05:45"},{"idx":"KoAn6cDjAirM9HLAEVnt5o","contest":"Model Superstar","episode":"Model Superstar","category":null,"contestant":{"voting_id":"07","name":"Narman Malla"},"vote_count":1,"created_on":"2019-12-29T11:26:50.929191+05:45"},{"idx":"rNwvcBfGvBd6zXc86CnTpc","contest":"Model Superstar","episode":"Model Superstar","category":null,"contestant":{"voting_id":"07","name":"Narman Malla"},"vote_count":1,"created_on":"2019-12-29T11:26:35.959930+05:45"},{"idx":"MDoTtuW3jcyrXu2PkGYA9U","contest":"Model Superstar","episode":"Model Superstar","category":null,"contestant":{"voting_id":"12","name":"Rabin Ghising"},"vote_count":1,"created_on":"2019-12-29T11:26:25.304058+05:45"},{"idx":"5qWGGkApEcWa5ezxV8RbGG","contest":"Model Superstar","episode":"Model Superstar","category":null,"contestant":{"voting_id":"07","name":"Narman Malla"},"vote_count":1,"created_on":"2019-12-29T11:24:35.379567+05:45"},{"idx":"VaVhzAmFEX2koHNRoAnfiC","contest":"Model Superstar","episode":"Model Superstar","category":null,"contestant":{"voting_id":"07","name":"Narman Malla"},"vote_count":1,"created_on":"2019-12-29T11:24:19.970944+05:45"},{"idx":"JF4jmzVfGiGvtq26FztyCH","contest":"Model Superstar","episode":"Model Superstar","category":null,"contestant":{"voting_id":"07","name":"Narman Malla"},"vote_count":1,"created_on":"2019-12-29T11:23:22.258214+05:45"},{"idx":"d78qRXWikbzAgbYoDGywaj","contest":"Model Superstar","episode":"Model Superstar","category":null,"contestant":{"voting_id":"07","name":"Narman Malla"},"vote_count":1,"created_on":"2019-12-29T11:23:06.506249+05:45"},{"idx":"xHzJjDB6LUQcMKSBUvgqAN","contest":"Model Superstar","episode":"Model Superstar","category":null,"contestant":{"voting_id":"07","name":"Narman Malla"},"vote_count":1,"created_on":"2019-12-29T11:22:12.648230+05:45"},{"idx":"UcPUEEaZVo6FKHtruJE5x2","contest":"Model Superstar","episode":"Model Superstar","category":null,"contestant":{"voting_id":"07","name":"Narman Malla"},"vote_count":1,"created_on":"2019-12-29T11:21:59.582014+05:45"},{"idx":"BefphWtDxTNDJP4vxewAKE","contest":"Model Superstar","episode":"Model Superstar","category":null,"contestant":{"voting_id":"07","name":"Narman Malla"},"vote_count":1,"created_on":"2019-12-29T11:21:43.194117+05:45"},{"idx":"ZMjf7tqiQcTC2upy6QHn95","contest":"Model Superstar","episode":"Model Superstar","category":null,"contestant":{"voting_id":"07","name":"Narman Malla"},"vote_count":1,"created_on":"2019-12-29T11:21:22.794575+05:45"},{"idx":"ToyNbakuAgcGmuEmiFW6Ji","contest":"Model Superstar","episode":"Model Superstar","category":null,"contestant":{"voting_id":"07","name":"Narman Malla"},"vote_count":1,"created_on":"2019-12-29T11:20:31.935014+05:45"},{"idx":"mND6HfhFLKVw7YEV2FwCYL","contest":"Model Superstar","episode":"Model Superstar","category":null,"contestant":{"voting_id":"07","name":"Narman Malla"},"vote_count":1,"created_on":"2019-12-29T11:20:16.141706+05:45"},{"idx":"2orcPFyrVVr72494RiowYk","contest":"Model Superstar","episode":"Model Superstar","category":null,"contestant":{"voting_id":"07","name":"Narman Malla"},"vote_count":1,"created_on":"2019-12-29T11:20:02.849189+05:45"},{"idx":"K6syZNJduPyAznkGiETrYW","contest":"Model Superstar","episode":"Model Superstar","category":null,"contestant":{"voting_id":"07","name":"Narman Malla"},"vote_count":1,"created_on":"2019-12-29T11:19:48.537059+05:45"},{"idx":"2WuReZQHfPV6NeLbukwy9C","contest":"Model Superstar","episode":"Model Superstar","category":null,"contestant":{"voting_id":"07","name":"Narman Malla"},"vote_count":1,"created_on":"2019-12-29T11:19:29.442796+05:45"},{"idx":"oZBVUcFYNiHvj3RxkJpsY7","contest":"Model Superstar","episode":"Model Superstar","category":null,"contestant":{"voting_id":"07","name":"Narman Malla"},"vote_count":1,"created_on":"2019-12-29T11:19:12.646599+05:45"},{"idx":"3rCskosQwWA86MqmDDKVjn","contest":"Model Superstar","episode":"Model Superstar","category":null,"contestant":{"voting_id":"07","name":"Narman Malla"},"vote_count":1,"created_on":"2019-12-29T11:18:56.432166+05:45"},{"idx":"J8SoH8GJnZrahrAWdVAtAV","contest":"Model Superstar","episode":"Model Superstar","category":null,"contestant":{"voting_id":"07","name":"Narman Malla"},"vote_count":1,"created_on":"2019-12-29T11:18:35.932888+05:45"},{"idx":"pcHX3grL4FGYiSpdjgLvqX","contest":"Model Superstar","episode":"Model Superstar","category":null,"contestant":{"voting_id":"07","name":"Narman Malla"},"vote_count":1,"created_on":"2019-12-29T11:18:18.543726+05:45"},{"idx":"92uvzk95KdyZU6D9ZHBjYn","contest":"NEPALBHASA STAR MUSIC VIDEO AWARDS-2019","episode":null,"category":"THE RISING STAR SINGER","contestant":{"voting_id":"21A","name":"Macha Raja Maharjan"},"vote_count":1,"created_on":"2019-12-29T11:13:08.951679+05:45"},{"idx":"fPbxYP65RNZycpT3wTZw9A","contest":"Model Superstar","episode":"Model Superstar","category":null,"contestant":{"voting_id":"07","name":"Narman Malla"},"vote_count":1,"created_on":"2019-12-29T11:09:51.763553+05:45"},{"idx":"kziFac6kuq4Vc2QMVXhLKc","contest":"Model Superstar","episode":"Model Superstar","category":null,"contestant":{"voting_id":"21","name":"Padam Bahadur Ranamagar"},"vote_count":1,"created_on":"2019-12-29T11:00:24.165091+05:45"},{"idx":"sGwqXUTZSGVGSVz9fdH95S","contest":"Model Superstar","episode":"Model Superstar","category":null,"contestant":{"voting_id":"23","name":"Prishu Gurung"},"vote_count":1,"created_on":"2019-12-29T10:59:15.367278+05:45"},{"idx":"G6Md5nZmiobGMtfTcLJEhU","contest":"Model Superstar","episode":"Model Superstar","category":null,"contestant":{"voting_id":"05","name":"Asmita Thapa Magar"},"vote_count":1,"created_on":"2019-12-29T10:58:22.613242+05:45"},{"idx":"bXJwR4FFQ625BAcrMN2Ce4","contest":"Model Superstar","episode":"Model Superstar","category":null,"contestant":{"voting_id":"01","name":"Sajina Subba"},"vote_count":1,"created_on":"2019-12-29T10:56:55.249305+05:45"},{"idx":"UWs3rEVdQiYku2jJEpQLsE","contest":"NEPALBHASA STAR MUSIC VIDEO AWARDS-2019","episode":null,"category":"BEST MODEL, MALE","contestant":{"voting_id":"11J","name":"Rajendra Kumar Maharjan"},"vote_count":1,"created_on":"2019-12-29T10:47:45.188010+05:45"},{"idx":"7zTfCPRz5ePwNUpriUUGVh","contest":"Model Superstar","episode":"Model Superstar","category":null,"contestant":{"voting_id":"04","name":"Sabita Maharjan"},"vote_count":1,"created_on":"2019-12-29T10:36:58.630369+05:45"},{"idx":"kAGshhDFhEJ7FzdNEdhi9P","contest":"NEPALBHASA STAR MUSIC VIDEO AWARDS-2019","episode":null,"category":"BEST LYRICIST","contestant":{"voting_id":"4A","name":"Dr. Gopal Maharjan"},"vote_count":1,"created_on":"2019-12-29T09:09:19.815259+05:45"},{"idx":"jzMwWb8FiTGBptijcPJsJ4","contest":"NEPALBHASA STAR MUSIC VIDEO AWARDS-2019","episode":null,"category":"BEST MODEL, FEMALE","contestant":{"voting_id":"13B","name":"Ashishma Nakarmi"},"vote_count":1,"created_on":"2019-12-29T08:33:37.022609+05:45"},{"idx":"h4GLUgcNrUj8eB4xmcuydn","contest":"NEPALBHASA STAR MUSIC VIDEO AWARDS-2019","episode":null,"category":"BEST DANCE DIRECTOR","contestant":{"voting_id":"19B","name":"Srijana Maharjan"},"vote_count":1,"created_on":"2019-12-29T08:27:37.150452+05:45"},{"idx":"Wt4jvkXuLihwNvDJBMpDoQ","contest":"NEPALBHASA STAR MUSIC VIDEO AWARDS-2019","episode":null,"category":"BEST Singer,FEMALE","contestant":{"voting_id":"17G","name":"Saraswati Manandhar"},"vote_count":1,"created_on":"2019-12-29T07:23:24.358209+05:45"},{"idx":"wGFJQpxtz9XsuCgDogCkYN","contest":"NEPALBHASA STAR MUSIC VIDEO AWARDS-2019","episode":null,"category":"BEST DIRECTOR","contestant":{"voting_id":"20B","name":"Rajesh Man Singh"},"vote_count":1,"created_on":"2019-12-28T21:31:13.345925+05:45"},{"idx":"LVHnyRyNd37YaqotfgQwrE","contest":"NEPALBHASA STAR MUSIC VIDEO AWARDS-2019","episode":null,"category":"BEST MODEL, FEMALE","contestant":{"voting_id":"13E","name":"Rojina Suwal"},"vote_count":1,"created_on":"2019-12-28T21:26:13.917247+05:45"},{"idx":"sJAk2KsNcLZQsPUosUs9TV","contest":"NEPALBHASA STAR MUSIC VIDEO AWARDS-2019","episode":null,"category":"THE RISING STAR SINGER","contestant":{"voting_id":"21A","name":"Macha Raja Maharjan"},"vote_count":1,"created_on":"2019-12-28T21:24:40.896185+05:45"},{"idx":"3YBSnQbhWZ9UusV76FadqS","contest":"NEPALBHASA STAR MUSIC VIDEO AWARDS-2019","episode":null,"category":"BEST DEBUT MODEL, FEMALE","contestant":{"voting_id":"14E","name":"Karoona Shrestha"},"vote_count":1,"created_on":"2019-12-28T20:23:43.287250+05:45"},{"idx":"sb7zx7m9CS2XednomuKHsR","contest":"NEPALBHASA STAR MUSIC VIDEO AWARDS-2019","episode":null,"category":"BEST DIRECTOR","contestant":{"voting_id":"20A","name":"Bhuwan Shrestha"},"vote_count":1,"created_on":"2019-12-28T20:23:09.627302+05:45"},{"idx":"4qcjcpHq2Ss9YDoGwdYuwm","contest":"NEPALBHASA STAR MUSIC VIDEO AWARDS-2019","episode":null,"category":"BEST DEBUT SINGER, FEMALE","contestant":{"voting_id":"18A","name":"DrishnuManandhar"},"vote_count":1,"created_on":"2019-12-28T19:44:36.684980+05:45"},{"idx":"aqah6ussWdSi78DZVFXEoG","contest":"NEPALBHASA STAR MUSIC VIDEO AWARDS-2019","episode":null,"category":"BEST MODEL, FEMALE","contestant":{"voting_id":"13C","name":"Anjala Nakarmi"},"vote_count":1,"created_on":"2019-12-28T19:04:24.794947+05:45"},{"idx":"JVcG3enTzGS2iCcHQp8fZn","contest":"NEPALBHASA STAR MUSIC VIDEO AWARDS-2019","episode":null,"category":"BEST MODEL, FEMALE","contestant":{"voting_id":"13B","name":"Ashishma Nakarmi"},"vote_count":1,"created_on":"2019-12-28T18:57:34.412925+05:45"},{"idx":"BPH9mcxRTTnJGrqH6eiu5X","contest":"NEPALBHASA STAR MUSIC VIDEO AWARDS-2019","episode":null,"category":"BEST DEBUT MODEL, MALE","contestant":{"voting_id":"12C","name":"Rahul Prajapati"},"vote_count":1,"created_on":"2019-12-28T18:47:19.745378+05:45"},{"idx":"Q4pd9cefEKGR3WqR3ttupe","contest":"NEPALBHASA STAR MUSIC VIDEO AWARDS-2019","episode":null,"category":"BEST SINGER, MALE","contestant":{"voting_id":"15A","name":"Dr. Gopal Maharjan"},"vote_count":1,"created_on":"2019-12-28T18:00:48.075249+05:45"},{"idx":"gweyv2W37fwkmDZdnHriBU","contest":"NEPALBHASA STAR MUSIC VIDEO AWARDS-2019","episode":null,"category":"BEST MODEL, MALE","contestant":{"voting_id":"11B","name":"Raju Maharjan 'Juju'"},"vote_count":1,"created_on":"2019-12-28T15:42:39.589736+05:45"},{"idx":"p6QproviX3h3HJytJcqKDa","contest":"NEPALBHASA STAR MUSIC VIDEO AWARDS-2019","episode":null,"category":"THE RISING STAR SINGER","contestant":{"voting_id":"21E","name":"Purna Man Maharjan"},"vote_count":1,"created_on":"2019-12-28T13:10:12.465868+05:45"},{"idx":"HBqxTiJYVsED8YGbsT8ZYD","contest":"NEPALBHASA STAR MUSIC VIDEO AWARDS-2019","episode":null,"category":"BEST DEBUT MODEL, FEMALE","contestant":{"voting_id":"14D","name":"Anjali Shahi"},"vote_count":1,"created_on":"2019-12-28T09:44:14.181084+05:45"},{"idx":"g3XSHTJAdqWXYhFj9KNqLX","contest":"NEPALBHASA STAR MUSIC VIDEO AWARDS-2019","episode":null,"category":"BEST MODEL, FEMALE","contestant":{"voting_id":"13B","name":"Ashishma Nakarmi"},"vote_count":1,"created_on":"2019-12-28T09:43:30.629008+05:45"},{"idx":"E4cFogW8seAsC898GQrjDL","contest":"NEPALBHASA STAR MUSIC VIDEO AWARDS-2019","episode":null,"category":"BEST DANCE DIRECTOR","contestant":{"voting_id":"19B","name":"Srijana Maharjan"},"vote_count":1,"created_on":"2019-12-28T09:42:58.090814+05:45"},{"idx":"a6hgQghs9yKFrt7wL98otS","contest":"NEPALBHASA STAR MUSIC VIDEO AWARDS-2019","episode":null,"category":"BEST MUSIC DIRECTOR","contestant":{"voting_id":"6A","name":"Suman Kapali"},"vote_count":1,"created_on":"2019-12-28T09:39:33.167803+05:45"},{"idx":"6CTs6HkVtejerGWQ6okRu9","contest":"NEPALBHASA STAR MUSIC VIDEO AWARDS-2019","episode":null,"category":"BEST DEBUT MODEL, FEMALE","contestant":{"voting_id":"14C","name":"Rakshya Shrestha"},"vote_count":1,"created_on":"2019-12-28T09:02:36.224752+05:45"}]}