{"total_pages":275,"total_records":13721,"next":"https://khalti.com/api/v2/vuservote/?page=204","previous":"https://khalti.com/api/v2/vuservote/?page=202","record_range":[10101,10150],"current_page":203,"records":[{"idx":"f7YGB3JD9ReqBn5vysn5YF","contest":"NEPALBHASA STAR MUSIC VIDEO AWARDS-2019","episode":null,"category":"BEST Singer,FEMALE","contestant":{"voting_id":"17B","name":"Ratna Shova Maharjan"},"vote_count":1,"created_on":"2019-12-28T00:18:34.761544+05:45"},{"idx":"4aBmzsEewowjRXycAjAAAB","contest":"Model Superstar","episode":"Model Superstar","category":null,"contestant":{"voting_id":"06","name":"Sujan Basnet"},"vote_count":500,"created_on":"2019-12-27T22:57:43.896498+05:45"},{"idx":"C6aFZJDV6r4Rzr4HCSDDLc","contest":"Model Superstar","episode":"Model Superstar","category":null,"contestant":{"voting_id":"04","name":"Sabita Maharjan"},"vote_count":1,"created_on":"2019-12-27T22:33:25.917787+05:45"},{"idx":"tffddrYmpaWEqWk8UcUUPo","contest":"Model Superstar","episode":"Model Superstar","category":null,"contestant":{"voting_id":"04","name":"Sabita Maharjan"},"vote_count":1,"created_on":"2019-12-27T22:33:08.364894+05:45"},{"idx":"rasYjhBWJuPJt7esiX4pWQ","contest":"Model Superstar","episode":"Model Superstar","category":null,"contestant":{"voting_id":"04","name":"Sabita Maharjan"},"vote_count":1,"created_on":"2019-12-27T22:32:55.027671+05:45"},{"idx":"YZRR5F9CrXRcuDbkMuUPZJ","contest":"Model Superstar","episode":"Model Superstar","category":null,"contestant":{"voting_id":"04","name":"Sabita Maharjan"},"vote_count":1,"created_on":"2019-12-27T22:32:41.482427+05:45"},{"idx":"RrfsdGpgvhvK5pfRL4EbJ7","contest":"Model Superstar","episode":"Model Superstar","category":null,"contestant":{"voting_id":"04","name":"Sabita Maharjan"},"vote_count":1,"created_on":"2019-12-27T22:32:28.234600+05:45"},{"idx":"JaoyPQ42g9yax5RB4LXMNL","contest":"Model Superstar","episode":"Model Superstar","category":null,"contestant":{"voting_id":"04","name":"Sabita Maharjan"},"vote_count":1,"created_on":"2019-12-27T22:32:15.283330+05:45"},{"idx":"hyqFHcvrbaFg7mGnmeyUSD","contest":"Model Superstar","episode":"Model Superstar","category":null,"contestant":{"voting_id":"04","name":"Sabita Maharjan"},"vote_count":1,"created_on":"2019-12-27T22:31:58.752508+05:45"},{"idx":"8f2wtotBxyCt59G3HqFNqh","contest":"Model Superstar","episode":"Model Superstar","category":null,"contestant":{"voting_id":"04","name":"Sabita Maharjan"},"vote_count":1,"created_on":"2019-12-27T22:31:43.761210+05:45"},{"idx":"vJ5B22fGNBdnVGjWAEwFpm","contest":"Model Superstar","episode":"Model Superstar","category":null,"contestant":{"voting_id":"04","name":"Sabita Maharjan"},"vote_count":1,"created_on":"2019-12-27T22:31:28.380213+05:45"},{"idx":"jZQ4zVRAYKqg4MqTA5yC9m","contest":"Model Superstar","episode":"Model Superstar","category":null,"contestant":{"voting_id":"04","name":"Sabita Maharjan"},"vote_count":1,"created_on":"2019-12-27T22:31:14.387254+05:45"},{"idx":"XyubX5wokYquwNtLYDmAH7","contest":"Model Superstar","episode":"Model Superstar","category":null,"contestant":{"voting_id":"04","name":"Sabita Maharjan"},"vote_count":1,"created_on":"2019-12-27T22:30:17.275632+05:45"},{"idx":"UB9RMqydvMjTe6GG9rQVgY","contest":"Model Superstar","episode":"Model Superstar","category":null,"contestant":{"voting_id":"04","name":"Sabita Maharjan"},"vote_count":1,"created_on":"2019-12-27T22:30:04.088294+05:45"},{"idx":"5UbQpfKm6JKNA7HAZxF6gi","contest":"Model Superstar","episode":"Model Superstar","category":null,"contestant":{"voting_id":"04","name":"Sabita Maharjan"},"vote_count":1,"created_on":"2019-12-27T22:29:51.097039+05:45"},{"idx":"JXJyrSUVjCEmvnkmnN64We","contest":"Model Superstar","episode":"Model Superstar","category":null,"contestant":{"voting_id":"04","name":"Sabita Maharjan"},"vote_count":1,"created_on":"2019-12-27T22:29:36.910098+05:45"},{"idx":"TbNPc5ySvubU7XVRgB4GsK","contest":"Model Superstar","episode":"Model Superstar","category":null,"contestant":{"voting_id":"04","name":"Sabita Maharjan"},"vote_count":1,"created_on":"2019-12-27T22:29:13.639743+05:45"},{"idx":"VaVJZxBroVNt8zDPRJeKsP","contest":"Model Superstar","episode":"Model Superstar","category":null,"contestant":{"voting_id":"09","name":"Sagar Ghimire"},"vote_count":1,"created_on":"2019-12-27T21:51:34.015356+05:45"},{"idx":"r6xdxoAzHEXZtDHMSCFDSi","contest":"Model Superstar","episode":"Model Superstar","category":null,"contestant":{"voting_id":"09","name":"Sagar Ghimire"},"vote_count":1,"created_on":"2019-12-27T21:50:22.948593+05:45"},{"idx":"XepJscTBUm8nQdHHvwSJgJ","contest":"Model Superstar","episode":"Model Superstar","category":null,"contestant":{"voting_id":"09","name":"Sagar Ghimire"},"vote_count":1,"created_on":"2019-12-27T21:50:10.435753+05:45"},{"idx":"ESzYHMm8PLN5oHY3qnAmH9","contest":"Model Superstar","episode":"Model Superstar","category":null,"contestant":{"voting_id":"09","name":"Sagar Ghimire"},"vote_count":1,"created_on":"2019-12-27T21:49:58.229388+05:45"},{"idx":"ohTBRLuyQURgQuwxbhyti5","contest":"Model Superstar","episode":"Model Superstar","category":null,"contestant":{"voting_id":"09","name":"Sagar Ghimire"},"vote_count":1,"created_on":"2019-12-27T21:49:47.011995+05:45"},{"idx":"wDs234eTV6SW5pJHS76iL5","contest":"Model Superstar","episode":"Model Superstar","category":null,"contestant":{"voting_id":"09","name":"Sagar Ghimire"},"vote_count":1,"created_on":"2019-12-27T21:49:36.706547+05:45"},{"idx":"beJLfsRpVumQJWDsSeVfKW","contest":"Model Superstar","episode":"Model Superstar","category":null,"contestant":{"voting_id":"09","name":"Sagar Ghimire"},"vote_count":1,"created_on":"2019-12-27T21:49:25.938571+05:45"},{"idx":"6c4kzaSbvtpoxrfe5urgCF","contest":"Model Superstar","episode":"Model Superstar","category":null,"contestant":{"voting_id":"09","name":"Sagar Ghimire"},"vote_count":1,"created_on":"2019-12-27T21:49:15.809109+05:45"},{"idx":"Ub87fLZEj8HVZVjL9VXSn2","contest":"Model Superstar","episode":"Model Superstar","category":null,"contestant":{"voting_id":"09","name":"Sagar Ghimire"},"vote_count":1,"created_on":"2019-12-27T21:49:05.259990+05:45"},{"idx":"ekPfM3AcTGbNjKnrwrKtUB","contest":"Model Superstar","episode":"Model Superstar","category":null,"contestant":{"voting_id":"09","name":"Sagar Ghimire"},"vote_count":1,"created_on":"2019-12-27T21:48:55.559300+05:45"},{"idx":"9ZNbwmPArTE5GFWCPypRHB","contest":"Model Superstar","episode":"Model Superstar","category":null,"contestant":{"voting_id":"09","name":"Sagar Ghimire"},"vote_count":1,"created_on":"2019-12-27T21:48:35.988529+05:45"},{"idx":"tDw62i4essBZixxt9AsBE9","contest":"Model Superstar","episode":"Model Superstar","category":null,"contestant":{"voting_id":"09","name":"Sagar Ghimire"},"vote_count":1,"created_on":"2019-12-27T21:48:25.174529+05:45"},{"idx":"eoYYpRYHSfqXy9C8fdewDT","contest":"Model Superstar","episode":"Model Superstar","category":null,"contestant":{"voting_id":"09","name":"Sagar Ghimire"},"vote_count":1,"created_on":"2019-12-27T21:48:10.815093+05:45"},{"idx":"GDhyrmSAoaCzWzKXEx8f8S","contest":"Model Superstar","episode":"Model Superstar","category":null,"contestant":{"voting_id":"09","name":"Sagar Ghimire"},"vote_count":1,"created_on":"2019-12-27T21:47:59.565084+05:45"},{"idx":"Qzj7m3Y4w8wtxUaohixXPB","contest":"Model Superstar","episode":"Model Superstar","category":null,"contestant":{"voting_id":"09","name":"Sagar Ghimire"},"vote_count":1,"created_on":"2019-12-27T21:47:49.400008+05:45"},{"idx":"UM9S9KLGZhsSw6qcTih5fd","contest":"Model Superstar","episode":"Model Superstar","category":null,"contestant":{"voting_id":"09","name":"Sagar Ghimire"},"vote_count":1,"created_on":"2019-12-27T21:47:36.861582+05:45"},{"idx":"8kMqbhPcRiJkUdZKcQogVi","contest":"Model Superstar","episode":"Model Superstar","category":null,"contestant":{"voting_id":"09","name":"Sagar Ghimire"},"vote_count":1,"created_on":"2019-12-27T21:39:59.280336+05:45"},{"idx":"BGmJjcbpvKncVpnSUndmdY","contest":"Model Superstar","episode":"Model Superstar","category":null,"contestant":{"voting_id":"09","name":"Sagar Ghimire"},"vote_count":1,"created_on":"2019-12-27T21:39:48.679555+05:45"},{"idx":"Tqf2KMDWpUJYRjyHVekmA5","contest":"Model Superstar","episode":"Model Superstar","category":null,"contestant":{"voting_id":"09","name":"Sagar Ghimire"},"vote_count":1,"created_on":"2019-12-27T21:39:23.063338+05:45"},{"idx":"FefNjrdNYnewxqCkibePaJ","contest":"Model Superstar","episode":"Model Superstar","category":null,"contestant":{"voting_id":"09","name":"Sagar Ghimire"},"vote_count":1,"created_on":"2019-12-27T21:39:12.138771+05:45"},{"idx":"WNKo4SrJcJB3SBfsdVmwAR","contest":"Model Superstar","episode":"Model Superstar","category":null,"contestant":{"voting_id":"09","name":"Sagar Ghimire"},"vote_count":1,"created_on":"2019-12-27T21:38:51.236531+05:45"},{"idx":"njcVGTeBKiT8UgMQLrMqAe","contest":"Model Superstar","episode":"Model Superstar","category":null,"contestant":{"voting_id":"09","name":"Sagar Ghimire"},"vote_count":1,"created_on":"2019-12-27T21:38:37.166360+05:45"},{"idx":"RT9KZyqFAePt8ppjQG9GDL","contest":"Model Superstar","episode":"Model Superstar","category":null,"contestant":{"voting_id":"09","name":"Sagar Ghimire"},"vote_count":1,"created_on":"2019-12-27T21:36:46.659653+05:45"},{"idx":"HNYZ3vFHRYJzfHnvgSDBb3","contest":"Model Superstar","episode":"Model Superstar","category":null,"contestant":{"voting_id":"09","name":"Sagar Ghimire"},"vote_count":1,"created_on":"2019-12-27T21:36:35.257371+05:45"},{"idx":"p7APTfXPffiKVYdnkJjYHh","contest":"Model Superstar","episode":"Model Superstar","category":null,"contestant":{"voting_id":"09","name":"Sagar Ghimire"},"vote_count":1,"created_on":"2019-12-27T21:35:35.301854+05:45"},{"idx":"DBgpZv4yXXx9mpNJnYh8BW","contest":"Model Superstar","episode":"Model Superstar","category":null,"contestant":{"voting_id":"09","name":"Sagar Ghimire"},"vote_count":1,"created_on":"2019-12-27T21:35:24.879259+05:45"},{"idx":"qWPqtQe2bXqVtwpvXAqmwG","contest":"Model Superstar","episode":"Model Superstar","category":null,"contestant":{"voting_id":"09","name":"Sagar Ghimire"},"vote_count":1,"created_on":"2019-12-27T21:35:14.073605+05:45"},{"idx":"LMRtUcsUtznCjLWdKem5jB","contest":"Model Superstar","episode":"Model Superstar","category":null,"contestant":{"voting_id":"09","name":"Sagar Ghimire"},"vote_count":1,"created_on":"2019-12-27T21:35:01.461451+05:45"},{"idx":"WdxDxgY6LJ3QMbrzL4N4sj","contest":"Model Superstar","episode":"Model Superstar","category":null,"contestant":{"voting_id":"09","name":"Sagar Ghimire"},"vote_count":1,"created_on":"2019-12-27T21:34:50.262928+05:45"},{"idx":"fDu4vaXDMXoDA9RLnCr8b9","contest":"Model Superstar","episode":"Model Superstar","category":null,"contestant":{"voting_id":"09","name":"Sagar Ghimire"},"vote_count":1,"created_on":"2019-12-27T21:34:37.711667+05:45"},{"idx":"bxwhV3BbEP2mNvb9L6G7Pc","contest":"Model Superstar","episode":"Model Superstar","category":null,"contestant":{"voting_id":"09","name":"Sagar Ghimire"},"vote_count":1,"created_on":"2019-12-27T21:34:28.092786+05:45"},{"idx":"zwGXYdc3qSWvGhEcHanRQA","contest":"Model Superstar","episode":"Model Superstar","category":null,"contestant":{"voting_id":"09","name":"Sagar Ghimire"},"vote_count":1,"created_on":"2019-12-27T21:34:15.089864+05:45"},{"idx":"93jtKJscfu2CfRhmEWXycg","contest":"Model Superstar","episode":"Model Superstar","category":null,"contestant":{"voting_id":"09","name":"Sagar Ghimire"},"vote_count":1,"created_on":"2019-12-27T21:34:02.724018+05:45"}]}