{"total_pages":275,"total_records":13721,"next":"https://khalti.com/api/v2/vuservote/?page=205","previous":"https://khalti.com/api/v2/vuservote/?page=203","record_range":[10151,10200],"current_page":204,"records":[{"idx":"TFwrp9aGr82vSvZHD9izUM","contest":"Model Superstar","episode":"Model Superstar","category":null,"contestant":{"voting_id":"09","name":"Sagar Ghimire"},"vote_count":1,"created_on":"2019-12-27T21:33:51.927533+05:45"},{"idx":"f6FzKFsVckw8jSc8Ahs5CY","contest":"Model Superstar","episode":"Model Superstar","category":null,"contestant":{"voting_id":"09","name":"Sagar Ghimire"},"vote_count":1,"created_on":"2019-12-27T21:33:33.388563+05:45"},{"idx":"G9vkFygwj5CtPqGKbL4S7n","contest":"Model Superstar","episode":"Model Superstar","category":null,"contestant":{"voting_id":"09","name":"Sagar Ghimire"},"vote_count":1,"created_on":"2019-12-27T21:33:13.606550+05:45"},{"idx":"xSJ9spe8sVxCdWUY4cesAD","contest":"Model Superstar","episode":"Model Superstar","category":null,"contestant":{"voting_id":"09","name":"Sagar Ghimire"},"vote_count":1,"created_on":"2019-12-27T21:32:50.984430+05:45"},{"idx":"8pGbyHUSvQstftRC4D8WTa","contest":"Model Superstar","episode":"Model Superstar","category":null,"contestant":{"voting_id":"09","name":"Sagar Ghimire"},"vote_count":1,"created_on":"2019-12-27T21:32:38.824550+05:45"},{"idx":"DhyLYs7LtDVuaaNGvu2pEb","contest":"Model Superstar","episode":"Model Superstar","category":null,"contestant":{"voting_id":"09","name":"Sagar Ghimire"},"vote_count":1,"created_on":"2019-12-27T21:32:26.386720+05:45"},{"idx":"zkyMsNf8jP3UjtzeJYz2GM","contest":"Model Superstar","episode":"Model Superstar","category":null,"contestant":{"voting_id":"09","name":"Sagar Ghimire"},"vote_count":1,"created_on":"2019-12-27T21:32:15.306106+05:45"},{"idx":"mdC9eUpnBGicjkDbSDFpKo","contest":"Model Superstar","episode":"Model Superstar","category":null,"contestant":{"voting_id":"09","name":"Sagar Ghimire"},"vote_count":1,"created_on":"2019-12-27T21:32:03.298535+05:45"},{"idx":"zRCzxyxJGMy8fRCF4zECqY","contest":"Model Superstar","episode":"Model Superstar","category":null,"contestant":{"voting_id":"09","name":"Sagar Ghimire"},"vote_count":1,"created_on":"2019-12-27T21:31:50.923503+05:45"},{"idx":"98AXdWvyit6qeFAdR4CZiB","contest":"Model Superstar","episode":"Model Superstar","category":null,"contestant":{"voting_id":"09","name":"Sagar Ghimire"},"vote_count":1,"created_on":"2019-12-27T21:31:03.461346+05:45"},{"idx":"VHyeiZf8T3oJUHiTkJG3Qh","contest":"Model Superstar","episode":"Model Superstar","category":null,"contestant":{"voting_id":"09","name":"Sagar Ghimire"},"vote_count":1,"created_on":"2019-12-27T21:30:51.014058+05:45"},{"idx":"ybY75YQhRs5JDTX8RLLBAM","contest":"Model Superstar","episode":"Model Superstar","category":null,"contestant":{"voting_id":"09","name":"Sagar Ghimire"},"vote_count":1,"created_on":"2019-12-27T21:29:06.889987+05:45"},{"idx":"4r7izio58t8LC7YopiBtyX","contest":"Model Superstar","episode":"Model Superstar","category":null,"contestant":{"voting_id":"09","name":"Sagar Ghimire"},"vote_count":1,"created_on":"2019-12-27T21:28:50.375395+05:45"},{"idx":"fLpsQbGAoAwotqvfSLpimR","contest":"Model Superstar","episode":"Model Superstar","category":null,"contestant":{"voting_id":"09","name":"Sagar Ghimire"},"vote_count":1,"created_on":"2019-12-27T21:28:35.448961+05:45"},{"idx":"p5cvjX6hsPtS2sBgoTMVBT","contest":"Model Superstar","episode":"Model Superstar","category":null,"contestant":{"voting_id":"09","name":"Sagar Ghimire"},"vote_count":1,"created_on":"2019-12-27T21:28:22.890624+05:45"},{"idx":"u52aiPwcZQhtGAvyrtcFwQ","contest":"Model Superstar","episode":"Model Superstar","category":null,"contestant":{"voting_id":"09","name":"Sagar Ghimire"},"vote_count":1,"created_on":"2019-12-27T21:28:09.719804+05:45"},{"idx":"akB9Tmb6wvQQpegKuPEG3X","contest":"Model Superstar","episode":"Model Superstar","category":null,"contestant":{"voting_id":"04","name":"Sabita Maharjan"},"vote_count":1,"created_on":"2019-12-27T21:27:57.789396+05:45"},{"idx":"PFDcp6Hx3FvgTg4pc64T8J","contest":"Model Superstar","episode":"Model Superstar","category":null,"contestant":{"voting_id":"09","name":"Sagar Ghimire"},"vote_count":1,"created_on":"2019-12-27T21:27:48.706414+05:45"},{"idx":"kQMFst5Vtt2KgShe2H3p4P","contest":"Model Superstar","episode":"Model Superstar","category":null,"contestant":{"voting_id":"02","name":"Srijana Basnet"},"vote_count":1,"created_on":"2019-12-27T21:27:39.561096+05:45"},{"idx":"c3omf4AeKRfRuBo9PCvjsc","contest":"Model Superstar","episode":"Model Superstar","category":null,"contestant":{"voting_id":"09","name":"Sagar Ghimire"},"vote_count":1,"created_on":"2019-12-27T21:27:33.272839+05:45"},{"idx":"igLxM8NN3ytnCgwuffhEs9","contest":"Model Superstar","episode":"Model Superstar","category":null,"contestant":{"voting_id":"04","name":"Sabita Maharjan"},"vote_count":1,"created_on":"2019-12-27T21:27:18.702512+05:45"},{"idx":"qtneuKZah34eXVkPEoGtQT","contest":"Model Superstar","episode":"Model Superstar","category":null,"contestant":{"voting_id":"09","name":"Sagar Ghimire"},"vote_count":1,"created_on":"2019-12-27T21:27:11.787018+05:45"},{"idx":"FkHtRDoVqhvesSyk48FSDT","contest":"Model Superstar","episode":"Model Superstar","category":null,"contestant":{"voting_id":"04","name":"Sabita Maharjan"},"vote_count":1,"created_on":"2019-12-27T21:26:12.528976+05:45"},{"idx":"kHDDFyJGZgJ4C3L2Wh6XSQ","contest":"Model Superstar","episode":"Model Superstar","category":null,"contestant":{"voting_id":"01","name":"Sajina Subba"},"vote_count":1,"created_on":"2019-12-27T21:25:44.946761+05:45"},{"idx":"epCd2HEZ8KYmCwcnLDVzh8","contest":"Model Superstar","episode":"Model Superstar","category":null,"contestant":{"voting_id":"08","name":"Roshan Sunam"},"vote_count":1,"created_on":"2019-12-27T21:24:15.157038+05:45"},{"idx":"6MwSYRaN2GjVv4fKJq7brk","contest":"Model Superstar","episode":"Model Superstar","category":null,"contestant":{"voting_id":"04","name":"Sabita Maharjan"},"vote_count":1,"created_on":"2019-12-27T21:05:24.166965+05:45"},{"idx":"gZZb6R9wU5sjBAWeLxuqEE","contest":"NEPALBHASA STAR MUSIC VIDEO AWARDS-2019","episode":null,"category":"BEST DEBUT MODEL, MALE","contestant":{"voting_id":"12D","name":"Yugen Shakya"},"vote_count":1,"created_on":"2019-12-27T19:55:51.246690+05:45"},{"idx":"ei9AfaGSiXzbDa5zqdQtBJ","contest":"Model Superstar","episode":"Model Superstar","category":null,"contestant":{"voting_id":"02","name":"Srijana Basnet"},"vote_count":1,"created_on":"2019-12-27T19:46:12.160357+05:45"},{"idx":"4VZus9hquvtXqXfDcTsy2H","contest":"Model Superstar","episode":"Model Superstar","category":null,"contestant":{"voting_id":"01","name":"Sajina Subba"},"vote_count":1,"created_on":"2019-12-27T19:45:19.707654+05:45"},{"idx":"5kKzRoPQbjGavCsYfwCQuR","contest":"Model Superstar","episode":"Model Superstar","category":null,"contestant":{"voting_id":"13","name":"Prashant Shah"},"vote_count":1,"created_on":"2019-12-27T19:30:30.396871+05:45"},{"idx":"FxKL8AMAkSkDEp2TVkNwpd","contest":"Model Superstar","episode":"Model Superstar","category":null,"contestant":{"voting_id":"04","name":"Sabita Maharjan"},"vote_count":1,"created_on":"2019-12-27T19:10:01.061259+05:45"},{"idx":"DkH9D7Mxng3zMpChKdmvw4","contest":"Model Superstar","episode":"Model Superstar","category":null,"contestant":{"voting_id":"04","name":"Sabita Maharjan"},"vote_count":1,"created_on":"2019-12-27T19:09:41.870935+05:45"},{"idx":"hFXvhfGCathxziN8VoBdeN","contest":"Model Superstar","episode":"Model Superstar","category":null,"contestant":{"voting_id":"04","name":"Sabita Maharjan"},"vote_count":1,"created_on":"2019-12-27T19:09:25.027990+05:45"},{"idx":"pocBSGT7kpdRNCMrgK2i4R","contest":"Model Superstar","episode":"Model Superstar","category":null,"contestant":{"voting_id":"04","name":"Sabita Maharjan"},"vote_count":1,"created_on":"2019-12-27T19:09:08.225522+05:45"},{"idx":"Ldc39Gk7XGJWfu3kiesdM3","contest":"Model Superstar","episode":"Model Superstar","category":null,"contestant":{"voting_id":"04","name":"Sabita Maharjan"},"vote_count":1,"created_on":"2019-12-27T19:08:51.710753+05:45"},{"idx":"fWeqUqTZrHYqnFroZgEtXT","contest":"Model Superstar","episode":"Model Superstar","category":null,"contestant":{"voting_id":"04","name":"Sabita Maharjan"},"vote_count":1,"created_on":"2019-12-27T19:08:33.718814+05:45"},{"idx":"6NBFnQQzdzR7CgEJ2brNsX","contest":"Model Superstar","episode":"Model Superstar","category":null,"contestant":{"voting_id":"04","name":"Sabita Maharjan"},"vote_count":1,"created_on":"2019-12-27T19:08:19.252499+05:45"},{"idx":"85NRMfynkhZvBRruiiLTxB","contest":"Model Superstar","episode":"Model Superstar","category":null,"contestant":{"voting_id":"04","name":"Sabita Maharjan"},"vote_count":1,"created_on":"2019-12-27T19:08:05.508089+05:45"},{"idx":"N2sGHPzcgpcP837hL7BfCY","contest":"Model Superstar","episode":"Model Superstar","category":null,"contestant":{"voting_id":"04","name":"Sabita Maharjan"},"vote_count":1,"created_on":"2019-12-27T19:07:48.213080+05:45"},{"idx":"JZTHEZQDzTA9XRcanat8xC","contest":"Model Superstar","episode":"Model Superstar","category":null,"contestant":{"voting_id":"04","name":"Sabita Maharjan"},"vote_count":1,"created_on":"2019-12-27T19:07:32.056396+05:45"},{"idx":"7jn7UfpMLybu8N7J8TgS79","contest":"Model Superstar","episode":"Model Superstar","category":null,"contestant":{"voting_id":"04","name":"Sabita Maharjan"},"vote_count":1,"created_on":"2019-12-27T19:07:15.333470+05:45"},{"idx":"Ftur47Z9vwhQUrAHmQ7p92","contest":"Model Superstar","episode":"Model Superstar","category":null,"contestant":{"voting_id":"04","name":"Sabita Maharjan"},"vote_count":1,"created_on":"2019-12-27T19:06:53.700573+05:45"},{"idx":"whYHL53qhe48kWsB5zV4zW","contest":"Model Superstar","episode":"Model Superstar","category":null,"contestant":{"voting_id":"04","name":"Sabita Maharjan"},"vote_count":1,"created_on":"2019-12-27T19:06:38.486453+05:45"},{"idx":"6RkWLah8fqJeAMy9ogSATR","contest":"Model Superstar","episode":"Model Superstar","category":null,"contestant":{"voting_id":"04","name":"Sabita Maharjan"},"vote_count":1,"created_on":"2019-12-27T19:06:16.627820+05:45"},{"idx":"ox4HQrwrppCJ26AoF6sZvD","contest":"NEPALBHASA STAR MUSIC VIDEO AWARDS-2019","episode":null,"category":"THE RISING STAR SINGER","contestant":{"voting_id":"21E","name":"Purna Man Maharjan"},"vote_count":25,"created_on":"2019-12-27T19:04:29.540415+05:45"},{"idx":"L7PKs5PSxdCN2HaMYEi6wC","contest":"Model Superstar","episode":"Model Superstar","category":null,"contestant":{"voting_id":"04","name":"Sabita Maharjan"},"vote_count":1,"created_on":"2019-12-27T19:02:46.211808+05:45"},{"idx":"VnNh8B2qVdLdFg6A8WNftR","contest":"Model Superstar","episode":"Model Superstar","category":null,"contestant":{"voting_id":"01","name":"Sajina Subba"},"vote_count":1,"created_on":"2019-12-27T18:55:48.413793+05:45"},{"idx":"8GvLHVpVEPvnzQJkiWahS5","contest":"Model Superstar","episode":"Model Superstar","category":null,"contestant":{"voting_id":"21","name":"Padam Bahadur Ranamagar"},"vote_count":1,"created_on":"2019-12-27T17:28:03.083681+05:45"},{"idx":"py6ZHe7o4DraUMokUNhX4j","contest":"Model Superstar","episode":"Model Superstar","category":null,"contestant":{"voting_id":"12","name":"Rabin Ghising"},"vote_count":1,"created_on":"2019-12-27T17:27:30.160252+05:45"},{"idx":"eCexrSsj5L6pmjFgAsHHkc","contest":"Model Superstar","episode":"Model Superstar","category":null,"contestant":{"voting_id":"02","name":"Srijana Basnet"},"vote_count":1,"created_on":"2019-12-27T17:25:57.418548+05:45"}]}