{"total_pages":275,"total_records":13721,"next":"https://khalti.com/api/v2/vuservote/?page=206","previous":"https://khalti.com/api/v2/vuservote/?page=204","record_range":[10201,10250],"current_page":205,"records":[{"idx":"Y7YCem34V8tmBDzU3AKRJG","contest":"Model Superstar","episode":"Model Superstar","category":null,"contestant":{"voting_id":"21","name":"Padam Bahadur Ranamagar"},"vote_count":1,"created_on":"2019-12-27T17:23:51.727152+05:45"},{"idx":"2MKBnnaufeXFfYnjtKY9cS","contest":"Model Superstar","episode":"Model Superstar","category":null,"contestant":{"voting_id":"02","name":"Srijana Basnet"},"vote_count":1,"created_on":"2019-12-27T17:23:38.522731+05:45"},{"idx":"Nj5hCPoZBaHzFPKz45E8NR","contest":"Model Superstar","episode":"Model Superstar","category":null,"contestant":{"voting_id":"21","name":"Padam Bahadur Ranamagar"},"vote_count":1,"created_on":"2019-12-27T17:23:26.090942+05:45"},{"idx":"wwpH5Kus23DHj9NaZsmrVZ","contest":"Model Superstar","episode":"Model Superstar","category":null,"contestant":{"voting_id":"21","name":"Padam Bahadur Ranamagar"},"vote_count":1,"created_on":"2019-12-27T17:22:57.715452+05:45"},{"idx":"qKVUn9evfVmZowgRVg2dCd","contest":"Model Superstar","episode":"Model Superstar","category":null,"contestant":{"voting_id":"14","name":"Ashish Shakya"},"vote_count":1,"created_on":"2019-12-27T17:08:13.409460+05:45"},{"idx":"5DYdoXiks62ymNkpoDk63a","contest":"NEPALBHASA STAR MUSIC VIDEO AWARDS-2019","episode":null,"category":"THE RISING STAR SINGER","contestant":{"voting_id":"21A","name":"Macha Raja Maharjan"},"vote_count":1,"created_on":"2019-12-27T16:41:34.970868+05:45"},{"idx":"PrsQsRHArjvyJKj2cH4v2a","contest":"Model Superstar","episode":"Model Superstar","category":null,"contestant":{"voting_id":"01","name":"Sajina Subba"},"vote_count":1,"created_on":"2019-12-27T16:41:06.214873+05:45"},{"idx":"4MzkGnpR5cHrKXhfXVEntE","contest":"Model Superstar","episode":"Model Superstar","category":null,"contestant":{"voting_id":"04","name":"Sabita Maharjan"},"vote_count":1,"created_on":"2019-12-27T16:37:16.290068+05:45"},{"idx":"qT9dnXLHgiWBQE3r5gznsC","contest":"Model Superstar","episode":"Model Superstar","category":null,"contestant":{"voting_id":"04","name":"Sabita Maharjan"},"vote_count":1,"created_on":"2019-12-27T16:35:32.969663+05:45"},{"idx":"5ismtbGppe3ew6byfSofKQ","contest":"Model Superstar","episode":"Model Superstar","category":null,"contestant":{"voting_id":"04","name":"Sabita Maharjan"},"vote_count":1,"created_on":"2019-12-27T16:35:16.698772+05:45"},{"idx":"5TUFdAfVs4bzxUfsVDKcJf","contest":"Model Superstar","episode":"Model Superstar","category":null,"contestant":{"voting_id":"04","name":"Sabita Maharjan"},"vote_count":1,"created_on":"2019-12-27T16:34:34.754669+05:45"},{"idx":"4NWjF2WDuErp6YarV3JyvH","contest":"Model Superstar","episode":"Model Superstar","category":null,"contestant":{"voting_id":"04","name":"Sabita Maharjan"},"vote_count":1,"created_on":"2019-12-27T16:30:53.813988+05:45"},{"idx":"vLdpTEj87T4Sk5RaCcPFiV","contest":"Model Superstar","episode":"Model Superstar","category":null,"contestant":{"voting_id":"04","name":"Sabita Maharjan"},"vote_count":1,"created_on":"2019-12-27T16:30:39.572969+05:45"},{"idx":"tzHWER83kp3ud6x3YaSY89","contest":"Model Superstar","episode":"Model Superstar","category":null,"contestant":{"voting_id":"04","name":"Sabita Maharjan"},"vote_count":1,"created_on":"2019-12-27T16:30:23.568288+05:45"},{"idx":"iG2q9NTuoFAm9pSzaRDBqW","contest":"Model Superstar","episode":"Model Superstar","category":null,"contestant":{"voting_id":"04","name":"Sabita Maharjan"},"vote_count":1,"created_on":"2019-12-27T16:30:09.922276+05:45"},{"idx":"mr5iNKkcariBcGjP9hjqE2","contest":"Model Superstar","episode":"Model Superstar","category":null,"contestant":{"voting_id":"04","name":"Sabita Maharjan"},"vote_count":1,"created_on":"2019-12-27T16:29:59.569053+05:45"},{"idx":"5oBmR5HkdhZeKaLWoQLF9i","contest":"Model Superstar","episode":"Model Superstar","category":null,"contestant":{"voting_id":"04","name":"Sabita Maharjan"},"vote_count":1,"created_on":"2019-12-27T16:29:13.094382+05:45"},{"idx":"ku7czsDVyqoTYXrCtKAnvY","contest":"Model Superstar","episode":"Model Superstar","category":null,"contestant":{"voting_id":"04","name":"Sabita Maharjan"},"vote_count":1,"created_on":"2019-12-27T16:29:00.174577+05:45"},{"idx":"ZHL2P7YS4aDDKX8pwPYrQj","contest":"Model Superstar","episode":"Model Superstar","category":null,"contestant":{"voting_id":"04","name":"Sabita Maharjan"},"vote_count":1,"created_on":"2019-12-27T16:28:46.535545+05:45"},{"idx":"fZnvbo85UAJAAFpRXAbngE","contest":"Model Superstar","episode":"Model Superstar","category":null,"contestant":{"voting_id":"04","name":"Sabita Maharjan"},"vote_count":1,"created_on":"2019-12-27T16:28:25.646590+05:45"},{"idx":"Bj48aP5VD3Lmo4Gs8KuV7D","contest":"Model Superstar","episode":"Model Superstar","category":null,"contestant":{"voting_id":"04","name":"Sabita Maharjan"},"vote_count":1,"created_on":"2019-12-27T16:28:08.714715+05:45"},{"idx":"PuaCMr4kYkddFxSpzxnRof","contest":"Model Superstar","episode":"Model Superstar","category":null,"contestant":{"voting_id":"04","name":"Sabita Maharjan"},"vote_count":1,"created_on":"2019-12-27T16:27:56.819748+05:45"},{"idx":"tJa2L85BCAoy6VsAGzV5FE","contest":"Model Superstar","episode":"Model Superstar","category":null,"contestant":{"voting_id":"04","name":"Sabita Maharjan"},"vote_count":1,"created_on":"2019-12-27T16:27:43.444756+05:45"},{"idx":"hxe3EzmP75Bqki99aiRAM4","contest":"Model Superstar","episode":"Model Superstar","category":null,"contestant":{"voting_id":"04","name":"Sabita Maharjan"},"vote_count":1,"created_on":"2019-12-27T16:27:32.880513+05:45"},{"idx":"qpcodHhDC8LpXDQhHamWnY","contest":"Model Superstar","episode":"Model Superstar","category":null,"contestant":{"voting_id":"04","name":"Sabita Maharjan"},"vote_count":1,"created_on":"2019-12-27T16:27:22.409275+05:45"},{"idx":"WEgbt3NtvwBCSegPefMY4A","contest":"Model Superstar","episode":"Model Superstar","category":null,"contestant":{"voting_id":"04","name":"Sabita Maharjan"},"vote_count":1,"created_on":"2019-12-27T16:27:06.492673+05:45"},{"idx":"UHpxSgy4xmrR8eDx4cS8Y3","contest":"Model Superstar","episode":"Model Superstar","category":null,"contestant":{"voting_id":"04","name":"Sabita Maharjan"},"vote_count":1,"created_on":"2019-12-27T16:26:47.138077+05:45"},{"idx":"aQxgPZrTUu4gVKpkTDGCiZ","contest":"Model Superstar","episode":"Model Superstar","category":null,"contestant":{"voting_id":"04","name":"Sabita Maharjan"},"vote_count":1,"created_on":"2019-12-27T16:26:22.134915+05:45"},{"idx":"gcsVpsGJViY6egJGB5FpLj","contest":"Model Superstar","episode":"Model Superstar","category":null,"contestant":{"voting_id":"04","name":"Sabita Maharjan"},"vote_count":1,"created_on":"2019-12-27T16:26:08.836294+05:45"},{"idx":"6PkK4iVWhDjkVYfkRNrwNV","contest":"Model Superstar","episode":"Model Superstar","category":null,"contestant":{"voting_id":"04","name":"Sabita Maharjan"},"vote_count":1,"created_on":"2019-12-27T16:25:57.735419+05:45"},{"idx":"D7ab5nXoTpZnNSLr7RDvbP","contest":"Model Superstar","episode":"Model Superstar","category":null,"contestant":{"voting_id":"04","name":"Sabita Maharjan"},"vote_count":1,"created_on":"2019-12-27T16:25:44.110248+05:45"},{"idx":"4MSjYn8yDGFC7NJ6kLMgBe","contest":"Model Superstar","episode":"Model Superstar","category":null,"contestant":{"voting_id":"04","name":"Sabita Maharjan"},"vote_count":1,"created_on":"2019-12-27T16:25:22.538361+05:45"},{"idx":"Y4FFrpePw7SpypuAbJVqGA","contest":"Model Superstar","episode":"Model Superstar","category":null,"contestant":{"voting_id":"07","name":"Narman Malla"},"vote_count":1,"created_on":"2019-12-27T16:20:06.206139+05:45"},{"idx":"jS2cZhVuPUjF3GwFiVypAC","contest":"NEPALBHASA STAR MUSIC VIDEO AWARDS-2019","episode":null,"category":"BEST VIDEO EDITOR","contestant":{"voting_id":"9C","name":"Yoban Shakya"},"vote_count":1,"created_on":"2019-12-27T15:35:07.721261+05:45"},{"idx":"YpTTShKYDysPuBABPf4EXo","contest":"NEPALBHASA STAR MUSIC VIDEO AWARDS-2019","episode":null,"category":"BEST CAMERAPERSON","contestant":{"voting_id":"10E","name":"Yoban Shakya"},"vote_count":1,"created_on":"2019-12-27T15:34:47.953067+05:45"},{"idx":"BrdaUsamruwrLdVuVikqyD","contest":"NEPALBHASA STAR MUSIC VIDEO AWARDS-2019","episode":null,"category":"BEST VIDEO COLORIST","contestant":{"voting_id":"8H","name":"Yoban Shakya"},"vote_count":1,"created_on":"2019-12-27T15:34:10.551176+05:45"},{"idx":"QQkwVXnXEVQWR4HDVLzk7H","contest":"NEPALBHASA STAR MUSIC VIDEO AWARDS-2019","episode":null,"category":"BEST Singer,FEMALE","contestant":{"voting_id":"17C","name":"Pooja Sunuwar"},"vote_count":1,"created_on":"2019-12-27T15:10:55.034546+05:45"},{"idx":"GFLTL6HcneFmN3sK27UCtf","contest":"NEPALBHASA STAR MUSIC VIDEO AWARDS-2019","episode":null,"category":"BEST MODEL, FEMALE","contestant":{"voting_id":"13B","name":"Ashishma Nakarmi"},"vote_count":1,"created_on":"2019-12-27T15:09:52.627359+05:45"},{"idx":"P4a2nDzb3gz95wZcMiwiak","contest":"NEPALBHASA STAR MUSIC VIDEO AWARDS-2019","episode":null,"category":"BEST DEBUT MODEL, FEMALE","contestant":{"voting_id":"14C","name":"Rakshya Shrestha"},"vote_count":1,"created_on":"2019-12-27T15:09:01.110560+05:45"},{"idx":"spbyrEpr3pAC7HHhaAJrMe","contest":"NEPALBHASA STAR MUSIC VIDEO AWARDS-2019","episode":null,"category":"THE RISING STAR SINGER","contestant":{"voting_id":"21E","name":"Purna Man Maharjan"},"vote_count":1,"created_on":"2019-12-27T15:08:32.400136+05:45"},{"idx":"LagVjpeKKcd5Y9i2Co9vAb","contest":"Model Superstar","episode":"Model Superstar","category":null,"contestant":{"voting_id":"04","name":"Sabita Maharjan"},"vote_count":1,"created_on":"2019-12-27T14:36:53.603059+05:45"},{"idx":"YrapQEHZcnjvgHVsza2zQT","contest":"Model Superstar","episode":"Model Superstar","category":null,"contestant":{"voting_id":"02","name":"Srijana Basnet"},"vote_count":1,"created_on":"2019-12-27T14:34:59.309359+05:45"},{"idx":"2hsZfthiQv4k5G47tij5tQ","contest":"Model Superstar","episode":"Model Superstar","category":null,"contestant":{"voting_id":"02","name":"Srijana Basnet"},"vote_count":1,"created_on":"2019-12-27T14:10:11.509576+05:45"},{"idx":"2tNvfoQwXhRWQ3Hjptku3g","contest":"Model Superstar","episode":"Model Superstar","category":null,"contestant":{"voting_id":"02","name":"Srijana Basnet"},"vote_count":1,"created_on":"2019-12-27T14:08:37.282293+05:45"},{"idx":"Ad9Cwk48KDrfR5a2DFQWk2","contest":"Model Superstar","episode":"Model Superstar","category":null,"contestant":{"voting_id":"02","name":"Srijana Basnet"},"vote_count":1,"created_on":"2019-12-27T13:59:46.857408+05:45"},{"idx":"ayrEggKHLPdfcDcRGtQsxB","contest":"NEPALBHASA STAR MUSIC VIDEO AWARDS-2019","episode":null,"category":"BEST MUSIC VIDEO","contestant":{"voting_id":"1I","name":"Raj kumar Manandhar"},"vote_count":1,"created_on":"2019-12-27T13:18:29.587620+05:45"},{"idx":"5GeB3N5H5FihKxYz2cjzeg","contest":"Model Superstar","episode":"Model Superstar","category":null,"contestant":{"voting_id":"03","name":"Smriti Shah"},"vote_count":1,"created_on":"2019-12-27T13:16:19.097341+05:45"},{"idx":"om7Mt2wqAPqPjsEYChYbkD","contest":"Model Superstar","episode":"Model Superstar","category":null,"contestant":{"voting_id":"01","name":"Sajina Subba"},"vote_count":1,"created_on":"2019-12-27T13:16:03.668337+05:45"},{"idx":"feCohPNrUPfjUaoP6cJYtg","contest":"Model Superstar","episode":"Model Superstar","category":null,"contestant":{"voting_id":"02","name":"Srijana Basnet"},"vote_count":1,"created_on":"2019-12-27T13:15:44.957633+05:45"},{"idx":"3aWjULKuaWQ3WGCqmmY3mK","contest":"Model Superstar","episode":"Model Superstar","category":null,"contestant":{"voting_id":"01","name":"Sajina Subba"},"vote_count":1,"created_on":"2019-12-27T13:08:55.505521+05:45"}]}