{"total_pages":275,"total_records":13721,"next":"https://khalti.com/api/v2/vuservote/?page=207","previous":"https://khalti.com/api/v2/vuservote/?page=205","record_range":[10251,10300],"current_page":206,"records":[{"idx":"D2ybxCSGLKErSSfytsD2XP","contest":"Model Superstar","episode":"Model Superstar","category":null,"contestant":{"voting_id":"05","name":"Asmita Thapa Magar"},"vote_count":1,"created_on":"2019-12-27T13:08:18.630970+05:45"},{"idx":"3ZFqSLFsqb95oAr9GJx9eA","contest":"Model Superstar","episode":"Model Superstar","category":null,"contestant":{"voting_id":"02","name":"Srijana Basnet"},"vote_count":1,"created_on":"2019-12-27T13:07:30.077915+05:45"},{"idx":"H9ys8o9ijtNXLmPsFNRiJL","contest":"Model Superstar","episode":"Model Superstar","category":null,"contestant":{"voting_id":"05","name":"Asmita Thapa Magar"},"vote_count":1,"created_on":"2019-12-27T13:06:46.092639+05:45"},{"idx":"rstpTR2RwdjVVidtt8KiSm","contest":"Model Superstar","episode":"Model Superstar","category":null,"contestant":{"voting_id":"01","name":"Sajina Subba"},"vote_count":1,"created_on":"2019-12-27T12:39:18.933251+05:45"},{"idx":"qfpPZo4BqnnotTqaffAtcQ","contest":"Model Superstar","episode":"Model Superstar","category":null,"contestant":{"voting_id":"17","name":"Sajana Panta"},"vote_count":1,"created_on":"2019-12-27T12:20:17.909703+05:45"},{"idx":"Jnq5MvtMEXXyBmT2DDcSJQ","contest":"Model Superstar","episode":"Model Superstar","category":null,"contestant":{"voting_id":"17","name":"Sajana Panta"},"vote_count":1,"created_on":"2019-12-27T12:15:45.481780+05:45"},{"idx":"jmgkvNpjcbMgBCdqXeToDo","contest":"NEPALBHASA STAR MUSIC VIDEO AWARDS-2019","episode":null,"category":"BEST MODEL, FEMALE","contestant":{"voting_id":"13B","name":"Ashishma Nakarmi"},"vote_count":1,"created_on":"2019-12-27T11:50:28.342619+05:45"},{"idx":"3oPFahkkwzqSzdoywSALZE","contest":"NEPALBHASA STAR MUSIC VIDEO AWARDS-2019","episode":null,"category":"BEST MODEL, MALE","contestant":{"voting_id":"11B","name":"Raju Maharjan 'Juju'"},"vote_count":1,"created_on":"2019-12-27T11:49:47.683185+05:45"},{"idx":"3iv5Ek9m8VReNJ46TfrUb6","contest":"NEPALBHASA STAR MUSIC VIDEO AWARDS-2019","episode":null,"category":"BEST VIDEO EDITOR","contestant":{"voting_id":"9B","name":"Naresh Shahi"},"vote_count":1,"created_on":"2019-12-27T11:49:01.273209+05:45"},{"idx":"5KvXMrHG3z2oHoei9kxcjY","contest":"NEPALBHASA STAR MUSIC VIDEO AWARDS-2019","episode":null,"category":"BEST MODEL, FEMALE","contestant":{"voting_id":"13C","name":"Anjala Nakarmi"},"vote_count":1,"created_on":"2019-12-27T11:42:08.293961+05:45"},{"idx":"CaBr8ssx7nxjhgHKeTRGnR","contest":"NEPALBHASA STAR MUSIC VIDEO AWARDS-2019","episode":null,"category":"THE RISING STAR SINGER","contestant":{"voting_id":"21B","name":"Ves Maharjan"},"vote_count":1,"created_on":"2019-12-27T11:40:59.089715+05:45"},{"idx":"YexETfokXooqHHzeG2PYhe","contest":"Model Superstar","episode":"Model Superstar","category":null,"contestant":{"voting_id":"21","name":"Padam Bahadur Ranamagar"},"vote_count":1,"created_on":"2019-12-27T11:31:10.422967+05:45"},{"idx":"D49DswoizLGAdkLDrHo9oX","contest":"NEPALBHASA STAR MUSIC VIDEO AWARDS-2019","episode":null,"category":"BEST DIRECTOR","contestant":{"voting_id":"20A","name":"Bhuwan Shrestha"},"vote_count":1,"created_on":"2019-12-27T11:27:55.955922+05:45"},{"idx":"xixb9VJDA97Z2LnhTgdKHi","contest":"Model Superstar","episode":"Model Superstar","category":null,"contestant":{"voting_id":"04","name":"Sabita Maharjan"},"vote_count":1,"created_on":"2019-12-27T11:27:01.737739+05:45"},{"idx":"o7evt5nfY7cUKnEu8rFwAb","contest":"NEPALBHASA STAR MUSIC VIDEO AWARDS-2019","episode":null,"category":"BEST DEBUT MODEL, MALE","contestant":{"voting_id":"12I","name":"Nirajan Pradhan"},"vote_count":1,"created_on":"2019-12-27T11:24:59.310404+05:45"},{"idx":"kTw9ofKTkcavzzMSyL8MLD","contest":"NEPALBHASA STAR MUSIC VIDEO AWARDS-2019","episode":null,"category":"BEST MODEL, FEMALE","contestant":{"voting_id":"13A","name":"Salona Bajracharya"},"vote_count":1,"created_on":"2019-12-27T10:32:54.272164+05:45"},{"idx":"F6FyPReYfGEK3yvULwDG65","contest":"Model Superstar","episode":"Model Superstar","category":null,"contestant":{"voting_id":"14","name":"Ashish Shakya"},"vote_count":1,"created_on":"2019-12-27T10:32:00.279018+05:45"},{"idx":"wWhPZuTFpnCVFuUoPEHugA","contest":"Model Superstar","episode":"Model Superstar","category":null,"contestant":{"voting_id":"04","name":"Sabita Maharjan"},"vote_count":1,"created_on":"2019-12-27T10:31:45.409541+05:45"},{"idx":"RWwS9N5TSx378ZSxxawNm9","contest":"Model Superstar","episode":"Model Superstar","category":null,"contestant":{"voting_id":"14","name":"Ashish Shakya"},"vote_count":1,"created_on":"2019-12-27T10:31:26.574568+05:45"},{"idx":"YJfXH22AjpdXaGXvGDaZHC","contest":"Model Superstar","episode":"Model Superstar","category":null,"contestant":{"voting_id":"02","name":"Srijana Basnet"},"vote_count":1,"created_on":"2019-12-27T10:31:18.079303+05:45"},{"idx":"VDEtcptRS2XeF8cgtjuzFe","contest":"Model Superstar","episode":"Model Superstar","category":null,"contestant":{"voting_id":"04","name":"Sabita Maharjan"},"vote_count":1,"created_on":"2019-12-27T10:30:22.465071+05:45"},{"idx":"jhXfswKBAK2Kxgk6PLPEU3","contest":"Model Superstar","episode":"Model Superstar","category":null,"contestant":{"voting_id":"04","name":"Sabita Maharjan"},"vote_count":1,"created_on":"2019-12-27T10:30:09.174904+05:45"},{"idx":"8KJuhjb8BNfqGEnASJtakZ","contest":"Model Superstar","episode":"Model Superstar","category":null,"contestant":{"voting_id":"04","name":"Sabita Maharjan"},"vote_count":1,"created_on":"2019-12-27T10:27:38.594794+05:45"},{"idx":"X6eoaTK7hS79Pea4wiJEbd","contest":"Model Superstar","episode":"Model Superstar","category":null,"contestant":{"voting_id":"04","name":"Sabita Maharjan"},"vote_count":1,"created_on":"2019-12-27T10:27:26.378965+05:45"},{"idx":"dNvri2NcR8B3tDopPZEina","contest":"Model Superstar","episode":"Model Superstar","category":null,"contestant":{"voting_id":"03","name":"Smriti Shah"},"vote_count":1,"created_on":"2019-12-27T10:27:13.262517+05:45"},{"idx":"sQ2qTxGx5x84AnhqHb5NQ4","contest":"Model Superstar","episode":"Model Superstar","category":null,"contestant":{"voting_id":"04","name":"Sabita Maharjan"},"vote_count":1,"created_on":"2019-12-27T10:18:42.897041+05:45"},{"idx":"MyJ7a97DbQ5kAPf8PWyYt3","contest":"Model Superstar","episode":"Model Superstar","category":null,"contestant":{"voting_id":"04","name":"Sabita Maharjan"},"vote_count":1,"created_on":"2019-12-27T10:18:31.290555+05:45"},{"idx":"o7sVJ32G3ZUURb2UAoCurc","contest":"Model Superstar","episode":"Model Superstar","category":null,"contestant":{"voting_id":"04","name":"Sabita Maharjan"},"vote_count":1,"created_on":"2019-12-27T10:18:19.216951+05:45"},{"idx":"At63SZ7qgiBt7aZ9GUtp3J","contest":"Model Superstar","episode":"Model Superstar","category":null,"contestant":{"voting_id":"04","name":"Sabita Maharjan"},"vote_count":1,"created_on":"2019-12-27T10:18:05.467265+05:45"},{"idx":"W9wu2Xcn6r8AM7c2PmuYtX","contest":"Model Superstar","episode":"Model Superstar","category":null,"contestant":{"voting_id":"04","name":"Sabita Maharjan"},"vote_count":1,"created_on":"2019-12-27T10:17:53.161503+05:45"},{"idx":"MvJQibGiV465B8uTQ44m2A","contest":"Model Superstar","episode":"Model Superstar","category":null,"contestant":{"voting_id":"04","name":"Sabita Maharjan"},"vote_count":1,"created_on":"2019-12-27T10:17:38.658682+05:45"},{"idx":"cyRsYEZFHTpYNe6SzJGduD","contest":"Model Superstar","episode":"Model Superstar","category":null,"contestant":{"voting_id":"04","name":"Sabita Maharjan"},"vote_count":1,"created_on":"2019-12-27T10:17:27.184291+05:45"},{"idx":"5nSREjPVsf5DCmEqcrYWEA","contest":"Model Superstar","episode":"Model Superstar","category":null,"contestant":{"voting_id":"04","name":"Sabita Maharjan"},"vote_count":1,"created_on":"2019-12-27T10:17:14.633322+05:45"},{"idx":"ZEMPZGPujbshfveTZXH9u4","contest":"Model Superstar","episode":"Model Superstar","category":null,"contestant":{"voting_id":"04","name":"Sabita Maharjan"},"vote_count":1,"created_on":"2019-12-27T10:17:02.341807+05:45"},{"idx":"Tt4WtUucdLbbbtxcstQjvd","contest":"Model Superstar","episode":"Model Superstar","category":null,"contestant":{"voting_id":"04","name":"Sabita Maharjan"},"vote_count":1,"created_on":"2019-12-27T10:16:49.776505+05:45"},{"idx":"cXXHAMTme3cpu7UKx74mCm","contest":"Model Superstar","episode":"Model Superstar","category":null,"contestant":{"voting_id":"04","name":"Sabita Maharjan"},"vote_count":1,"created_on":"2019-12-27T10:16:35.816032+05:45"},{"idx":"MiMqSBrSm8zkKD8e5YCy4H","contest":"Model Superstar","episode":"Model Superstar","category":null,"contestant":{"voting_id":"04","name":"Sabita Maharjan"},"vote_count":1,"created_on":"2019-12-27T10:16:24.083864+05:45"},{"idx":"fY4tJAEHBVkZpXaQDfe8PN","contest":"Model Superstar","episode":"Model Superstar","category":null,"contestant":{"voting_id":"04","name":"Sabita Maharjan"},"vote_count":1,"created_on":"2019-12-27T10:16:11.798065+05:45"},{"idx":"Kz9HjCZZdiGBkQ5779aLsJ","contest":"NEPALBHASA STAR MUSIC VIDEO AWARDS-2019","episode":null,"category":"BEST Singer,FEMALE","contestant":{"voting_id":"17A","name":"Deepa Maharjan"},"vote_count":1,"created_on":"2019-12-27T10:16:03.355718+05:45"},{"idx":"YnTnMaei5bYsrzedsNjZJk","contest":"Model Superstar","episode":"Model Superstar","category":null,"contestant":{"voting_id":"04","name":"Sabita Maharjan"},"vote_count":1,"created_on":"2019-12-27T10:16:00.392924+05:45"},{"idx":"fd29gHxw3csCRAJuY5Rnxk","contest":"Model Superstar","episode":"Model Superstar","category":null,"contestant":{"voting_id":"06","name":"Sujan Basnet"},"vote_count":1,"created_on":"2019-12-27T09:48:56.683775+05:45"},{"idx":"rNJ2JWu54QbzAt6VeW7LVX","contest":"Model Superstar","episode":"Model Superstar","category":null,"contestant":{"voting_id":"05","name":"Asmita Thapa Magar"},"vote_count":1,"created_on":"2019-12-27T09:48:18.689910+05:45"},{"idx":"q7eNv6DZckwwVD9yW68G6G","contest":"Model Superstar","episode":"Model Superstar","category":null,"contestant":{"voting_id":"06","name":"Sujan Basnet"},"vote_count":1,"created_on":"2019-12-27T09:48:06.746515+05:45"},{"idx":"X7YotXBqibBCz5RXVTZA3W","contest":"Model Superstar","episode":"Model Superstar","category":null,"contestant":{"voting_id":"02","name":"Srijana Basnet"},"vote_count":1,"created_on":"2019-12-27T09:47:47.093734+05:45"},{"idx":"je3i7UyzEXc5iPeHbYKmuS","contest":"Model Superstar","episode":"Model Superstar","category":null,"contestant":{"voting_id":"06","name":"Sujan Basnet"},"vote_count":1,"created_on":"2019-12-27T09:47:31.169765+05:45"},{"idx":"VJJBz3uBBQjbgBeDS4oxUm","contest":"Model Superstar","episode":"Model Superstar","category":null,"contestant":{"voting_id":"12","name":"Rabin Ghising"},"vote_count":1,"created_on":"2019-12-27T09:31:56.586821+05:45"},{"idx":"5ijaphN4PPWqxHtgP7Mk72","contest":"Model Superstar","episode":"Model Superstar","category":null,"contestant":{"voting_id":"04","name":"Sabita Maharjan"},"vote_count":1,"created_on":"2019-12-27T09:29:18.539240+05:45"},{"idx":"6cWBQrkVVXQHTdBzSGStuG","contest":"Model Superstar","episode":"Model Superstar","category":null,"contestant":{"voting_id":"07","name":"Narman Malla"},"vote_count":1,"created_on":"2019-12-27T09:12:36.886739+05:45"},{"idx":"am6oeoSrWqr37WHsBeHnsC","contest":"Model Superstar","episode":"Model Superstar","category":null,"contestant":{"voting_id":"04","name":"Sabita Maharjan"},"vote_count":1,"created_on":"2019-12-27T08:41:34.542779+05:45"},{"idx":"EkrJuVBqXm3WTgLMjyc7hQ","contest":"Model Superstar","episode":"Model Superstar","category":null,"contestant":{"voting_id":"27","name":"Suweta Shrestha"},"vote_count":5,"created_on":"2019-12-27T08:39:19.917908+05:45"}]}