{"total_pages":275,"total_records":13721,"next":"https://khalti.com/api/v2/vuservote/?page=208","previous":"https://khalti.com/api/v2/vuservote/?page=206","record_range":[10301,10350],"current_page":207,"records":[{"idx":"aVxmjVKPWyLtXJdom2caj2","contest":"Model Superstar","episode":"Model Superstar","category":null,"contestant":{"voting_id":"05","name":"Asmita Thapa Magar"},"vote_count":1,"created_on":"2019-12-27T07:58:01.505986+05:45"},{"idx":"ezLNd7JcsJwFw6FwiwfXgY","contest":"Model Superstar","episode":"Model Superstar","category":null,"contestant":{"voting_id":"04","name":"Sabita Maharjan"},"vote_count":1,"created_on":"2019-12-27T06:55:19.038321+05:45"},{"idx":"jKgYq85BVNaE9829Lqoi6H","contest":"Model Superstar","episode":"Model Superstar","category":null,"contestant":{"voting_id":"04","name":"Sabita Maharjan"},"vote_count":1,"created_on":"2019-12-27T06:31:45.136168+05:45"},{"idx":"joidynX267dC87UqZbVA64","contest":"Model Superstar","episode":"Model Superstar","category":null,"contestant":{"voting_id":"04","name":"Sabita Maharjan"},"vote_count":1,"created_on":"2019-12-27T06:31:30.221479+05:45"},{"idx":"citWypWioyNh8FLwSSCh4f","contest":"Model Superstar","episode":"Model Superstar","category":null,"contestant":{"voting_id":"04","name":"Sabita Maharjan"},"vote_count":1,"created_on":"2019-12-27T06:31:15.658850+05:45"},{"idx":"ZfitH3pv7CZxKuZdvF5Fr8","contest":"Model Superstar","episode":"Model Superstar","category":null,"contestant":{"voting_id":"04","name":"Sabita Maharjan"},"vote_count":1,"created_on":"2019-12-27T06:31:03.969847+05:45"},{"idx":"VULCZbyvcKHqVmd3erogYe","contest":"Model Superstar","episode":"Model Superstar","category":null,"contestant":{"voting_id":"04","name":"Sabita Maharjan"},"vote_count":1,"created_on":"2019-12-27T06:30:38.406910+05:45"},{"idx":"emiNvS7j6YxuHTncT3xgo7","contest":"Model Superstar","episode":"Model Superstar","category":null,"contestant":{"voting_id":"04","name":"Sabita Maharjan"},"vote_count":1,"created_on":"2019-12-27T06:30:25.677348+05:45"},{"idx":"KtG8ZNU9U7L4fi4Vmf4ysk","contest":"Model Superstar","episode":"Model Superstar","category":null,"contestant":{"voting_id":"04","name":"Sabita Maharjan"},"vote_count":1,"created_on":"2019-12-27T06:30:14.153215+05:45"},{"idx":"zvc7wEDc78DDUYwrKgbCZ5","contest":"Model Superstar","episode":"Model Superstar","category":null,"contestant":{"voting_id":"04","name":"Sabita Maharjan"},"vote_count":1,"created_on":"2019-12-27T06:29:53.767577+05:45"},{"idx":"xoHub8RvwVEufua8rmo7MW","contest":"Model Superstar","episode":"Model Superstar","category":null,"contestant":{"voting_id":"04","name":"Sabita Maharjan"},"vote_count":1,"created_on":"2019-12-27T06:29:39.305001+05:45"},{"idx":"BhtoetxxCYszkvMrFsaVoG","contest":"Model Superstar","episode":"Model Superstar","category":null,"contestant":{"voting_id":"04","name":"Sabita Maharjan"},"vote_count":1,"created_on":"2019-12-27T06:29:26.979273+05:45"},{"idx":"YGZkUJ9vmbhYj7wMKKoxo2","contest":"Model Superstar","episode":"Model Superstar","category":null,"contestant":{"voting_id":"04","name":"Sabita Maharjan"},"vote_count":1,"created_on":"2019-12-27T06:29:12.807299+05:45"},{"idx":"mMKSEzVA9CufDnBkb3ddjK","contest":"Model Superstar","episode":"Model Superstar","category":null,"contestant":{"voting_id":"04","name":"Sabita Maharjan"},"vote_count":1,"created_on":"2019-12-27T06:29:00.609622+05:45"},{"idx":"DUG7258DsAKBNmNUYbK2Bf","contest":"Model Superstar","episode":"Model Superstar","category":null,"contestant":{"voting_id":"04","name":"Sabita Maharjan"},"vote_count":1,"created_on":"2019-12-27T06:28:48.823899+05:45"},{"idx":"aUeRNSg5v4tDkMsgAQLCwR","contest":"Model Superstar","episode":"Model Superstar","category":null,"contestant":{"voting_id":"04","name":"Sabita Maharjan"},"vote_count":1,"created_on":"2019-12-27T06:28:35.784168+05:45"},{"idx":"EcVwKhR9aDhpwrkhzVpwVG","contest":"Model Superstar","episode":"Model Superstar","category":null,"contestant":{"voting_id":"04","name":"Sabita Maharjan"},"vote_count":1,"created_on":"2019-12-27T06:28:20.429639+05:45"},{"idx":"iufbeCKg34Nsk6XTsoFQVH","contest":"Model Superstar","episode":"Model Superstar","category":null,"contestant":{"voting_id":"04","name":"Sabita Maharjan"},"vote_count":1,"created_on":"2019-12-27T06:28:07.120157+05:45"},{"idx":"UBEdgPoB5RDg5zCzswfCbD","contest":"Model Superstar","episode":"Model Superstar","category":null,"contestant":{"voting_id":"04","name":"Sabita Maharjan"},"vote_count":1,"created_on":"2019-12-27T06:27:52.625634+05:45"},{"idx":"V8fWJ42fF7DNEzUv5CXUBa","contest":"Model Superstar","episode":"Model Superstar","category":null,"contestant":{"voting_id":"04","name":"Sabita Maharjan"},"vote_count":1,"created_on":"2019-12-27T06:27:40.387351+05:45"},{"idx":"fLjhvMi4HE9SfDBtZXRXY4","contest":"Model Superstar","episode":"Model Superstar","category":null,"contestant":{"voting_id":"04","name":"Sabita Maharjan"},"vote_count":1,"created_on":"2019-12-27T06:27:28.339339+05:45"},{"idx":"8nCJosM2Fh5Gv5UFmccjdQ","contest":"Model Superstar","episode":"Model Superstar","category":null,"contestant":{"voting_id":"04","name":"Sabita Maharjan"},"vote_count":1,"created_on":"2019-12-27T06:27:15.274109+05:45"},{"idx":"P52rwmq3UBRjefHPn9CXMg","contest":"Model Superstar","episode":"Model Superstar","category":null,"contestant":{"voting_id":"03","name":"Smriti Shah"},"vote_count":1,"created_on":"2019-12-27T06:26:09.743000+05:45"},{"idx":"sV9noNSC2MZw2JoeFoZSjc","contest":"Model Superstar","episode":"Model Superstar","category":null,"contestant":{"voting_id":"04","name":"Sabita Maharjan"},"vote_count":1,"created_on":"2019-12-27T06:25:57.508502+05:45"},{"idx":"ZENJMky7xM6L2m7XJvfwvF","contest":"Model Superstar","episode":"Model Superstar","category":null,"contestant":{"voting_id":"04","name":"Sabita Maharjan"},"vote_count":1,"created_on":"2019-12-27T06:23:35.801301+05:45"},{"idx":"ftVNpcwfdsedxkRYYSXFnk","contest":"Model Superstar","episode":"Model Superstar","category":null,"contestant":{"voting_id":"04","name":"Sabita Maharjan"},"vote_count":1,"created_on":"2019-12-27T06:23:19.110395+05:45"},{"idx":"Dmk3Chik7dTk7whfZMBwE4","contest":"Model Superstar","episode":"Model Superstar","category":null,"contestant":{"voting_id":"04","name":"Sabita Maharjan"},"vote_count":1,"created_on":"2019-12-27T06:23:04.011937+05:45"},{"idx":"7STU7WhbDFQgTsd2w7n4T2","contest":"Model Superstar","episode":"Model Superstar","category":null,"contestant":{"voting_id":"04","name":"Sabita Maharjan"},"vote_count":1,"created_on":"2019-12-27T06:22:49.469490+05:45"},{"idx":"UGqAauUFc9edaDuTZYCAGS","contest":"Model Superstar","episode":"Model Superstar","category":null,"contestant":{"voting_id":"04","name":"Sabita Maharjan"},"vote_count":1,"created_on":"2019-12-27T06:22:36.025210+05:45"},{"idx":"AWqTYNuRJQvTiQsRs4dKYM","contest":"Model Superstar","episode":"Model Superstar","category":null,"contestant":{"voting_id":"04","name":"Sabita Maharjan"},"vote_count":1,"created_on":"2019-12-27T06:22:23.195582+05:45"},{"idx":"X9quntXnBj7MENN9fPVoAc","contest":"Model Superstar","episode":"Model Superstar","category":null,"contestant":{"voting_id":"04","name":"Sabita Maharjan"},"vote_count":1,"created_on":"2019-12-27T06:21:59.828292+05:45"},{"idx":"EBwWs9En8JpbxnybmP2eLM","contest":"Model Superstar","episode":"Model Superstar","category":null,"contestant":{"voting_id":"04","name":"Sabita Maharjan"},"vote_count":1,"created_on":"2019-12-27T06:21:45.833195+05:45"},{"idx":"9KHpR7nSKn4dieGSMjh9jm","contest":"Model Superstar","episode":"Model Superstar","category":null,"contestant":{"voting_id":"04","name":"Sabita Maharjan"},"vote_count":1,"created_on":"2019-12-27T06:21:30.784756+05:45"},{"idx":"qaUHrjsMtVhjznLutCs9S9","contest":"Model Superstar","episode":"Model Superstar","category":null,"contestant":{"voting_id":"04","name":"Sabita Maharjan"},"vote_count":1,"created_on":"2019-12-27T06:21:17.639471+05:45"},{"idx":"v6poLLqBhVETgM4Gg8CEGT","contest":"Model Superstar","episode":"Model Superstar","category":null,"contestant":{"voting_id":"04","name":"Sabita Maharjan"},"vote_count":1,"created_on":"2019-12-27T06:20:45.421873+05:45"},{"idx":"zdfBNfciayKyS49Cdg5NQf","contest":"Model Superstar","episode":"Model Superstar","category":null,"contestant":{"voting_id":"04","name":"Sabita Maharjan"},"vote_count":1,"created_on":"2019-12-27T06:20:33.248188+05:45"},{"idx":"mm2CpNmYqCd9GP6wd55xqe","contest":"Model Superstar","episode":"Model Superstar","category":null,"contestant":{"voting_id":"04","name":"Sabita Maharjan"},"vote_count":1,"created_on":"2019-12-27T06:20:19.612247+05:45"},{"idx":"sfw8feqJLDUJ8ML2ReTcV8","contest":"Model Superstar","episode":"Model Superstar","category":null,"contestant":{"voting_id":"04","name":"Sabita Maharjan"},"vote_count":1,"created_on":"2019-12-27T06:20:07.460056+05:45"},{"idx":"GsD4zCxU4iSmX6EteYt944","contest":"Model Superstar","episode":"Model Superstar","category":null,"contestant":{"voting_id":"04","name":"Sabita Maharjan"},"vote_count":1,"created_on":"2019-12-27T06:19:52.162458+05:45"},{"idx":"re5QX3ws5mqxhPrPg2iyj8","contest":"Model Superstar","episode":"Model Superstar","category":null,"contestant":{"voting_id":"04","name":"Sabita Maharjan"},"vote_count":1,"created_on":"2019-12-27T06:19:36.882387+05:45"},{"idx":"JkPJsiM5fBeQFcwW9HiFW2","contest":"Model Superstar","episode":"Model Superstar","category":null,"contestant":{"voting_id":"04","name":"Sabita Maharjan"},"vote_count":1,"created_on":"2019-12-27T06:19:24.358764+05:45"},{"idx":"ZqTemKmVW9LS6UbJCz4Qdg","contest":"Model Superstar","episode":"Model Superstar","category":null,"contestant":{"voting_id":"04","name":"Sabita Maharjan"},"vote_count":1,"created_on":"2019-12-27T06:19:09.834716+05:45"},{"idx":"Hro6gfqTCUoyCf6kMHeqP6","contest":"Model Superstar","episode":"Model Superstar","category":null,"contestant":{"voting_id":"04","name":"Sabita Maharjan"},"vote_count":1,"created_on":"2019-12-27T06:18:55.806799+05:45"},{"idx":"yQinZzymtzq2ci2DPcjwEX","contest":"Model Superstar","episode":"Model Superstar","category":null,"contestant":{"voting_id":"04","name":"Sabita Maharjan"},"vote_count":1,"created_on":"2019-12-27T06:18:39.608063+05:45"},{"idx":"guTfE9vNYvDkMqUq6q5SuR","contest":"Model Superstar","episode":"Model Superstar","category":null,"contestant":{"voting_id":"04","name":"Sabita Maharjan"},"vote_count":1,"created_on":"2019-12-27T06:18:26.578270+05:45"},{"idx":"oxr5pHdh8qUZo4ARqjZN7n","contest":"Model Superstar","episode":"Model Superstar","category":null,"contestant":{"voting_id":"04","name":"Sabita Maharjan"},"vote_count":1,"created_on":"2019-12-27T06:18:13.436126+05:45"},{"idx":"Mw7PHxAGqBPMtBUH6JvaYQ","contest":"Model Superstar","episode":"Model Superstar","category":null,"contestant":{"voting_id":"04","name":"Sabita Maharjan"},"vote_count":1,"created_on":"2019-12-27T06:18:00.013194+05:45"},{"idx":"LnG2suC3o4bNLWNkNhed4n","contest":"Model Superstar","episode":"Model Superstar","category":null,"contestant":{"voting_id":"04","name":"Sabita Maharjan"},"vote_count":1,"created_on":"2019-12-27T06:17:44.872995+05:45"},{"idx":"QdxN8Ce7h4ZYebPo5FSLwg","contest":"Model Superstar","episode":"Model Superstar","category":null,"contestant":{"voting_id":"04","name":"Sabita Maharjan"},"vote_count":1,"created_on":"2019-12-27T06:17:27.000985+05:45"},{"idx":"metyotqvArpNThEnykAm76","contest":"Model Superstar","episode":"Model Superstar","category":null,"contestant":{"voting_id":"04","name":"Sabita Maharjan"},"vote_count":1,"created_on":"2019-12-27T06:11:36.700749+05:45"}]}