{"total_pages":275,"total_records":13721,"next":"https://khalti.com/api/v2/vuservote/?page=209","previous":"https://khalti.com/api/v2/vuservote/?page=207","record_range":[10351,10400],"current_page":208,"records":[{"idx":"B3fJeBym9AdxVJaD46xYSA","contest":"Model Superstar","episode":"Model Superstar","category":null,"contestant":{"voting_id":"04","name":"Sabita Maharjan"},"vote_count":1,"created_on":"2019-12-27T06:10:14.829090+05:45"},{"idx":"vXhgxQkXizT3tbGr7xGdNo","contest":"Model Superstar","episode":"Model Superstar","category":null,"contestant":{"voting_id":"04","name":"Sabita Maharjan"},"vote_count":1,"created_on":"2019-12-27T06:09:51.234657+05:45"},{"idx":"3dww8Qq34SA7aB5JGKEKY8","contest":"Model Superstar","episode":"Model Superstar","category":null,"contestant":{"voting_id":"04","name":"Sabita Maharjan"},"vote_count":1,"created_on":"2019-12-27T05:14:36.985780+05:45"},{"idx":"vqz7b3VD5oSGh3mvorwd8h","contest":"Model Superstar","episode":"Model Superstar","category":null,"contestant":{"voting_id":"04","name":"Sabita Maharjan"},"vote_count":1,"created_on":"2019-12-27T05:12:58.327080+05:45"},{"idx":"u9ft84h4jBT87cfBqju8vd","contest":"Model Superstar","episode":"Model Superstar","category":null,"contestant":{"voting_id":"04","name":"Sabita Maharjan"},"vote_count":1,"created_on":"2019-12-27T05:12:45.981434+05:45"},{"idx":"z8bUGMau8iWzsJdigqhFra","contest":"Model Superstar","episode":"Model Superstar","category":null,"contestant":{"voting_id":"04","name":"Sabita Maharjan"},"vote_count":1,"created_on":"2019-12-27T05:12:30.761915+05:45"},{"idx":"gDhdzrQMUWLJ4RJsy4mKNN","contest":"Model Superstar","episode":"Model Superstar","category":null,"contestant":{"voting_id":"04","name":"Sabita Maharjan"},"vote_count":1,"created_on":"2019-12-27T05:12:18.842292+05:45"},{"idx":"JgnJ4iFSQbY4fHSscTxHF8","contest":"Model Superstar","episode":"Model Superstar","category":null,"contestant":{"voting_id":"04","name":"Sabita Maharjan"},"vote_count":1,"created_on":"2019-12-27T05:12:08.903345+05:45"},{"idx":"hFMR2WTzgFVCDkUQ7C6NUP","contest":"Model Superstar","episode":"Model Superstar","category":null,"contestant":{"voting_id":"04","name":"Sabita Maharjan"},"vote_count":1,"created_on":"2019-12-27T05:11:58.555713+05:45"},{"idx":"othAjqTd4NhaKHDZKZPqGU","contest":"Model Superstar","episode":"Model Superstar","category":null,"contestant":{"voting_id":"04","name":"Sabita Maharjan"},"vote_count":1,"created_on":"2019-12-27T05:11:48.566774+05:45"},{"idx":"rrBsf3dpRLomD9oAW2PNXN","contest":"Model Superstar","episode":"Model Superstar","category":null,"contestant":{"voting_id":"04","name":"Sabita Maharjan"},"vote_count":1,"created_on":"2019-12-27T05:11:37.978810+05:45"},{"idx":"kEG9xs2WPwT7k834c9qBdZ","contest":"Model Superstar","episode":"Model Superstar","category":null,"contestant":{"voting_id":"04","name":"Sabita Maharjan"},"vote_count":1,"created_on":"2019-12-27T05:11:28.172228+05:45"},{"idx":"T7UUASDZMFcpUH2g3K2v8d","contest":"Model Superstar","episode":"Model Superstar","category":null,"contestant":{"voting_id":"04","name":"Sabita Maharjan"},"vote_count":1,"created_on":"2019-12-27T05:11:18.368047+05:45"},{"idx":"4kw6r8uHszieZkihMvDP5B","contest":"Model Superstar","episode":"Model Superstar","category":null,"contestant":{"voting_id":"04","name":"Sabita Maharjan"},"vote_count":1,"created_on":"2019-12-27T05:11:05.348532+05:45"},{"idx":"LZrcPruL9Mq54JNSiyWJLa","contest":"Model Superstar","episode":"Model Superstar","category":null,"contestant":{"voting_id":"04","name":"Sabita Maharjan"},"vote_count":1,"created_on":"2019-12-27T05:10:56.460342+05:45"},{"idx":"HEnRDT33T8nQ8pqBRpLBFQ","contest":"Model Superstar","episode":"Model Superstar","category":null,"contestant":{"voting_id":"04","name":"Sabita Maharjan"},"vote_count":1,"created_on":"2019-12-27T05:10:45.887918+05:45"},{"idx":"V8UnvbHHdovvYp5x655r4L","contest":"Model Superstar","episode":"Model Superstar","category":null,"contestant":{"voting_id":"04","name":"Sabita Maharjan"},"vote_count":1,"created_on":"2019-12-27T05:10:35.362798+05:45"},{"idx":"RncaJB4gwny4t8nnwtkSKM","contest":"Model Superstar","episode":"Model Superstar","category":null,"contestant":{"voting_id":"04","name":"Sabita Maharjan"},"vote_count":1,"created_on":"2019-12-27T05:10:26.094867+05:45"},{"idx":"PZhSSYJF9EpzDB6dMipEcW","contest":"Model Superstar","episode":"Model Superstar","category":null,"contestant":{"voting_id":"04","name":"Sabita Maharjan"},"vote_count":1,"created_on":"2019-12-27T05:10:16.208632+05:45"},{"idx":"kQubHnhqNsf228pTT8YAVX","contest":"Model Superstar","episode":"Model Superstar","category":null,"contestant":{"voting_id":"04","name":"Sabita Maharjan"},"vote_count":1,"created_on":"2019-12-27T05:10:06.372584+05:45"},{"idx":"b3T7iVWrQXcDCqXWMZibvL","contest":"Model Superstar","episode":"Model Superstar","category":null,"contestant":{"voting_id":"04","name":"Sabita Maharjan"},"vote_count":1,"created_on":"2019-12-27T05:09:55.659699+05:45"},{"idx":"fhUsm854tHfLbPdL6YotZk","contest":"Model Superstar","episode":"Model Superstar","category":null,"contestant":{"voting_id":"04","name":"Sabita Maharjan"},"vote_count":1,"created_on":"2019-12-27T05:09:44.974350+05:45"},{"idx":"tJMNopzhuzMQjzbJAkH4SL","contest":"Model Superstar","episode":"Model Superstar","category":null,"contestant":{"voting_id":"04","name":"Sabita Maharjan"},"vote_count":1,"created_on":"2019-12-27T05:09:33.690686+05:45"},{"idx":"FJHaZoPMZ37veHDptaywgJ","contest":"Model Superstar","episode":"Model Superstar","category":null,"contestant":{"voting_id":"04","name":"Sabita Maharjan"},"vote_count":1,"created_on":"2019-12-27T05:09:22.148232+05:45"},{"idx":"Fy4LEDMCJd9bw9xD8zrXwj","contest":"Model Superstar","episode":"Model Superstar","category":null,"contestant":{"voting_id":"04","name":"Sabita Maharjan"},"vote_count":1,"created_on":"2019-12-27T05:09:12.382480+05:45"},{"idx":"2GNvwCDnfeJuNNkKxVN9jW","contest":"Model Superstar","episode":"Model Superstar","category":null,"contestant":{"voting_id":"04","name":"Sabita Maharjan"},"vote_count":1,"created_on":"2019-12-27T05:09:02.585435+05:45"},{"idx":"9WzmJf3gWenaTy9oxbovVK","contest":"Model Superstar","episode":"Model Superstar","category":null,"contestant":{"voting_id":"04","name":"Sabita Maharjan"},"vote_count":1,"created_on":"2019-12-27T05:08:50.170745+05:45"},{"idx":"GQQCwVwsE5RT8ig5n8PGBS","contest":"Model Superstar","episode":"Model Superstar","category":null,"contestant":{"voting_id":"04","name":"Sabita Maharjan"},"vote_count":1,"created_on":"2019-12-27T05:08:40.447624+05:45"},{"idx":"UbWgArdYh6p36RT9oCY96h","contest":"Model Superstar","episode":"Model Superstar","category":null,"contestant":{"voting_id":"04","name":"Sabita Maharjan"},"vote_count":1,"created_on":"2019-12-27T05:08:28.957263+05:45"},{"idx":"EBbfkTBKQFsxyGg7aHSkVf","contest":"Model Superstar","episode":"Model Superstar","category":null,"contestant":{"voting_id":"04","name":"Sabita Maharjan"},"vote_count":1,"created_on":"2019-12-27T05:08:18.155048+05:45"},{"idx":"QWqh4QHzDCSdbfHWSDZncc","contest":"Model Superstar","episode":"Model Superstar","category":null,"contestant":{"voting_id":"04","name":"Sabita Maharjan"},"vote_count":1,"created_on":"2019-12-27T05:08:08.985159+05:45"},{"idx":"TtUcKJ9zciQq3pFbk7VXAG","contest":"Model Superstar","episode":"Model Superstar","category":null,"contestant":{"voting_id":"04","name":"Sabita Maharjan"},"vote_count":1,"created_on":"2019-12-27T05:07:58.448329+05:45"},{"idx":"C3Fxf3327rKmX8YgjFAHFn","contest":"Model Superstar","episode":"Model Superstar","category":null,"contestant":{"voting_id":"04","name":"Sabita Maharjan"},"vote_count":1,"created_on":"2019-12-27T05:07:40.942596+05:45"},{"idx":"ra8FwQqFr8xYE6nRYTzzkE","contest":"Model Superstar","episode":"Model Superstar","category":null,"contestant":{"voting_id":"04","name":"Sabita Maharjan"},"vote_count":1,"created_on":"2019-12-27T05:07:30.318112+05:45"},{"idx":"9Da67zb6Rfk6NwycaWW7gj","contest":"Model Superstar","episode":"Model Superstar","category":null,"contestant":{"voting_id":"04","name":"Sabita Maharjan"},"vote_count":1,"created_on":"2019-12-27T05:07:19.942562+05:45"},{"idx":"iQbgAeJQGAnZrorcxwaTZ5","contest":"Model Superstar","episode":"Model Superstar","category":null,"contestant":{"voting_id":"04","name":"Sabita Maharjan"},"vote_count":1,"created_on":"2019-12-27T05:07:08.085275+05:45"},{"idx":"4Hv3yVgmksqhNuT5opUkLb","contest":"Model Superstar","episode":"Model Superstar","category":null,"contestant":{"voting_id":"04","name":"Sabita Maharjan"},"vote_count":1,"created_on":"2019-12-27T05:06:55.677777+05:45"},{"idx":"GnNksRiVMoh5wZXF4mZGjm","contest":"Model Superstar","episode":"Model Superstar","category":null,"contestant":{"voting_id":"04","name":"Sabita Maharjan"},"vote_count":1,"created_on":"2019-12-27T05:06:43.944111+05:45"},{"idx":"gThtqkdNZCLF794oRPJ24k","contest":"Model Superstar","episode":"Model Superstar","category":null,"contestant":{"voting_id":"04","name":"Sabita Maharjan"},"vote_count":1,"created_on":"2019-12-27T05:06:32.878697+05:45"},{"idx":"sMQfsa2csEQL3scukwd5RC","contest":"Model Superstar","episode":"Model Superstar","category":null,"contestant":{"voting_id":"04","name":"Sabita Maharjan"},"vote_count":1,"created_on":"2019-12-27T05:06:22.984878+05:45"},{"idx":"zWkMqZySfwF63eLkBBVarc","contest":"Model Superstar","episode":"Model Superstar","category":null,"contestant":{"voting_id":"04","name":"Sabita Maharjan"},"vote_count":1,"created_on":"2019-12-27T05:06:11.784257+05:45"},{"idx":"87EsjKQUVKFaqaUmZYM3vT","contest":"Model Superstar","episode":"Model Superstar","category":null,"contestant":{"voting_id":"04","name":"Sabita Maharjan"},"vote_count":1,"created_on":"2019-12-27T05:06:01.301439+05:45"},{"idx":"J9bY3q9F9GjjaVgw3c2BND","contest":"Model Superstar","episode":"Model Superstar","category":null,"contestant":{"voting_id":"04","name":"Sabita Maharjan"},"vote_count":1,"created_on":"2019-12-27T05:05:49.627161+05:45"},{"idx":"AgKth7pcn9oEs5RNAh6iK6","contest":"Model Superstar","episode":"Model Superstar","category":null,"contestant":{"voting_id":"04","name":"Sabita Maharjan"},"vote_count":1,"created_on":"2019-12-27T05:05:37.930164+05:45"},{"idx":"Vau9pnSydewdaHbSCpWEnN","contest":"Model Superstar","episode":"Model Superstar","category":null,"contestant":{"voting_id":"04","name":"Sabita Maharjan"},"vote_count":1,"created_on":"2019-12-27T05:05:27.600771+05:45"},{"idx":"2Nqdk8Fp3mNkoggeC2EoL7","contest":"Model Superstar","episode":"Model Superstar","category":null,"contestant":{"voting_id":"04","name":"Sabita Maharjan"},"vote_count":1,"created_on":"2019-12-27T05:05:16.630785+05:45"},{"idx":"DBbcpG7YkVqSkK6idXsYPD","contest":"Model Superstar","episode":"Model Superstar","category":null,"contestant":{"voting_id":"04","name":"Sabita Maharjan"},"vote_count":1,"created_on":"2019-12-27T05:05:05.106011+05:45"},{"idx":"7qwLxyMv47GBTg5KNWFXgL","contest":"Model Superstar","episode":"Model Superstar","category":null,"contestant":{"voting_id":"04","name":"Sabita Maharjan"},"vote_count":1,"created_on":"2019-12-27T05:04:51.284796+05:45"},{"idx":"NQZgBiAxEVPQUhGwusM6uE","contest":"Model Superstar","episode":"Model Superstar","category":null,"contestant":{"voting_id":"04","name":"Sabita Maharjan"},"vote_count":1,"created_on":"2019-12-27T05:04:37.624850+05:45"},{"idx":"EufFFGRb4GythnMWBBPjwk","contest":"Model Superstar","episode":"Model Superstar","category":null,"contestant":{"voting_id":"04","name":"Sabita Maharjan"},"vote_count":1,"created_on":"2019-12-27T05:04:27.147829+05:45"}]}