{"total_pages":275,"total_records":13721,"next":"https://khalti.com/api/v2/vuservote/?page=210","previous":"https://khalti.com/api/v2/vuservote/?page=208","record_range":[10401,10450],"current_page":209,"records":[{"idx":"CUQEN9VLh3tESaRf7WSGKb","contest":"Model Superstar","episode":"Model Superstar","category":null,"contestant":{"voting_id":"04","name":"Sabita Maharjan"},"vote_count":1,"created_on":"2019-12-27T05:04:16.496941+05:45"},{"idx":"zDcLyEJmdaEMTdv6FgQLWc","contest":"Model Superstar","episode":"Model Superstar","category":null,"contestant":{"voting_id":"04","name":"Sabita Maharjan"},"vote_count":1,"created_on":"2019-12-27T05:04:05.851465+05:45"},{"idx":"LAkw5pUnRDiKbzCnpA56AL","contest":"Model Superstar","episode":"Model Superstar","category":null,"contestant":{"voting_id":"04","name":"Sabita Maharjan"},"vote_count":1,"created_on":"2019-12-27T05:03:53.998656+05:45"},{"idx":"snZrVqJjSRgXRVmY6pLSqK","contest":"Model Superstar","episode":"Model Superstar","category":null,"contestant":{"voting_id":"04","name":"Sabita Maharjan"},"vote_count":1,"created_on":"2019-12-27T05:03:44.088542+05:45"},{"idx":"jc7etTM9feLF4DdhQgKLGZ","contest":"Model Superstar","episode":"Model Superstar","category":null,"contestant":{"voting_id":"04","name":"Sabita Maharjan"},"vote_count":1,"created_on":"2019-12-27T05:03:32.885341+05:45"},{"idx":"uqkSgKeJzoCPYvs8X6Q6FR","contest":"Model Superstar","episode":"Model Superstar","category":null,"contestant":{"voting_id":"04","name":"Sabita Maharjan"},"vote_count":1,"created_on":"2019-12-27T05:03:21.772588+05:45"},{"idx":"uTnbAtgDZncVAxcRZuvA2h","contest":"Model Superstar","episode":"Model Superstar","category":null,"contestant":{"voting_id":"04","name":"Sabita Maharjan"},"vote_count":1,"created_on":"2019-12-27T05:03:10.896710+05:45"},{"idx":"xE8UzpJoBV3boZTcPv2opW","contest":"Model Superstar","episode":"Model Superstar","category":null,"contestant":{"voting_id":"04","name":"Sabita Maharjan"},"vote_count":1,"created_on":"2019-12-27T05:03:00.898519+05:45"},{"idx":"A4YJcpsoHFGBaJDcPmaeri","contest":"Model Superstar","episode":"Model Superstar","category":null,"contestant":{"voting_id":"04","name":"Sabita Maharjan"},"vote_count":1,"created_on":"2019-12-27T05:02:49.887700+05:45"},{"idx":"BUoc4YktZPnzBzivnQZWfV","contest":"Model Superstar","episode":"Model Superstar","category":null,"contestant":{"voting_id":"04","name":"Sabita Maharjan"},"vote_count":1,"created_on":"2019-12-27T05:02:37.037114+05:45"},{"idx":"8MhXc7jvUo98csoSUupigX","contest":"Model Superstar","episode":"Model Superstar","category":null,"contestant":{"voting_id":"04","name":"Sabita Maharjan"},"vote_count":1,"created_on":"2019-12-27T05:02:26.075436+05:45"},{"idx":"HajW8MbdDUpB6K7fvPjEZR","contest":"Model Superstar","episode":"Model Superstar","category":null,"contestant":{"voting_id":"04","name":"Sabita Maharjan"},"vote_count":1,"created_on":"2019-12-27T05:02:15.057946+05:45"},{"idx":"zHskLv2iK2kiyYGSMXexD8","contest":"Model Superstar","episode":"Model Superstar","category":null,"contestant":{"voting_id":"04","name":"Sabita Maharjan"},"vote_count":1,"created_on":"2019-12-27T05:02:01.000620+05:45"},{"idx":"Q6vwNGDxiqNHPRZ4FWc74o","contest":"Model Superstar","episode":"Model Superstar","category":null,"contestant":{"voting_id":"04","name":"Sabita Maharjan"},"vote_count":1,"created_on":"2019-12-27T05:01:40.928658+05:45"},{"idx":"oT3WKU65zjV46Szs2NKM9g","contest":"Model Superstar","episode":"Model Superstar","category":null,"contestant":{"voting_id":"04","name":"Sabita Maharjan"},"vote_count":1,"created_on":"2019-12-27T05:01:29.792242+05:45"},{"idx":"HGkFgNx4z9KuzVfYB266xF","contest":"Model Superstar","episode":"Model Superstar","category":null,"contestant":{"voting_id":"04","name":"Sabita Maharjan"},"vote_count":1,"created_on":"2019-12-27T05:01:17.711358+05:45"},{"idx":"dfG2nJYmLS3VhJXi4SHzCF","contest":"Model Superstar","episode":"Model Superstar","category":null,"contestant":{"voting_id":"04","name":"Sabita Maharjan"},"vote_count":1,"created_on":"2019-12-27T05:01:05.953365+05:45"},{"idx":"AardKVyxLHzifhkAxPFHXJ","contest":"Model Superstar","episode":"Model Superstar","category":null,"contestant":{"voting_id":"04","name":"Sabita Maharjan"},"vote_count":1,"created_on":"2019-12-27T05:00:54.465228+05:45"},{"idx":"wjp5fHVHSVSJCNrdsWdWx5","contest":"Model Superstar","episode":"Model Superstar","category":null,"contestant":{"voting_id":"04","name":"Sabita Maharjan"},"vote_count":1,"created_on":"2019-12-27T05:00:43.080058+05:45"},{"idx":"SxM5qnw8qZ72Ktse7qyAVm","contest":"Model Superstar","episode":"Model Superstar","category":null,"contestant":{"voting_id":"04","name":"Sabita Maharjan"},"vote_count":1,"created_on":"2019-12-27T05:00:26.029756+05:45"},{"idx":"bifmwa2jxZyMz3hcjgGgx4","contest":"Model Superstar","episode":"Model Superstar","category":null,"contestant":{"voting_id":"04","name":"Sabita Maharjan"},"vote_count":1,"created_on":"2019-12-27T05:00:10.899637+05:45"},{"idx":"J5UuXAprfLE5ZxRaLCQEMh","contest":"Model Superstar","episode":"Model Superstar","category":null,"contestant":{"voting_id":"04","name":"Sabita Maharjan"},"vote_count":1,"created_on":"2019-12-27T04:59:59.413106+05:45"},{"idx":"8VECppmBHV7WiBHKWGDsp2","contest":"Model Superstar","episode":"Model Superstar","category":null,"contestant":{"voting_id":"04","name":"Sabita Maharjan"},"vote_count":1,"created_on":"2019-12-27T04:59:46.250211+05:45"},{"idx":"cy6fYuTA9z8vic7NxCEoCF","contest":"Model Superstar","episode":"Model Superstar","category":null,"contestant":{"voting_id":"04","name":"Sabita Maharjan"},"vote_count":1,"created_on":"2019-12-27T04:59:34.884913+05:45"},{"idx":"rzNtAqA9qRReUhPBfaSRwV","contest":"Model Superstar","episode":"Model Superstar","category":null,"contestant":{"voting_id":"04","name":"Sabita Maharjan"},"vote_count":1,"created_on":"2019-12-27T04:59:20.738949+05:45"},{"idx":"MM9xwis87tWbsDTnDpVcFP","contest":"Model Superstar","episode":"Model Superstar","category":null,"contestant":{"voting_id":"04","name":"Sabita Maharjan"},"vote_count":1,"created_on":"2019-12-27T04:59:10.360262+05:45"},{"idx":"UDBJ9pUDEaWCkThNeWXiRC","contest":"Model Superstar","episode":"Model Superstar","category":null,"contestant":{"voting_id":"04","name":"Sabita Maharjan"},"vote_count":1,"created_on":"2019-12-27T04:58:57.862713+05:45"},{"idx":"esBQpqQsiDi8CziozCRsEM","contest":"Model Superstar","episode":"Model Superstar","category":null,"contestant":{"voting_id":"04","name":"Sabita Maharjan"},"vote_count":1,"created_on":"2019-12-27T04:58:45.377625+05:45"},{"idx":"YqwDgGyeesx8kxhgaDUHe7","contest":"Model Superstar","episode":"Model Superstar","category":null,"contestant":{"voting_id":"04","name":"Sabita Maharjan"},"vote_count":1,"created_on":"2019-12-27T04:58:31.629240+05:45"},{"idx":"KLENxpwM6eKobS7xWvBFSc","contest":"Model Superstar","episode":"Model Superstar","category":null,"contestant":{"voting_id":"04","name":"Sabita Maharjan"},"vote_count":1,"created_on":"2019-12-27T04:58:17.066601+05:45"},{"idx":"pzosFpXuRWzcoNkVV3nVN7","contest":"Model Superstar","episode":"Model Superstar","category":null,"contestant":{"voting_id":"04","name":"Sabita Maharjan"},"vote_count":1,"created_on":"2019-12-27T04:58:04.879130+05:45"},{"idx":"3QgH9aMSY77qJ5aiyphNVJ","contest":"Model Superstar","episode":"Model Superstar","category":null,"contestant":{"voting_id":"04","name":"Sabita Maharjan"},"vote_count":1,"created_on":"2019-12-27T04:57:54.588085+05:45"},{"idx":"VpLJ7Q7az8NMDm2MnjLqre","contest":"Model Superstar","episode":"Model Superstar","category":null,"contestant":{"voting_id":"04","name":"Sabita Maharjan"},"vote_count":1,"created_on":"2019-12-27T04:57:41.371595+05:45"},{"idx":"jzDz4RHaGtnUiBYga3CpJX","contest":"Model Superstar","episode":"Model Superstar","category":null,"contestant":{"voting_id":"04","name":"Sabita Maharjan"},"vote_count":1,"created_on":"2019-12-27T04:57:15.975190+05:45"},{"idx":"pgSJogeecwBkRqRSWCbdnk","contest":"Model Superstar","episode":"Model Superstar","category":null,"contestant":{"voting_id":"04","name":"Sabita Maharjan"},"vote_count":1,"created_on":"2019-12-27T04:57:01.376802+05:45"},{"idx":"NUBeLHECQZ2W8bYaZghjKP","contest":"Model Superstar","episode":"Model Superstar","category":null,"contestant":{"voting_id":"04","name":"Sabita Maharjan"},"vote_count":1,"created_on":"2019-12-27T04:56:49.558488+05:45"},{"idx":"GuaZQGRgka2jzeJResw9HJ","contest":"Model Superstar","episode":"Model Superstar","category":null,"contestant":{"voting_id":"04","name":"Sabita Maharjan"},"vote_count":1,"created_on":"2019-12-27T04:56:36.768258+05:45"},{"idx":"BS68EtZ5EDQkePwqSYjed2","contest":"Model Superstar","episode":"Model Superstar","category":null,"contestant":{"voting_id":"04","name":"Sabita Maharjan"},"vote_count":1,"created_on":"2019-12-27T04:56:09.032240+05:45"},{"idx":"xNxVMfHs8u7PvBrj8mWDFg","contest":"Model Superstar","episode":"Model Superstar","category":null,"contestant":{"voting_id":"04","name":"Sabita Maharjan"},"vote_count":1,"created_on":"2019-12-27T04:55:59.330491+05:45"},{"idx":"HaUTPdgR453zrXtDez5ZzL","contest":"Model Superstar","episode":"Model Superstar","category":null,"contestant":{"voting_id":"04","name":"Sabita Maharjan"},"vote_count":1,"created_on":"2019-12-27T04:55:47.521734+05:45"},{"idx":"k2uBWbbzxjBjMnLyEk34DA","contest":"Model Superstar","episode":"Model Superstar","category":null,"contestant":{"voting_id":"04","name":"Sabita Maharjan"},"vote_count":1,"created_on":"2019-12-27T04:55:35.722724+05:45"},{"idx":"oJpNTktwhQAuM99LZj6dcS","contest":"Model Superstar","episode":"Model Superstar","category":null,"contestant":{"voting_id":"04","name":"Sabita Maharjan"},"vote_count":1,"created_on":"2019-12-27T04:55:25.376626+05:45"},{"idx":"8Mzfp7g56VrJG2joq4ypLo","contest":"Model Superstar","episode":"Model Superstar","category":null,"contestant":{"voting_id":"04","name":"Sabita Maharjan"},"vote_count":1,"created_on":"2019-12-27T04:55:14.387732+05:45"},{"idx":"qT7KV59siQBDnCTv4L57kh","contest":"Model Superstar","episode":"Model Superstar","category":null,"contestant":{"voting_id":"04","name":"Sabita Maharjan"},"vote_count":1,"created_on":"2019-12-27T04:54:55.973634+05:45"},{"idx":"5HiASbmbPxEnYndEm8dJi8","contest":"Model Superstar","episode":"Model Superstar","category":null,"contestant":{"voting_id":"04","name":"Sabita Maharjan"},"vote_count":1,"created_on":"2019-12-27T04:54:41.126707+05:45"},{"idx":"GEyK7r5NnMLqC7GnpXeqBh","contest":"Model Superstar","episode":"Model Superstar","category":null,"contestant":{"voting_id":"04","name":"Sabita Maharjan"},"vote_count":1,"created_on":"2019-12-27T04:54:28.377394+05:45"},{"idx":"G5fGxRbHJWKzXGMNwE52a2","contest":"Model Superstar","episode":"Model Superstar","category":null,"contestant":{"voting_id":"04","name":"Sabita Maharjan"},"vote_count":1,"created_on":"2019-12-27T04:54:09.179654+05:45"},{"idx":"xP7Y2WjbyEHLnLjHZZfkja","contest":"Model Superstar","episode":"Model Superstar","category":null,"contestant":{"voting_id":"04","name":"Sabita Maharjan"},"vote_count":1,"created_on":"2019-12-27T04:53:43.358308+05:45"},{"idx":"aqsXrZaEDKgnJ6hvrBLpgH","contest":"Model Superstar","episode":"Model Superstar","category":null,"contestant":{"voting_id":"04","name":"Sabita Maharjan"},"vote_count":1,"created_on":"2019-12-27T04:53:15.060203+05:45"},{"idx":"w8JCVSCqU9aBumCvpiXwti","contest":"Model Superstar","episode":"Model Superstar","category":null,"contestant":{"voting_id":"04","name":"Sabita Maharjan"},"vote_count":1,"created_on":"2019-12-27T04:52:21.453534+05:45"}]}