{"total_pages":275,"total_records":13717,"next":"https://khalti.com/api/v2/vuservote/?page=22","previous":"https://khalti.com/api/v2/vuservote/?page=20","record_range":[1001,1050],"current_page":21,"records":[{"idx":"KPvFiSGNVZFgYTiZAjaeLf","contest":"Locus 2020","episode":"Locus 2020","category":null,"contestant":{"voting_id":"46","name":"Project Immune"},"vote_count":1,"created_on":"2020-02-01T11:55:16.922672+05:45"},{"idx":"QTypDgViuwtu4uFqNw4W8M","contest":"Locus 2020","episode":"Locus 2020","category":null,"contestant":{"voting_id":"34","name":"Project Femicoders"},"vote_count":1,"created_on":"2020-02-01T11:52:48.229306+05:45"},{"idx":"nqjV7MiUBpX3iBdxqERTg9","contest":"Locus 2020","episode":"Locus 2020","category":null,"contestant":{"voting_id":"66","name":"Project Alexa Pi"},"vote_count":1,"created_on":"2020-02-01T11:52:16.948551+05:45"},{"idx":"3uXqazJ9idMiqjc2B2pF8i","contest":"Locus 2020","episode":"Locus 2020","category":null,"contestant":{"voting_id":"27","name":"Project Online Entrance System ( IOE Entrance)"},"vote_count":1,"created_on":"2020-02-01T11:51:36.502065+05:45"},{"idx":"3qjC4coLjQcRmETciN3iRK","contest":"Locus 2020","episode":"Locus 2020","category":null,"contestant":{"voting_id":"32","name":"Project Health and Environment Checker"},"vote_count":1,"created_on":"2020-02-01T11:49:20.907906+05:45"},{"idx":"t6C9nT7MoguyvPyrifnS32","contest":"Locus 2020","episode":"Locus 2020","category":null,"contestant":{"voting_id":"27","name":"Project Online Entrance System ( IOE Entrance)"},"vote_count":1,"created_on":"2020-02-01T11:45:28.768846+05:45"},{"idx":"UKfVFZQqPviAHuW4fJwqXB","contest":"Locus 2020","episode":"Locus 2020","category":null,"contestant":{"voting_id":"46","name":"Project Immune"},"vote_count":1,"created_on":"2020-02-01T11:43:51.221336+05:45"},{"idx":"tEf4JLv5PR2TA425RoKjz7","contest":"Locus 2020","episode":"Locus 2020","category":null,"contestant":{"voting_id":"66","name":"Project Alexa Pi"},"vote_count":1,"created_on":"2020-02-01T11:33:30.782985+05:45"},{"idx":"aFSwNdVtbEapWKP3oaJ9cB","contest":"Locus 2020","episode":"Locus 2020","category":null,"contestant":{"voting_id":"66","name":"Project Alexa Pi"},"vote_count":1,"created_on":"2020-02-01T11:31:12.447600+05:45"},{"idx":"ZCoCPFaVSLtSvYCXVg9mPS","contest":"Locus 2020","episode":"Locus 2020","category":null,"contestant":{"voting_id":"66","name":"Project Alexa Pi"},"vote_count":1,"created_on":"2020-02-01T11:29:47.365990+05:45"},{"idx":"UHkMjs2gzApNXZtsAXd3ab","contest":"Locus 2020","episode":"Locus 2020","category":null,"contestant":{"voting_id":"31","name":"Project 3 in 1 Cartesian 3D Printer"},"vote_count":1,"created_on":"2020-02-01T11:29:20.881138+05:45"},{"idx":"CW6GHoxREtiPhfpBL2Gve3","contest":"Locus 2020","episode":"Locus 2020","category":null,"contestant":{"voting_id":"66","name":"Project Alexa Pi"},"vote_count":1,"created_on":"2020-02-01T11:27:49.939382+05:45"},{"idx":"nPGVKdPFHUKcUJPHCcNMhL","contest":"Locus 2020","episode":"Locus 2020","category":null,"contestant":{"voting_id":"66","name":"Project Alexa Pi"},"vote_count":1,"created_on":"2020-02-01T11:24:49.577127+05:45"},{"idx":"bCcNrzHeSpToNqZpwdVc3W","contest":"Locus 2020","episode":"Locus 2020","category":null,"contestant":{"voting_id":"66","name":"Project Alexa Pi"},"vote_count":1,"created_on":"2020-02-01T11:23:18.864462+05:45"},{"idx":"oSFtK8wZUfkmFu4tmokWLB","contest":"Locus 2020","episode":"Locus 2020","category":null,"contestant":{"voting_id":"31","name":"Project 3 in 1 Cartesian 3D Printer"},"vote_count":1,"created_on":"2020-02-01T11:22:37.261168+05:45"},{"idx":"ddyGZmyusVobjoeXDWYQZn","contest":"Locus 2020","episode":"Locus 2020","category":null,"contestant":{"voting_id":"32","name":"Project Health and Environment Checker"},"vote_count":1,"created_on":"2020-02-01T11:03:44.166439+05:45"},{"idx":"n67FvCAmVnW4HdNtDAAsLF","contest":"Locus 2020","episode":"Locus 2020","category":null,"contestant":{"voting_id":"27","name":"Project Online Entrance System ( IOE Entrance)"},"vote_count":1,"created_on":"2020-02-01T11:02:08.483286+05:45"},{"idx":"JUdkExEHBFBdKhP5mTR37A","contest":"Locus 2020","episode":"Locus 2020","category":null,"contestant":{"voting_id":"27","name":"Project Online Entrance System ( IOE Entrance)"},"vote_count":1,"created_on":"2020-02-01T11:01:37.569081+05:45"},{"idx":"hniJfjPGkpW3geFyLx7DKY","contest":"Locus 2020","episode":"Locus 2020","category":null,"contestant":{"voting_id":"12","name":"Project Green City"},"vote_count":1,"created_on":"2020-02-01T11:01:15.507067+05:45"},{"idx":"Hi7Lfkuu7UKHwxWCJnmyc4","contest":"Locus 2020","episode":"Locus 2020","category":null,"contestant":{"voting_id":"83","name":"Project Ghadi"},"vote_count":1,"created_on":"2020-02-01T11:00:18.496156+05:45"},{"idx":"prEbAFpFgsAcLyLfscmmUo","contest":"Locus 2020","episode":"Locus 2020","category":null,"contestant":{"voting_id":"84","name":"Project Margadarshan"},"vote_count":1,"created_on":"2020-02-01T10:56:52.196752+05:45"},{"idx":"KhKDKprQBk4xwTXWSnCMJW","contest":"Locus 2020","episode":"Locus 2020","category":null,"contestant":{"voting_id":"27","name":"Project Online Entrance System ( IOE Entrance)"},"vote_count":1,"created_on":"2020-02-01T10:50:11.749038+05:45"},{"idx":"t47eAVeNbMi8PUxfbGBmNk","contest":"Model Superstar","episode":"Model Superstar Finale","category":null,"contestant":{"voting_id":"13","name":"Prashant Shah"},"vote_count":1,"created_on":"2020-02-01T10:41:25.423511+05:45"},{"idx":"aZEvcNNHPXWujrSJyCjMNT","contest":"Locus 2020","episode":"Locus 2020","category":null,"contestant":{"voting_id":"32","name":"Project Health and Environment Checker"},"vote_count":1,"created_on":"2020-02-01T10:37:29.792225+05:45"},{"idx":"7nBSDxQxKqK5BMqXLGiALV","contest":"Locus 2020","episode":"Locus 2020","category":null,"contestant":{"voting_id":"31","name":"Project 3 in 1 Cartesian 3D Printer"},"vote_count":1,"created_on":"2020-02-01T10:32:41.840497+05:45"},{"idx":"2n4rdeUmDPAEz2QjanHFjQ","contest":"Locus 2020","episode":"Locus 2020","category":null,"contestant":{"voting_id":"31","name":"Project 3 in 1 Cartesian 3D Printer"},"vote_count":1,"created_on":"2020-02-01T10:26:30.586391+05:45"},{"idx":"ZLRRocD5Uwz4P4otGFadPK","contest":"Locus 2020","episode":"Locus 2020","category":null,"contestant":{"voting_id":"66","name":"Project Alexa Pi"},"vote_count":1,"created_on":"2020-02-01T10:25:21.095197+05:45"},{"idx":"xTSJiKvASkTBdqiGUJUhGB","contest":"Locus 2020","episode":"Locus 2020","category":null,"contestant":{"voting_id":"66","name":"Project Alexa Pi"},"vote_count":1,"created_on":"2020-02-01T10:25:20.745454+05:45"},{"idx":"9sNAAt3XpUqjDFKxuQYkXX","contest":"Locus 2020","episode":"Locus 2020","category":null,"contestant":{"voting_id":"66","name":"Project Alexa Pi"},"vote_count":1,"created_on":"2020-02-01T10:23:31.194470+05:45"},{"idx":"hqUQky7KFzGryQhJBhNkcj","contest":"Model Superstar","episode":"Model Superstar Finale","category":null,"contestant":{"voting_id":"12","name":"Rabin Ghising"},"vote_count":1,"created_on":"2020-02-01T10:22:55.906930+05:45"},{"idx":"Z6nCWUBWQ8NqPvDY5A73Gk","contest":"Locus 2020","episode":"Locus 2020","category":null,"contestant":{"voting_id":"12","name":"Project Green City"},"vote_count":1,"created_on":"2020-02-01T10:17:32.804891+05:45"},{"idx":"p3EkFcskhoUECLZHTpwgDa","contest":"Model Superstar","episode":"Model Superstar Finale","category":null,"contestant":{"voting_id":"03","name":"Smriti Shah"},"vote_count":1,"created_on":"2020-02-01T10:16:02.192709+05:45"},{"idx":"oBZzCrCiYF2NheY2V2ugmS","contest":"Locus 2020","episode":"Locus 2020","category":null,"contestant":{"voting_id":"66","name":"Project Alexa Pi"},"vote_count":1,"created_on":"2020-02-01T10:14:55.028414+05:45"},{"idx":"Jxd6cEoKLFF2W2LN5XuYXY","contest":"Locus 2020","episode":"Locus 2020","category":null,"contestant":{"voting_id":"32","name":"Project Health and Environment Checker"},"vote_count":1,"created_on":"2020-02-01T10:11:46.371726+05:45"},{"idx":"SFCm5pkVhhcF7vuHLZZ44P","contest":"Locus 2020","episode":"Locus 2020","category":null,"contestant":{"voting_id":"32","name":"Project Health and Environment Checker"},"vote_count":1,"created_on":"2020-02-01T10:09:25.227972+05:45"},{"idx":"Vbyz3W52cMXyXa2HGCkEHL","contest":"Model Superstar","episode":"Model Superstar Finale","category":null,"contestant":{"voting_id":"12","name":"Rabin Ghising"},"vote_count":1,"created_on":"2020-02-01T10:08:31.217882+05:45"},{"idx":"72tJ8YhCvrTnznKCeiEhC9","contest":"Locus 2020","episode":"Locus 2020","category":null,"contestant":{"voting_id":"32","name":"Project Health and Environment Checker"},"vote_count":1,"created_on":"2020-02-01T10:03:51.078455+05:45"},{"idx":"zBWTtX2oDkiRsahKVPZLBL","contest":"Locus 2020","episode":"Locus 2020","category":null,"contestant":{"voting_id":"04","name":"Project IRB -Robo Arm"},"vote_count":1,"created_on":"2020-02-01T09:59:15.993980+05:45"},{"idx":"2LZXLaTCJTfw9j26tbpKYk","contest":"Locus 2020","episode":"Locus 2020","category":null,"contestant":{"voting_id":"03","name":"Project Street Light Automation"},"vote_count":1,"created_on":"2020-02-01T09:52:47.156916+05:45"},{"idx":"AJmhck55v4pfxKSusgygA2","contest":"Model Superstar","episode":"Model Superstar Finale","category":null,"contestant":{"voting_id":"04","name":"Sabita Maharjan"},"vote_count":1,"created_on":"2020-02-01T09:52:01.550607+05:45"},{"idx":"Jp6hb5gDCJeftUiuNQ9Vc8","contest":"Model Superstar","episode":"Model Superstar Finale","category":null,"contestant":{"voting_id":"11","name":"Rachana Karki"},"vote_count":1,"created_on":"2020-02-01T09:51:40.170122+05:45"},{"idx":"zdmyyadzSvjQNY9WTC69WN","contest":"Model Superstar","episode":"Model Superstar Finale","category":null,"contestant":{"voting_id":"02","name":"Srijana Basnet"},"vote_count":1,"created_on":"2020-02-01T09:50:53.860684+05:45"},{"idx":"ayiyeVppBxad6sjJRBYXjC","contest":"Locus 2020","episode":"Locus 2020","category":null,"contestant":{"voting_id":"08","name":"Project A Smart Approach Towards Lifestyle in Nepal"},"vote_count":1,"created_on":"2020-02-01T09:50:40.146702+05:45"},{"idx":"zyCP6QrzJiqWq6pwBM6bnC","contest":"Model Superstar","episode":"Model Superstar Finale","category":null,"contestant":{"voting_id":"01","name":"Sajina Subba"},"vote_count":1,"created_on":"2020-02-01T09:50:30.993013+05:45"},{"idx":"zSMxTEG6tzXqEjX7r245uU","contest":"Locus 2020","episode":"Locus 2020","category":null,"contestant":{"voting_id":"32","name":"Project Health and Environment Checker"},"vote_count":1,"created_on":"2020-02-01T09:50:30.886958+05:45"},{"idx":"2Q6kUkFJCHWKV3Jb6jJtDY","contest":"Locus 2020","episode":"Locus 2020","category":null,"contestant":{"voting_id":"31","name":"Project 3 in 1 Cartesian 3D Printer"},"vote_count":1,"created_on":"2020-02-01T09:49:32.230670+05:45"},{"idx":"EqvJnryWc9DM3aXuVnHxjE","contest":"Locus 2020","episode":"Locus 2020","category":null,"contestant":{"voting_id":"32","name":"Project Health and Environment Checker"},"vote_count":1,"created_on":"2020-02-01T09:48:27.698484+05:45"},{"idx":"LrPVzcKFusFV4XMtpQPKmQ","contest":"Locus 2020","episode":"Locus 2020","category":null,"contestant":{"voting_id":"42","name":"Project P.I.M.P."},"vote_count":1,"created_on":"2020-02-01T09:44:31.722251+05:45"},{"idx":"sbG4JXJxA5WcZkVeWcnGuA","contest":"Locus 2020","episode":"Locus 2020","category":null,"contestant":{"voting_id":"32","name":"Project Health and Environment Checker"},"vote_count":1,"created_on":"2020-02-01T09:26:59.361461+05:45"},{"idx":"6xqe4cVNnd9jPSy5hzKXkT","contest":"Locus 2020","episode":"Locus 2020","category":null,"contestant":{"voting_id":"31","name":"Project 3 in 1 Cartesian 3D Printer"},"vote_count":1,"created_on":"2020-02-01T09:16:09.040988+05:45"}]}