{"total_pages":275,"total_records":13721,"next":"https://khalti.com/api/v2/vuservote/?page=211","previous":"https://khalti.com/api/v2/vuservote/?page=209","record_range":[10451,10500],"current_page":210,"records":[{"idx":"Yy2uMY9BX5KcJPY3KoDfS7","contest":"Model Superstar","episode":"Model Superstar","category":null,"contestant":{"voting_id":"04","name":"Sabita Maharjan"},"vote_count":1,"created_on":"2019-12-27T01:27:46.142889+05:45"},{"idx":"z53uv4X9RkihFr8pMPqfcM","contest":"Model Superstar","episode":"Model Superstar","category":null,"contestant":{"voting_id":"04","name":"Sabita Maharjan"},"vote_count":1,"created_on":"2019-12-27T01:27:11.797193+05:45"},{"idx":"ht6rh7qYVDq6gRwMJbQ2xV","contest":"Model Superstar","episode":"Model Superstar","category":null,"contestant":{"voting_id":"04","name":"Sabita Maharjan"},"vote_count":1,"created_on":"2019-12-27T01:23:09.209729+05:45"},{"idx":"yqtrEwdmrHZPJi6v9uHn6h","contest":"Model Superstar","episode":"Model Superstar","category":null,"contestant":{"voting_id":"04","name":"Sabita Maharjan"},"vote_count":1,"created_on":"2019-12-27T01:21:02.278490+05:45"},{"idx":"fBQ9E4idc4UjDmer3pKsQi","contest":"Model Superstar","episode":"Model Superstar","category":null,"contestant":{"voting_id":"04","name":"Sabita Maharjan"},"vote_count":1,"created_on":"2019-12-27T01:20:38.879167+05:45"},{"idx":"4FnZ9C8mKuuamA4eWRR7jc","contest":"Model Superstar","episode":"Model Superstar","category":null,"contestant":{"voting_id":"04","name":"Sabita Maharjan"},"vote_count":1,"created_on":"2019-12-27T01:20:07.172092+05:45"},{"idx":"U8cHnJDduBE56o8UkBTdQ7","contest":"Model Superstar","episode":"Model Superstar","category":null,"contestant":{"voting_id":"04","name":"Sabita Maharjan"},"vote_count":1,"created_on":"2019-12-27T01:19:46.372728+05:45"},{"idx":"eKD5kLWixvj6XcA3Q7pgPY","contest":"Model Superstar","episode":"Model Superstar","category":null,"contestant":{"voting_id":"04","name":"Sabita Maharjan"},"vote_count":1,"created_on":"2019-12-27T01:19:24.234962+05:45"},{"idx":"cmA22X6STfz8QAY22nATmj","contest":"Model Superstar","episode":"Model Superstar","category":null,"contestant":{"voting_id":"04","name":"Sabita Maharjan"},"vote_count":1,"created_on":"2019-12-27T01:19:04.204174+05:45"},{"idx":"3dRmV72LxmjNSmqoerscAC","contest":"Model Superstar","episode":"Model Superstar","category":null,"contestant":{"voting_id":"04","name":"Sabita Maharjan"},"vote_count":1,"created_on":"2019-12-27T01:18:53.103300+05:45"},{"idx":"eX4CRAdQa58AoN9MpgEedV","contest":"Model Superstar","episode":"Model Superstar","category":null,"contestant":{"voting_id":"04","name":"Sabita Maharjan"},"vote_count":1,"created_on":"2019-12-27T01:18:40.754323+05:45"},{"idx":"QtoVgnMM2AvvNor4ZYXxHZ","contest":"Model Superstar","episode":"Model Superstar","category":null,"contestant":{"voting_id":"04","name":"Sabita Maharjan"},"vote_count":1,"created_on":"2019-12-27T01:18:35.276919+05:45"},{"idx":"uTw4BCi6aqBsiVni72zyC4","contest":"Model Superstar","episode":"Model Superstar","category":null,"contestant":{"voting_id":"04","name":"Sabita Maharjan"},"vote_count":1,"created_on":"2019-12-27T01:18:28.854284+05:45"},{"idx":"Anr86db6XjCshQDUvgUo6L","contest":"Model Superstar","episode":"Model Superstar","category":null,"contestant":{"voting_id":"04","name":"Sabita Maharjan"},"vote_count":1,"created_on":"2019-12-27T01:18:17.054621+05:45"},{"idx":"k9yXoxjZGoww79raBEYzJT","contest":"Model Superstar","episode":"Model Superstar","category":null,"contestant":{"voting_id":"04","name":"Sabita Maharjan"},"vote_count":1,"created_on":"2019-12-27T01:18:01.180752+05:45"},{"idx":"vS8sYeLNRW49XJ6753tboH","contest":"Model Superstar","episode":"Model Superstar","category":null,"contestant":{"voting_id":"04","name":"Sabita Maharjan"},"vote_count":1,"created_on":"2019-12-27T01:17:50.591361+05:45"},{"idx":"3hGF7hbdJmo8N346LiYKbh","contest":"NEPALBHASA STAR MUSIC VIDEO AWARDS-2019","episode":null,"category":"THE RISING STAR SINGER","contestant":{"voting_id":"21A","name":"Macha Raja Maharjan"},"vote_count":1,"created_on":"2019-12-27T01:17:46.741818+05:45"},{"idx":"NUw7XzGzXb2zXuECR5Xhwg","contest":"Model Superstar","episode":"Model Superstar","category":null,"contestant":{"voting_id":"04","name":"Sabita Maharjan"},"vote_count":1,"created_on":"2019-12-27T01:17:33.248446+05:45"},{"idx":"37mTyemBvUcF5aRTniRi32","contest":"Model Superstar","episode":"Model Superstar","category":null,"contestant":{"voting_id":"04","name":"Sabita Maharjan"},"vote_count":1,"created_on":"2019-12-27T01:17:14.087979+05:45"},{"idx":"XenpMMdtRFnaCrM4EMDN8e","contest":"Model Superstar","episode":"Model Superstar","category":null,"contestant":{"voting_id":"04","name":"Sabita Maharjan"},"vote_count":1,"created_on":"2019-12-27T01:16:58.731362+05:45"},{"idx":"7fdfL26q7Q2wR5ysg2DBci","contest":"Model Superstar","episode":"Model Superstar","category":null,"contestant":{"voting_id":"04","name":"Sabita Maharjan"},"vote_count":1,"created_on":"2019-12-27T01:16:57.870037+05:45"},{"idx":"GkjcAfJNfuhahytLDiNvbQ","contest":"Model Superstar","episode":"Model Superstar","category":null,"contestant":{"voting_id":"04","name":"Sabita Maharjan"},"vote_count":1,"created_on":"2019-12-27T01:16:45.943993+05:45"},{"idx":"wxXvEBx9oGAmw9dvipyJxg","contest":"Model Superstar","episode":"Model Superstar","category":null,"contestant":{"voting_id":"04","name":"Sabita Maharjan"},"vote_count":1,"created_on":"2019-12-27T01:16:44.057667+05:45"},{"idx":"wknX8dD9sHLSXadSi73reS","contest":"Model Superstar","episode":"Model Superstar","category":null,"contestant":{"voting_id":"04","name":"Sabita Maharjan"},"vote_count":1,"created_on":"2019-12-27T01:16:31.393718+05:45"},{"idx":"xzWimUHv9odn8SrsRYY8on","contest":"Model Superstar","episode":"Model Superstar","category":null,"contestant":{"voting_id":"04","name":"Sabita Maharjan"},"vote_count":1,"created_on":"2019-12-27T01:16:31.024701+05:45"},{"idx":"FMLxzBgLFGPyqTgsb2G95h","contest":"Model Superstar","episode":"Model Superstar","category":null,"contestant":{"voting_id":"04","name":"Sabita Maharjan"},"vote_count":1,"created_on":"2019-12-27T01:16:18.991875+05:45"},{"idx":"TyvsG5HnxdK5NPZkDk5WRa","contest":"Model Superstar","episode":"Model Superstar","category":null,"contestant":{"voting_id":"04","name":"Sabita Maharjan"},"vote_count":1,"created_on":"2019-12-27T01:16:14.562399+05:45"},{"idx":"NRPSY4bgEfmppDjPnGUT4c","contest":"Model Superstar","episode":"Model Superstar","category":null,"contestant":{"voting_id":"04","name":"Sabita Maharjan"},"vote_count":1,"created_on":"2019-12-27T01:16:02.010014+05:45"},{"idx":"oJ2v4aE7NBYsoWnRFiGR6L","contest":"Model Superstar","episode":"Model Superstar","category":null,"contestant":{"voting_id":"04","name":"Sabita Maharjan"},"vote_count":1,"created_on":"2019-12-27T01:15:58.478778+05:45"},{"idx":"YyWmZSXHDHqJdh9F8NCy2A","contest":"Model Superstar","episode":"Model Superstar","category":null,"contestant":{"voting_id":"04","name":"Sabita Maharjan"},"vote_count":1,"created_on":"2019-12-27T01:15:49.217197+05:45"},{"idx":"5WaTFxtWXaHy7q8Y3kzFTW","contest":"Model Superstar","episode":"Model Superstar","category":null,"contestant":{"voting_id":"04","name":"Sabita Maharjan"},"vote_count":1,"created_on":"2019-12-27T01:15:44.278735+05:45"},{"idx":"QbhH8PknaEQJF3EWL8erJf","contest":"Model Superstar","episode":"Model Superstar","category":null,"contestant":{"voting_id":"04","name":"Sabita Maharjan"},"vote_count":1,"created_on":"2019-12-27T01:15:37.553809+05:45"},{"idx":"F6men686ntwdWmmVyg86AH","contest":"Model Superstar","episode":"Model Superstar","category":null,"contestant":{"voting_id":"04","name":"Sabita Maharjan"},"vote_count":1,"created_on":"2019-12-27T01:15:26.031970+05:45"},{"idx":"7W5CqxrDECgu6m7gFX2BwQ","contest":"Model Superstar","episode":"Model Superstar","category":null,"contestant":{"voting_id":"04","name":"Sabita Maharjan"},"vote_count":1,"created_on":"2019-12-27T01:15:21.892254+05:45"},{"idx":"ayucy32rBrxZKhikppL37a","contest":"Model Superstar","episode":"Model Superstar","category":null,"contestant":{"voting_id":"04","name":"Sabita Maharjan"},"vote_count":1,"created_on":"2019-12-27T01:15:09.540304+05:45"},{"idx":"yiaS6iYBu5wzwQLnT7RbzH","contest":"Model Superstar","episode":"Model Superstar","category":null,"contestant":{"voting_id":"04","name":"Sabita Maharjan"},"vote_count":1,"created_on":"2019-12-27T01:15:01.935873+05:45"},{"idx":"QSehXysFR4Psh8zvYBwn35","contest":"Model Superstar","episode":"Model Superstar","category":null,"contestant":{"voting_id":"04","name":"Sabita Maharjan"},"vote_count":1,"created_on":"2019-12-27T01:14:55.276597+05:45"},{"idx":"xWeDN8GCHMpur9htoMd82e","contest":"Model Superstar","episode":"Model Superstar","category":null,"contestant":{"voting_id":"04","name":"Sabita Maharjan"},"vote_count":1,"created_on":"2019-12-27T01:14:49.696852+05:45"},{"idx":"GmtpDSEZuwuNWkPmCm3Mff","contest":"Model Superstar","episode":"Model Superstar","category":null,"contestant":{"voting_id":"04","name":"Sabita Maharjan"},"vote_count":1,"created_on":"2019-12-27T01:14:36.996786+05:45"},{"idx":"5dKTBtZ2cjsseAN2UBiRqX","contest":"Model Superstar","episode":"Model Superstar","category":null,"contestant":{"voting_id":"04","name":"Sabita Maharjan"},"vote_count":1,"created_on":"2019-12-27T01:14:35.242177+05:45"},{"idx":"FNkc2HurGFQHY3ewaBKhNm","contest":"Model Superstar","episode":"Model Superstar","category":null,"contestant":{"voting_id":"04","name":"Sabita Maharjan"},"vote_count":1,"created_on":"2019-12-27T01:14:17.031059+05:45"},{"idx":"nzFsmePE55t2B4xnZd6zyN","contest":"Model Superstar","episode":"Model Superstar","category":null,"contestant":{"voting_id":"04","name":"Sabita Maharjan"},"vote_count":1,"created_on":"2019-12-27T01:14:04.341418+05:45"},{"idx":"iYKMopFvjyJBraxyp2x9E3","contest":"Model Superstar","episode":"Model Superstar","category":null,"contestant":{"voting_id":"04","name":"Sabita Maharjan"},"vote_count":1,"created_on":"2019-12-27T01:13:49.660397+05:45"},{"idx":"wDwcd74NFo96wF5ezFgLSo","contest":"Model Superstar","episode":"Model Superstar","category":null,"contestant":{"voting_id":"04","name":"Sabita Maharjan"},"vote_count":1,"created_on":"2019-12-27T01:13:32.837951+05:45"},{"idx":"d5RrBmmSLGg8W999agyHzk","contest":"Model Superstar","episode":"Model Superstar","category":null,"contestant":{"voting_id":"04","name":"Sabita Maharjan"},"vote_count":1,"created_on":"2019-12-27T01:13:29.873029+05:45"},{"idx":"Cq2AKjpkzuwoUVyQrA5YWi","contest":"Model Superstar","episode":"Model Superstar","category":null,"contestant":{"voting_id":"04","name":"Sabita Maharjan"},"vote_count":1,"created_on":"2019-12-27T01:13:08.556187+05:45"},{"idx":"vj7zLSSUCmZ6qns8smq2qL","contest":"Model Superstar","episode":"Model Superstar","category":null,"contestant":{"voting_id":"04","name":"Sabita Maharjan"},"vote_count":1,"created_on":"2019-12-27T01:13:06.249765+05:45"},{"idx":"WeD9dmGqX5WVBicbYSGQSh","contest":"Model Superstar","episode":"Model Superstar","category":null,"contestant":{"voting_id":"04","name":"Sabita Maharjan"},"vote_count":1,"created_on":"2019-12-27T01:12:51.420541+05:45"},{"idx":"8ni9k9MpEYvRjzVyr59ueG","contest":"Model Superstar","episode":"Model Superstar","category":null,"contestant":{"voting_id":"04","name":"Sabita Maharjan"},"vote_count":1,"created_on":"2019-12-27T01:12:51.155218+05:45"},{"idx":"vSejq65dUX4VLJnheZAHiP","contest":"Model Superstar","episode":"Model Superstar","category":null,"contestant":{"voting_id":"04","name":"Sabita Maharjan"},"vote_count":1,"created_on":"2019-12-27T01:12:35.349443+05:45"}]}