{"total_pages":275,"total_records":13721,"next":"https://khalti.com/api/v2/vuservote/?page=212","previous":"https://khalti.com/api/v2/vuservote/?page=210","record_range":[10501,10550],"current_page":211,"records":[{"idx":"T8pXGkR7rpLiJNWoL9oBXN","contest":"Model Superstar","episode":"Model Superstar","category":null,"contestant":{"voting_id":"04","name":"Sabita Maharjan"},"vote_count":1,"created_on":"2019-12-27T01:12:34.367306+05:45"},{"idx":"saMYudXC83EePZQVLa7EQF","contest":"Model Superstar","episode":"Model Superstar","category":null,"contestant":{"voting_id":"04","name":"Sabita Maharjan"},"vote_count":1,"created_on":"2019-12-27T01:12:16.273103+05:45"},{"idx":"RMyfaVoqq3tbz6K98xDff9","contest":"Model Superstar","episode":"Model Superstar","category":null,"contestant":{"voting_id":"04","name":"Sabita Maharjan"},"vote_count":1,"created_on":"2019-12-27T01:12:10.295565+05:45"},{"idx":"dCEksrjKFZ8vvCKMpoXxvV","contest":"Model Superstar","episode":"Model Superstar","category":null,"contestant":{"voting_id":"04","name":"Sabita Maharjan"},"vote_count":1,"created_on":"2019-12-27T01:12:01.722826+05:45"},{"idx":"CCRookJZRGo4zbEHg28vhk","contest":"Model Superstar","episode":"Model Superstar","category":null,"contestant":{"voting_id":"04","name":"Sabita Maharjan"},"vote_count":1,"created_on":"2019-12-27T01:11:56.002434+05:45"},{"idx":"feeKuuU2Bgj6m5HkML9NRh","contest":"Model Superstar","episode":"Model Superstar","category":null,"contestant":{"voting_id":"04","name":"Sabita Maharjan"},"vote_count":1,"created_on":"2019-12-27T01:11:44.749301+05:45"},{"idx":"8DGAq5V8XSTCudeGUAvWTc","contest":"Model Superstar","episode":"Model Superstar","category":null,"contestant":{"voting_id":"04","name":"Sabita Maharjan"},"vote_count":1,"created_on":"2019-12-27T01:11:34.594241+05:45"},{"idx":"W3QZNc43Jwjk8rA3LT9amn","contest":"Model Superstar","episode":"Model Superstar","category":null,"contestant":{"voting_id":"04","name":"Sabita Maharjan"},"vote_count":1,"created_on":"2019-12-27T01:11:31.111407+05:45"},{"idx":"xXitYUAbNs4steBgS9eswj","contest":"Model Superstar","episode":"Model Superstar","category":null,"contestant":{"voting_id":"04","name":"Sabita Maharjan"},"vote_count":1,"created_on":"2019-12-27T01:11:14.915770+05:45"},{"idx":"f37czpcVqGjAAn6ghfouR7","contest":"Model Superstar","episode":"Model Superstar","category":null,"contestant":{"voting_id":"04","name":"Sabita Maharjan"},"vote_count":1,"created_on":"2019-12-27T01:10:56.281889+05:45"},{"idx":"jzUsa9bkm3LTDHu3Fr7qNn","contest":"Model Superstar","episode":"Model Superstar","category":null,"contestant":{"voting_id":"04","name":"Sabita Maharjan"},"vote_count":1,"created_on":"2019-12-27T01:10:56.182194+05:45"},{"idx":"WbXZkyeBVhVUXVvBAjoarc","contest":"Model Superstar","episode":"Model Superstar","category":null,"contestant":{"voting_id":"04","name":"Sabita Maharjan"},"vote_count":1,"created_on":"2019-12-27T01:10:42.736399+05:45"},{"idx":"eNRnGuzX3ssYtiRDqpvnfC","contest":"Model Superstar","episode":"Model Superstar","category":null,"contestant":{"voting_id":"04","name":"Sabita Maharjan"},"vote_count":1,"created_on":"2019-12-27T01:10:40.898409+05:45"},{"idx":"dLLFey7Ku9Wh8BKtyp73Si","contest":"Model Superstar","episode":"Model Superstar","category":null,"contestant":{"voting_id":"04","name":"Sabita Maharjan"},"vote_count":1,"created_on":"2019-12-27T01:10:26.696714+05:45"},{"idx":"tQK8QFX9a3G44fVssoSTmU","contest":"Model Superstar","episode":"Model Superstar","category":null,"contestant":{"voting_id":"04","name":"Sabita Maharjan"},"vote_count":1,"created_on":"2019-12-27T01:10:17.909728+05:45"},{"idx":"fKjHJLXrr2YWaiF8ofi6yW","contest":"Model Superstar","episode":"Model Superstar","category":null,"contestant":{"voting_id":"04","name":"Sabita Maharjan"},"vote_count":1,"created_on":"2019-12-27T01:09:57.877732+05:45"},{"idx":"74QLeohcVPte9gpKVvwvkN","contest":"Model Superstar","episode":"Model Superstar","category":null,"contestant":{"voting_id":"04","name":"Sabita Maharjan"},"vote_count":1,"created_on":"2019-12-27T01:09:43.281164+05:45"},{"idx":"qn3CjKsXoE9Q37ndbPh2xi","contest":"Model Superstar","episode":"Model Superstar","category":null,"contestant":{"voting_id":"04","name":"Sabita Maharjan"},"vote_count":1,"created_on":"2019-12-27T01:09:22.836650+05:45"},{"idx":"yp3YSD5fXL8Ct3GqPUGaxD","contest":"Model Superstar","episode":"Model Superstar","category":null,"contestant":{"voting_id":"04","name":"Sabita Maharjan"},"vote_count":1,"created_on":"2019-12-27T01:09:22.736012+05:45"},{"idx":"KWAJ3BpbRzGXBMUtY56Q8o","contest":"Model Superstar","episode":"Model Superstar","category":null,"contestant":{"voting_id":"04","name":"Sabita Maharjan"},"vote_count":1,"created_on":"2019-12-27T01:08:57.405033+05:45"},{"idx":"QmcYiEtDnEP9swqg8r2aoN","contest":"Model Superstar","episode":"Model Superstar","category":null,"contestant":{"voting_id":"04","name":"Sabita Maharjan"},"vote_count":1,"created_on":"2019-12-27T01:08:45.635978+05:45"},{"idx":"mwCU2BVanfgHtZraXuUnJF","contest":"Model Superstar","episode":"Model Superstar","category":null,"contestant":{"voting_id":"04","name":"Sabita Maharjan"},"vote_count":1,"created_on":"2019-12-27T01:08:44.070751+05:45"},{"idx":"PkAxTGHKRDGGyguSVTUSRn","contest":"Model Superstar","episode":"Model Superstar","category":null,"contestant":{"voting_id":"04","name":"Sabita Maharjan"},"vote_count":1,"created_on":"2019-12-27T01:08:30.905848+05:45"},{"idx":"rTqDszAaK4XiJ6sutakKKU","contest":"Model Superstar","episode":"Model Superstar","category":null,"contestant":{"voting_id":"04","name":"Sabita Maharjan"},"vote_count":1,"created_on":"2019-12-27T01:08:27.646837+05:45"},{"idx":"mWJS4KwDwAPUzskxUspm22","contest":"Model Superstar","episode":"Model Superstar","category":null,"contestant":{"voting_id":"04","name":"Sabita Maharjan"},"vote_count":1,"created_on":"2019-12-27T01:08:06.757073+05:45"},{"idx":"topDymhE7yFiJbzV3FUkj2","contest":"Model Superstar","episode":"Model Superstar","category":null,"contestant":{"voting_id":"04","name":"Sabita Maharjan"},"vote_count":1,"created_on":"2019-12-27T01:07:51.503422+05:45"},{"idx":"J6HLRHHJxZh76rUjfa2MmE","contest":"Model Superstar","episode":"Model Superstar","category":null,"contestant":{"voting_id":"04","name":"Sabita Maharjan"},"vote_count":1,"created_on":"2019-12-27T01:07:50.311795+05:45"},{"idx":"o9GWJNYUeXkhhV6oJLaH5F","contest":"Model Superstar","episode":"Model Superstar","category":null,"contestant":{"voting_id":"04","name":"Sabita Maharjan"},"vote_count":1,"created_on":"2019-12-27T01:07:32.637176+05:45"},{"idx":"xS7WCwfN5qegMfN69CmCyT","contest":"Model Superstar","episode":"Model Superstar","category":null,"contestant":{"voting_id":"04","name":"Sabita Maharjan"},"vote_count":1,"created_on":"2019-12-27T01:07:32.006197+05:45"},{"idx":"SeZoeQmptNntw7RRHNSc4W","contest":"Model Superstar","episode":"Model Superstar","category":null,"contestant":{"voting_id":"04","name":"Sabita Maharjan"},"vote_count":1,"created_on":"2019-12-27T01:07:15.792758+05:45"},{"idx":"gQZSFJTsrxX8HLYKUeVK98","contest":"Model Superstar","episode":"Model Superstar","category":null,"contestant":{"voting_id":"04","name":"Sabita Maharjan"},"vote_count":1,"created_on":"2019-12-27T01:07:11.391443+05:45"},{"idx":"gohgedbiHbnRm7LauBDeCV","contest":"Model Superstar","episode":"Model Superstar","category":null,"contestant":{"voting_id":"04","name":"Sabita Maharjan"},"vote_count":1,"created_on":"2019-12-27T01:07:01.816432+05:45"},{"idx":"oNGvyDFKPPz9Vp2VgSGd34","contest":"Model Superstar","episode":"Model Superstar","category":null,"contestant":{"voting_id":"04","name":"Sabita Maharjan"},"vote_count":1,"created_on":"2019-12-27T01:06:45.507226+05:45"},{"idx":"DGFBgBbXQxG5nLq9cjaZsf","contest":"Model Superstar","episode":"Model Superstar","category":null,"contestant":{"voting_id":"04","name":"Sabita Maharjan"},"vote_count":1,"created_on":"2019-12-27T01:06:33.376896+05:45"},{"idx":"u8QQnhSQnwARbTKSuUo59h","contest":"Model Superstar","episode":"Model Superstar","category":null,"contestant":{"voting_id":"04","name":"Sabita Maharjan"},"vote_count":1,"created_on":"2019-12-27T01:06:31.977512+05:45"},{"idx":"Gwdo457UpfpJi4YNmMHw4g","contest":"Model Superstar","episode":"Model Superstar","category":null,"contestant":{"voting_id":"04","name":"Sabita Maharjan"},"vote_count":1,"created_on":"2019-12-27T01:06:15.868505+05:45"},{"idx":"dqZz8ocyHsdyPUPfZZSthN","contest":"Model Superstar","episode":"Model Superstar","category":null,"contestant":{"voting_id":"04","name":"Sabita Maharjan"},"vote_count":1,"created_on":"2019-12-27T01:06:11.109119+05:45"},{"idx":"iKiZ4XgtoTY6ySpGnXdQfY","contest":"Model Superstar","episode":"Model Superstar","category":null,"contestant":{"voting_id":"04","name":"Sabita Maharjan"},"vote_count":1,"created_on":"2019-12-27T01:05:54.914955+05:45"},{"idx":"BV7WDirLc277He7vkBadxF","contest":"Model Superstar","episode":"Model Superstar","category":null,"contestant":{"voting_id":"04","name":"Sabita Maharjan"},"vote_count":1,"created_on":"2019-12-27T01:05:54.253908+05:45"},{"idx":"xxpqfoSbUsABMY42fAGxoe","contest":"Model Superstar","episode":"Model Superstar","category":null,"contestant":{"voting_id":"04","name":"Sabita Maharjan"},"vote_count":1,"created_on":"2019-12-27T01:05:41.525464+05:45"},{"idx":"5r3LuotQd9ujLS55Lstyfg","contest":"Model Superstar","episode":"Model Superstar","category":null,"contestant":{"voting_id":"04","name":"Sabita Maharjan"},"vote_count":1,"created_on":"2019-12-27T01:05:28.092958+05:45"},{"idx":"tau6eESAHhUasixgsYNg5X","contest":"Model Superstar","episode":"Model Superstar","category":null,"contestant":{"voting_id":"04","name":"Sabita Maharjan"},"vote_count":1,"created_on":"2019-12-27T01:05:14.090520+05:45"},{"idx":"CbQQJ69pvbL4qWa6G38K2m","contest":"Model Superstar","episode":"Model Superstar","category":null,"contestant":{"voting_id":"04","name":"Sabita Maharjan"},"vote_count":1,"created_on":"2019-12-27T01:05:00.314464+05:45"},{"idx":"RB5fDWpeQk6N2AFe8iQB5D","contest":"Model Superstar","episode":"Model Superstar","category":null,"contestant":{"voting_id":"04","name":"Sabita Maharjan"},"vote_count":1,"created_on":"2019-12-27T01:04:49.106867+05:45"},{"idx":"GqAZdbD2jSkaUBqcgpiSCh","contest":"Model Superstar","episode":"Model Superstar","category":null,"contestant":{"voting_id":"04","name":"Sabita Maharjan"},"vote_count":1,"created_on":"2019-12-27T01:04:47.232532+05:45"},{"idx":"hgBM46sApWk9VnU4oRZU23","contest":"Model Superstar","episode":"Model Superstar","category":null,"contestant":{"voting_id":"04","name":"Sabita Maharjan"},"vote_count":1,"created_on":"2019-12-27T01:04:35.051886+05:45"},{"idx":"ij9sFEpAM8Lc2bZNRoYAri","contest":"Model Superstar","episode":"Model Superstar","category":null,"contestant":{"voting_id":"04","name":"Sabita Maharjan"},"vote_count":1,"created_on":"2019-12-27T01:04:29.580581+05:45"},{"idx":"JhHg8NSpttUTAMTzDDDStZ","contest":"Model Superstar","episode":"Model Superstar","category":null,"contestant":{"voting_id":"04","name":"Sabita Maharjan"},"vote_count":1,"created_on":"2019-12-27T01:04:22.758196+05:45"},{"idx":"o2nfBHL7B5Ro9ukMLFC2pW","contest":"Model Superstar","episode":"Model Superstar","category":null,"contestant":{"voting_id":"04","name":"Sabita Maharjan"},"vote_count":1,"created_on":"2019-12-27T01:04:10.708161+05:45"},{"idx":"d6snPcXNukroDhdBmp64rA","contest":"Model Superstar","episode":"Model Superstar","category":null,"contestant":{"voting_id":"04","name":"Sabita Maharjan"},"vote_count":1,"created_on":"2019-12-27T01:04:02.392234+05:45"}]}