{"total_pages":275,"total_records":13721,"next":"https://khalti.com/api/v2/vuservote/?page=213","previous":"https://khalti.com/api/v2/vuservote/?page=211","record_range":[10551,10600],"current_page":212,"records":[{"idx":"qdMX9ZkMhHNETHBD4sLYXE","contest":"Model Superstar","episode":"Model Superstar","category":null,"contestant":{"voting_id":"04","name":"Sabita Maharjan"},"vote_count":1,"created_on":"2019-12-27T01:03:58.510871+05:45"},{"idx":"PNkzmAHcq83QtUGmFYC9x2","contest":"Model Superstar","episode":"Model Superstar","category":null,"contestant":{"voting_id":"04","name":"Sabita Maharjan"},"vote_count":1,"created_on":"2019-12-27T01:03:45.742440+05:45"},{"idx":"rMNKMnz7RQmaMP9rL66Sda","contest":"Model Superstar","episode":"Model Superstar","category":null,"contestant":{"voting_id":"04","name":"Sabita Maharjan"},"vote_count":1,"created_on":"2019-12-27T01:03:32.127734+05:45"},{"idx":"QuTanpWJXudHuJLTwdNZeG","contest":"Model Superstar","episode":"Model Superstar","category":null,"contestant":{"voting_id":"04","name":"Sabita Maharjan"},"vote_count":1,"created_on":"2019-12-27T01:03:29.779262+05:45"},{"idx":"HjmejWiKQnMgJUcN4ejcv2","contest":"Model Superstar","episode":"Model Superstar","category":null,"contestant":{"voting_id":"04","name":"Sabita Maharjan"},"vote_count":1,"created_on":"2019-12-27T01:03:19.381161+05:45"},{"idx":"VFLi2rR5vyYEAdLicaBWpJ","contest":"Model Superstar","episode":"Model Superstar","category":null,"contestant":{"voting_id":"04","name":"Sabita Maharjan"},"vote_count":1,"created_on":"2019-12-27T01:03:05.257789+05:45"},{"idx":"58N8GBwbyAeyDot4yEJEHA","contest":"Model Superstar","episode":"Model Superstar","category":null,"contestant":{"voting_id":"04","name":"Sabita Maharjan"},"vote_count":1,"created_on":"2019-12-27T01:03:01.763261+05:45"},{"idx":"5HJNRj3djtmDU7HhEYGfKj","contest":"Model Superstar","episode":"Model Superstar","category":null,"contestant":{"voting_id":"04","name":"Sabita Maharjan"},"vote_count":1,"created_on":"2019-12-27T01:02:49.192848+05:45"},{"idx":"H8BRzioYwyfNv9aEkC7KJF","contest":"Model Superstar","episode":"Model Superstar","category":null,"contestant":{"voting_id":"04","name":"Sabita Maharjan"},"vote_count":1,"created_on":"2019-12-27T01:02:48.619286+05:45"},{"idx":"DdcZJ5Q6SAkkGUTvTSm6BJ","contest":"Model Superstar","episode":"Model Superstar","category":null,"contestant":{"voting_id":"04","name":"Sabita Maharjan"},"vote_count":1,"created_on":"2019-12-27T01:02:33.548726+05:45"},{"idx":"XpT5ELq3yviiGwBTCmb5PU","contest":"Model Superstar","episode":"Model Superstar","category":null,"contestant":{"voting_id":"04","name":"Sabita Maharjan"},"vote_count":1,"created_on":"2019-12-27T01:02:26.324013+05:45"},{"idx":"GAgYtWZAnakjcAPVL9d2vA","contest":"Model Superstar","episode":"Model Superstar","category":null,"contestant":{"voting_id":"04","name":"Sabita Maharjan"},"vote_count":1,"created_on":"2019-12-27T01:02:13.267165+05:45"},{"idx":"ob9nctFdAcDarRUbdwUwKC","contest":"Model Superstar","episode":"Model Superstar","category":null,"contestant":{"voting_id":"04","name":"Sabita Maharjan"},"vote_count":1,"created_on":"2019-12-27T01:01:56.676619+05:45"},{"idx":"NR3bVy6HDABzymuihaWbLZ","contest":"Model Superstar","episode":"Model Superstar","category":null,"contestant":{"voting_id":"04","name":"Sabita Maharjan"},"vote_count":1,"created_on":"2019-12-27T01:01:56.099416+05:45"},{"idx":"7HWnvXjgjkMYVacDohjhmm","contest":"Model Superstar","episode":"Model Superstar","category":null,"contestant":{"voting_id":"04","name":"Sabita Maharjan"},"vote_count":1,"created_on":"2019-12-27T01:01:40.222270+05:45"},{"idx":"JSGuTGvnZgfpkURiUMUxfa","contest":"Model Superstar","episode":"Model Superstar","category":null,"contestant":{"voting_id":"04","name":"Sabita Maharjan"},"vote_count":1,"created_on":"2019-12-27T01:01:32.714539+05:45"},{"idx":"hozU8Ak7QsMHDsvdp2iw4o","contest":"Model Superstar","episode":"Model Superstar","category":null,"contestant":{"voting_id":"04","name":"Sabita Maharjan"},"vote_count":1,"created_on":"2019-12-27T01:01:22.916296+05:45"},{"idx":"CEf5mzPdUewaUAR7byXwKJ","contest":"Model Superstar","episode":"Model Superstar","category":null,"contestant":{"voting_id":"04","name":"Sabita Maharjan"},"vote_count":1,"created_on":"2019-12-27T01:01:15.131490+05:45"},{"idx":"BfTVngEZrvykiMouMenUfi","contest":"Model Superstar","episode":"Model Superstar","category":null,"contestant":{"voting_id":"04","name":"Sabita Maharjan"},"vote_count":1,"created_on":"2019-12-27T01:01:04.166468+05:45"},{"idx":"GKQ7HsPGXe7cg9vw4UsepQ","contest":"Model Superstar","episode":"Model Superstar","category":null,"contestant":{"voting_id":"04","name":"Sabita Maharjan"},"vote_count":1,"created_on":"2019-12-27T01:00:59.399441+05:45"},{"idx":"fVtRtxyqnUTB7kwXYpu4Fn","contest":"Model Superstar","episode":"Model Superstar","category":null,"contestant":{"voting_id":"04","name":"Sabita Maharjan"},"vote_count":1,"created_on":"2019-12-27T01:00:45.178010+05:45"},{"idx":"hYHbVbc7NH5zsqoF5nopfF","contest":"Model Superstar","episode":"Model Superstar","category":null,"contestant":{"voting_id":"04","name":"Sabita Maharjan"},"vote_count":1,"created_on":"2019-12-27T01:00:36.018705+05:45"},{"idx":"fDEh7TqnRrYfRMicxPg9CR","contest":"Model Superstar","episode":"Model Superstar","category":null,"contestant":{"voting_id":"04","name":"Sabita Maharjan"},"vote_count":1,"created_on":"2019-12-27T01:00:27.284293+05:45"},{"idx":"oP8o53JSaUzL5NpxJGtB8n","contest":"Model Superstar","episode":"Model Superstar","category":null,"contestant":{"voting_id":"04","name":"Sabita Maharjan"},"vote_count":1,"created_on":"2019-12-27T01:00:08.623046+05:45"},{"idx":"agPvdMdvVqeVePFNFaGEL7","contest":"Model Superstar","episode":"Model Superstar","category":null,"contestant":{"voting_id":"04","name":"Sabita Maharjan"},"vote_count":1,"created_on":"2019-12-27T00:59:51.490966+05:45"},{"idx":"NnszAqNGxTYEfHURRkbfDL","contest":"Model Superstar","episode":"Model Superstar","category":null,"contestant":{"voting_id":"04","name":"Sabita Maharjan"},"vote_count":1,"created_on":"2019-12-27T00:59:49.256447+05:45"},{"idx":"SXSKneQqTceVrezduekYsZ","contest":"Model Superstar","episode":"Model Superstar","category":null,"contestant":{"voting_id":"04","name":"Sabita Maharjan"},"vote_count":1,"created_on":"2019-12-27T00:59:36.140476+05:45"},{"idx":"TPXbaMgcuz7eTtjnjUTE8G","contest":"Model Superstar","episode":"Model Superstar","category":null,"contestant":{"voting_id":"04","name":"Sabita Maharjan"},"vote_count":1,"created_on":"2019-12-27T00:59:30.882575+05:45"},{"idx":"SWCWwZfhzWDumyUtc8EZsH","contest":"Model Superstar","episode":"Model Superstar","category":null,"contestant":{"voting_id":"04","name":"Sabita Maharjan"},"vote_count":1,"created_on":"2019-12-27T00:59:23.009944+05:45"},{"idx":"rGwnbt5A2TaBPdwWtyieH5","contest":"Model Superstar","episode":"Model Superstar","category":null,"contestant":{"voting_id":"04","name":"Sabita Maharjan"},"vote_count":1,"created_on":"2019-12-27T00:59:11.925878+05:45"},{"idx":"CybMaAFcGgwrn6njPdc4S7","contest":"Model Superstar","episode":"Model Superstar","category":null,"contestant":{"voting_id":"04","name":"Sabita Maharjan"},"vote_count":1,"created_on":"2019-12-27T00:59:08.930538+05:45"},{"idx":"a2SA3z5uLuvsYRmiMYeYoU","contest":"Model Superstar","episode":"Model Superstar","category":null,"contestant":{"voting_id":"04","name":"Sabita Maharjan"},"vote_count":1,"created_on":"2019-12-27T00:58:56.191938+05:45"},{"idx":"aspSUdBtp3JzAu2C8VLcKQ","contest":"Model Superstar","episode":"Model Superstar","category":null,"contestant":{"voting_id":"04","name":"Sabita Maharjan"},"vote_count":1,"created_on":"2019-12-27T00:58:55.972441+05:45"},{"idx":"yLFBrCEZyp4CcTDzKzUYbX","contest":"Model Superstar","episode":"Model Superstar","category":null,"contestant":{"voting_id":"04","name":"Sabita Maharjan"},"vote_count":1,"created_on":"2019-12-27T00:58:26.983196+05:45"},{"idx":"unGgQuEbLTx5UwVAou8U4S","contest":"Model Superstar","episode":"Model Superstar","category":null,"contestant":{"voting_id":"04","name":"Sabita Maharjan"},"vote_count":1,"created_on":"2019-12-27T00:58:23.699555+05:45"},{"idx":"ik58iA2sdPfQFBcRWzizuF","contest":"Model Superstar","episode":"Model Superstar","category":null,"contestant":{"voting_id":"04","name":"Sabita Maharjan"},"vote_count":1,"created_on":"2019-12-27T00:58:05.915159+05:45"},{"idx":"KfoMQkn2FRBzrEvZ99XnkG","contest":"Model Superstar","episode":"Model Superstar","category":null,"contestant":{"voting_id":"03","name":"Smriti Shah"},"vote_count":1,"created_on":"2019-12-27T00:58:05.096955+05:45"},{"idx":"rWQs34FTUMAfhMrZ6Dngs2","contest":"Model Superstar","episode":"Model Superstar","category":null,"contestant":{"voting_id":"04","name":"Sabita Maharjan"},"vote_count":1,"created_on":"2019-12-27T00:57:19.722156+05:45"},{"idx":"vcnQBGkLZeqW87XxRKGB2n","contest":"Model Superstar","episode":"Model Superstar","category":null,"contestant":{"voting_id":"04","name":"Sabita Maharjan"},"vote_count":1,"created_on":"2019-12-27T00:57:12.352914+05:45"},{"idx":"5DjdFe3mkRixVYh69zSJQd","contest":"Model Superstar","episode":"Model Superstar","category":null,"contestant":{"voting_id":"04","name":"Sabita Maharjan"},"vote_count":1,"created_on":"2019-12-27T00:56:57.063672+05:45"},{"idx":"MadX2FYMHwdCZtEAMr2QR9","contest":"Model Superstar","episode":"Model Superstar","category":null,"contestant":{"voting_id":"04","name":"Sabita Maharjan"},"vote_count":1,"created_on":"2019-12-27T00:56:56.557552+05:45"},{"idx":"CYjSiCKmQmkK6EgEg9eTTA","contest":"Model Superstar","episode":"Model Superstar","category":null,"contestant":{"voting_id":"04","name":"Sabita Maharjan"},"vote_count":1,"created_on":"2019-12-27T00:56:41.619705+05:45"},{"idx":"j4WPb8j55xg4f6kmjkS3TV","contest":"Model Superstar","episode":"Model Superstar","category":null,"contestant":{"voting_id":"04","name":"Sabita Maharjan"},"vote_count":1,"created_on":"2019-12-27T00:56:17.016797+05:45"},{"idx":"VqeAD35Cq98eyVF59do7GH","contest":"Model Superstar","episode":"Model Superstar","category":null,"contestant":{"voting_id":"04","name":"Sabita Maharjan"},"vote_count":1,"created_on":"2019-12-27T00:56:03.601895+05:45"},{"idx":"KF3xGknQxmh7uZ3KbKdNRe","contest":"Model Superstar","episode":"Model Superstar","category":null,"contestant":{"voting_id":"04","name":"Sabita Maharjan"},"vote_count":1,"created_on":"2019-12-27T00:56:00.069840+05:45"},{"idx":"LtEx6grpAe5Y6detAvqFa4","contest":"Model Superstar","episode":"Model Superstar","category":null,"contestant":{"voting_id":"04","name":"Sabita Maharjan"},"vote_count":1,"created_on":"2019-12-27T00:55:40.789959+05:45"},{"idx":"ruPLwMjt6kLShigDFJhRvY","contest":"Model Superstar","episode":"Model Superstar","category":null,"contestant":{"voting_id":"04","name":"Sabita Maharjan"},"vote_count":1,"created_on":"2019-12-27T00:55:34.332947+05:45"},{"idx":"UU3CFn29sVFqRYmnuPHTtZ","contest":"Model Superstar","episode":"Model Superstar","category":null,"contestant":{"voting_id":"04","name":"Sabita Maharjan"},"vote_count":1,"created_on":"2019-12-27T00:55:17.905559+05:45"},{"idx":"AVyRkKE2JiqhTiZnf2XBME","contest":"Model Superstar","episode":"Model Superstar","category":null,"contestant":{"voting_id":"04","name":"Sabita Maharjan"},"vote_count":1,"created_on":"2019-12-27T00:55:03.470205+05:45"},{"idx":"zFqp3DrDcc8zojrLVvgkFX","contest":"Model Superstar","episode":"Model Superstar","category":null,"contestant":{"voting_id":"04","name":"Sabita Maharjan"},"vote_count":1,"created_on":"2019-12-27T00:55:01.096563+05:45"}]}