{"total_pages":275,"total_records":13721,"next":"https://khalti.com/api/v2/vuservote/?page=214","previous":"https://khalti.com/api/v2/vuservote/?page=212","record_range":[10601,10650],"current_page":213,"records":[{"idx":"pCLEPANvSFyuxEpgRUcKSe","contest":"Model Superstar","episode":"Model Superstar","category":null,"contestant":{"voting_id":"04","name":"Sabita Maharjan"},"vote_count":1,"created_on":"2019-12-27T00:54:49.629372+05:45"},{"idx":"BFvqqAisJRMPVoATZvwojW","contest":"Model Superstar","episode":"Model Superstar","category":null,"contestant":{"voting_id":"04","name":"Sabita Maharjan"},"vote_count":1,"created_on":"2019-12-27T00:54:33.460060+05:45"},{"idx":"9e8e5eVpuM8ck5batMJB7P","contest":"Model Superstar","episode":"Model Superstar","category":null,"contestant":{"voting_id":"04","name":"Sabita Maharjan"},"vote_count":1,"created_on":"2019-12-27T00:54:28.922114+05:45"},{"idx":"FpPXvs8iX3mjaVkPbTDmiT","contest":"Model Superstar","episode":"Model Superstar","category":null,"contestant":{"voting_id":"04","name":"Sabita Maharjan"},"vote_count":1,"created_on":"2019-12-27T00:54:10.586708+05:45"},{"idx":"DJ4uoRbk8nXpcWkiRpEAzP","contest":"Model Superstar","episode":"Model Superstar","category":null,"contestant":{"voting_id":"04","name":"Sabita Maharjan"},"vote_count":1,"created_on":"2019-12-27T00:52:54.398544+05:45"},{"idx":"LXRpFqYfTVZEo3ZHpHnk3B","contest":"Model Superstar","episode":"Model Superstar","category":null,"contestant":{"voting_id":"04","name":"Sabita Maharjan"},"vote_count":1,"created_on":"2019-12-27T00:52:31.362306+05:45"},{"idx":"NGWwGjoKxkNF9LqKSw4tD8","contest":"Model Superstar","episode":"Model Superstar","category":null,"contestant":{"voting_id":"04","name":"Sabita Maharjan"},"vote_count":1,"created_on":"2019-12-27T00:52:09.582675+05:45"},{"idx":"2Ga4AzkdNPoLbrRzs5KHYN","contest":"Model Superstar","episode":"Model Superstar","category":null,"contestant":{"voting_id":"04","name":"Sabita Maharjan"},"vote_count":1,"created_on":"2019-12-27T00:52:01.165502+05:45"},{"idx":"w7Yir6Q5cFbzNs9caCuYLY","contest":"Model Superstar","episode":"Model Superstar","category":null,"contestant":{"voting_id":"04","name":"Sabita Maharjan"},"vote_count":1,"created_on":"2019-12-27T00:51:42.005758+05:45"},{"idx":"iGQXXL8y5dGMQdeCZVgJMB","contest":"Model Superstar","episode":"Model Superstar","category":null,"contestant":{"voting_id":"04","name":"Sabita Maharjan"},"vote_count":1,"created_on":"2019-12-27T00:30:47.822835+05:45"},{"idx":"gwfZx5URkJd9J5uwBpAzEo","contest":"Model Superstar","episode":"Model Superstar","category":null,"contestant":{"voting_id":"04","name":"Sabita Maharjan"},"vote_count":1,"created_on":"2019-12-27T00:30:45.807476+05:45"},{"idx":"jMiMhZnHogJfP2JnZjG4tS","contest":"Model Superstar","episode":"Model Superstar","category":null,"contestant":{"voting_id":"04","name":"Sabita Maharjan"},"vote_count":1,"created_on":"2019-12-27T00:30:31.811134+05:45"},{"idx":"wrVuWJivsa5RGHnG4x56jQ","contest":"Model Superstar","episode":"Model Superstar","category":null,"contestant":{"voting_id":"04","name":"Sabita Maharjan"},"vote_count":1,"created_on":"2019-12-27T00:30:17.444642+05:45"},{"idx":"ZLCDDsEKuJGGJ8EhSkGN9E","contest":"Model Superstar","episode":"Model Superstar","category":null,"contestant":{"voting_id":"04","name":"Sabita Maharjan"},"vote_count":1,"created_on":"2019-12-27T00:30:11.520497+05:45"},{"idx":"p2LyLCmozVaeroiDz4rXR6","contest":"Model Superstar","episode":"Model Superstar","category":null,"contestant":{"voting_id":"04","name":"Sabita Maharjan"},"vote_count":1,"created_on":"2019-12-27T00:29:48.305208+05:45"},{"idx":"BVynnd24CLNHi6PxXCPYRm","contest":"Model Superstar","episode":"Model Superstar","category":null,"contestant":{"voting_id":"04","name":"Sabita Maharjan"},"vote_count":1,"created_on":"2019-12-27T00:29:41.358951+05:45"},{"idx":"9QfpkbsEkdyyjshkYuEWuM","contest":"Model Superstar","episode":"Model Superstar","category":null,"contestant":{"voting_id":"04","name":"Sabita Maharjan"},"vote_count":1,"created_on":"2019-12-27T00:29:32.504153+05:45"},{"idx":"wteuVTLrWSrWxojLmtP35k","contest":"Model Superstar","episode":"Model Superstar","category":null,"contestant":{"voting_id":"04","name":"Sabita Maharjan"},"vote_count":1,"created_on":"2019-12-27T00:28:29.546187+05:45"},{"idx":"zHbf5Ssb59GaQTba2Vycwb","contest":"Model Superstar","episode":"Model Superstar","category":null,"contestant":{"voting_id":"04","name":"Sabita Maharjan"},"vote_count":1,"created_on":"2019-12-27T00:28:23.399189+05:45"},{"idx":"5U6U7FJMS8gPDFn77NgktP","contest":"Model Superstar","episode":"Model Superstar","category":null,"contestant":{"voting_id":"04","name":"Sabita Maharjan"},"vote_count":1,"created_on":"2019-12-27T00:28:17.149917+05:45"},{"idx":"VJjxogpYM8MUEPqX6eUEC6","contest":"Model Superstar","episode":"Model Superstar","category":null,"contestant":{"voting_id":"04","name":"Sabita Maharjan"},"vote_count":1,"created_on":"2019-12-27T00:27:41.487911+05:45"},{"idx":"dX5V2EK3mX6ZT6X5p9oXGg","contest":"Model Superstar","episode":"Model Superstar","category":null,"contestant":{"voting_id":"04","name":"Sabita Maharjan"},"vote_count":1,"created_on":"2019-12-27T00:27:08.915419+05:45"},{"idx":"6JAi5GCXUtnPYTpRbma3dn","contest":"Model Superstar","episode":"Model Superstar","category":null,"contestant":{"voting_id":"04","name":"Sabita Maharjan"},"vote_count":1,"created_on":"2019-12-27T00:26:37.877825+05:45"},{"idx":"qFDaQE3VzpbBt9QVGugRCG","contest":"Model Superstar","episode":"Model Superstar","category":null,"contestant":{"voting_id":"04","name":"Sabita Maharjan"},"vote_count":1,"created_on":"2019-12-27T00:25:55.827731+05:45"},{"idx":"SkEpRpiwPSravXWUThNKLF","contest":"Model Superstar","episode":"Model Superstar","category":null,"contestant":{"voting_id":"04","name":"Sabita Maharjan"},"vote_count":1,"created_on":"2019-12-27T00:25:17.177361+05:45"},{"idx":"ukJv9WgicfgaGuSPRnCm47","contest":"Model Superstar","episode":"Model Superstar","category":null,"contestant":{"voting_id":"04","name":"Sabita Maharjan"},"vote_count":1,"created_on":"2019-12-27T00:24:41.836490+05:45"},{"idx":"XQoneWY3g8ZHqsRQssAmCf","contest":"Model Superstar","episode":"Model Superstar","category":null,"contestant":{"voting_id":"04","name":"Sabita Maharjan"},"vote_count":1,"created_on":"2019-12-27T00:23:57.637060+05:45"},{"idx":"HC4kbWQnnixSZNruD2SG2m","contest":"Model Superstar","episode":"Model Superstar","category":null,"contestant":{"voting_id":"04","name":"Sabita Maharjan"},"vote_count":1,"created_on":"2019-12-27T00:23:51.602408+05:45"},{"idx":"wfRKZxyGRtZWQoQNB27iug","contest":"Model Superstar","episode":"Model Superstar","category":null,"contestant":{"voting_id":"04","name":"Sabita Maharjan"},"vote_count":1,"created_on":"2019-12-27T00:23:26.039918+05:45"},{"idx":"4SbWkJ5LJM4SXozN47wb4T","contest":"Model Superstar","episode":"Model Superstar","category":null,"contestant":{"voting_id":"04","name":"Sabita Maharjan"},"vote_count":1,"created_on":"2019-12-27T00:22:03.460070+05:45"},{"idx":"MnGpNY3WjkGJcvzUxjzU8h","contest":"Model Superstar","episode":"Model Superstar","category":null,"contestant":{"voting_id":"04","name":"Sabita Maharjan"},"vote_count":1,"created_on":"2019-12-27T00:21:06.481244+05:45"},{"idx":"wyJYEkN5ys4BB6FF9u2i7d","contest":"Model Superstar","episode":"Model Superstar","category":null,"contestant":{"voting_id":"04","name":"Sabita Maharjan"},"vote_count":1,"created_on":"2019-12-27T00:20:42.716954+05:45"},{"idx":"E8ock4b7xz6W9fBwBjLpbW","contest":"Model Superstar","episode":"Model Superstar","category":null,"contestant":{"voting_id":"04","name":"Sabita Maharjan"},"vote_count":1,"created_on":"2019-12-27T00:20:16.774448+05:45"},{"idx":"X2Dz8iWVhhAwiKgA2sDULY","contest":"Model Superstar","episode":"Model Superstar","category":null,"contestant":{"voting_id":"04","name":"Sabita Maharjan"},"vote_count":1,"created_on":"2019-12-27T00:19:48.108815+05:45"},{"idx":"ra5c4dTN5BGKXcUbxcZPiG","contest":"Model Superstar","episode":"Model Superstar","category":null,"contestant":{"voting_id":"04","name":"Sabita Maharjan"},"vote_count":1,"created_on":"2019-12-27T00:19:19.560279+05:45"},{"idx":"BSeybE5LADgNF5JgufXtBP","contest":"Model Superstar","episode":"Model Superstar","category":null,"contestant":{"voting_id":"04","name":"Sabita Maharjan"},"vote_count":1,"created_on":"2019-12-27T00:19:05.648819+05:45"},{"idx":"7wDse53z9bcR5yh23yqPP8","contest":"Model Superstar","episode":"Model Superstar","category":null,"contestant":{"voting_id":"04","name":"Sabita Maharjan"},"vote_count":1,"created_on":"2019-12-27T00:18:45.905196+05:45"},{"idx":"qrgEN56Gh7DabqX2ZSL259","contest":"Model Superstar","episode":"Model Superstar","category":null,"contestant":{"voting_id":"04","name":"Sabita Maharjan"},"vote_count":1,"created_on":"2019-12-27T00:18:30.644737+05:45"},{"idx":"r5BcbWDBumARWU6LQp9Zmb","contest":"Model Superstar","episode":"Model Superstar","category":null,"contestant":{"voting_id":"04","name":"Sabita Maharjan"},"vote_count":1,"created_on":"2019-12-27T00:15:52.291824+05:45"},{"idx":"UvhTCBXYP4Xe5gA44qPQLF","contest":"Model Superstar","episode":"Model Superstar","category":null,"contestant":{"voting_id":"04","name":"Sabita Maharjan"},"vote_count":1,"created_on":"2019-12-27T00:15:31.776765+05:45"},{"idx":"Jdr2BPTcN7UdafRZ3nXdDC","contest":"Model Superstar","episode":"Model Superstar","category":null,"contestant":{"voting_id":"04","name":"Sabita Maharjan"},"vote_count":1,"created_on":"2019-12-27T00:14:56.335987+05:45"},{"idx":"nxnDttMfczW6zJKV9phQj8","contest":"Model Superstar","episode":"Model Superstar","category":null,"contestant":{"voting_id":"04","name":"Sabita Maharjan"},"vote_count":1,"created_on":"2019-12-27T00:14:37.730718+05:45"},{"idx":"gEH6NcXVrcv3AydnUoqtKS","contest":"Model Superstar","episode":"Model Superstar","category":null,"contestant":{"voting_id":"04","name":"Sabita Maharjan"},"vote_count":1,"created_on":"2019-12-27T00:14:22.754339+05:45"},{"idx":"7v6FovPtK2y8cVusDY9Vsg","contest":"Model Superstar","episode":"Model Superstar","category":null,"contestant":{"voting_id":"04","name":"Sabita Maharjan"},"vote_count":1,"created_on":"2019-12-27T00:13:49.865875+05:45"},{"idx":"VLEaCQdQwWuKbTkE2WX2V9","contest":"Model Superstar","episode":"Model Superstar","category":null,"contestant":{"voting_id":"04","name":"Sabita Maharjan"},"vote_count":1,"created_on":"2019-12-27T00:13:31.821504+05:45"},{"idx":"6hxpeJKqasNiFiKhq2MGe5","contest":"Model Superstar","episode":"Model Superstar","category":null,"contestant":{"voting_id":"04","name":"Sabita Maharjan"},"vote_count":1,"created_on":"2019-12-27T00:12:09.705491+05:45"},{"idx":"E2ju7C8B3KENFnPjhJXW9k","contest":"Model Superstar","episode":"Model Superstar","category":null,"contestant":{"voting_id":"04","name":"Sabita Maharjan"},"vote_count":1,"created_on":"2019-12-27T00:11:56.178330+05:45"},{"idx":"Z3DQ3sXCQnxvu7LWpQTUSj","contest":"Model Superstar","episode":"Model Superstar","category":null,"contestant":{"voting_id":"04","name":"Sabita Maharjan"},"vote_count":1,"created_on":"2019-12-27T00:11:37.221121+05:45"},{"idx":"jaeL5VzTyx5Qb765Bx5RXS","contest":"Model Superstar","episode":"Model Superstar","category":null,"contestant":{"voting_id":"04","name":"Sabita Maharjan"},"vote_count":1,"created_on":"2019-12-27T00:09:39.084611+05:45"},{"idx":"TmVvGJuvtkamVvKZRtvhfa","contest":"Model Superstar","episode":"Model Superstar","category":null,"contestant":{"voting_id":"04","name":"Sabita Maharjan"},"vote_count":1,"created_on":"2019-12-27T00:09:10.929110+05:45"}]}