{"total_pages":275,"total_records":13721,"next":"https://khalti.com/api/v2/vuservote/?page=215","previous":"https://khalti.com/api/v2/vuservote/?page=213","record_range":[10651,10700],"current_page":214,"records":[{"idx":"XNWHZe4eUpUKJs4zCGcYLE","contest":"Model Superstar","episode":"Model Superstar","category":null,"contestant":{"voting_id":"04","name":"Sabita Maharjan"},"vote_count":1,"created_on":"2019-12-27T00:08:56.379317+05:45"},{"idx":"QnYT6ieComV6qy9i4TMky3","contest":"Model Superstar","episode":"Model Superstar","category":null,"contestant":{"voting_id":"04","name":"Sabita Maharjan"},"vote_count":1,"created_on":"2019-12-27T00:08:40.846246+05:45"},{"idx":"suYsTzLBNpq3FVy8i7ZvSQ","contest":"Model Superstar","episode":"Model Superstar","category":null,"contestant":{"voting_id":"04","name":"Sabita Maharjan"},"vote_count":1,"created_on":"2019-12-27T00:08:25.426720+05:45"},{"idx":"B94fB9MYhTvz7tSPckXXFo","contest":"Model Superstar","episode":"Model Superstar","category":null,"contestant":{"voting_id":"04","name":"Sabita Maharjan"},"vote_count":1,"created_on":"2019-12-27T00:08:11.031608+05:45"},{"idx":"qXGd7ZSeJM3PpgFBDToenC","contest":"Model Superstar","episode":"Model Superstar","category":null,"contestant":{"voting_id":"04","name":"Sabita Maharjan"},"vote_count":1,"created_on":"2019-12-27T00:07:56.553350+05:45"},{"idx":"oqSLVMBQ6Ro3i8Zgn4HfBb","contest":"Model Superstar","episode":"Model Superstar","category":null,"contestant":{"voting_id":"04","name":"Sabita Maharjan"},"vote_count":1,"created_on":"2019-12-27T00:07:42.574033+05:45"},{"idx":"WoukX8QzXVD48LapvDVnuc","contest":"Model Superstar","episode":"Model Superstar","category":null,"contestant":{"voting_id":"04","name":"Sabita Maharjan"},"vote_count":1,"created_on":"2019-12-27T00:07:26.557753+05:45"},{"idx":"yECgFvxuKanxq25gSP2NFm","contest":"Model Superstar","episode":"Model Superstar","category":null,"contestant":{"voting_id":"04","name":"Sabita Maharjan"},"vote_count":1,"created_on":"2019-12-27T00:07:11.465489+05:45"},{"idx":"NaXWFAPkTwsuGbFSUTCxmf","contest":"Model Superstar","episode":"Model Superstar","category":null,"contestant":{"voting_id":"04","name":"Sabita Maharjan"},"vote_count":1,"created_on":"2019-12-26T23:54:20.268972+05:45"},{"idx":"swFNHWrrNhjNZ2mFU2ocdF","contest":"Model Superstar","episode":"Model Superstar","category":null,"contestant":{"voting_id":"04","name":"Sabita Maharjan"},"vote_count":1,"created_on":"2019-12-26T23:53:41.070998+05:45"},{"idx":"z2mT8ng9Q5DTYLJATXYvDZ","contest":"Model Superstar","episode":"Model Superstar","category":null,"contestant":{"voting_id":"04","name":"Sabita Maharjan"},"vote_count":1,"created_on":"2019-12-26T23:52:56.291163+05:45"},{"idx":"Pya3sGm5vMSmsW6VVqkMLV","contest":"Model Superstar","episode":"Model Superstar","category":null,"contestant":{"voting_id":"04","name":"Sabita Maharjan"},"vote_count":1,"created_on":"2019-12-26T23:01:41.566070+05:45"},{"idx":"bEJNkPvYJSfro9ATRq9wvL","contest":"Model Superstar","episode":"Model Superstar","category":null,"contestant":{"voting_id":"04","name":"Sabita Maharjan"},"vote_count":1,"created_on":"2019-12-26T23:01:10.843049+05:45"},{"idx":"oMj4QSdgGmV7NFvy2Ce4WG","contest":"Model Superstar","episode":"Model Superstar","category":null,"contestant":{"voting_id":"04","name":"Sabita Maharjan"},"vote_count":1,"created_on":"2019-12-26T23:00:47.927818+05:45"},{"idx":"655KdqAu5wuN8pjcCAT79K","contest":"Model Superstar","episode":"Model Superstar","category":null,"contestant":{"voting_id":"04","name":"Sabita Maharjan"},"vote_count":1,"created_on":"2019-12-26T22:16:09.897171+05:45"},{"idx":"YdKQxzgVFU9GvcygpGdwih","contest":"Model Superstar","episode":"Model Superstar","category":null,"contestant":{"voting_id":"04","name":"Sabita Maharjan"},"vote_count":1,"created_on":"2019-12-26T22:15:40.618285+05:45"},{"idx":"cPK9g8pmnfDqjCd7kzMF3N","contest":"Model Superstar","episode":"Model Superstar","category":null,"contestant":{"voting_id":"02","name":"Srijana Basnet"},"vote_count":1,"created_on":"2019-12-26T22:11:53.371024+05:45"},{"idx":"E4PgFdCGMNakcy5Vx2A2ca","contest":"Model Superstar","episode":"Model Superstar","category":null,"contestant":{"voting_id":"04","name":"Sabita Maharjan"},"vote_count":1,"created_on":"2019-12-26T22:10:22.308037+05:45"},{"idx":"V2AoJd9DhPzipZw7mNKfrE","contest":"Model Superstar","episode":"Model Superstar","category":null,"contestant":{"voting_id":"16","name":"Anil Karki"},"vote_count":1,"created_on":"2019-12-26T21:55:51.134211+05:45"},{"idx":"fHVZqKofXEpztprAqferV4","contest":"Model Superstar","episode":"Model Superstar","category":null,"contestant":{"voting_id":"02","name":"Srijana Basnet"},"vote_count":1,"created_on":"2019-12-26T21:44:18.115193+05:45"},{"idx":"VE6gDnfe8zNbpbD4QzVXxW","contest":"Model Superstar","episode":"Model Superstar","category":null,"contestant":{"voting_id":"24","name":"Elin Raut"},"vote_count":1,"created_on":"2019-12-26T21:43:28.279969+05:45"},{"idx":"fuAidZDMBZkwnz4fBTzS9W","contest":"NEPALBHASA STAR MUSIC VIDEO AWARDS-2019","episode":null,"category":"THE RISING STAR SINGER","contestant":{"voting_id":"21E","name":"Purna Man Maharjan"},"vote_count":1,"created_on":"2019-12-26T21:42:54.129094+05:45"},{"idx":"J9twk8qGV3tEE39nDP3VAn","contest":"Model Superstar","episode":"Model Superstar","category":null,"contestant":{"voting_id":"14","name":"Ashish Shakya"},"vote_count":1,"created_on":"2019-12-26T21:39:37.705629+05:45"},{"idx":"7HnpMp2JryFH6emwpoUEBD","contest":"Model Superstar","episode":"Model Superstar","category":null,"contestant":{"voting_id":"22","name":"Sunil Laudrey"},"vote_count":1,"created_on":"2019-12-26T21:38:28.293289+05:45"},{"idx":"fkei6fv6sqJeEHkmqNePaF","contest":"Model Superstar","episode":"Model Superstar","category":null,"contestant":{"voting_id":"14","name":"Ashish Shakya"},"vote_count":1,"created_on":"2019-12-26T21:32:27.766678+05:45"},{"idx":"6ZwqQMoSMeKU9zwTqrSVQD","contest":"Model Superstar","episode":"Model Superstar","category":null,"contestant":{"voting_id":"14","name":"Ashish Shakya"},"vote_count":1,"created_on":"2019-12-26T21:32:15.805021+05:45"},{"idx":"xgvmScxFAmP9P82nQCsjCF","contest":"Model Superstar","episode":"Model Superstar","category":null,"contestant":{"voting_id":"14","name":"Ashish Shakya"},"vote_count":1,"created_on":"2019-12-26T21:32:04.896731+05:45"},{"idx":"4stxHShCEAkCCBtsSDZEa6","contest":"Model Superstar","episode":"Model Superstar","category":null,"contestant":{"voting_id":"14","name":"Ashish Shakya"},"vote_count":1,"created_on":"2019-12-26T21:31:40.108371+05:45"},{"idx":"cLM6oCyEjqJ7J5qYXogQwG","contest":"Model Superstar","episode":"Model Superstar","category":null,"contestant":{"voting_id":"14","name":"Ashish Shakya"},"vote_count":1,"created_on":"2019-12-26T21:30:43.605278+05:45"},{"idx":"xpi44xEYv8pEzgoxiRDGXn","contest":"Model Superstar","episode":"Model Superstar","category":null,"contestant":{"voting_id":"14","name":"Ashish Shakya"},"vote_count":1,"created_on":"2019-12-26T21:30:33.466519+05:45"},{"idx":"iYmMgJFu82fn9dyHRT9s4Y","contest":"Model Superstar","episode":"Model Superstar","category":null,"contestant":{"voting_id":"14","name":"Ashish Shakya"},"vote_count":1,"created_on":"2019-12-26T21:30:23.505349+05:45"},{"idx":"NF9eKvd29nkEYUFBWyyJSf","contest":"Model Superstar","episode":"Model Superstar","category":null,"contestant":{"voting_id":"14","name":"Ashish Shakya"},"vote_count":1,"created_on":"2019-12-26T21:30:08.261785+05:45"},{"idx":"8aS96ookEubsEFBb2LALwA","contest":"Model Superstar","episode":"Model Superstar","category":null,"contestant":{"voting_id":"14","name":"Ashish Shakya"},"vote_count":1,"created_on":"2019-12-26T21:29:57.457834+05:45"},{"idx":"LWcL685S285Nhn4r2HNUt9","contest":"Model Superstar","episode":"Model Superstar","category":null,"contestant":{"voting_id":"14","name":"Ashish Shakya"},"vote_count":1,"created_on":"2019-12-26T21:29:42.007928+05:45"},{"idx":"hCRs2bL6Sin3EteqktMNpG","contest":"Model Superstar","episode":"Model Superstar","category":null,"contestant":{"voting_id":"14","name":"Ashish Shakya"},"vote_count":1,"created_on":"2019-12-26T21:29:26.096776+05:45"},{"idx":"ijquBj7Ux7TWdM7HnqwVf5","contest":"Model Superstar","episode":"Model Superstar","category":null,"contestant":{"voting_id":"14","name":"Ashish Shakya"},"vote_count":1,"created_on":"2019-12-26T21:29:14.378299+05:45"},{"idx":"Cdg5KGtkfizefX2jDuQkiL","contest":"Model Superstar","episode":"Model Superstar","category":null,"contestant":{"voting_id":"14","name":"Ashish Shakya"},"vote_count":1,"created_on":"2019-12-26T21:29:01.336368+05:45"},{"idx":"TKxK6SjDeNmg8vXhgPYjKB","contest":"Model Superstar","episode":"Model Superstar","category":null,"contestant":{"voting_id":"14","name":"Ashish Shakya"},"vote_count":1,"created_on":"2019-12-26T21:28:50.965841+05:45"},{"idx":"HdNW76vFbmTPVbrRaJr3cn","contest":"Model Superstar","episode":"Model Superstar","category":null,"contestant":{"voting_id":"14","name":"Ashish Shakya"},"vote_count":1,"created_on":"2019-12-26T21:28:41.530642+05:45"},{"idx":"W6YvKdqe6UHoNToDrV7w2N","contest":"Model Superstar","episode":"Model Superstar","category":null,"contestant":{"voting_id":"14","name":"Ashish Shakya"},"vote_count":1,"created_on":"2019-12-26T21:28:32.218936+05:45"},{"idx":"2isjzFMENrufunMnrCHhWJ","contest":"Model Superstar","episode":"Model Superstar","category":null,"contestant":{"voting_id":"14","name":"Ashish Shakya"},"vote_count":1,"created_on":"2019-12-26T21:28:20.580414+05:45"},{"idx":"dnvzNb4aKxZ6Fz7ydnEPq9","contest":"Model Superstar","episode":"Model Superstar","category":null,"contestant":{"voting_id":"14","name":"Ashish Shakya"},"vote_count":1,"created_on":"2019-12-26T21:28:10.670218+05:45"},{"idx":"7a94Jdg8sUxMJzWjrCUk3A","contest":"Model Superstar","episode":"Model Superstar","category":null,"contestant":{"voting_id":"14","name":"Ashish Shakya"},"vote_count":1,"created_on":"2019-12-26T21:27:57.885297+05:45"},{"idx":"dNz7Ghmp6xBmYh5MBcDseK","contest":"Model Superstar","episode":"Model Superstar","category":null,"contestant":{"voting_id":"14","name":"Ashish Shakya"},"vote_count":1,"created_on":"2019-12-26T21:27:47.424405+05:45"},{"idx":"pcMw6PVwHFhiJBefReRTqN","contest":"Model Superstar","episode":"Model Superstar","category":null,"contestant":{"voting_id":"14","name":"Ashish Shakya"},"vote_count":1,"created_on":"2019-12-26T21:27:13.509047+05:45"},{"idx":"p9qSNWAD9J4kzq8ofzAvsg","contest":"Model Superstar","episode":"Model Superstar","category":null,"contestant":{"voting_id":"14","name":"Ashish Shakya"},"vote_count":1,"created_on":"2019-12-26T21:27:00.670082+05:45"},{"idx":"SgNy8fTKKuqAMsmdKkT58A","contest":"Model Superstar","episode":"Model Superstar","category":null,"contestant":{"voting_id":"14","name":"Ashish Shakya"},"vote_count":1,"created_on":"2019-12-26T21:26:49.643648+05:45"},{"idx":"DAjxEgLVW96oSsd5JVsGNf","contest":"Model Superstar","episode":"Model Superstar","category":null,"contestant":{"voting_id":"14","name":"Ashish Shakya"},"vote_count":1,"created_on":"2019-12-26T21:26:37.200747+05:45"},{"idx":"eCV5cjKr48ZVyq3vD3jmw8","contest":"Model Superstar","episode":"Model Superstar","category":null,"contestant":{"voting_id":"14","name":"Ashish Shakya"},"vote_count":1,"created_on":"2019-12-26T21:26:27.181098+05:45"},{"idx":"74senv6AtPLF4yB945vyk9","contest":"Model Superstar","episode":"Model Superstar","category":null,"contestant":{"voting_id":"14","name":"Ashish Shakya"},"vote_count":1,"created_on":"2019-12-26T21:26:16.006493+05:45"}]}