{"total_pages":275,"total_records":13721,"next":"https://khalti.com/api/v2/vuservote/?page=216","previous":"https://khalti.com/api/v2/vuservote/?page=214","record_range":[10701,10750],"current_page":215,"records":[{"idx":"yjgevXuWZJheSxmwYh9LF4","contest":"Model Superstar","episode":"Model Superstar","category":null,"contestant":{"voting_id":"14","name":"Ashish Shakya"},"vote_count":1,"created_on":"2019-12-26T21:26:05.164638+05:45"},{"idx":"2vuJD5sdSPqsXGiqwDX4MP","contest":"Model Superstar","episode":"Model Superstar","category":null,"contestant":{"voting_id":"14","name":"Ashish Shakya"},"vote_count":1,"created_on":"2019-12-26T21:25:54.608954+05:45"},{"idx":"DCVyZP4QdMsWvytuK6xwVj","contest":"Model Superstar","episode":"Model Superstar","category":null,"contestant":{"voting_id":"14","name":"Ashish Shakya"},"vote_count":1,"created_on":"2019-12-26T21:25:41.097438+05:45"},{"idx":"rZhrn8iEeogFqRchMNbcVZ","contest":"Model Superstar","episode":"Model Superstar","category":null,"contestant":{"voting_id":"14","name":"Ashish Shakya"},"vote_count":1,"created_on":"2019-12-26T21:25:29.868025+05:45"},{"idx":"RRJtieRz2hqpsQULUk5buN","contest":"Model Superstar","episode":"Model Superstar","category":null,"contestant":{"voting_id":"14","name":"Ashish Shakya"},"vote_count":1,"created_on":"2019-12-26T21:25:18.533598+05:45"},{"idx":"qeT9ZT7cUg6WpakL4DaKum","contest":"Model Superstar","episode":"Model Superstar","category":null,"contestant":{"voting_id":"14","name":"Ashish Shakya"},"vote_count":1,"created_on":"2019-12-26T21:25:06.936434+05:45"},{"idx":"RAQHoxia9S3CDJLjhoEncH","contest":"Model Superstar","episode":"Model Superstar","category":null,"contestant":{"voting_id":"14","name":"Ashish Shakya"},"vote_count":1,"created_on":"2019-12-26T21:24:54.838271+05:45"},{"idx":"774yyiPAoXXkfkCKhApN8D","contest":"Model Superstar","episode":"Model Superstar","category":null,"contestant":{"voting_id":"14","name":"Ashish Shakya"},"vote_count":1,"created_on":"2019-12-26T21:24:44.162789+05:45"},{"idx":"GpoRqBZ9hwyoJc3kw8qhfW","contest":"Model Superstar","episode":"Model Superstar","category":null,"contestant":{"voting_id":"14","name":"Ashish Shakya"},"vote_count":1,"created_on":"2019-12-26T21:24:32.140537+05:45"},{"idx":"vNrFButxcKfq3b9mDgb4SD","contest":"Model Superstar","episode":"Model Superstar","category":null,"contestant":{"voting_id":"14","name":"Ashish Shakya"},"vote_count":1,"created_on":"2019-12-26T21:24:21.077152+05:45"},{"idx":"7eGAeJwBvNLZceUea6xVXn","contest":"Model Superstar","episode":"Model Superstar","category":null,"contestant":{"voting_id":"14","name":"Ashish Shakya"},"vote_count":1,"created_on":"2019-12-26T21:24:08.315819+05:45"},{"idx":"mv5Y7E2rsKkaaCim3YSTr8","contest":"Model Superstar","episode":"Model Superstar","category":null,"contestant":{"voting_id":"14","name":"Ashish Shakya"},"vote_count":1,"created_on":"2019-12-26T21:23:58.311358+05:45"},{"idx":"69qoqbrsdFWzFsFtr2zgSD","contest":"Model Superstar","episode":"Model Superstar","category":null,"contestant":{"voting_id":"14","name":"Ashish Shakya"},"vote_count":1,"created_on":"2019-12-26T21:23:48.214132+05:45"},{"idx":"qo3mGzii6D5buDLjVVRoUE","contest":"Model Superstar","episode":"Model Superstar","category":null,"contestant":{"voting_id":"14","name":"Ashish Shakya"},"vote_count":1,"created_on":"2019-12-26T21:23:38.284256+05:45"},{"idx":"gKsDx3wUUqkdaXar7k4FAP","contest":"Model Superstar","episode":"Model Superstar","category":null,"contestant":{"voting_id":"14","name":"Ashish Shakya"},"vote_count":1,"created_on":"2019-12-26T21:23:21.289826+05:45"},{"idx":"twdm9j8io8LyyqEFr3PknK","contest":"Model Superstar","episode":"Model Superstar","category":null,"contestant":{"voting_id":"14","name":"Ashish Shakya"},"vote_count":1,"created_on":"2019-12-26T21:23:06.936075+05:45"},{"idx":"3G9oigVEbDdCVZFzc4roQE","contest":"Model Superstar","episode":"Model Superstar","category":null,"contestant":{"voting_id":"14","name":"Ashish Shakya"},"vote_count":1,"created_on":"2019-12-26T21:22:56.063431+05:45"},{"idx":"eZx8CbnzkxsFPyFo6QuynY","contest":"Model Superstar","episode":"Model Superstar","category":null,"contestant":{"voting_id":"14","name":"Ashish Shakya"},"vote_count":1,"created_on":"2019-12-26T21:22:46.439916+05:45"},{"idx":"Ji2GeqpTy4xji57N8R5PDN","contest":"Model Superstar","episode":"Model Superstar","category":null,"contestant":{"voting_id":"14","name":"Ashish Shakya"},"vote_count":1,"created_on":"2019-12-26T21:22:36.818523+05:45"},{"idx":"gFEx27aHGdseusvjzCXfHm","contest":"Model Superstar","episode":"Model Superstar","category":null,"contestant":{"voting_id":"21","name":"Padam Bahadur Ranamagar"},"vote_count":1,"created_on":"2019-12-26T21:22:36.132416+05:45"},{"idx":"4Gg99Bz7BPmoqvuXddXFCm","contest":"Model Superstar","episode":"Model Superstar","category":null,"contestant":{"voting_id":"14","name":"Ashish Shakya"},"vote_count":1,"created_on":"2019-12-26T21:22:25.227911+05:45"},{"idx":"FLSnTorsmLES4bz5s3o9Tf","contest":"Model Superstar","episode":"Model Superstar","category":null,"contestant":{"voting_id":"14","name":"Ashish Shakya"},"vote_count":1,"created_on":"2019-12-26T21:22:14.544794+05:45"},{"idx":"FTtUxiXpFcRxTsDNT46xoU","contest":"Model Superstar","episode":"Model Superstar","category":null,"contestant":{"voting_id":"14","name":"Ashish Shakya"},"vote_count":1,"created_on":"2019-12-26T21:22:04.182034+05:45"},{"idx":"vjptPxUirezufeF9PefJnV","contest":"Model Superstar","episode":"Model Superstar","category":null,"contestant":{"voting_id":"21","name":"Padam Bahadur Ranamagar"},"vote_count":1,"created_on":"2019-12-26T21:22:01.514652+05:45"},{"idx":"D46QAxYzriJsUn9GXnMfiD","contest":"Model Superstar","episode":"Model Superstar","category":null,"contestant":{"voting_id":"14","name":"Ashish Shakya"},"vote_count":1,"created_on":"2019-12-26T21:21:53.829826+05:45"},{"idx":"pHcTCnC9efYWFzcNM5HuFA","contest":"Model Superstar","episode":"Model Superstar","category":null,"contestant":{"voting_id":"14","name":"Ashish Shakya"},"vote_count":1,"created_on":"2019-12-26T21:21:41.810423+05:45"},{"idx":"St69tEeYrLsuEpHUGZb3dV","contest":"Model Superstar","episode":"Model Superstar","category":null,"contestant":{"voting_id":"14","name":"Ashish Shakya"},"vote_count":1,"created_on":"2019-12-26T21:21:30.656997+05:45"},{"idx":"6V2EtfUQz8XLXP5WcauPE5","contest":"Model Superstar","episode":"Model Superstar","category":null,"contestant":{"voting_id":"14","name":"Ashish Shakya"},"vote_count":1,"created_on":"2019-12-26T21:21:20.888504+05:45"},{"idx":"HgoFvDVW8At7NSL2cBMuAd","contest":"Model Superstar","episode":"Model Superstar","category":null,"contestant":{"voting_id":"14","name":"Ashish Shakya"},"vote_count":1,"created_on":"2019-12-26T21:21:11.709225+05:45"},{"idx":"tKRdYYioGM3rMNKVJjvivY","contest":"Model Superstar","episode":"Model Superstar","category":null,"contestant":{"voting_id":"14","name":"Ashish Shakya"},"vote_count":1,"created_on":"2019-12-26T21:21:01.783884+05:45"},{"idx":"twCp2GotEhWvJWyXeWNB4e","contest":"Model Superstar","episode":"Model Superstar","category":null,"contestant":{"voting_id":"14","name":"Ashish Shakya"},"vote_count":1,"created_on":"2019-12-26T21:20:51.726168+05:45"},{"idx":"MockswbEZUDfBGv4MZtq2R","contest":"Model Superstar","episode":"Model Superstar","category":null,"contestant":{"voting_id":"14","name":"Ashish Shakya"},"vote_count":1,"created_on":"2019-12-26T21:20:40.371574+05:45"},{"idx":"djhwCWkETtXgCr5XpY7u3B","contest":"Model Superstar","episode":"Model Superstar","category":null,"contestant":{"voting_id":"14","name":"Ashish Shakya"},"vote_count":1,"created_on":"2019-12-26T21:20:30.595172+05:45"},{"idx":"DTdon5SBcPUoy7iyA63EEJ","contest":"Model Superstar","episode":"Model Superstar","category":null,"contestant":{"voting_id":"14","name":"Ashish Shakya"},"vote_count":1,"created_on":"2019-12-26T21:20:20.324478+05:45"},{"idx":"7mezju7FzrUqnHQvqh3tdC","contest":"Model Superstar","episode":"Model Superstar","category":null,"contestant":{"voting_id":"14","name":"Ashish Shakya"},"vote_count":1,"created_on":"2019-12-26T21:19:55.198479+05:45"},{"idx":"PgQCRcsgsq3oib8g2gQQDB","contest":"Model Superstar","episode":"Model Superstar","category":null,"contestant":{"voting_id":"14","name":"Ashish Shakya"},"vote_count":1,"created_on":"2019-12-26T21:19:40.866659+05:45"},{"idx":"RBUztbr6iqRwNDCpM8VKAB","contest":"Model Superstar","episode":"Model Superstar","category":null,"contestant":{"voting_id":"14","name":"Ashish Shakya"},"vote_count":1,"created_on":"2019-12-26T21:19:30.547980+05:45"},{"idx":"dMakEBweUSL9NsQhw2jGe3","contest":"Model Superstar","episode":"Model Superstar","category":null,"contestant":{"voting_id":"14","name":"Ashish Shakya"},"vote_count":1,"created_on":"2019-12-26T21:19:05.207790+05:45"},{"idx":"qrU6fYs7Z5eCv8JKAqRw5Z","contest":"Model Superstar","episode":"Model Superstar","category":null,"contestant":{"voting_id":"14","name":"Ashish Shakya"},"vote_count":1,"created_on":"2019-12-26T21:18:54.230127+05:45"},{"idx":"a8SjE7XYCaM9BrBiTso8p4","contest":"Model Superstar","episode":"Model Superstar","category":null,"contestant":{"voting_id":"14","name":"Ashish Shakya"},"vote_count":1,"created_on":"2019-12-26T21:18:27.217791+05:45"},{"idx":"j3h9a9UQXE5q2rq9FcUzbe","contest":"Model Superstar","episode":"Model Superstar","category":null,"contestant":{"voting_id":"14","name":"Ashish Shakya"},"vote_count":1,"created_on":"2019-12-26T21:18:04.811515+05:45"},{"idx":"BD4yZMjHA3xWjy8sUaGND7","contest":"Model Superstar","episode":"Model Superstar","category":null,"contestant":{"voting_id":"14","name":"Ashish Shakya"},"vote_count":1,"created_on":"2019-12-26T21:17:37.508493+05:45"},{"idx":"BKgSRQaVvivjxqRfc3jPTU","contest":"Model Superstar","episode":"Model Superstar","category":null,"contestant":{"voting_id":"14","name":"Ashish Shakya"},"vote_count":1,"created_on":"2019-12-26T21:17:20.770087+05:45"},{"idx":"nqNMayz5NzzEvKRNJFWuq2","contest":"Model Superstar","episode":"Model Superstar","category":null,"contestant":{"voting_id":"14","name":"Ashish Shakya"},"vote_count":1,"created_on":"2019-12-26T21:16:57.296025+05:45"},{"idx":"VqcZgiN7dpWCi6jKM7RqoX","contest":"Model Superstar","episode":"Model Superstar","category":null,"contestant":{"voting_id":"14","name":"Ashish Shakya"},"vote_count":1,"created_on":"2019-12-26T21:16:45.613815+05:45"},{"idx":"tdAZg4qzDyAGiKipRC4zXV","contest":"Model Superstar","episode":"Model Superstar","category":null,"contestant":{"voting_id":"14","name":"Ashish Shakya"},"vote_count":1,"created_on":"2019-12-26T21:16:35.110430+05:45"},{"idx":"SWMCjVpfzdCWTGFMaG6zeh","contest":"Model Superstar","episode":"Model Superstar","category":null,"contestant":{"voting_id":"14","name":"Ashish Shakya"},"vote_count":1,"created_on":"2019-12-26T21:16:26.111634+05:45"},{"idx":"TccKJwqKuJEuRTgaQMPX8R","contest":"Model Superstar","episode":"Model Superstar","category":null,"contestant":{"voting_id":"14","name":"Ashish Shakya"},"vote_count":1,"created_on":"2019-12-26T21:16:16.176329+05:45"},{"idx":"u6WM4HhcB72fSKJuHnumZ6","contest":"Model Superstar","episode":"Model Superstar","category":null,"contestant":{"voting_id":"14","name":"Ashish Shakya"},"vote_count":1,"created_on":"2019-12-26T21:16:05.479976+05:45"},{"idx":"cPvCZ7mHAoBpS3zABWdjiK","contest":"Model Superstar","episode":"Model Superstar","category":null,"contestant":{"voting_id":"14","name":"Ashish Shakya"},"vote_count":1,"created_on":"2019-12-26T21:15:50.447234+05:45"}]}