{"total_pages":275,"total_records":13721,"next":"https://khalti.com/api/v2/vuservote/?page=217","previous":"https://khalti.com/api/v2/vuservote/?page=215","record_range":[10751,10800],"current_page":216,"records":[{"idx":"uuwRuPemoLkKaVbsxyviWk","contest":"Model Superstar","episode":"Model Superstar","category":null,"contestant":{"voting_id":"14","name":"Ashish Shakya"},"vote_count":1,"created_on":"2019-12-26T21:15:39.357608+05:45"},{"idx":"ZBsXtQvHbokMarUUja37ka","contest":"Model Superstar","episode":"Model Superstar","category":null,"contestant":{"voting_id":"14","name":"Ashish Shakya"},"vote_count":1,"created_on":"2019-12-26T21:14:12.507266+05:45"},{"idx":"46xxcV7jgnXNZEW9JoYNDS","contest":"Model Superstar","episode":"Model Superstar","category":null,"contestant":{"voting_id":"14","name":"Ashish Shakya"},"vote_count":1,"created_on":"2019-12-26T21:14:01.084048+05:45"},{"idx":"XDKLLkCyxk79eQCEp4rU7m","contest":"Model Superstar","episode":"Model Superstar","category":null,"contestant":{"voting_id":"14","name":"Ashish Shakya"},"vote_count":1,"created_on":"2019-12-26T21:13:49.909336+05:45"},{"idx":"hEbqChxY7VkLzfj5WTQWFP","contest":"Model Superstar","episode":"Model Superstar","category":null,"contestant":{"voting_id":"14","name":"Ashish Shakya"},"vote_count":1,"created_on":"2019-12-26T21:13:38.804130+05:45"},{"idx":"QfAMh2WBX3Mmtqu3H2RTUZ","contest":"Model Superstar","episode":"Model Superstar","category":null,"contestant":{"voting_id":"07","name":"Narman Malla"},"vote_count":1,"created_on":"2019-12-26T21:13:36.347150+05:45"},{"idx":"qohNLxE4mjL9rkvs2RddSj","contest":"Model Superstar","episode":"Model Superstar","category":null,"contestant":{"voting_id":"14","name":"Ashish Shakya"},"vote_count":1,"created_on":"2019-12-26T21:13:23.490110+05:45"},{"idx":"prPBWzhoYNTpEPtQ8DqrV8","contest":"Model Superstar","episode":"Model Superstar","category":null,"contestant":{"voting_id":"07","name":"Narman Malla"},"vote_count":1,"created_on":"2019-12-26T21:13:19.664578+05:45"},{"idx":"E992xqs9Aasjt7eRGsLf6F","contest":"Model Superstar","episode":"Model Superstar","category":null,"contestant":{"voting_id":"14","name":"Ashish Shakya"},"vote_count":1,"created_on":"2019-12-26T21:13:09.794180+05:45"},{"idx":"gNZ58ZdfEmTEAuq6XzcCaQ","contest":"Model Superstar","episode":"Model Superstar","category":null,"contestant":{"voting_id":"14","name":"Ashish Shakya"},"vote_count":1,"created_on":"2019-12-26T21:12:55.361739+05:45"},{"idx":"LP5jnSf3qqnoe75gXaLSu4","contest":"Model Superstar","episode":"Model Superstar","category":null,"contestant":{"voting_id":"14","name":"Ashish Shakya"},"vote_count":1,"created_on":"2019-12-26T21:12:41.691514+05:45"},{"idx":"AT5fCcETGTXwYhKwbTTJ9X","contest":"Model Superstar","episode":"Model Superstar","category":null,"contestant":{"voting_id":"14","name":"Ashish Shakya"},"vote_count":1,"created_on":"2019-12-26T21:12:29.640954+05:45"},{"idx":"DzdzVCPDYf5rSPrkYbrikd","contest":"Model Superstar","episode":"Model Superstar","category":null,"contestant":{"voting_id":"14","name":"Ashish Shakya"},"vote_count":1,"created_on":"2019-12-26T21:12:17.301752+05:45"},{"idx":"sLqDbagJ6fGmJJBTPzXeeD","contest":"Model Superstar","episode":"Model Superstar","category":null,"contestant":{"voting_id":"14","name":"Ashish Shakya"},"vote_count":1,"created_on":"2019-12-26T21:12:06.822002+05:45"},{"idx":"UHkgRRSg5rkZm3hvYHmV8L","contest":"Model Superstar","episode":"Model Superstar","category":null,"contestant":{"voting_id":"14","name":"Ashish Shakya"},"vote_count":1,"created_on":"2019-12-26T21:11:56.174773+05:45"},{"idx":"QLpbgRm8h7p2xFezc53bMM","contest":"Model Superstar","episode":"Model Superstar","category":null,"contestant":{"voting_id":"14","name":"Ashish Shakya"},"vote_count":1,"created_on":"2019-12-26T21:11:39.715642+05:45"},{"idx":"t63Hx8QHVMmjqfoLndYnCd","contest":"Model Superstar","episode":"Model Superstar","category":null,"contestant":{"voting_id":"14","name":"Ashish Shakya"},"vote_count":1,"created_on":"2019-12-26T21:10:18.021735+05:45"},{"idx":"booQrvg2NUscNTMPD6aug3","contest":"Model Superstar","episode":"Model Superstar","category":null,"contestant":{"voting_id":"02","name":"Srijana Basnet"},"vote_count":1,"created_on":"2019-12-26T20:59:37.405497+05:45"},{"idx":"z6Sves3vGukunuW9tMBtnM","contest":"Model Superstar","episode":"Model Superstar","category":null,"contestant":{"voting_id":"27","name":"Suweta Shrestha"},"vote_count":5,"created_on":"2019-12-26T20:56:44.798309+05:45"},{"idx":"9t8JH8cHXHsM6oob2Nxmrf","contest":"Model Superstar","episode":"Model Superstar","category":null,"contestant":{"voting_id":"27","name":"Suweta Shrestha"},"vote_count":1,"created_on":"2019-12-26T20:56:15.279995+05:45"},{"idx":"noSbotHhS9mBmSx3FYKJBJ","contest":"Model Superstar","episode":"Model Superstar","category":null,"contestant":{"voting_id":"07","name":"Narman Malla"},"vote_count":1,"created_on":"2019-12-26T20:39:27.457938+05:45"},{"idx":"6fUmVngNMZSXA3PbgFNgXd","contest":"Model Superstar","episode":"Model Superstar","category":null,"contestant":{"voting_id":"07","name":"Narman Malla"},"vote_count":1,"created_on":"2019-12-26T20:38:43.893473+05:45"},{"idx":"rouMtUA6C3qq8X5H2e5Jte","contest":"Model Superstar","episode":"Model Superstar","category":null,"contestant":{"voting_id":"07","name":"Narman Malla"},"vote_count":1,"created_on":"2019-12-26T20:37:41.512812+05:45"},{"idx":"GEdSQgsN4xRD78Qc4p3fuJ","contest":"Model Superstar","episode":"Model Superstar","category":null,"contestant":{"voting_id":"14","name":"Ashish Shakya"},"vote_count":1,"created_on":"2019-12-26T20:28:16.353538+05:45"},{"idx":"f5hfZZrXuKdfTEzYtPsT83","contest":"Model Superstar","episode":"Model Superstar","category":null,"contestant":{"voting_id":"14","name":"Ashish Shakya"},"vote_count":1,"created_on":"2019-12-26T20:27:14.316793+05:45"},{"idx":"rsZFjTo2uThU38WatpyPJk","contest":"Model Superstar","episode":"Model Superstar","category":null,"contestant":{"voting_id":"14","name":"Ashish Shakya"},"vote_count":1,"created_on":"2019-12-26T20:26:54.009132+05:45"},{"idx":"RhEjjnZTjh7Xj3kohxEhjc","contest":"Model Superstar","episode":"Model Superstar","category":null,"contestant":{"voting_id":"01","name":"Sajina Subba"},"vote_count":1,"created_on":"2019-12-26T20:22:33.899184+05:45"},{"idx":"Cu6LTyzK6TmkFEgFVrgRYQ","contest":"Model Superstar","episode":"Model Superstar","category":null,"contestant":{"voting_id":"21","name":"Padam Bahadur Ranamagar"},"vote_count":1,"created_on":"2019-12-26T20:14:52.079274+05:45"},{"idx":"yKmJ6y3aeMSMybesG5e3u6","contest":"Model Superstar","episode":"Model Superstar","category":null,"contestant":{"voting_id":"12","name":"Rabin Ghising"},"vote_count":1,"created_on":"2019-12-26T20:11:20.336117+05:45"},{"idx":"UsGGsLGhQwSZ5R2SNvwYMo","contest":"Model Superstar","episode":"Model Superstar","category":null,"contestant":{"voting_id":"12","name":"Rabin Ghising"},"vote_count":1,"created_on":"2019-12-26T20:10:58.373304+05:45"},{"idx":"dw22V8cqoV4K3gK72VtFCD","contest":"Model Superstar","episode":"Model Superstar","category":null,"contestant":{"voting_id":"12","name":"Rabin Ghising"},"vote_count":1,"created_on":"2019-12-26T20:04:20.272052+05:45"},{"idx":"YAZR3k8mDWqHdXM7ykHXfk","contest":"Model Superstar","episode":"Model Superstar","category":null,"contestant":{"voting_id":"16","name":"Anil Karki"},"vote_count":5,"created_on":"2019-12-26T20:03:41.479062+05:45"},{"idx":"pLNvcLnCvvThQWu9ZQBfL8","contest":"Model Superstar","episode":"Model Superstar","category":null,"contestant":{"voting_id":"16","name":"Anil Karki"},"vote_count":5,"created_on":"2019-12-26T20:03:17.615045+05:45"},{"idx":"84oHuzeuXTPKuXPdqK8Ch7","contest":"NEPALBHASA STAR MUSIC VIDEO AWARDS-2019","episode":null,"category":"BEST MUSIC DIRECTOR","contestant":{"voting_id":"6C","name":"Purna Man Maharjan "},"vote_count":50,"created_on":"2019-12-26T20:03:08.959029+05:45"},{"idx":"kMdcNYCnjZCutu9a7gSpnh","contest":"Model Superstar","episode":"Model Superstar","category":null,"contestant":{"voting_id":"16","name":"Anil Karki"},"vote_count":5,"created_on":"2019-12-26T20:02:55.016049+05:45"},{"idx":"8TR8dAacGZoYby8TQYrir6","contest":"NEPALBHASA STAR MUSIC VIDEO AWARDS-2019","episode":null,"category":"THE RISING STAR SINGER","contestant":{"voting_id":"21E","name":"Purna Man Maharjan"},"vote_count":50,"created_on":"2019-12-26T20:02:35.394598+05:45"},{"idx":"W37hWsJ869VW2rwWgazEN8","contest":"Model Superstar","episode":"Model Superstar","category":null,"contestant":{"voting_id":"16","name":"Anil Karki"},"vote_count":5,"created_on":"2019-12-26T20:02:00.024585+05:45"},{"idx":"TZDPCvUEq23qZZunbampXR","contest":"NEPALBHASA STAR MUSIC VIDEO AWARDS-2019","episode":null,"category":"BEST MUSIC ARRANGER","contestant":{"voting_id":"5J","name":" Bhupendra Bajracharya"},"vote_count":1,"created_on":"2019-12-26T19:51:39.362861+05:45"},{"idx":"NvGSiVrWfDRPA9yqXNR4So","contest":"Model Superstar","episode":"Model Superstar","category":null,"contestant":{"voting_id":"05","name":"Asmita Thapa Magar"},"vote_count":1,"created_on":"2019-12-26T19:50:30.805642+05:45"},{"idx":"ALymWBSDSfhsPqeNypw88Z","contest":"Model Superstar","episode":"Model Superstar","category":null,"contestant":{"voting_id":"14","name":"Ashish Shakya"},"vote_count":1,"created_on":"2019-12-26T19:46:59.709695+05:45"},{"idx":"fyC8FLQUTxFdp9fuwWpsHM","contest":"Model Superstar","episode":"Model Superstar","category":null,"contestant":{"voting_id":"04","name":"Sabita Maharjan"},"vote_count":1,"created_on":"2019-12-26T19:36:11.749681+05:45"},{"idx":"SJbyQbdVfhFSgWFos9tZuU","contest":"Model Superstar","episode":"Model Superstar","category":null,"contestant":{"voting_id":"19","name":"Asmita Khadka"},"vote_count":1,"created_on":"2019-12-26T19:25:40.406680+05:45"},{"idx":"5Bk3mhRcWsHKeeXJyuedTW","contest":"Model Superstar","episode":"Model Superstar","category":null,"contestant":{"voting_id":"03","name":"Smriti Shah"},"vote_count":1,"created_on":"2019-12-26T19:10:35.588153+05:45"},{"idx":"ytGuxBhV4rWnh8yBN3wZ6b","contest":"Model Superstar","episode":"Model Superstar","category":null,"contestant":{"voting_id":"01","name":"Sajina Subba"},"vote_count":1,"created_on":"2019-12-26T19:09:27.653595+05:45"},{"idx":"uMAdCQqzApytRFPacrzWrR","contest":"Model Superstar","episode":"Model Superstar","category":null,"contestant":{"voting_id":"04","name":"Sabita Maharjan"},"vote_count":1,"created_on":"2019-12-26T19:07:05.161307+05:45"},{"idx":"CFQSLDsojSkNrqdb3HCuTe","contest":"Model Superstar","episode":"Model Superstar","category":null,"contestant":{"voting_id":"09","name":"Sagar Ghimire"},"vote_count":1,"created_on":"2019-12-26T19:05:03.489253+05:45"},{"idx":"gKktq8fcyra7w9ZfmcXrdY","contest":"NEPALBHASA STAR MUSIC VIDEO AWARDS-2019","episode":null,"category":"BEST MUSIC DIRECTOR","contestant":{"voting_id":"6C","name":"Purna Man Maharjan "},"vote_count":5,"created_on":"2019-12-26T18:59:42.849589+05:45"},{"idx":"XH2fqRFCLpmaEZNReG4SK6","contest":"NEPALBHASA STAR MUSIC VIDEO AWARDS-2019","episode":null,"category":"THE RISING STAR SINGER","contestant":{"voting_id":"21E","name":"Purna Man Maharjan"},"vote_count":5,"created_on":"2019-12-26T18:58:50.076608+05:45"},{"idx":"o2rzLbhWTp2Si2RWH4zQaA","contest":"Model Superstar","episode":"Model Superstar","category":null,"contestant":{"voting_id":"03","name":"Smriti Shah"},"vote_count":1,"created_on":"2019-12-26T18:44:40.073806+05:45"},{"idx":"BTZBQwXiKdazT9mNyrKKpd","contest":"Model Superstar","episode":"Model Superstar","category":null,"contestant":{"voting_id":"12","name":"Rabin Ghising"},"vote_count":1,"created_on":"2019-12-26T18:32:22.667670+05:45"}]}