{"total_pages":275,"total_records":13721,"next":"https://khalti.com/api/v2/vuservote/?page=218","previous":"https://khalti.com/api/v2/vuservote/?page=216","record_range":[10801,10850],"current_page":217,"records":[{"idx":"mxPmSXpnZuia9AmGf3U6JN","contest":"Model Superstar","episode":"Model Superstar","category":null,"contestant":{"voting_id":"22","name":"Sunil Laudrey"},"vote_count":1,"created_on":"2019-12-26T18:06:04.868770+05:45"},{"idx":"DXni5LD2HByAx8JQrQFcdG","contest":"Model Superstar","episode":"Model Superstar","category":null,"contestant":{"voting_id":"17","name":"Sajana Panta"},"vote_count":1,"created_on":"2019-12-26T16:44:51.318125+05:45"},{"idx":"vMqbqH7GJVb7hEJjTe8Yok","contest":"Model Superstar","episode":"Model Superstar","category":null,"contestant":{"voting_id":"17","name":"Sajana Panta"},"vote_count":1,"created_on":"2019-12-26T16:44:33.519988+05:45"},{"idx":"UHDLpVVUYaLuPvDGePpm7g","contest":"Model Superstar","episode":"Model Superstar","category":null,"contestant":{"voting_id":"17","name":"Sajana Panta"},"vote_count":1,"created_on":"2019-12-26T16:43:10.626889+05:45"},{"idx":"C5MfDcdtDff7gWLjzuqftd","contest":"Model Superstar","episode":"Model Superstar","category":null,"contestant":{"voting_id":"12","name":"Rabin Ghising"},"vote_count":1,"created_on":"2019-12-26T16:26:45.182400+05:45"},{"idx":"Y6nHN7pmktczmG2XgXCXZm","contest":"Model Superstar","episode":"Model Superstar","category":null,"contestant":{"voting_id":"07","name":"Narman Malla"},"vote_count":1,"created_on":"2019-12-26T14:24:40.414196+05:45"},{"idx":"vxGHji4MtxJnSybExDq5Xo","contest":"NEPALBHASA STAR MUSIC VIDEO AWARDS-2019","episode":null,"category":"BEST DRESS DESIGNER","contestant":{"voting_id":"3h","name":"Sunita Rajbhandari"},"vote_count":1,"created_on":"2019-12-26T14:00:07.091557+05:45"},{"idx":"aTXPA5MwTWzbhpVokfRvBP","contest":"NEPALBHASA STAR MUSIC VIDEO AWARDS-2019","episode":null,"category":"BEST MUSIC VIDEO","contestant":{"voting_id":"1H","name":"Sunita Rajbhandari"},"vote_count":1,"created_on":"2019-12-26T13:59:37.612194+05:45"},{"idx":"hpKPTYB9Ee2mjsJAWBXDFR","contest":"NEPALBHASA STAR MUSIC VIDEO AWARDS-2019","episode":null,"category":"BEST DANCE DIRECTOR","contestant":{"voting_id":"19F","name":"Sunita Rajbhandari/Sujan Bajracharya"},"vote_count":1,"created_on":"2019-12-26T13:58:52.047664+05:45"},{"idx":"3C2Td4gQPny4VmeaxpwhNU","contest":"NEPALBHASA STAR MUSIC VIDEO AWARDS-2019","episode":null,"category":"BEST DIRECTOR","contestant":{"voting_id":"20F","name":"Sunita Rajbhandari"},"vote_count":1,"created_on":"2019-12-26T13:58:14.565965+05:45"},{"idx":"zijQSjUnRaQYkxi3Sdvr9K","contest":"Model Superstar","episode":"Model Superstar","category":null,"contestant":{"voting_id":"14","name":"Ashish Shakya"},"vote_count":1,"created_on":"2019-12-26T13:44:47.500583+05:45"},{"idx":"daLGCB6SHQXDcwLLpbMTY2","contest":"Model Superstar","episode":"Model Superstar","category":null,"contestant":{"voting_id":"07","name":"Narman Malla"},"vote_count":1,"created_on":"2019-12-26T12:53:57.412722+05:45"},{"idx":"zRM7m7wbiLFHXTQxcdsmvC","contest":"Model Superstar","episode":"Model Superstar","category":null,"contestant":{"voting_id":"14","name":"Ashish Shakya"},"vote_count":1,"created_on":"2019-12-26T12:45:23.429737+05:45"},{"idx":"QjNfRmoy6UYFCVJm9wCtZ3","contest":"Model Superstar","episode":"Model Superstar","category":null,"contestant":{"voting_id":"22","name":"Sunil Laudrey"},"vote_count":1,"created_on":"2019-12-26T12:40:40.992540+05:45"},{"idx":"xhtzisHoFse7xobcyDPGXY","contest":"Model Superstar","episode":"Model Superstar","category":null,"contestant":{"voting_id":"02","name":"Srijana Basnet"},"vote_count":1,"created_on":"2019-12-26T12:27:20.086677+05:45"},{"idx":"H2wopsbZHn5r7DsEHLMt23","contest":"Model Superstar","episode":"Model Superstar","category":null,"contestant":{"voting_id":"02","name":"Srijana Basnet"},"vote_count":1,"created_on":"2019-12-26T12:27:07.508089+05:45"},{"idx":"VcAaphGKumZEvE7HLutMAe","contest":"Model Superstar","episode":"Model Superstar","category":null,"contestant":{"voting_id":"02","name":"Srijana Basnet"},"vote_count":1,"created_on":"2019-12-26T12:26:21.759402+05:45"},{"idx":"ctLHVaiDhve2TLftejVhd7","contest":"Model Superstar","episode":"Model Superstar","category":null,"contestant":{"voting_id":"02","name":"Srijana Basnet"},"vote_count":1,"created_on":"2019-12-26T12:25:59.092169+05:45"},{"idx":"aeMGCAtAR8ApNE8ke8fqEn","contest":"Model Superstar","episode":"Model Superstar","category":null,"contestant":{"voting_id":"02","name":"Srijana Basnet"},"vote_count":1,"created_on":"2019-12-26T12:25:36.227029+05:45"},{"idx":"GPgk2MZE5d98hrTAG7wRXC","contest":"Model Superstar","episode":"Model Superstar","category":null,"contestant":{"voting_id":"02","name":"Srijana Basnet"},"vote_count":1,"created_on":"2019-12-26T12:25:07.042143+05:45"},{"idx":"iRXi6PR2ioA2pwTni9MmAf","contest":"Model Superstar","episode":"Model Superstar","category":null,"contestant":{"voting_id":"02","name":"Srijana Basnet"},"vote_count":1,"created_on":"2019-12-26T12:23:19.402479+05:45"},{"idx":"JinwisWgJdGCzAZeePZDHP","contest":"Model Superstar","episode":"Model Superstar","category":null,"contestant":{"voting_id":"09","name":"Sagar Ghimire"},"vote_count":1,"created_on":"2019-12-26T12:15:54.231859+05:45"},{"idx":"7AZJEVHHmcXLgLrXXovHBH","contest":"Model Superstar","episode":"Model Superstar","category":null,"contestant":{"voting_id":"19","name":"Asmita Khadka"},"vote_count":1,"created_on":"2019-12-26T11:25:25.857429+05:45"},{"idx":"3tkWXMwi3MJ3ANGjAkJYiY","contest":"Model Superstar","episode":"Model Superstar","category":null,"contestant":{"voting_id":"16","name":"Anil Karki"},"vote_count":1,"created_on":"2019-12-26T11:23:18.421765+05:45"},{"idx":"eqR5ALePWKFjUYtaFLvECo","contest":"Model Superstar","episode":"Model Superstar","category":null,"contestant":{"voting_id":"04","name":"Sabita Maharjan"},"vote_count":1,"created_on":"2019-12-26T11:23:07.537208+05:45"},{"idx":"mKjGa5sY332LcrFYpK8z7S","contest":"Model Superstar","episode":"Model Superstar","category":null,"contestant":{"voting_id":"16","name":"Anil Karki"},"vote_count":1,"created_on":"2019-12-26T11:22:54.190835+05:45"},{"idx":"9hUcXzMK3Yq2MES7iZ3qta","contest":"Model Superstar","episode":"Model Superstar","category":null,"contestant":{"voting_id":"05","name":"Asmita Thapa Magar"},"vote_count":1,"created_on":"2019-12-26T11:22:36.707497+05:45"},{"idx":"wPxfds7ZA8ANqJZexLWYEa","contest":"Model Superstar","episode":"Model Superstar","category":null,"contestant":{"voting_id":"16","name":"Anil Karki"},"vote_count":1,"created_on":"2019-12-26T11:22:25.459464+05:45"},{"idx":"92oXz2JRGi4aa42C9eH4Kh","contest":"Model Superstar","episode":"Model Superstar","category":null,"contestant":{"voting_id":"16","name":"Anil Karki"},"vote_count":1,"created_on":"2019-12-26T11:21:41.555930+05:45"},{"idx":"Es5Fz7BcyyxGTa6ZpguFLZ","contest":"Model Superstar","episode":"Model Superstar","category":null,"contestant":{"voting_id":"16","name":"Anil Karki"},"vote_count":1,"created_on":"2019-12-26T11:17:05.230183+05:45"},{"idx":"5XvQdnSVDQobu9FxGwP29B","contest":"Model Superstar","episode":"Model Superstar","category":null,"contestant":{"voting_id":"07","name":"Narman Malla"},"vote_count":1,"created_on":"2019-12-26T11:13:25.210854+05:45"},{"idx":"QXbZBSLjBwu8YXhPA9NxvA","contest":"Model Superstar","episode":"Model Superstar","category":null,"contestant":{"voting_id":"22","name":"Sunil Laudrey"},"vote_count":1,"created_on":"2019-12-26T11:12:42.886584+05:45"},{"idx":"KBQAvfjvDCBvdaXuXuXwM3","contest":"Model Superstar","episode":"Model Superstar","category":null,"contestant":{"voting_id":"22","name":"Sunil Laudrey"},"vote_count":1,"created_on":"2019-12-26T11:12:02.766412+05:45"},{"idx":"kko8ibL7bciufaHEra9eAa","contest":"Model Superstar","episode":"Model Superstar","category":null,"contestant":{"voting_id":"22","name":"Sunil Laudrey"},"vote_count":1,"created_on":"2019-12-26T11:11:45.675154+05:45"},{"idx":"P3BWybJbNvg7qzq3XEwPwM","contest":"Model Superstar","episode":"Model Superstar","category":null,"contestant":{"voting_id":"22","name":"Sunil Laudrey"},"vote_count":1,"created_on":"2019-12-26T11:11:16.977734+05:45"},{"idx":"jdCZ4mD6SWQgK7yj9SmhBX","contest":"Model Superstar","episode":"Model Superstar","category":null,"contestant":{"voting_id":"07","name":"Narman Malla"},"vote_count":1,"created_on":"2019-12-26T11:10:51.136417+05:45"},{"idx":"CAzH8mcaVP9T5oVyc9dt6D","contest":"Model Superstar","episode":"Model Superstar","category":null,"contestant":{"voting_id":"22","name":"Sunil Laudrey"},"vote_count":1,"created_on":"2019-12-26T11:10:47.036283+05:45"},{"idx":"gsCqpeYkY9u6T4Ru45Kitf","contest":"Model Superstar","episode":"Model Superstar","category":null,"contestant":{"voting_id":"07","name":"Narman Malla"},"vote_count":1,"created_on":"2019-12-26T11:10:13.397720+05:45"},{"idx":"kfuhRDkGwtNURvKxKt5BNC","contest":"Model Superstar","episode":"Model Superstar","category":null,"contestant":{"voting_id":"22","name":"Sunil Laudrey"},"vote_count":1,"created_on":"2019-12-26T11:10:13.084395+05:45"},{"idx":"3MpVn7kEYNjAM9TbK2PV5T","contest":"Model Superstar","episode":"Model Superstar","category":null,"contestant":{"voting_id":"07","name":"Narman Malla"},"vote_count":1,"created_on":"2019-12-26T11:09:23.941125+05:45"},{"idx":"pz73kLnY6s432zygPUnnL3","contest":"Model Superstar","episode":"Model Superstar","category":null,"contestant":{"voting_id":"19","name":"Asmita Khadka"},"vote_count":1,"created_on":"2019-12-26T10:58:13.059436+05:45"},{"idx":"ocM2xtuczsMciCQn3tBMuA","contest":"Model Superstar","episode":"Model Superstar","category":null,"contestant":{"voting_id":"04","name":"Sabita Maharjan"},"vote_count":1,"created_on":"2019-12-26T10:56:58.862267+05:45"},{"idx":"iuqhFwNoWQ5da5akrUBz78","contest":"Model Superstar","episode":"Model Superstar","category":null,"contestant":{"voting_id":"09","name":"Sagar Ghimire"},"vote_count":1,"created_on":"2019-12-26T10:56:27.102567+05:45"},{"idx":"b6a2oZ2Zbr44NhrpgYJTZg","contest":"Model Superstar","episode":"Model Superstar","category":null,"contestant":{"voting_id":"05","name":"Asmita Thapa Magar"},"vote_count":1,"created_on":"2019-12-26T10:56:00.083587+05:45"},{"idx":"JJXEgJYbwvmFKfkmqaXbBc","contest":"Model Superstar","episode":"Model Superstar","category":null,"contestant":{"voting_id":"14","name":"Ashish Shakya"},"vote_count":1,"created_on":"2019-12-26T10:50:29.823623+05:45"},{"idx":"QPp549wfNrLcJQ7F2Xy5BS","contest":"Model Superstar","episode":"Model Superstar","category":null,"contestant":{"voting_id":"14","name":"Ashish Shakya"},"vote_count":1,"created_on":"2019-12-26T10:49:32.246457+05:45"},{"idx":"vJpiduiJTVL2W2gdiUUkrf","contest":"Model Superstar","episode":"Model Superstar","category":null,"contestant":{"voting_id":"13","name":"Prashant Shah"},"vote_count":1,"created_on":"2019-12-26T10:42:42.833713+05:45"},{"idx":"VZhdigrhs2zkLFesHuangP","contest":"Model Superstar","episode":"Model Superstar","category":null,"contestant":{"voting_id":"07","name":"Narman Malla"},"vote_count":1,"created_on":"2019-12-26T10:23:25.890090+05:45"},{"idx":"3RRNuQmRtSTAg2HZH5KL8g","contest":"Model Superstar","episode":"Model Superstar","category":null,"contestant":{"voting_id":"07","name":"Narman Malla"},"vote_count":1,"created_on":"2019-12-26T10:23:14.699509+05:45"},{"idx":"4WkX7EzTLc7gsV7kZNaod2","contest":"Model Superstar","episode":"Model Superstar","category":null,"contestant":{"voting_id":"07","name":"Narman Malla"},"vote_count":1,"created_on":"2019-12-26T10:22:14.117067+05:45"}]}