{"total_pages":275,"total_records":13721,"next":"https://khalti.com/api/v2/vuservote/?page=219","previous":"https://khalti.com/api/v2/vuservote/?page=217","record_range":[10851,10900],"current_page":218,"records":[{"idx":"cuAqFHAEqFsZYXntKZDe2B","contest":"Model Superstar","episode":"Model Superstar","category":null,"contestant":{"voting_id":"07","name":"Narman Malla"},"vote_count":1,"created_on":"2019-12-26T10:21:58.505592+05:45"},{"idx":"4kejHdNYgAQSDS2Z5sk9x7","contest":"Model Superstar","episode":"Model Superstar","category":null,"contestant":{"voting_id":"07","name":"Narman Malla"},"vote_count":1,"created_on":"2019-12-26T10:21:06.887080+05:45"},{"idx":"ovAjuwnbsPTFsZasq4VuVJ","contest":"Model Superstar","episode":"Model Superstar","category":null,"contestant":{"voting_id":"07","name":"Narman Malla"},"vote_count":1,"created_on":"2019-12-26T10:20:39.330248+05:45"},{"idx":"DEVcAhSdhCrXSHCgSVpa6T","contest":"Model Superstar","episode":"Model Superstar","category":null,"contestant":{"voting_id":"07","name":"Narman Malla"},"vote_count":1,"created_on":"2019-12-26T10:19:15.492009+05:45"},{"idx":"Es5LsQxz6NhYSGNbuEscaT","contest":"Model Superstar","episode":"Model Superstar","category":null,"contestant":{"voting_id":"14","name":"Ashish Shakya"},"vote_count":1,"created_on":"2019-12-26T09:56:20.121037+05:45"},{"idx":"6r7t4smVbEZcY5dbpncSCe","contest":"Model Superstar","episode":"Model Superstar","category":null,"contestant":{"voting_id":"01","name":"Sajina Subba"},"vote_count":1,"created_on":"2019-12-26T09:49:20.083042+05:45"},{"idx":"cSZ5mjD6XLHVQWjwVzrArY","contest":"Model Superstar","episode":"Model Superstar","category":null,"contestant":{"voting_id":"07","name":"Narman Malla"},"vote_count":1,"created_on":"2019-12-26T09:49:04.787799+05:45"},{"idx":"qJwWCfX9ZmaEEvSRfJRmH2","contest":"Model Superstar","episode":"Model Superstar","category":null,"contestant":{"voting_id":"07","name":"Narman Malla"},"vote_count":1,"created_on":"2019-12-26T09:48:44.419685+05:45"},{"idx":"UEWGfFznAQm9cFjQM4ioLi","contest":"Model Superstar","episode":"Model Superstar","category":null,"contestant":{"voting_id":"07","name":"Narman Malla"},"vote_count":1,"created_on":"2019-12-26T09:46:49.648808+05:45"},{"idx":"NmrAqJEC79LBUYEfyGaJsX","contest":"Model Superstar","episode":"Model Superstar","category":null,"contestant":{"voting_id":"07","name":"Narman Malla"},"vote_count":1,"created_on":"2019-12-26T09:46:31.460744+05:45"},{"idx":"nJNaLK9iMBU5SSFgjcrHpG","contest":"Model Superstar","episode":"Model Superstar","category":null,"contestant":{"voting_id":"07","name":"Narman Malla"},"vote_count":1,"created_on":"2019-12-26T09:39:11.449491+05:45"},{"idx":"FbaWWmX28kFi79mAb5xs7h","contest":"Model Superstar","episode":"Model Superstar","category":null,"contestant":{"voting_id":"07","name":"Narman Malla"},"vote_count":1,"created_on":"2019-12-26T09:38:58.169495+05:45"},{"idx":"bR7kFu6SWtMY6ck7EwXpq2","contest":"Model Superstar","episode":"Model Superstar","category":null,"contestant":{"voting_id":"07","name":"Narman Malla"},"vote_count":1,"created_on":"2019-12-26T09:38:49.206561+05:45"},{"idx":"64SLKeA9JPJAgS2zxdJeU4","contest":"Model Superstar","episode":"Model Superstar","category":null,"contestant":{"voting_id":"07","name":"Narman Malla"},"vote_count":1,"created_on":"2019-12-26T09:38:39.316524+05:45"},{"idx":"fvtbmX3EXUxeeK5fJGpHbE","contest":"Model Superstar","episode":"Model Superstar","category":null,"contestant":{"voting_id":"07","name":"Narman Malla"},"vote_count":1,"created_on":"2019-12-26T09:38:14.968720+05:45"},{"idx":"p9aXZrKktQhmz4kvMYxWsK","contest":"Model Superstar","episode":"Model Superstar","category":null,"contestant":{"voting_id":"07","name":"Narman Malla"},"vote_count":1,"created_on":"2019-12-26T09:37:53.845677+05:45"},{"idx":"DFKJEa37LHeLofmQoxrxjB","contest":"Model Superstar","episode":"Model Superstar","category":null,"contestant":{"voting_id":"07","name":"Narman Malla"},"vote_count":1,"created_on":"2019-12-26T09:37:35.866458+05:45"},{"idx":"W24mqR29zNwB3bbu6dQCcA","contest":"Model Superstar","episode":"Model Superstar","category":null,"contestant":{"voting_id":"07","name":"Narman Malla"},"vote_count":1,"created_on":"2019-12-26T09:37:26.182478+05:45"},{"idx":"5ie3PNToaDAXwRj22k62VZ","contest":"Model Superstar","episode":"Model Superstar","category":null,"contestant":{"voting_id":"07","name":"Narman Malla"},"vote_count":1,"created_on":"2019-12-26T09:37:15.427938+05:45"},{"idx":"4wZy7FgWQUXZR2H3GthbnY","contest":"Model Superstar","episode":"Model Superstar","category":null,"contestant":{"voting_id":"07","name":"Narman Malla"},"vote_count":1,"created_on":"2019-12-26T09:37:05.158552+05:45"},{"idx":"8gdKcLeTiXmxtZcWvg9EQ5","contest":"Model Superstar","episode":"Model Superstar","category":null,"contestant":{"voting_id":"07","name":"Narman Malla"},"vote_count":1,"created_on":"2019-12-26T09:36:51.227617+05:45"},{"idx":"ZynX2PdaLbcVEhb6MZ9hvk","contest":"Model Superstar","episode":"Model Superstar","category":null,"contestant":{"voting_id":"07","name":"Narman Malla"},"vote_count":1,"created_on":"2019-12-26T09:36:31.191359+05:45"},{"idx":"hM7eYXTJukZy225NTwAL9C","contest":"Model Superstar","episode":"Model Superstar","category":null,"contestant":{"voting_id":"09","name":"Sagar Ghimire"},"vote_count":1,"created_on":"2019-12-26T09:36:09.888363+05:45"},{"idx":"BaULDdAAistuegqNjnxqkH","contest":"Model Superstar","episode":"Model Superstar","category":null,"contestant":{"voting_id":"09","name":"Sagar Ghimire"},"vote_count":1,"created_on":"2019-12-26T09:35:19.769966+05:45"},{"idx":"rRVKGaSA4Sb8iYjLg6YfAL","contest":"Model Superstar","episode":"Model Superstar","category":null,"contestant":{"voting_id":"10","name":"Sameep Sharma"},"vote_count":1,"created_on":"2019-12-26T09:31:45.585565+05:45"},{"idx":"ehvqQYUSj4GnNpzJ3vMt5k","contest":"NEPALBHASA STAR MUSIC VIDEO AWARDS-2019","episode":null,"category":"BEST DIRECTOR","contestant":{"voting_id":"20A","name":"Bhuwan Shrestha"},"vote_count":1,"created_on":"2019-12-26T09:18:09.112814+05:45"},{"idx":"e2cseeQgfUdpFDrdqVxRab","contest":"Model Superstar","episode":"Model Superstar","category":null,"contestant":{"voting_id":"21","name":"Padam Bahadur Ranamagar"},"vote_count":1,"created_on":"2019-12-26T09:17:46.455518+05:45"},{"idx":"TEnadGHo4Bnxytf5myqghG","contest":"Model Superstar","episode":"Model Superstar","category":null,"contestant":{"voting_id":"09","name":"Sagar Ghimire"},"vote_count":1,"created_on":"2019-12-26T09:17:05.485431+05:45"},{"idx":"FWQqTebuhvB4ZpxpdZC9DG","contest":"Model Superstar","episode":"Model Superstar","category":null,"contestant":{"voting_id":"05","name":"Asmita Thapa Magar"},"vote_count":1,"created_on":"2019-12-26T09:16:51.048265+05:45"},{"idx":"Xa76ioWWtBgEwbFyZUSzTe","contest":"Model Superstar","episode":"Model Superstar","category":null,"contestant":{"voting_id":"08","name":"Roshan Sunam"},"vote_count":1,"created_on":"2019-12-26T09:13:58.199571+05:45"},{"idx":"LaQDsmzsrN69tP5T2uENRA","contest":"Model Superstar","episode":"Model Superstar","category":null,"contestant":{"voting_id":"14","name":"Ashish Shakya"},"vote_count":1,"created_on":"2019-12-26T09:13:36.777653+05:45"},{"idx":"XAkDNJ6hsJxkkhchBrQyKa","contest":"Model Superstar","episode":"Model Superstar","category":null,"contestant":{"voting_id":"05","name":"Asmita Thapa Magar"},"vote_count":1,"created_on":"2019-12-26T09:13:10.064789+05:45"},{"idx":"YtHCSqeGPFWtWB8F2k4xcB","contest":"Model Superstar","episode":"Model Superstar","category":null,"contestant":{"voting_id":"07","name":"Narman Malla"},"vote_count":1,"created_on":"2019-12-26T09:09:57.808754+05:45"},{"idx":"oLhTJ7Qaz2DDaWzyNyeDab","contest":"Model Superstar","episode":"Model Superstar","category":null,"contestant":{"voting_id":"07","name":"Narman Malla"},"vote_count":1,"created_on":"2019-12-26T09:09:46.555697+05:45"},{"idx":"3iy7JEh2TgpJuC4xQztdj8","contest":"Model Superstar","episode":"Model Superstar","category":null,"contestant":{"voting_id":"07","name":"Narman Malla"},"vote_count":1,"created_on":"2019-12-26T09:09:35.060246+05:45"},{"idx":"YJRySdt23BSDsMGNxJigng","contest":"Model Superstar","episode":"Model Superstar","category":null,"contestant":{"voting_id":"07","name":"Narman Malla"},"vote_count":1,"created_on":"2019-12-26T09:09:22.520878+05:45"},{"idx":"u3CPsPKA7qpQMJn5vEJtGa","contest":"Model Superstar","episode":"Model Superstar","category":null,"contestant":{"voting_id":"07","name":"Narman Malla"},"vote_count":1,"created_on":"2019-12-26T09:09:11.374434+05:45"},{"idx":"it4wrHkfMwmyKdHaQQVoDC","contest":"Model Superstar","episode":"Model Superstar","category":null,"contestant":{"voting_id":"07","name":"Narman Malla"},"vote_count":1,"created_on":"2019-12-26T09:09:00.114203+05:45"},{"idx":"QE9vkU3iVRgVEs5MUs9Jue","contest":"Model Superstar","episode":"Model Superstar","category":null,"contestant":{"voting_id":"07","name":"Narman Malla"},"vote_count":1,"created_on":"2019-12-26T09:08:49.207440+05:45"},{"idx":"L65M7oS3MywgGPqF5RRXo2","contest":"Model Superstar","episode":"Model Superstar","category":null,"contestant":{"voting_id":"07","name":"Narman Malla"},"vote_count":1,"created_on":"2019-12-26T09:08:38.504381+05:45"},{"idx":"3SStNAB4YKG7T9QfjZu8Cb","contest":"Model Superstar","episode":"Model Superstar","category":null,"contestant":{"voting_id":"07","name":"Narman Malla"},"vote_count":1,"created_on":"2019-12-26T09:08:22.493287+05:45"},{"idx":"4jVse5X8gUvWKtsimVCAA7","contest":"Model Superstar","episode":"Model Superstar","category":null,"contestant":{"voting_id":"07","name":"Narman Malla"},"vote_count":1,"created_on":"2019-12-26T09:08:12.339299+05:45"},{"idx":"GxnrDr86rzcHfoZCX5vjxN","contest":"Model Superstar","episode":"Model Superstar","category":null,"contestant":{"voting_id":"04","name":"Sabita Maharjan"},"vote_count":1,"created_on":"2019-12-26T08:57:52.343760+05:45"},{"idx":"sb8tvdpaCvDjd2aiVoffb5","contest":"Model Superstar","episode":"Model Superstar","category":null,"contestant":{"voting_id":"04","name":"Sabita Maharjan"},"vote_count":1,"created_on":"2019-12-26T08:44:01.878390+05:45"},{"idx":"Y4PwexzWKc8PTE9Sp4tcYZ","contest":"NEPALBHASA STAR MUSIC VIDEO AWARDS-2019","episode":null,"category":"THE RISING STAR SINGER","contestant":{"voting_id":"21E","name":"Purna Man Maharjan"},"vote_count":1,"created_on":"2019-12-26T08:19:45.073958+05:45"},{"idx":"jDhUSCCs3JojR36wzLeoqX","contest":"Model Superstar","episode":"Model Superstar","category":null,"contestant":{"voting_id":"14","name":"Ashish Shakya"},"vote_count":1,"created_on":"2019-12-26T08:17:23.401089+05:45"},{"idx":"q2SxNqLNSzk3YBvZECWmeZ","contest":"Model Superstar","episode":"Model Superstar","category":null,"contestant":{"voting_id":"14","name":"Ashish Shakya"},"vote_count":1,"created_on":"2019-12-26T08:17:05.063297+05:45"},{"idx":"9p5dvac78p2CsSFkYiAL9b","contest":"NEPALBHASA STAR MUSIC VIDEO AWARDS-2019","episode":null,"category":"BEST MODEL, FEMALE","contestant":{"voting_id":"13B","name":"Ashishma Nakarmi"},"vote_count":1,"created_on":"2019-12-26T07:27:58.705854+05:45"},{"idx":"7ChxvfemZqMHZ3DD69KujG","contest":"NEPALBHASA STAR MUSIC VIDEO AWARDS-2019","episode":null,"category":"BEST SINGER, MALE","contestant":{"voting_id":"15F","name":"Purna Kaji Jyapu"},"vote_count":1,"created_on":"2019-12-26T07:26:52.424829+05:45"},{"idx":"SSaWxJRNQFfcLYYhvhtzXH","contest":"Model Superstar","episode":"Model Superstar","category":null,"contestant":{"voting_id":"08","name":"Roshan Sunam"},"vote_count":1,"created_on":"2019-12-26T07:24:28.631267+05:45"}]}