{"total_pages":275,"total_records":13721,"next":"https://khalti.com/api/v2/vuservote/?page=220","previous":"https://khalti.com/api/v2/vuservote/?page=218","record_range":[10901,10950],"current_page":219,"records":[{"idx":"3VWCTkbA3vEogrEpU2VYEc","contest":"Model Superstar","episode":"Model Superstar","category":null,"contestant":{"voting_id":"09","name":"Sagar Ghimire"},"vote_count":1,"created_on":"2019-12-26T06:51:22.427984+05:45"},{"idx":"osHJeGbkt6hQNnAGMAupN4","contest":"Model Superstar","episode":"Model Superstar","category":null,"contestant":{"voting_id":"11","name":"Rachana Karki"},"vote_count":1,"created_on":"2019-12-26T06:38:42.148264+05:45"},{"idx":"uoYNJ77eqE2gUj9CyDBP3d","contest":"Model Superstar","episode":"Model Superstar","category":null,"contestant":{"voting_id":"22","name":"Sunil Laudrey"},"vote_count":1,"created_on":"2019-12-26T06:00:02.866655+05:45"},{"idx":"5xZTDWxAtEGEmeaTWyibuM","contest":"Model Superstar","episode":"Model Superstar","category":null,"contestant":{"voting_id":"22","name":"Sunil Laudrey"},"vote_count":1,"created_on":"2019-12-26T05:59:25.845840+05:45"},{"idx":"iEkYFeye3GMezd4LPbvrLk","contest":"Model Superstar","episode":"Model Superstar","category":null,"contestant":{"voting_id":"22","name":"Sunil Laudrey"},"vote_count":1,"created_on":"2019-12-26T05:58:47.256071+05:45"},{"idx":"GezWjv4kNqFTMjwGUUzqMj","contest":"Model Superstar","episode":"Model Superstar","category":null,"contestant":{"voting_id":"04","name":"Sabita Maharjan"},"vote_count":1,"created_on":"2019-12-26T02:56:07.919070+05:45"},{"idx":"9vD9cfMXttkDuhyJwHUPmN","contest":"Model Superstar","episode":"Model Superstar","category":null,"contestant":{"voting_id":"06","name":"Sujan Basnet"},"vote_count":1,"created_on":"2019-12-26T00:23:44.934743+05:45"},{"idx":"CmpUSuY6QLQyvZkVYLHXMn","contest":"Model Superstar","episode":"Model Superstar","category":null,"contestant":{"voting_id":"24","name":"Elin Raut"},"vote_count":1,"created_on":"2019-12-26T00:01:02.812804+05:45"},{"idx":"JkGCnv85WP93LLpQCgRz73","contest":"Model Superstar","episode":"Model Superstar","category":null,"contestant":{"voting_id":"05","name":"Asmita Thapa Magar"},"vote_count":1,"created_on":"2019-12-25T23:21:28.543535+05:45"},{"idx":"SYdrmKScEeNn4jKGXXx25o","contest":"NEPALBHASA STAR MUSIC VIDEO AWARDS-2019","episode":null,"category":"BEST MUSIC VIDEO","contestant":{"voting_id":"1I","name":"Raj kumar Manandhar"},"vote_count":1,"created_on":"2019-12-25T23:20:55.460957+05:45"},{"idx":"GpCXY7cGNUsKVVFNCRYrEN","contest":"NEPALBHASA STAR MUSIC VIDEO AWARDS-2019","episode":null,"category":"THE RISING STAR SINGER","contestant":{"voting_id":"21D","name":"Krishna Maharjan"},"vote_count":1,"created_on":"2019-12-25T23:20:06.831143+05:45"},{"idx":"dTnXahVcNVAVuXAyd4icPb","contest":"Model Superstar","episode":"Model Superstar","category":null,"contestant":{"voting_id":"14","name":"Ashish Shakya"},"vote_count":1,"created_on":"2019-12-25T23:17:02.237086+05:45"},{"idx":"bMUM7gC64hgmN3KiaQUo62","contest":"Model Superstar","episode":"Model Superstar","category":null,"contestant":{"voting_id":"14","name":"Ashish Shakya"},"vote_count":1,"created_on":"2019-12-25T23:16:49.365744+05:45"},{"idx":"rowJ8ZgdXyXzbEYLhaBSVV","contest":"Model Superstar","episode":"Model Superstar","category":null,"contestant":{"voting_id":"14","name":"Ashish Shakya"},"vote_count":1,"created_on":"2019-12-25T23:16:37.989133+05:45"},{"idx":"i5LdeGcnin4tqJKAEsHiH3","contest":"Model Superstar","episode":"Model Superstar","category":null,"contestant":{"voting_id":"14","name":"Ashish Shakya"},"vote_count":1,"created_on":"2019-12-25T23:16:24.976918+05:45"},{"idx":"2tMQ7FJgoJC3iifZQWgWnP","contest":"Model Superstar","episode":"Model Superstar","category":null,"contestant":{"voting_id":"14","name":"Ashish Shakya"},"vote_count":1,"created_on":"2019-12-25T23:16:13.136171+05:45"},{"idx":"nDf4JdvAm54i75A3pxJAcM","contest":"Model Superstar","episode":"Model Superstar","category":null,"contestant":{"voting_id":"14","name":"Ashish Shakya"},"vote_count":1,"created_on":"2019-12-25T23:16:01.641366+05:45"},{"idx":"e6bgR8insXhS6s2DnpYbe4","contest":"Model Superstar","episode":"Model Superstar","category":null,"contestant":{"voting_id":"14","name":"Ashish Shakya"},"vote_count":1,"created_on":"2019-12-25T23:15:46.323910+05:45"},{"idx":"Mhb5S2jq58byeoKTZJuqeh","contest":"Model Superstar","episode":"Model Superstar","category":null,"contestant":{"voting_id":"14","name":"Ashish Shakya"},"vote_count":1,"created_on":"2019-12-25T23:15:33.379850+05:45"},{"idx":"bBvbTVP8BLPeqvhjzFYr4C","contest":"Model Superstar","episode":"Model Superstar","category":null,"contestant":{"voting_id":"14","name":"Ashish Shakya"},"vote_count":1,"created_on":"2019-12-25T23:15:12.502716+05:45"},{"idx":"TE5sauGEJ3dGKQErRTEGWQ","contest":"Model Superstar","episode":"Model Superstar","category":null,"contestant":{"voting_id":"14","name":"Ashish Shakya"},"vote_count":1,"created_on":"2019-12-25T23:15:00.459311+05:45"},{"idx":"TJyi3PQ7UHQZm2tYTNAdA7","contest":"Model Superstar","episode":"Model Superstar","category":null,"contestant":{"voting_id":"14","name":"Ashish Shakya"},"vote_count":1,"created_on":"2019-12-25T23:14:40.808318+05:45"},{"idx":"Umc9by4o86GGj6sHAMm3zh","contest":"Model Superstar","episode":"Model Superstar","category":null,"contestant":{"voting_id":"14","name":"Ashish Shakya"},"vote_count":1,"created_on":"2019-12-25T23:14:26.989780+05:45"},{"idx":"Hjr3r4EHBCfmJZytaa5jkF","contest":"Model Superstar","episode":"Model Superstar","category":null,"contestant":{"voting_id":"14","name":"Ashish Shakya"},"vote_count":1,"created_on":"2019-12-25T23:14:13.403031+05:45"},{"idx":"2te7KS9AvA6ZYnD7vdJJBf","contest":"Model Superstar","episode":"Model Superstar","category":null,"contestant":{"voting_id":"14","name":"Ashish Shakya"},"vote_count":1,"created_on":"2019-12-25T23:13:23.551140+05:45"},{"idx":"HEn7r7gsacNcRrvj9Aby2g","contest":"Model Superstar","episode":"Model Superstar","category":null,"contestant":{"voting_id":"14","name":"Ashish Shakya"},"vote_count":1,"created_on":"2019-12-25T23:13:05.219811+05:45"},{"idx":"Y3EgbtJ5asQYyyr7TPkTkF","contest":"Model Superstar","episode":"Model Superstar","category":null,"contestant":{"voting_id":"14","name":"Ashish Shakya"},"vote_count":1,"created_on":"2019-12-25T23:12:53.370478+05:45"},{"idx":"NqgL3JdBYXwgt4BtbvZqnn","contest":"Model Superstar","episode":"Model Superstar","category":null,"contestant":{"voting_id":"14","name":"Ashish Shakya"},"vote_count":1,"created_on":"2019-12-25T23:12:40.899644+05:45"},{"idx":"FH8e57LQPXgMpnQDug8eBc","contest":"Model Superstar","episode":"Model Superstar","category":null,"contestant":{"voting_id":"14","name":"Ashish Shakya"},"vote_count":1,"created_on":"2019-12-25T23:12:27.733644+05:45"},{"idx":"RNkYPpEQ7T4SMhYivZBzBJ","contest":"Model Superstar","episode":"Model Superstar","category":null,"contestant":{"voting_id":"14","name":"Ashish Shakya"},"vote_count":1,"created_on":"2019-12-25T23:12:13.805978+05:45"},{"idx":"dsAnzv4p4ZPqRN5KtDN6TZ","contest":"Model Superstar","episode":"Model Superstar","category":null,"contestant":{"voting_id":"14","name":"Ashish Shakya"},"vote_count":1,"created_on":"2019-12-25T23:11:58.717030+05:45"},{"idx":"VheyFZhEPV7dwFEs8pgk6d","contest":"Model Superstar","episode":"Model Superstar","category":null,"contestant":{"voting_id":"14","name":"Ashish Shakya"},"vote_count":1,"created_on":"2019-12-25T23:11:46.608621+05:45"},{"idx":"UugACQbokLMYjRBncwUBYV","contest":"Model Superstar","episode":"Model Superstar","category":null,"contestant":{"voting_id":"14","name":"Ashish Shakya"},"vote_count":1,"created_on":"2019-12-25T23:11:34.191157+05:45"},{"idx":"mgWYep6Y8jwJJa2MMJVWZd","contest":"Model Superstar","episode":"Model Superstar","category":null,"contestant":{"voting_id":"14","name":"Ashish Shakya"},"vote_count":1,"created_on":"2019-12-25T23:11:19.959918+05:45"},{"idx":"7miQcRSkfapsiSRae77uKF","contest":"Model Superstar","episode":"Model Superstar","category":null,"contestant":{"voting_id":"14","name":"Ashish Shakya"},"vote_count":1,"created_on":"2019-12-25T23:11:05.172594+05:45"},{"idx":"7VWPdWgHT2iyrqTtFXYCQE","contest":"Model Superstar","episode":"Model Superstar","category":null,"contestant":{"voting_id":"14","name":"Ashish Shakya"},"vote_count":1,"created_on":"2019-12-25T23:10:50.718216+05:45"},{"idx":"uaZEFpJRm2JB6FMDncsv5d","contest":"Model Superstar","episode":"Model Superstar","category":null,"contestant":{"voting_id":"14","name":"Ashish Shakya"},"vote_count":1,"created_on":"2019-12-25T23:10:37.777726+05:45"},{"idx":"9ebrtUqaohqUpnyUPwA8SA","contest":"Model Superstar","episode":"Model Superstar","category":null,"contestant":{"voting_id":"14","name":"Ashish Shakya"},"vote_count":1,"created_on":"2019-12-25T23:10:24.855858+05:45"},{"idx":"FQqA6ojCfbBqFRZcv9TdDi","contest":"Model Superstar","episode":"Model Superstar","category":null,"contestant":{"voting_id":"14","name":"Ashish Shakya"},"vote_count":1,"created_on":"2019-12-25T23:10:09.824053+05:45"},{"idx":"zhfDCRVEPav4hkDxMiZbxb","contest":"Model Superstar","episode":"Model Superstar","category":null,"contestant":{"voting_id":"14","name":"Ashish Shakya"},"vote_count":1,"created_on":"2019-12-25T23:09:55.185580+05:45"},{"idx":"hakpYydt9kGpwm4AkrzfWL","contest":"Model Superstar","episode":"Model Superstar","category":null,"contestant":{"voting_id":"14","name":"Ashish Shakya"},"vote_count":1,"created_on":"2019-12-25T23:09:40.873018+05:45"},{"idx":"wtbcCDLSrAVFEmUtXJKDx6","contest":"Model Superstar","episode":"Model Superstar","category":null,"contestant":{"voting_id":"14","name":"Ashish Shakya"},"vote_count":1,"created_on":"2019-12-25T23:09:26.673305+05:45"},{"idx":"ze3F3Vavqbg2YrQiMuQFWB","contest":"Model Superstar","episode":"Model Superstar","category":null,"contestant":{"voting_id":"14","name":"Ashish Shakya"},"vote_count":1,"created_on":"2019-12-25T23:09:10.520531+05:45"},{"idx":"jVzVmrUDxCTrSXKHpsDZhP","contest":"Model Superstar","episode":"Model Superstar","category":null,"contestant":{"voting_id":"14","name":"Ashish Shakya"},"vote_count":1,"created_on":"2019-12-25T23:08:55.213385+05:45"},{"idx":"cG3D3VeFf8YQjk5c6uTkmd","contest":"Model Superstar","episode":"Model Superstar","category":null,"contestant":{"voting_id":"14","name":"Ashish Shakya"},"vote_count":1,"created_on":"2019-12-25T23:08:40.115764+05:45"},{"idx":"4WRzqVNcYK99qRjPX3dm6Y","contest":"Model Superstar","episode":"Model Superstar","category":null,"contestant":{"voting_id":"14","name":"Ashish Shakya"},"vote_count":1,"created_on":"2019-12-25T23:08:17.914753+05:45"},{"idx":"5RAdXJUgbdHQQy3YXVa9Fn","contest":"Model Superstar","episode":"Model Superstar","category":null,"contestant":{"voting_id":"14","name":"Ashish Shakya"},"vote_count":1,"created_on":"2019-12-25T23:07:59.642429+05:45"},{"idx":"TgK9sBtMYjsgL9vouxauek","contest":"Model Superstar","episode":"Model Superstar","category":null,"contestant":{"voting_id":"27","name":"Suweta Shrestha"},"vote_count":5,"created_on":"2019-12-25T23:06:34.651274+05:45"},{"idx":"fQLfQydgFbmGsG3W53xrfj","contest":"Model Superstar","episode":"Model Superstar","category":null,"contestant":{"voting_id":"23","name":"Prishu Gurung"},"vote_count":1,"created_on":"2019-12-25T22:53:30.929031+05:45"},{"idx":"6ASSj5JVMx6VnmVTBB9d2A","contest":"Model Superstar","episode":"Model Superstar","category":null,"contestant":{"voting_id":"23","name":"Prishu Gurung"},"vote_count":1,"created_on":"2019-12-25T22:52:40.695832+05:45"}]}