{"total_pages":275,"total_records":13717,"next":"https://khalti.com/api/v2/vuservote/?page=23","previous":"https://khalti.com/api/v2/vuservote/?page=21","record_range":[1051,1100],"current_page":22,"records":[{"idx":"Ea6kW3PSXpmB5njkKFdQrV","contest":"Locus 2020","episode":"Locus 2020","category":null,"contestant":{"voting_id":"08","name":"Project A Smart Approach Towards Lifestyle in Nepal"},"vote_count":1,"created_on":"2020-02-01T09:14:32.663311+05:45"},{"idx":"bdtfSBJ5DHeNpA5zLjmwzi","contest":"Music Eve 2020","episode":"Music Eve 2020 IOE","category":null,"contestant":{"voting_id":"07","name":"Chemical Latch"},"vote_count":1,"created_on":"2020-02-01T09:04:56.152566+05:45"},{"idx":"qwepXEn3wWfsPXb6jwZ9jd","contest":"Locus 2020","episode":"Locus 2020","category":null,"contestant":{"voting_id":"32","name":"Project Health and Environment Checker"},"vote_count":1,"created_on":"2020-02-01T09:04:27.246713+05:45"},{"idx":"qc7PWf5DD3aJU9aTHuw6FF","contest":"Locus 2020","episode":"Locus 2020","category":null,"contestant":{"voting_id":"32","name":"Project Health and Environment Checker"},"vote_count":1,"created_on":"2020-02-01T08:59:08.978524+05:45"},{"idx":"mVVkd5PAMDgsGcUm5jJcBk","contest":"Locus 2020","episode":"Locus 2020","category":null,"contestant":{"voting_id":"32","name":"Project Health and Environment Checker"},"vote_count":1,"created_on":"2020-02-01T08:58:02.631843+05:45"},{"idx":"mmoQA4uaDJWJpUHJKxeSJg","contest":"Locus 2020","episode":"Locus 2020","category":null,"contestant":{"voting_id":"32","name":"Project Health and Environment Checker"},"vote_count":1,"created_on":"2020-02-01T08:56:42.097497+05:45"},{"idx":"ahUCqo72SXJkyFmgMMgfre","contest":"Locus 2020","episode":"Locus 2020","category":null,"contestant":{"voting_id":"08","name":"Project A Smart Approach Towards Lifestyle in Nepal"},"vote_count":1,"created_on":"2020-02-01T08:55:06.195114+05:45"},{"idx":"y976uEsRntwPLYGjC79Qdi","contest":"Locus 2020","episode":"Locus 2020","category":null,"contestant":{"voting_id":"32","name":"Project Health and Environment Checker"},"vote_count":1,"created_on":"2020-02-01T08:52:29.548383+05:45"},{"idx":"ByD7ohR3kUtthdLCZ9Q4We","contest":"Music Eve 2020","episode":"Music Eve 2020 IOE","category":null,"contestant":{"voting_id":"07","name":"Chemical Latch"},"vote_count":1,"created_on":"2020-02-01T08:51:28.261571+05:45"},{"idx":"tt5fJTUeXUQZrCyP8FQTyk","contest":"Locus 2020","episode":"Locus 2020","category":null,"contestant":{"voting_id":"08","name":"Project A Smart Approach Towards Lifestyle in Nepal"},"vote_count":1,"created_on":"2020-02-01T08:49:53.675002+05:45"},{"idx":"WQrWAKc53tvRWHiomPDLi2","contest":"Locus 2020","episode":"Locus 2020","category":null,"contestant":{"voting_id":"31","name":"Project 3 in 1 Cartesian 3D Printer"},"vote_count":1,"created_on":"2020-02-01T08:38:02.076896+05:45"},{"idx":"dEvyroHcAhbfn7ccqaq2s7","contest":"Locus 2020","episode":"Locus 2020","category":null,"contestant":{"voting_id":"31","name":"Project 3 in 1 Cartesian 3D Printer"},"vote_count":1,"created_on":"2020-02-01T08:32:30.091025+05:45"},{"idx":"TRfVCBoZbFceuxFGyN5mB8","contest":"Music Eve 2020","episode":"Music Eve 2020 IOE","category":null,"contestant":{"voting_id":"07","name":"Chemical Latch"},"vote_count":1,"created_on":"2020-02-01T08:32:08.408310+05:45"},{"idx":"6vm9JisJjSBCGDb5ZZpyd5","contest":"Locus 2020","episode":"Locus 2020","category":null,"contestant":{"voting_id":"32","name":"Project Health and Environment Checker"},"vote_count":1,"created_on":"2020-02-01T08:27:40.616930+05:45"},{"idx":"KGwzFVFrK96RTeDqfwfSq7","contest":"Locus 2020","episode":"Locus 2020","category":null,"contestant":{"voting_id":"32","name":"Project Health and Environment Checker"},"vote_count":1,"created_on":"2020-02-01T08:27:36.817918+05:45"},{"idx":"zLzRVrfmA3uNpKAVxBz4Eg","contest":"Locus 2020","episode":"Locus 2020","category":null,"contestant":{"voting_id":"08","name":"Project A Smart Approach Towards Lifestyle in Nepal"},"vote_count":1,"created_on":"2020-02-01T08:21:35.508454+05:45"},{"idx":"qH8yQbuooTfrZrKZKCChDZ","contest":"Locus 2020","episode":"Locus 2020","category":null,"contestant":{"voting_id":"32","name":"Project Health and Environment Checker"},"vote_count":1,"created_on":"2020-02-01T08:17:01.853112+05:45"},{"idx":"DydWELEh3pbmN7VYQxWJuH","contest":"Locus 2020","episode":"Locus 2020","category":null,"contestant":{"voting_id":"08","name":"Project A Smart Approach Towards Lifestyle in Nepal"},"vote_count":1,"created_on":"2020-02-01T08:16:46.244994+05:45"},{"idx":"ibt8yeJ2KkPyjFKcfFhEd4","contest":"Locus 2020","episode":"Locus 2020","category":null,"contestant":{"voting_id":"17","name":"Project EN SAT"},"vote_count":1,"created_on":"2020-02-01T08:13:21.919949+05:45"},{"idx":"X3iJMhmtSP2hSG86uBq8gZ","contest":"Locus 2020","episode":"Locus 2020","category":null,"contestant":{"voting_id":"12","name":"Project Green City"},"vote_count":1,"created_on":"2020-02-01T08:07:58.183955+05:45"},{"idx":"jPaTxJksdfGnJDdJ6mgtBN","contest":"Locus 2020","episode":"Locus 2020","category":null,"contestant":{"voting_id":"32","name":"Project Health and Environment Checker"},"vote_count":1,"created_on":"2020-02-01T08:06:41.037171+05:45"},{"idx":"vMmHPcC2p6d374vEvrPgU9","contest":"Music Eve 2020","episode":"Music Eve 2020 IOE","category":null,"contestant":{"voting_id":"21","name":"Suvharamba"},"vote_count":1,"created_on":"2020-02-01T07:46:27.004200+05:45"},{"idx":"W6zFxxwpK7hpxu4ydDdyTo","contest":"Model Superstar","episode":"Model Superstar Finale","category":null,"contestant":{"voting_id":"12","name":"Rabin Ghising"},"vote_count":1,"created_on":"2020-02-01T07:41:58.338097+05:45"},{"idx":"JMmMTatrCiGiPvAWCoUf27","contest":"Locus 2020","episode":"Locus 2020","category":null,"contestant":{"voting_id":"32","name":"Project Health and Environment Checker"},"vote_count":1,"created_on":"2020-02-01T07:38:13.308668+05:45"},{"idx":"whJtxiUZdSMeo2gU9RxzV5","contest":"Locus 2020","episode":"Locus 2020","category":null,"contestant":{"voting_id":"01","name":"Project Fire Robo"},"vote_count":1,"created_on":"2020-02-01T07:14:24.027651+05:45"},{"idx":"wJbMfLLgwvJjbjipCTntLN","contest":"Locus 2020","episode":"Locus 2020","category":null,"contestant":{"voting_id":"32","name":"Project Health and Environment Checker"},"vote_count":1,"created_on":"2020-02-01T07:08:07.805253+05:45"},{"idx":"D5kLvYg5PZ7D6m4Xg4PrS8","contest":"Music Eve 2020","episode":"Music Eve 2020 IOE","category":null,"contestant":{"voting_id":"07","name":"Chemical Latch"},"vote_count":1,"created_on":"2020-02-01T06:59:18.326263+05:45"},{"idx":"hzNJMyVwgCuamjHAtL8zBj","contest":"Model Superstar","episode":"Model Superstar Finale","category":null,"contestant":{"voting_id":"04","name":"Sabita Maharjan"},"vote_count":1,"created_on":"2020-02-01T06:58:42.928104+05:45"},{"idx":"6px29BFwJbwQXG5e8WhefP","contest":"Locus 2020","episode":"Locus 2020","category":null,"contestant":{"voting_id":"32","name":"Project Health and Environment Checker"},"vote_count":1,"created_on":"2020-02-01T06:57:25.621700+05:45"},{"idx":"Q6RR9rSLwo5P4V8tJz2LmD","contest":"Locus 2020","episode":"Locus 2020","category":null,"contestant":{"voting_id":"32","name":"Project Health and Environment Checker"},"vote_count":1,"created_on":"2020-02-01T06:55:27.482693+05:45"},{"idx":"aN487VAykPmUtooEUhqDg2","contest":"Locus 2020","episode":"Locus 2020","category":null,"contestant":{"voting_id":"32","name":"Project Health and Environment Checker"},"vote_count":1,"created_on":"2020-02-01T06:54:40.860897+05:45"},{"idx":"iE4FgDwmdfhD6rUGvfuX4o","contest":"Model Superstar","episode":"Model Superstar Finale","category":null,"contestant":{"voting_id":"03","name":"Smriti Shah"},"vote_count":1,"created_on":"2020-02-01T04:56:03.185682+05:45"},{"idx":"h6Y3WFymXxEQnTYupsyjv7","contest":"Model Superstar","episode":"Model Superstar Finale","category":null,"contestant":{"voting_id":"03","name":"Smriti Shah"},"vote_count":1,"created_on":"2020-02-01T04:52:27.057790+05:45"},{"idx":"5kqEzVW9kYafxMBq4RpVGf","contest":"Music Eve 2020","episode":"Music Eve 2020 IOE","category":null,"contestant":{"voting_id":"23","name":"The Acoustic Aero"},"vote_count":1,"created_on":"2020-02-01T02:14:02.314131+05:45"},{"idx":"6oDY7dacDPyvgerckvcKdF","contest":"Model Superstar","episode":"Model Superstar Finale","category":null,"contestant":{"voting_id":"04","name":"Sabita Maharjan"},"vote_count":1,"created_on":"2020-02-01T01:30:23.610962+05:45"},{"idx":"ZEThMQbri29TpmgKKsFqWb","contest":"Locus 2020","episode":"Locus 2020","category":null,"contestant":{"voting_id":"21","name":"Project Mero Smart Farm"},"vote_count":1,"created_on":"2020-02-01T01:07:43.434237+05:45"},{"idx":"mKLgdfNwYNY59vB8iJ94zi","contest":"Model Superstar","episode":"Model Superstar Finale","category":null,"contestant":{"voting_id":"04","name":"Sabita Maharjan"},"vote_count":1,"created_on":"2020-02-01T00:33:57.316301+05:45"},{"idx":"jgR2KhkqKq385MJNDmJKnQ","contest":"Model Superstar","episode":"Model Superstar Finale","category":null,"contestant":{"voting_id":"04","name":"Sabita Maharjan"},"vote_count":1,"created_on":"2020-02-01T00:33:09.261010+05:45"},{"idx":"CmWr5sMVwUcZvPBxta5zPf","contest":"Model Superstar","episode":"Model Superstar Finale","category":null,"contestant":{"voting_id":"04","name":"Sabita Maharjan"},"vote_count":1,"created_on":"2020-02-01T00:30:28.980213+05:45"},{"idx":"p7TgLvJWbmoD5qUadYrQeD","contest":"Model Superstar","episode":"Model Superstar Finale","category":null,"contestant":{"voting_id":"04","name":"Sabita Maharjan"},"vote_count":1,"created_on":"2020-02-01T00:30:07.962014+05:45"},{"idx":"V5MAhAie8yFJ3AHxT5YwEB","contest":"Model Superstar","episode":"Model Superstar Finale","category":null,"contestant":{"voting_id":"04","name":"Sabita Maharjan"},"vote_count":1,"created_on":"2020-02-01T00:29:39.981263+05:45"},{"idx":"PEcRkTYvZSStnyhvjfftNR","contest":"Model Superstar","episode":"Model Superstar Finale","category":null,"contestant":{"voting_id":"04","name":"Sabita Maharjan"},"vote_count":1,"created_on":"2020-02-01T00:29:14.012157+05:45"},{"idx":"73dQx6KieYcPyNMxUFanG3","contest":"Model Superstar","episode":"Model Superstar Finale","category":null,"contestant":{"voting_id":"02","name":"Srijana Basnet"},"vote_count":1,"created_on":"2020-02-01T00:28:42.396293+05:45"},{"idx":"gSN7kTkMfr2tc4wpMS3BMj","contest":"Model Superstar","episode":"Model Superstar Finale","category":null,"contestant":{"voting_id":"04","name":"Sabita Maharjan"},"vote_count":1,"created_on":"2020-02-01T00:28:06.928194+05:45"},{"idx":"gPqBMiXcELuABU3gBnamZH","contest":"Model Superstar","episode":"Model Superstar Finale","category":null,"contestant":{"voting_id":"04","name":"Sabita Maharjan"},"vote_count":1,"created_on":"2020-02-01T00:27:44.987521+05:45"},{"idx":"mThw6t7S6DMPsEt55XC4AW","contest":"Locus 2020","episode":"Locus 2020","category":null,"contestant":{"voting_id":"42","name":"Project P.I.M.P."},"vote_count":1,"created_on":"2020-01-31T23:52:16.946016+05:45"},{"idx":"fQihGdanV8PTRTXSaxCTXK","contest":"Locus 2020","episode":"Locus 2020","category":null,"contestant":{"voting_id":"66","name":"Project Alexa Pi"},"vote_count":25,"created_on":"2020-01-31T23:16:36.900036+05:45"},{"idx":"GtWU7UjA3CHtsRyQZ2pAcg","contest":"Locus 2020","episode":"Locus 2020","category":null,"contestant":{"voting_id":"66","name":"Project Alexa Pi"},"vote_count":1,"created_on":"2020-01-31T23:14:18.327258+05:45"},{"idx":"Vcr56JEZ6ZGDWENKhYTDCY","contest":"Locus 2020","episode":"Locus 2020","category":null,"contestant":{"voting_id":"42","name":"Project P.I.M.P."},"vote_count":1,"created_on":"2020-01-31T23:13:09.500761+05:45"},{"idx":"YATsiWMtLvPP4Wvv6iZiWA","contest":"Locus 2020","episode":"Locus 2020","category":null,"contestant":{"voting_id":"66","name":"Project Alexa Pi"},"vote_count":1,"created_on":"2020-01-31T23:11:08.469834+05:45"}]}