{"total_pages":275,"total_records":13721,"next":"https://khalti.com/api/v2/vuservote/?page=221","previous":"https://khalti.com/api/v2/vuservote/?page=219","record_range":[10951,11000],"current_page":220,"records":[{"idx":"W9ePUVqEQTebpbE7t5G5yn","contest":"Model Superstar","episode":"Model Superstar","category":null,"contestant":{"voting_id":"07","name":"Narman Malla"},"vote_count":1,"created_on":"2019-12-25T22:49:08.831512+05:45"},{"idx":"5APtqkrMZAoaytFFay6HFo","contest":"Model Superstar","episode":"Model Superstar","category":null,"contestant":{"voting_id":"07","name":"Narman Malla"},"vote_count":1,"created_on":"2019-12-25T22:48:56.621707+05:45"},{"idx":"K4CQtzWyDyQjvokWrFfd3a","contest":"Model Superstar","episode":"Model Superstar","category":null,"contestant":{"voting_id":"07","name":"Narman Malla"},"vote_count":1,"created_on":"2019-12-25T22:48:46.708482+05:45"},{"idx":"wv7tScRzzmRWnPms36LCGJ","contest":"Model Superstar","episode":"Model Superstar","category":null,"contestant":{"voting_id":"07","name":"Narman Malla"},"vote_count":1,"created_on":"2019-12-25T22:48:34.701299+05:45"},{"idx":"8CuNRR3DuiycWDQfT26Jy5","contest":"Model Superstar","episode":"Model Superstar","category":null,"contestant":{"voting_id":"07","name":"Narman Malla"},"vote_count":1,"created_on":"2019-12-25T22:48:24.811722+05:45"},{"idx":"JRtSL6XBGYTCYFWDYZxKiJ","contest":"Model Superstar","episode":"Model Superstar","category":null,"contestant":{"voting_id":"07","name":"Narman Malla"},"vote_count":1,"created_on":"2019-12-25T22:48:13.525770+05:45"},{"idx":"HZtGN6FA3aiAqe2gt4pbYg","contest":"Model Superstar","episode":"Model Superstar","category":null,"contestant":{"voting_id":"07","name":"Narman Malla"},"vote_count":1,"created_on":"2019-12-25T22:48:02.652523+05:45"},{"idx":"Rik7994hNxNpC5aBih2P4c","contest":"Model Superstar","episode":"Model Superstar","category":null,"contestant":{"voting_id":"07","name":"Narman Malla"},"vote_count":1,"created_on":"2019-12-25T22:47:51.316760+05:45"},{"idx":"DkfWytkNKQShKCv7Qy3LbP","contest":"Model Superstar","episode":"Model Superstar","category":null,"contestant":{"voting_id":"07","name":"Narman Malla"},"vote_count":1,"created_on":"2019-12-25T22:47:39.505458+05:45"},{"idx":"RFdQbcvuNWaZav6TNgUSmE","contest":"Model Superstar","episode":"Model Superstar","category":null,"contestant":{"voting_id":"07","name":"Narman Malla"},"vote_count":1,"created_on":"2019-12-25T22:47:28.422413+05:45"},{"idx":"eVhgUwSX54UhU65q7d5na3","contest":"Model Superstar","episode":"Model Superstar","category":null,"contestant":{"voting_id":"07","name":"Narman Malla"},"vote_count":1,"created_on":"2019-12-25T22:47:17.771766+05:45"},{"idx":"uG23Ka8csQg2vZnLgfiuiQ","contest":"Model Superstar","episode":"Model Superstar","category":null,"contestant":{"voting_id":"07","name":"Narman Malla"},"vote_count":1,"created_on":"2019-12-25T22:47:06.912252+05:45"},{"idx":"htVm38EpYWGHFTn8kf88tg","contest":"Model Superstar","episode":"Model Superstar","category":null,"contestant":{"voting_id":"07","name":"Narman Malla"},"vote_count":1,"created_on":"2019-12-25T22:46:54.125596+05:45"},{"idx":"hD3WhWbE5Zh92WqrUT93ba","contest":"Model Superstar","episode":"Model Superstar","category":null,"contestant":{"voting_id":"07","name":"Narman Malla"},"vote_count":1,"created_on":"2019-12-25T22:46:43.517608+05:45"},{"idx":"SVYwkawKa254KdbK7X8S59","contest":"Model Superstar","episode":"Model Superstar","category":null,"contestant":{"voting_id":"07","name":"Narman Malla"},"vote_count":1,"created_on":"2019-12-25T22:46:32.592176+05:45"},{"idx":"DfDB8TupYiZJqVhBrPvtP8","contest":"Model Superstar","episode":"Model Superstar","category":null,"contestant":{"voting_id":"07","name":"Narman Malla"},"vote_count":1,"created_on":"2019-12-25T22:46:18.976141+05:45"},{"idx":"iMFFowK9eUnCpjAiY7A9Qo","contest":"Model Superstar","episode":"Model Superstar","category":null,"contestant":{"voting_id":"07","name":"Narman Malla"},"vote_count":1,"created_on":"2019-12-25T22:46:04.726818+05:45"},{"idx":"rGP3TLyYXNqioNLM5Gfb8m","contest":"Model Superstar","episode":"Model Superstar","category":null,"contestant":{"voting_id":"07","name":"Narman Malla"},"vote_count":1,"created_on":"2019-12-25T22:45:53.852387+05:45"},{"idx":"x7v3H7ozfUwd4oQJ7nLZ2e","contest":"Model Superstar","episode":"Model Superstar","category":null,"contestant":{"voting_id":"16","name":"Anil Karki"},"vote_count":1,"created_on":"2019-12-25T22:45:52.118248+05:45"},{"idx":"JHtxpX3K9jE494Z3wToW8H","contest":"Model Superstar","episode":"Model Superstar","category":null,"contestant":{"voting_id":"07","name":"Narman Malla"},"vote_count":1,"created_on":"2019-12-25T22:45:41.525332+05:45"},{"idx":"8MUt7x759S83PTDicLcAw4","contest":"Model Superstar","episode":"Model Superstar","category":null,"contestant":{"voting_id":"07","name":"Narman Malla"},"vote_count":1,"created_on":"2019-12-25T22:45:29.807886+05:45"},{"idx":"cEFcW9ds97xTTpJuVUaodn","contest":"Model Superstar","episode":"Model Superstar","category":null,"contestant":{"voting_id":"07","name":"Narman Malla"},"vote_count":1,"created_on":"2019-12-25T22:45:16.285153+05:45"},{"idx":"EFJsoFfjkYoQAKx9MBBPTa","contest":"Model Superstar","episode":"Model Superstar","category":null,"contestant":{"voting_id":"07","name":"Narman Malla"},"vote_count":1,"created_on":"2019-12-25T22:45:04.975846+05:45"},{"idx":"GUpE44KDDqzxXoRzqKJLY3","contest":"Model Superstar","episode":"Model Superstar","category":null,"contestant":{"voting_id":"07","name":"Narman Malla"},"vote_count":1,"created_on":"2019-12-25T22:44:41.194389+05:45"},{"idx":"VVHfpkWzBJWdFXSj7vpPt9","contest":"Model Superstar","episode":"Model Superstar","category":null,"contestant":{"voting_id":"07","name":"Narman Malla"},"vote_count":1,"created_on":"2019-12-25T22:44:29.641174+05:45"},{"idx":"oCeg4zNLYRxBPXSFUUa9gi","contest":"Model Superstar","episode":"Model Superstar","category":null,"contestant":{"voting_id":"07","name":"Narman Malla"},"vote_count":1,"created_on":"2019-12-25T22:43:54.484146+05:45"},{"idx":"UaQnbesNT9HDQucGGNRsaj","contest":"Model Superstar","episode":"Model Superstar","category":null,"contestant":{"voting_id":"28","name":"Pujan Tamang"},"vote_count":5,"created_on":"2019-12-25T22:32:38.369491+05:45"},{"idx":"H6Y66utTDTdgLwJAgxiKWF","contest":"Model Superstar","episode":"Model Superstar","category":null,"contestant":{"voting_id":"28","name":"Pujan Tamang"},"vote_count":1,"created_on":"2019-12-25T22:26:46.525451+05:45"},{"idx":"RGZiupg36SJpzJCYxMB6nX","contest":"Model Superstar","episode":"Model Superstar","category":null,"contestant":{"voting_id":"16","name":"Anil Karki"},"vote_count":1,"created_on":"2019-12-25T22:26:40.186736+05:45"},{"idx":"iZeqPNF8z5HmHGWoHRHDx2","contest":"Model Superstar","episode":"Model Superstar","category":null,"contestant":{"voting_id":"16","name":"Anil Karki"},"vote_count":1,"created_on":"2019-12-25T22:26:12.086661+05:45"},{"idx":"Lna3PMAaZqCNpHocSboScL","contest":"Model Superstar","episode":"Model Superstar","category":null,"contestant":{"voting_id":"27","name":"Suweta Shrestha"},"vote_count":1,"created_on":"2019-12-25T22:25:49.127040+05:45"},{"idx":"matpe6BzXN6fA3KwepZyBo","contest":"Model Superstar","episode":"Model Superstar","category":null,"contestant":{"voting_id":"27","name":"Suweta Shrestha"},"vote_count":1,"created_on":"2019-12-25T22:25:47.457622+05:45"},{"idx":"rSCCC8mPLa8HwG5xmKm6qT","contest":"Model Superstar","episode":"Model Superstar","category":null,"contestant":{"voting_id":"27","name":"Suweta Shrestha"},"vote_count":1,"created_on":"2019-12-25T22:25:29.017097+05:45"},{"idx":"5KL6BwQuSWrLTHh522YFfi","contest":"Model Superstar","episode":"Model Superstar","category":null,"contestant":{"voting_id":"28","name":"Pujan Tamang"},"vote_count":1,"created_on":"2019-12-25T22:25:09.713778+05:45"},{"idx":"e3ajHbvVK4PjiM4LLmM4ah","contest":"Model Superstar","episode":"Model Superstar","category":null,"contestant":{"voting_id":"28","name":"Pujan Tamang"},"vote_count":1,"created_on":"2019-12-25T22:24:20.488868+05:45"},{"idx":"RoEoMvhjzMKJ2vXaz3mpEK","contest":"Model Superstar","episode":"Model Superstar","category":null,"contestant":{"voting_id":"28","name":"Pujan Tamang"},"vote_count":1,"created_on":"2019-12-25T22:24:09.323691+05:45"},{"idx":"4QVXyaXqaRzkNQy6y8FnH6","contest":"Model Superstar","episode":"Model Superstar","category":null,"contestant":{"voting_id":"28","name":"Pujan Tamang"},"vote_count":5,"created_on":"2019-12-25T22:23:14.956843+05:45"},{"idx":"oHYiihENAEqmjyYYfoPryf","contest":"Model Superstar","episode":"Model Superstar","category":null,"contestant":{"voting_id":"28","name":"Pujan Tamang"},"vote_count":1,"created_on":"2019-12-25T22:22:32.871105+05:45"},{"idx":"MHhrRtQh3mpbiKVYHNHrDk","contest":"Model Superstar","episode":"Model Superstar","category":null,"contestant":{"voting_id":"27","name":"Suweta Shrestha"},"vote_count":1,"created_on":"2019-12-25T22:20:25.655623+05:45"},{"idx":"etA8PEYqnchgnhLrTzrxNg","contest":"Model Superstar","episode":"Model Superstar","category":null,"contestant":{"voting_id":"28","name":"Pujan Tamang"},"vote_count":1,"created_on":"2019-12-25T22:20:08.629346+05:45"},{"idx":"u6XieLGYpupUSH7YyqPBx2","contest":"Model Superstar","episode":"Model Superstar","category":null,"contestant":{"voting_id":"27","name":"Suweta Shrestha"},"vote_count":1,"created_on":"2019-12-25T22:14:14.132449+05:45"},{"idx":"8DUocGxKvzKgaDQGZB9cKZ","contest":"Model Superstar","episode":"Model Superstar","category":null,"contestant":{"voting_id":"28","name":"Pujan Tamang"},"vote_count":1,"created_on":"2019-12-25T22:13:47.274054+05:45"},{"idx":"FSSR9F3Ni4kJo8bm54mLpa","contest":"Model Superstar","episode":"Model Superstar","category":null,"contestant":{"voting_id":"16","name":"Anil Karki"},"vote_count":1,"created_on":"2019-12-25T22:12:53.963871+05:45"},{"idx":"emvLh8vXsiLrXXB7B3uaTf","contest":"Model Superstar","episode":"Model Superstar","category":null,"contestant":{"voting_id":"16","name":"Anil Karki"},"vote_count":1,"created_on":"2019-12-25T22:11:55.918813+05:45"},{"idx":"8aoGnpbhjjKsdbqcAB7Quf","contest":"Model Superstar","episode":"Model Superstar","category":null,"contestant":{"voting_id":"16","name":"Anil Karki"},"vote_count":1,"created_on":"2019-12-25T22:11:05.217135+05:45"},{"idx":"ZGbLuSGDdqLvjfwzLm8TgU","contest":"Model Superstar","episode":"Model Superstar","category":null,"contestant":{"voting_id":"16","name":"Anil Karki"},"vote_count":1,"created_on":"2019-12-25T22:10:15.248069+05:45"},{"idx":"EspLrhckaBH6uzZeziZe4B","contest":"Model Superstar","episode":"Model Superstar","category":null,"contestant":{"voting_id":"16","name":"Anil Karki"},"vote_count":1,"created_on":"2019-12-25T22:09:15.090278+05:45"},{"idx":"nakL6Zq8cFJSNLcVM5yhCh","contest":"Model Superstar","episode":"Model Superstar","category":null,"contestant":{"voting_id":"14","name":"Ashish Shakya"},"vote_count":1,"created_on":"2019-12-25T21:36:01.667225+05:45"},{"idx":"RS2tnBervYZU5AScNdQNGM","contest":"Model Superstar","episode":"Model Superstar","category":null,"contestant":{"voting_id":"16","name":"Anil Karki"},"vote_count":1,"created_on":"2019-12-25T21:35:41.964986+05:45"},{"idx":"P8Cah3ixikqqMMKTecm2Q7","contest":"Model Superstar","episode":"Model Superstar","category":null,"contestant":{"voting_id":"14","name":"Ashish Shakya"},"vote_count":1,"created_on":"2019-12-25T20:59:32.958635+05:45"}]}