{"total_pages":275,"total_records":13721,"next":"https://khalti.com/api/v2/vuservote/?page=222","previous":"https://khalti.com/api/v2/vuservote/?page=220","record_range":[11001,11050],"current_page":221,"records":[{"idx":"FzQyxMqqfZowdfFcCwmVJ6","contest":"Model Superstar","episode":"Model Superstar","category":null,"contestant":{"voting_id":"14","name":"Ashish Shakya"},"vote_count":1,"created_on":"2019-12-25T20:58:37.992139+05:45"},{"idx":"2brZRGV226SF3TYK8wRCr6","contest":"Model Superstar","episode":"Model Superstar","category":null,"contestant":{"voting_id":"14","name":"Ashish Shakya"},"vote_count":1,"created_on":"2019-12-25T20:57:58.729109+05:45"},{"idx":"nKigzoxUn5Z6xsFBpywUVU","contest":"Model Superstar","episode":"Model Superstar","category":null,"contestant":{"voting_id":"14","name":"Ashish Shakya"},"vote_count":1,"created_on":"2019-12-25T20:56:54.695347+05:45"},{"idx":"nx6HhfPaoq4ZXxkWHTw78W","contest":"Model Superstar","episode":"Model Superstar","category":null,"contestant":{"voting_id":"14","name":"Ashish Shakya"},"vote_count":1,"created_on":"2019-12-25T20:56:08.421741+05:45"},{"idx":"rsTrihk9Fp239NtCrC2ru8","contest":"Model Superstar","episode":"Model Superstar","category":null,"contestant":{"voting_id":"14","name":"Ashish Shakya"},"vote_count":1,"created_on":"2019-12-25T20:55:41.881679+05:45"},{"idx":"bvrweHLysiByD2WiCLqMq8","contest":"Model Superstar","episode":"Model Superstar","category":null,"contestant":{"voting_id":"14","name":"Ashish Shakya"},"vote_count":1,"created_on":"2019-12-25T20:54:23.262525+05:45"},{"idx":"AGSo3xnznmNadNEJnxgFSj","contest":"Model Superstar","episode":"Model Superstar","category":null,"contestant":{"voting_id":"09","name":"Sagar Ghimire"},"vote_count":1,"created_on":"2019-12-25T20:51:19.953925+05:45"},{"idx":"sqKJDfd7QshgCdLpy9Qq78","contest":"Model Superstar","episode":"Model Superstar","category":null,"contestant":{"voting_id":"14","name":"Ashish Shakya"},"vote_count":1,"created_on":"2019-12-25T20:34:37.457226+05:45"},{"idx":"oEC8pyGNKSteCpUqiBGYKY","contest":"Model Superstar","episode":"Model Superstar","category":null,"contestant":{"voting_id":"14","name":"Ashish Shakya"},"vote_count":1,"created_on":"2019-12-25T20:34:06.064381+05:45"},{"idx":"touYugDEHZSeTVr6Wkw2QB","contest":"Model Superstar","episode":"Model Superstar","category":null,"contestant":{"voting_id":"14","name":"Ashish Shakya"},"vote_count":1,"created_on":"2019-12-25T20:33:30.929918+05:45"},{"idx":"zCEAWPpeeBnpMiZmTXTLfC","contest":"Model Superstar","episode":"Model Superstar","category":null,"contestant":{"voting_id":"07","name":"Narman Malla"},"vote_count":1,"created_on":"2019-12-25T20:30:24.251768+05:45"},{"idx":"2jpUN6NQqzKyvrWChgmP8T","contest":"Model Superstar","episode":"Model Superstar","category":null,"contestant":{"voting_id":"16","name":"Anil Karki"},"vote_count":1,"created_on":"2019-12-25T20:30:19.072524+05:45"},{"idx":"zR5xD8SwSPgV2DgSNL2xFm","contest":"Model Superstar","episode":"Model Superstar","category":null,"contestant":{"voting_id":"16","name":"Anil Karki"},"vote_count":1,"created_on":"2019-12-25T20:28:31.297588+05:45"},{"idx":"dcpkxmr23sEe3Efx5bfuTN","contest":"Model Superstar","episode":"Model Superstar","category":null,"contestant":{"voting_id":"07","name":"Narman Malla"},"vote_count":1,"created_on":"2019-12-25T20:27:55.206504+05:45"},{"idx":"ofTjvWRkhid2ZpFvCCNqbR","contest":"Model Superstar","episode":"Model Superstar","category":null,"contestant":{"voting_id":"07","name":"Narman Malla"},"vote_count":1,"created_on":"2019-12-25T20:26:40.320430+05:45"},{"idx":"4Q458FaDJD5bCiFBiUKayi","contest":"Model Superstar","episode":"Model Superstar","category":null,"contestant":{"voting_id":"07","name":"Narman Malla"},"vote_count":1,"created_on":"2019-12-25T20:25:48.426601+05:45"},{"idx":"8dhWvgzMaHYUnYPG5S3LJH","contest":"Model Superstar","episode":"Model Superstar","category":null,"contestant":{"voting_id":"16","name":"Anil Karki"},"vote_count":1,"created_on":"2019-12-25T20:23:54.405653+05:45"},{"idx":"tEUK6YEC2ndr8jnNrhnRpc","contest":"Model Superstar","episode":"Model Superstar","category":null,"contestant":{"voting_id":"07","name":"Narman Malla"},"vote_count":1,"created_on":"2019-12-25T20:23:13.046262+05:45"},{"idx":"Y4QqyhxfiPvrACgYMbgK6Z","contest":"Model Superstar","episode":"Model Superstar","category":null,"contestant":{"voting_id":"14","name":"Ashish Shakya"},"vote_count":1,"created_on":"2019-12-25T20:23:12.475408+05:45"},{"idx":"Tjy97EeBeRJqioXjeSdyiY","contest":"Model Superstar","episode":"Model Superstar","category":null,"contestant":{"voting_id":"14","name":"Ashish Shakya"},"vote_count":1,"created_on":"2019-12-25T20:22:27.727017+05:45"},{"idx":"HUFtx5BJXV9LV8FrmP8yNT","contest":"Model Superstar","episode":"Model Superstar","category":null,"contestant":{"voting_id":"14","name":"Ashish Shakya"},"vote_count":1,"created_on":"2019-12-25T20:22:05.350534+05:45"},{"idx":"VnLBBqaAZWcYeEBBR4qc6Y","contest":"Model Superstar","episode":"Model Superstar","category":null,"contestant":{"voting_id":"14","name":"Ashish Shakya"},"vote_count":1,"created_on":"2019-12-25T20:21:26.033393+05:45"},{"idx":"Egd5AfpXESVLH4brCckiAV","contest":"Model Superstar","episode":"Model Superstar","category":null,"contestant":{"voting_id":"14","name":"Ashish Shakya"},"vote_count":1,"created_on":"2019-12-25T20:21:02.082787+05:45"},{"idx":"nqgqQEZQSBKboRdpTvMv7Z","contest":"Model Superstar","episode":"Model Superstar","category":null,"contestant":{"voting_id":"14","name":"Ashish Shakya"},"vote_count":1,"created_on":"2019-12-25T20:20:38.678824+05:45"},{"idx":"k4jD9Vt3a2kpkpEdddFZoW","contest":"Model Superstar","episode":"Model Superstar","category":null,"contestant":{"voting_id":"14","name":"Ashish Shakya"},"vote_count":1,"created_on":"2019-12-25T20:20:17.394007+05:45"},{"idx":"46BekdmkqLagR6dfUQqbBd","contest":"Model Superstar","episode":"Model Superstar","category":null,"contestant":{"voting_id":"07","name":"Narman Malla"},"vote_count":1,"created_on":"2019-12-25T20:17:30.890195+05:45"},{"idx":"Mu7uVq3noVSNXKZaHH2fN3","contest":"Model Superstar","episode":"Model Superstar","category":null,"contestant":{"voting_id":"07","name":"Narman Malla"},"vote_count":1,"created_on":"2019-12-25T20:17:09.032347+05:45"},{"idx":"q59R7T3i96mu5jEqDRBDdZ","contest":"Model Superstar","episode":"Model Superstar","category":null,"contestant":{"voting_id":"07","name":"Narman Malla"},"vote_count":1,"created_on":"2019-12-25T20:16:59.256915+05:45"},{"idx":"HDhX5tLvLS5ZBG7E9Zu9uh","contest":"Model Superstar","episode":"Model Superstar","category":null,"contestant":{"voting_id":"07","name":"Narman Malla"},"vote_count":1,"created_on":"2019-12-25T20:16:43.414201+05:45"},{"idx":"t9DSGsQrMWaEr9yiZGJWtB","contest":"Model Superstar","episode":"Model Superstar","category":null,"contestant":{"voting_id":"07","name":"Narman Malla"},"vote_count":1,"created_on":"2019-12-25T20:16:41.728168+05:45"},{"idx":"WTZAmp6gzQ3NiVYYAgaWVc","contest":"Model Superstar","episode":"Model Superstar","category":null,"contestant":{"voting_id":"07","name":"Narman Malla"},"vote_count":1,"created_on":"2019-12-25T20:16:25.317245+05:45"},{"idx":"7EKE9zdYrJfcvPMzfYR7PE","contest":"Model Superstar","episode":"Model Superstar","category":null,"contestant":{"voting_id":"07","name":"Narman Malla"},"vote_count":1,"created_on":"2019-12-25T20:16:10.033215+05:45"},{"idx":"ES2KktwMDnf7zLnXqDKQF3","contest":"Model Superstar","episode":"Model Superstar","category":null,"contestant":{"voting_id":"07","name":"Narman Malla"},"vote_count":1,"created_on":"2019-12-25T20:15:49.448728+05:45"},{"idx":"si8BY857ifHpKrXhKDHqNm","contest":"Model Superstar","episode":"Model Superstar","category":null,"contestant":{"voting_id":"16","name":"Anil Karki"},"vote_count":1,"created_on":"2019-12-25T20:13:47.512691+05:45"},{"idx":"MwRyEPCnehmPNnN4yeGnwU","contest":"Model Superstar","episode":"Model Superstar","category":null,"contestant":{"voting_id":"07","name":"Narman Malla"},"vote_count":1,"created_on":"2019-12-25T20:13:12.861977+05:45"},{"idx":"seFNTHVCYbUcoozbQi4r8G","contest":"Model Superstar","episode":"Model Superstar","category":null,"contestant":{"voting_id":"14","name":"Ashish Shakya"},"vote_count":1,"created_on":"2019-12-25T20:12:16.126219+05:45"},{"idx":"2mrGuY2eDZJgDk8iwJfHZB","contest":"Model Superstar","episode":"Model Superstar","category":null,"contestant":{"voting_id":"07","name":"Narman Malla"},"vote_count":1,"created_on":"2019-12-25T20:12:02.508944+05:45"},{"idx":"aTQogZYi6rNkKaVehHTPZQ","contest":"Model Superstar","episode":"Model Superstar","category":null,"contestant":{"voting_id":"14","name":"Ashish Shakya"},"vote_count":1,"created_on":"2019-12-25T20:11:57.441714+05:45"},{"idx":"vZfTgdjnBg6rZuK3i536VX","contest":"Model Superstar","episode":"Model Superstar","category":null,"contestant":{"voting_id":"07","name":"Narman Malla"},"vote_count":1,"created_on":"2019-12-25T20:11:40.318957+05:45"},{"idx":"ZBju27De2Hb8rRmWZ4YycG","contest":"Model Superstar","episode":"Model Superstar","category":null,"contestant":{"voting_id":"07","name":"Narman Malla"},"vote_count":1,"created_on":"2019-12-25T20:11:08.444569+05:45"},{"idx":"cEUAA2QgdLFwwTujYkuDTV","contest":"Model Superstar","episode":"Model Superstar","category":null,"contestant":{"voting_id":"14","name":"Ashish Shakya"},"vote_count":1,"created_on":"2019-12-25T20:11:07.365908+05:45"},{"idx":"c5XU97AxrusCjArTD3tv39","contest":"Model Superstar","episode":"Model Superstar","category":null,"contestant":{"voting_id":"07","name":"Narman Malla"},"vote_count":1,"created_on":"2019-12-25T20:10:50.497861+05:45"},{"idx":"27fWjgesvQyf8PTUfHrcme","contest":"Model Superstar","episode":"Model Superstar","category":null,"contestant":{"voting_id":"07","name":"Narman Malla"},"vote_count":1,"created_on":"2019-12-25T20:10:49.921788+05:45"},{"idx":"FiQ4swS4eEsTi4GXzqEBEc","contest":"Model Superstar","episode":"Model Superstar","category":null,"contestant":{"voting_id":"07","name":"Narman Malla"},"vote_count":1,"created_on":"2019-12-25T20:10:37.031290+05:45"},{"idx":"sDaFqABhWRrXUSoSEdpgFb","contest":"Model Superstar","episode":"Model Superstar","category":null,"contestant":{"voting_id":"14","name":"Ashish Shakya"},"vote_count":1,"created_on":"2019-12-25T20:10:29.382755+05:45"},{"idx":"EPHDtRYvzbbVkp9TpC8Fi6","contest":"Model Superstar","episode":"Model Superstar","category":null,"contestant":{"voting_id":"07","name":"Narman Malla"},"vote_count":1,"created_on":"2019-12-25T20:10:14.385599+05:45"},{"idx":"fWV9KrvjeHQrMBTtuW7FB7","contest":"Model Superstar","episode":"Model Superstar","category":null,"contestant":{"voting_id":"14","name":"Ashish Shakya"},"vote_count":1,"created_on":"2019-12-25T20:10:07.650251+05:45"},{"idx":"VLh7uUvpo5bUJkAZHMU4iT","contest":"Model Superstar","episode":"Model Superstar","category":null,"contestant":{"voting_id":"07","name":"Narman Malla"},"vote_count":1,"created_on":"2019-12-25T20:09:51.770130+05:45"},{"idx":"wrg7wmeJsf4frnRK8MTLyP","contest":"Model Superstar","episode":"Model Superstar","category":null,"contestant":{"voting_id":"07","name":"Narman Malla"},"vote_count":1,"created_on":"2019-12-25T20:09:45.950291+05:45"},{"idx":"gjJ2k8CXxGfyn3M96b8B75","contest":"Model Superstar","episode":"Model Superstar","category":null,"contestant":{"voting_id":"14","name":"Ashish Shakya"},"vote_count":1,"created_on":"2019-12-25T20:09:42.284902+05:45"}]}