{"total_pages":275,"total_records":13721,"next":"https://khalti.com/api/v2/vuservote/?page=223","previous":"https://khalti.com/api/v2/vuservote/?page=221","record_range":[11051,11100],"current_page":222,"records":[{"idx":"LYGqR8vo9jAzLT2KF2njsn","contest":"Model Superstar","episode":"Model Superstar","category":null,"contestant":{"voting_id":"07","name":"Narman Malla"},"vote_count":1,"created_on":"2019-12-25T20:09:31.578647+05:45"},{"idx":"raKruLUD9wDfwB25zyFwxY","contest":"Model Superstar","episode":"Model Superstar","category":null,"contestant":{"voting_id":"02","name":"Srijana Basnet"},"vote_count":1,"created_on":"2019-12-25T20:09:27.184171+05:45"},{"idx":"SDm8jhCGWdqto7HWVy2ach","contest":"Model Superstar","episode":"Model Superstar","category":null,"contestant":{"voting_id":"14","name":"Ashish Shakya"},"vote_count":1,"created_on":"2019-12-25T20:09:17.751797+05:45"},{"idx":"XU7qi2JJJZJJrYebGUaPDP","contest":"Model Superstar","episode":"Model Superstar","category":null,"contestant":{"voting_id":"07","name":"Narman Malla"},"vote_count":1,"created_on":"2019-12-25T20:09:15.067048+05:45"},{"idx":"7RbNYcYEQguUnjGo8aCFz3","contest":"Model Superstar","episode":"Model Superstar","category":null,"contestant":{"voting_id":"07","name":"Narman Malla"},"vote_count":1,"created_on":"2019-12-25T20:09:13.388685+05:45"},{"idx":"dAtHDW5mYGH3RssPuNw8VS","contest":"Model Superstar","episode":"Model Superstar","category":null,"contestant":{"voting_id":"14","name":"Ashish Shakya"},"vote_count":1,"created_on":"2019-12-25T20:09:04.345754+05:45"},{"idx":"yc5B2XyT62ZDsm22Ub4FDn","contest":"Model Superstar","episode":"Model Superstar","category":null,"contestant":{"voting_id":"07","name":"Narman Malla"},"vote_count":1,"created_on":"2019-12-25T20:08:34.974314+05:45"},{"idx":"PQFAbGyZ2uPjw8XGnSFKFZ","contest":"Model Superstar","episode":"Model Superstar","category":null,"contestant":{"voting_id":"14","name":"Ashish Shakya"},"vote_count":1,"created_on":"2019-12-25T20:08:30.905584+05:45"},{"idx":"dyySjQpLBJetYvZvvegxv6","contest":"Model Superstar","episode":"Model Superstar","category":null,"contestant":{"voting_id":"07","name":"Narman Malla"},"vote_count":1,"created_on":"2019-12-25T20:08:17.629347+05:45"},{"idx":"YW2wzd9qhh8bUj5VkgXXSN","contest":"Model Superstar","episode":"Model Superstar","category":null,"contestant":{"voting_id":"07","name":"Narman Malla"},"vote_count":1,"created_on":"2019-12-25T20:08:03.194202+05:45"},{"idx":"iPZmpxLarmT4uKcRWtr7MU","contest":"Model Superstar","episode":"Model Superstar","category":null,"contestant":{"voting_id":"14","name":"Ashish Shakya"},"vote_count":1,"created_on":"2019-12-25T20:07:57.777839+05:45"},{"idx":"PdWqLh4xSzHYC4mYkmLwU6","contest":"Model Superstar","episode":"Model Superstar","category":null,"contestant":{"voting_id":"14","name":"Ashish Shakya"},"vote_count":1,"created_on":"2019-12-25T20:07:36.570494+05:45"},{"idx":"2zoDZHCvyDJYfSrH9SBrD7","contest":"Model Superstar","episode":"Model Superstar","category":null,"contestant":{"voting_id":"07","name":"Narman Malla"},"vote_count":1,"created_on":"2019-12-25T20:07:22.891202+05:45"},{"idx":"HZvVRwVkDoczjsvpnssc9R","contest":"Model Superstar","episode":"Model Superstar","category":null,"contestant":{"voting_id":"14","name":"Ashish Shakya"},"vote_count":1,"created_on":"2019-12-25T20:07:14.595464+05:45"},{"idx":"2VnN26CrHaQS4gBALpGY3i","contest":"Model Superstar","episode":"Model Superstar","category":null,"contestant":{"voting_id":"07","name":"Narman Malla"},"vote_count":1,"created_on":"2019-12-25T20:07:10.313554+05:45"},{"idx":"QCK4SYRpFJanrnNsTjSESZ","contest":"Model Superstar","episode":"Model Superstar","category":null,"contestant":{"voting_id":"07","name":"Narman Malla"},"vote_count":1,"created_on":"2019-12-25T20:06:55.124414+05:45"},{"idx":"g3H86PRcdZjHYWVZACaBKN","contest":"Model Superstar","episode":"Model Superstar","category":null,"contestant":{"voting_id":"14","name":"Ashish Shakya"},"vote_count":1,"created_on":"2019-12-25T20:06:53.801560+05:45"},{"idx":"BM56oyprRsE4yLxN53smCd","contest":"Model Superstar","episode":"Model Superstar","category":null,"contestant":{"voting_id":"14","name":"Ashish Shakya"},"vote_count":1,"created_on":"2019-12-25T20:06:20.947709+05:45"},{"idx":"bCrts2TaizvJ3y7kEwEVJB","contest":"Model Superstar","episode":"Model Superstar","category":null,"contestant":{"voting_id":"07","name":"Narman Malla"},"vote_count":1,"created_on":"2019-12-25T20:05:48.906771+05:45"},{"idx":"yDVtG24mPWqFCUyNL9svrh","contest":"Model Superstar","episode":"Model Superstar","category":null,"contestant":{"voting_id":"14","name":"Ashish Shakya"},"vote_count":1,"created_on":"2019-12-25T20:05:36.167608+05:45"},{"idx":"5Pygb7S3BPTZYAYiBtBwNA","contest":"Model Superstar","episode":"Model Superstar","category":null,"contestant":{"voting_id":"07","name":"Narman Malla"},"vote_count":1,"created_on":"2019-12-25T20:05:31.197449+05:45"},{"idx":"SrTi7GZancA83M5Hk9EY48","contest":"Model Superstar","episode":"Model Superstar","category":null,"contestant":{"voting_id":"07","name":"Narman Malla"},"vote_count":1,"created_on":"2019-12-25T20:05:13.133732+05:45"},{"idx":"5QJ6bC7k5BCWFtt4yYFCFj","contest":"Model Superstar","episode":"Model Superstar","category":null,"contestant":{"voting_id":"07","name":"Narman Malla"},"vote_count":1,"created_on":"2019-12-25T20:04:58.873126+05:45"},{"idx":"F3z3PFo23HaYKib56LZDuH","contest":"Model Superstar","episode":"Model Superstar","category":null,"contestant":{"voting_id":"07","name":"Narman Malla"},"vote_count":1,"created_on":"2019-12-25T20:04:46.116812+05:45"},{"idx":"zcQMRQjAaJEcyuTVm9qBJh","contest":"Model Superstar","episode":"Model Superstar","category":null,"contestant":{"voting_id":"07","name":"Narman Malla"},"vote_count":1,"created_on":"2019-12-25T20:04:31.660692+05:45"},{"idx":"WZ9o2DpoMqRQDieRnH6R77","contest":"Model Superstar","episode":"Model Superstar","category":null,"contestant":{"voting_id":"07","name":"Narman Malla"},"vote_count":1,"created_on":"2019-12-25T20:04:16.974231+05:45"},{"idx":"WBSdoprU3JMUwqDhs6eyAL","contest":"Model Superstar","episode":"Model Superstar","category":null,"contestant":{"voting_id":"07","name":"Narman Malla"},"vote_count":1,"created_on":"2019-12-25T20:03:49.094159+05:45"},{"idx":"nhqWiPc4FyvCFbRd5VPijf","contest":"Model Superstar","episode":"Model Superstar","category":null,"contestant":{"voting_id":"07","name":"Narman Malla"},"vote_count":1,"created_on":"2019-12-25T20:03:35.369754+05:45"},{"idx":"jpJxQm5KvMrcm6zyrejUiC","contest":"Model Superstar","episode":"Model Superstar","category":null,"contestant":{"voting_id":"07","name":"Narman Malla"},"vote_count":1,"created_on":"2019-12-25T20:03:20.169032+05:45"},{"idx":"5NPZTcpDjgUFv98pPLCeDQ","contest":"Model Superstar","episode":"Model Superstar","category":null,"contestant":{"voting_id":"01","name":"Sajina Subba"},"vote_count":1,"created_on":"2019-12-25T19:51:59.914804+05:45"},{"idx":"Xmcg5KXE8CF4PSe94Nv4YP","contest":"Model Superstar","episode":"Model Superstar","category":null,"contestant":{"voting_id":"12","name":"Rabin Ghising"},"vote_count":1,"created_on":"2019-12-25T19:35:11.536283+05:45"},{"idx":"oiaqnTVRmuUydLCxH956MR","contest":"NEPALBHASA STAR MUSIC VIDEO AWARDS-2019","episode":null,"category":"BEST Singer,FEMALE","contestant":{"voting_id":"17A","name":"Deepa Maharjan"},"vote_count":1,"created_on":"2019-12-25T19:32:17.513789+05:45"},{"idx":"uWn9KU8JuUJW823rqbFxDZ","contest":"NEPALBHASA STAR MUSIC VIDEO AWARDS-2019","episode":null,"category":"BEST DANCE DIRECTOR","contestant":{"voting_id":"19A","name":"Gautam Tandukar"},"vote_count":1,"created_on":"2019-12-25T19:31:55.717883+05:45"},{"idx":"D7RLeTFtzRTuPrPCsvq8bM","contest":"NEPALBHASA STAR MUSIC VIDEO AWARDS-2019","episode":null,"category":"BEST DIRECTOR","contestant":{"voting_id":"20J","name":"Sonam Pakhrin"},"vote_count":1,"created_on":"2019-12-25T19:31:30.018690+05:45"},{"idx":"yEaLNmBNR5HpqsJ8XoHt6F","contest":"NEPALBHASA STAR MUSIC VIDEO AWARDS-2019","episode":null,"category":"THE RISING STAR SINGER","contestant":{"voting_id":"21E","name":"Purna Man Maharjan"},"vote_count":1,"created_on":"2019-12-25T19:30:16.171350+05:45"},{"idx":"JR2WKz9WZEnvLGjqSTx9d5","contest":"Model Superstar","episode":"Model Superstar","category":null,"contestant":{"voting_id":"11","name":"Rachana Karki"},"vote_count":1,"created_on":"2019-12-25T19:22:57.889574+05:45"},{"idx":"gKHEJXkRwcHW3LxUGGELRG","contest":"Model Superstar","episode":"Model Superstar","category":null,"contestant":{"voting_id":"07","name":"Narman Malla"},"vote_count":1,"created_on":"2019-12-25T19:20:35.126101+05:45"},{"idx":"gkCwKWKcreiG4eXCL2djRQ","contest":"Model Superstar","episode":"Model Superstar","category":null,"contestant":{"voting_id":"16","name":"Anil Karki"},"vote_count":1,"created_on":"2019-12-25T19:19:46.617006+05:45"},{"idx":"KhY6CBjcEFqDDQWvusg4UA","contest":"Model Superstar","episode":"Model Superstar","category":null,"contestant":{"voting_id":"12","name":"Rabin Ghising"},"vote_count":1,"created_on":"2019-12-25T19:19:42.526733+05:45"},{"idx":"HwWcXt42z2zZqeAd3oE4Hn","contest":"Model Superstar","episode":"Model Superstar","category":null,"contestant":{"voting_id":"12","name":"Rabin Ghising"},"vote_count":1,"created_on":"2019-12-25T19:19:29.027248+05:45"},{"idx":"gFzkLRfjsFWh5SwKyiDqp5","contest":"Model Superstar","episode":"Model Superstar","category":null,"contestant":{"voting_id":"12","name":"Rabin Ghising"},"vote_count":1,"created_on":"2019-12-25T19:19:13.196854+05:45"},{"idx":"8JVWhf4qcTKh5L8R6icJQM","contest":"Model Superstar","episode":"Model Superstar","category":null,"contestant":{"voting_id":"12","name":"Rabin Ghising"},"vote_count":1,"created_on":"2019-12-25T19:18:46.971467+05:45"},{"idx":"LECaWPn6MaMMg5CVCkNrM4","contest":"Model Superstar","episode":"Model Superstar","category":null,"contestant":{"voting_id":"12","name":"Rabin Ghising"},"vote_count":1,"created_on":"2019-12-25T19:18:26.650947+05:45"},{"idx":"ZYpVJQgYN7Dp4fsRJGxysH","contest":"Model Superstar","episode":"Model Superstar","category":null,"contestant":{"voting_id":"12","name":"Rabin Ghising"},"vote_count":1,"created_on":"2019-12-25T19:18:05.251040+05:45"},{"idx":"i8MJM4tFhuL6Yf8yRnJx87","contest":"Model Superstar","episode":"Model Superstar","category":null,"contestant":{"voting_id":"12","name":"Rabin Ghising"},"vote_count":1,"created_on":"2019-12-25T19:17:46.208105+05:45"},{"idx":"54gL7sJtJpYEnC95y7LF7P","contest":"Model Superstar","episode":"Model Superstar","category":null,"contestant":{"voting_id":"07","name":"Narman Malla"},"vote_count":1,"created_on":"2019-12-25T19:17:01.815214+05:45"},{"idx":"kjduHpDjEQx4ccVAnZPY2G","contest":"Model Superstar","episode":"Model Superstar","category":null,"contestant":{"voting_id":"16","name":"Anil Karki"},"vote_count":1,"created_on":"2019-12-25T19:13:01.279973+05:45"},{"idx":"iVJq6S5FKdTH8LwShswcwc","contest":"Model Superstar","episode":"Model Superstar","category":null,"contestant":{"voting_id":"16","name":"Anil Karki"},"vote_count":1,"created_on":"2019-12-25T19:12:48.437452+05:45"},{"idx":"J6FPJ6ho2QPt9Zrsgnxcjn","contest":"Model Superstar","episode":"Model Superstar","category":null,"contestant":{"voting_id":"16","name":"Anil Karki"},"vote_count":1,"created_on":"2019-12-25T19:11:24.896513+05:45"},{"idx":"8qcxQDkHTDt3ZyskfcM6rD","contest":"Model Superstar","episode":"Model Superstar","category":null,"contestant":{"voting_id":"16","name":"Anil Karki"},"vote_count":1,"created_on":"2019-12-25T19:09:47.557965+05:45"}]}