{"total_pages":275,"total_records":13721,"next":"https://khalti.com/api/v2/vuservote/?page=224","previous":"https://khalti.com/api/v2/vuservote/?page=222","record_range":[11101,11150],"current_page":223,"records":[{"idx":"tq54ZoFUncvXxSR2AuV8Xj","contest":"Model Superstar","episode":"Model Superstar","category":null,"contestant":{"voting_id":"16","name":"Anil Karki"},"vote_count":1,"created_on":"2019-12-25T19:09:01.482907+05:45"},{"idx":"kZ3AzQJCn8o9e24A76VYp2","contest":"Model Superstar","episode":"Model Superstar","category":null,"contestant":{"voting_id":"16","name":"Anil Karki"},"vote_count":1,"created_on":"2019-12-25T19:08:11.429169+05:45"},{"idx":"f4xU36dLSBWHXrqXptam8X","contest":"Model Superstar","episode":"Model Superstar","category":null,"contestant":{"voting_id":"16","name":"Anil Karki"},"vote_count":1,"created_on":"2019-12-25T19:06:30.144921+05:45"},{"idx":"maKp5Fzq6LERt9HJVfcWPX","contest":"Model Superstar","episode":"Model Superstar","category":null,"contestant":{"voting_id":"16","name":"Anil Karki"},"vote_count":1,"created_on":"2019-12-25T19:05:55.586684+05:45"},{"idx":"5qBoWw2mxB32kCv993Ma3K","contest":"Model Superstar","episode":"Model Superstar","category":null,"contestant":{"voting_id":"03","name":"Smriti Shah"},"vote_count":1,"created_on":"2019-12-25T19:05:29.483280+05:45"},{"idx":"MuDwJwanBzDqRXQnyXGZof","contest":"Model Superstar","episode":"Model Superstar","category":null,"contestant":{"voting_id":"03","name":"Smriti Shah"},"vote_count":1,"created_on":"2019-12-25T19:04:48.016049+05:45"},{"idx":"UyNWHJyNJaUsFUomMwYqTf","contest":"Model Superstar","episode":"Model Superstar","category":null,"contestant":{"voting_id":"14","name":"Ashish Shakya"},"vote_count":1,"created_on":"2019-12-25T19:03:46.810830+05:45"},{"idx":"ave5J3qDUcE425Dna8rx92","contest":"Model Superstar","episode":"Model Superstar","category":null,"contestant":{"voting_id":"06","name":"Sujan Basnet"},"vote_count":1,"created_on":"2019-12-25T19:02:28.182279+05:45"},{"idx":"SRvZaJS5SZNP8tTcLtk26S","contest":"Model Superstar","episode":"Model Superstar","category":null,"contestant":{"voting_id":"07","name":"Narman Malla"},"vote_count":1,"created_on":"2019-12-25T19:00:39.573039+05:45"},{"idx":"Hbu53bNGEgXKwxMPHPJSJd","contest":"Model Superstar","episode":"Model Superstar","category":null,"contestant":{"voting_id":"16","name":"Anil Karki"},"vote_count":1,"created_on":"2019-12-25T18:58:09.355771+05:45"},{"idx":"6Q5y5vwVBFgNwpQ6rNjxrh","contest":"Model Superstar","episode":"Model Superstar","category":null,"contestant":{"voting_id":"11","name":"Rachana Karki"},"vote_count":1,"created_on":"2019-12-25T18:55:46.702845+05:45"},{"idx":"x58tKMqAF5HrRqJKXSXWvd","contest":"Model Superstar","episode":"Model Superstar","category":null,"contestant":{"voting_id":"20","name":"Anu Tiwari"},"vote_count":1,"created_on":"2019-12-25T18:54:48.636544+05:45"},{"idx":"2RgFNoWWXZ6sK8ytCBosC8","contest":"Model Superstar","episode":"Model Superstar","category":null,"contestant":{"voting_id":"12","name":"Rabin Ghising"},"vote_count":1,"created_on":"2019-12-25T18:53:57.158419+05:45"},{"idx":"NHxvrEbdSVnKc4DzhsCyVZ","contest":"Model Superstar","episode":"Model Superstar","category":null,"contestant":{"voting_id":"02","name":"Srijana Basnet"},"vote_count":1,"created_on":"2019-12-25T18:52:52.253789+05:45"},{"idx":"6xp2Scj6SFaZ96S2CwUqJY","contest":"Model Superstar","episode":"Model Superstar","category":null,"contestant":{"voting_id":"09","name":"Sagar Ghimire"},"vote_count":1,"created_on":"2019-12-25T18:35:00.121826+05:45"},{"idx":"3QYUd6AiWZ5SnpnUq7CcQA","contest":"Model Superstar","episode":"Model Superstar","category":null,"contestant":{"voting_id":"09","name":"Sagar Ghimire"},"vote_count":1,"created_on":"2019-12-25T18:34:39.353164+05:45"},{"idx":"uFbFRVTfFtV6Np9rGnKwMY","contest":"Model Superstar","episode":"Model Superstar","category":null,"contestant":{"voting_id":"07","name":"Narman Malla"},"vote_count":1,"created_on":"2019-12-25T18:24:25.346914+05:45"},{"idx":"yQPQfZ4Fzfu5q6NRhJFgih","contest":"Model Superstar","episode":"Model Superstar","category":null,"contestant":{"voting_id":"07","name":"Narman Malla"},"vote_count":1,"created_on":"2019-12-25T18:23:59.916039+05:45"},{"idx":"84Te9Nony7ok4JLrA8wbYV","contest":"Model Superstar","episode":"Model Superstar","category":null,"contestant":{"voting_id":"07","name":"Narman Malla"},"vote_count":1,"created_on":"2019-12-25T18:23:47.889006+05:45"},{"idx":"ENnvSz3gSTLaEp3Y2dCo8j","contest":"Model Superstar","episode":"Model Superstar","category":null,"contestant":{"voting_id":"07","name":"Narman Malla"},"vote_count":1,"created_on":"2019-12-25T18:22:49.731579+05:45"},{"idx":"dee3mjjoPdzArMVBr66WfP","contest":"Model Superstar","episode":"Model Superstar","category":null,"contestant":{"voting_id":"07","name":"Narman Malla"},"vote_count":1,"created_on":"2019-12-25T18:22:33.306869+05:45"},{"idx":"Mo9rJ8HfeQzP7dNqZn6KRM","contest":"Model Superstar","episode":"Model Superstar","category":null,"contestant":{"voting_id":"07","name":"Narman Malla"},"vote_count":1,"created_on":"2019-12-25T18:22:21.939928+05:45"},{"idx":"6fdG9kX95f7ivRyNm6tmTD","contest":"Model Superstar","episode":"Model Superstar","category":null,"contestant":{"voting_id":"07","name":"Narman Malla"},"vote_count":1,"created_on":"2019-12-25T18:22:08.723105+05:45"},{"idx":"ViRAcBXRxVwCTCDqFt57LN","contest":"Model Superstar","episode":"Model Superstar","category":null,"contestant":{"voting_id":"07","name":"Narman Malla"},"vote_count":1,"created_on":"2019-12-25T18:21:52.334458+05:45"},{"idx":"8cnzvXBAryNEoTeveJePCk","contest":"Model Superstar","episode":"Model Superstar","category":null,"contestant":{"voting_id":"07","name":"Narman Malla"},"vote_count":1,"created_on":"2019-12-25T18:21:36.489215+05:45"},{"idx":"EkuYtpZ3UyERChHws7wPR4","contest":"Model Superstar","episode":"Model Superstar","category":null,"contestant":{"voting_id":"07","name":"Narman Malla"},"vote_count":1,"created_on":"2019-12-25T18:21:22.136004+05:45"},{"idx":"bRAUamzLgrFtzPysiNFLdH","contest":"Model Superstar","episode":"Model Superstar","category":null,"contestant":{"voting_id":"07","name":"Narman Malla"},"vote_count":1,"created_on":"2019-12-25T18:21:11.800987+05:45"},{"idx":"9sP9rVfZMJWWDGK2JeUYSB","contest":"Model Superstar","episode":"Model Superstar","category":null,"contestant":{"voting_id":"07","name":"Narman Malla"},"vote_count":1,"created_on":"2019-12-25T18:20:53.219190+05:45"},{"idx":"Eh64tQwCymSpVAoyCHuUpA","contest":"Model Superstar","episode":"Model Superstar","category":null,"contestant":{"voting_id":"07","name":"Narman Malla"},"vote_count":1,"created_on":"2019-12-25T18:20:40.435182+05:45"},{"idx":"vMWGJX2Xq7NNqhZqznShG5","contest":"Model Superstar","episode":"Model Superstar","category":null,"contestant":{"voting_id":"07","name":"Narman Malla"},"vote_count":1,"created_on":"2019-12-25T18:20:26.605024+05:45"},{"idx":"iDWE9zi3GW3Xbk4gyADgNQ","contest":"Model Superstar","episode":"Model Superstar","category":null,"contestant":{"voting_id":"07","name":"Narman Malla"},"vote_count":1,"created_on":"2019-12-25T18:20:05.064192+05:45"},{"idx":"yJFtNhvSsJhhqcSAPJYeCd","contest":"Model Superstar","episode":"Model Superstar","category":null,"contestant":{"voting_id":"07","name":"Narman Malla"},"vote_count":1,"created_on":"2019-12-25T18:19:55.331292+05:45"},{"idx":"xNfQKup6srLCknbRdpR88D","contest":"Model Superstar","episode":"Model Superstar","category":null,"contestant":{"voting_id":"07","name":"Narman Malla"},"vote_count":1,"created_on":"2019-12-25T18:19:42.938639+05:45"},{"idx":"65oWpVgiTXQrpAFB4s82HR","contest":"Model Superstar","episode":"Model Superstar","category":null,"contestant":{"voting_id":"07","name":"Narman Malla"},"vote_count":1,"created_on":"2019-12-25T18:19:30.543207+05:45"},{"idx":"dZLPdTFLgqZsWQ6jEXqk76","contest":"Model Superstar","episode":"Model Superstar","category":null,"contestant":{"voting_id":"07","name":"Narman Malla"},"vote_count":1,"created_on":"2019-12-25T18:19:18.593618+05:45"},{"idx":"nFEs7WBnTkMQYYXFUQYsZY","contest":"Model Superstar","episode":"Model Superstar","category":null,"contestant":{"voting_id":"16","name":"Anil Karki"},"vote_count":1,"created_on":"2019-12-25T18:19:15.313736+05:45"},{"idx":"86p9fJ8o6AWWrpofADmSTB","contest":"Model Superstar","episode":"Model Superstar","category":null,"contestant":{"voting_id":"07","name":"Narman Malla"},"vote_count":1,"created_on":"2019-12-25T18:19:06.329199+05:45"},{"idx":"PKJLpP53sALgW9YSDatSH4","contest":"Model Superstar","episode":"Model Superstar","category":null,"contestant":{"voting_id":"07","name":"Narman Malla"},"vote_count":1,"created_on":"2019-12-25T18:18:53.997340+05:45"},{"idx":"Kvjmpk8gut4P4rYQDQHxsH","contest":"Model Superstar","episode":"Model Superstar","category":null,"contestant":{"voting_id":"12","name":"Rabin Ghising"},"vote_count":1,"created_on":"2019-12-25T17:33:30.993052+05:45"},{"idx":"Ca376tjeqJaBKn8ip9mrgQ","contest":"Model Superstar","episode":"Model Superstar","category":null,"contestant":{"voting_id":"12","name":"Rabin Ghising"},"vote_count":1,"created_on":"2019-12-25T17:32:43.796768+05:45"},{"idx":"bGMDSoCALpb4bXN7bqFfqe","contest":"Model Superstar","episode":"Model Superstar","category":null,"contestant":{"voting_id":"12","name":"Rabin Ghising"},"vote_count":1,"created_on":"2019-12-25T17:32:21.682906+05:45"},{"idx":"nivEM5SyBAtPwCX57pjRCR","contest":"Model Superstar","episode":"Model Superstar","category":null,"contestant":{"voting_id":"12","name":"Rabin Ghising"},"vote_count":1,"created_on":"2019-12-25T17:31:13.901320+05:45"},{"idx":"TGd2Ptnr6MLHuo4xywTsx4","contest":"Model Superstar","episode":"Model Superstar","category":null,"contestant":{"voting_id":"12","name":"Rabin Ghising"},"vote_count":1,"created_on":"2019-12-25T17:29:53.040673+05:45"},{"idx":"NCpSqKiku53uoifHJRKGNn","contest":"Model Superstar","episode":"Model Superstar","category":null,"contestant":{"voting_id":"12","name":"Rabin Ghising"},"vote_count":1,"created_on":"2019-12-25T17:29:18.331966+05:45"},{"idx":"bLTPVMFsgFPup9AmeidXE9","contest":"Model Superstar","episode":"Model Superstar","category":null,"contestant":{"voting_id":"12","name":"Rabin Ghising"},"vote_count":1,"created_on":"2019-12-25T17:28:37.036176+05:45"},{"idx":"SZg6rAX2uSoGYaMHYNP4Ri","contest":"Model Superstar","episode":"Model Superstar","category":null,"contestant":{"voting_id":"12","name":"Rabin Ghising"},"vote_count":1,"created_on":"2019-12-25T17:19:30.122512+05:45"},{"idx":"HuUdY8msURxqesrHQjB8vJ","contest":"Model Superstar","episode":"Model Superstar","category":null,"contestant":{"voting_id":"04","name":"Sabita Maharjan"},"vote_count":1,"created_on":"2019-12-25T17:16:09.885357+05:45"},{"idx":"34d93ZF4WPHtQZvNK9en42","contest":"NEPALBHASA STAR MUSIC VIDEO AWARDS-2019","episode":null,"category":"BEST VIDEO EDITOR","contestant":{"voting_id":"9F","name":"Bal Krishna Bansi "},"vote_count":1,"created_on":"2019-12-25T17:15:51.135061+05:45"},{"idx":"qLT6CzCuDAUhZcDK4hx7J8","contest":"Model Superstar","episode":"Model Superstar","category":null,"contestant":{"voting_id":"12","name":"Rabin Ghising"},"vote_count":1,"created_on":"2019-12-25T16:56:23.160816+05:45"},{"idx":"pwEsxyvqLXk94aXmJsgedQ","contest":"Model Superstar","episode":"Model Superstar","category":null,"contestant":{"voting_id":"12","name":"Rabin Ghising"},"vote_count":1,"created_on":"2019-12-25T16:55:56.004337+05:45"}]}