{"total_pages":275,"total_records":13721,"next":"https://khalti.com/api/v2/vuservote/?page=225","previous":"https://khalti.com/api/v2/vuservote/?page=223","record_range":[11151,11200],"current_page":224,"records":[{"idx":"5HBGWrtWFxAXtnuMpvEBJQ","contest":"Model Superstar","episode":"Model Superstar","category":null,"contestant":{"voting_id":"12","name":"Rabin Ghising"},"vote_count":1,"created_on":"2019-12-25T16:55:28.828213+05:45"},{"idx":"MmioC3fYxWrkYZXJEEERzA","contest":"Model Superstar","episode":"Model Superstar","category":null,"contestant":{"voting_id":"12","name":"Rabin Ghising"},"vote_count":1,"created_on":"2019-12-25T16:54:36.943221+05:45"},{"idx":"Q5EiyyuU6rr4VdQUWu8SZn","contest":"Model Superstar","episode":"Model Superstar","category":null,"contestant":{"voting_id":"12","name":"Rabin Ghising"},"vote_count":1,"created_on":"2019-12-25T16:53:56.710015+05:45"},{"idx":"v7ffvYi23xgyyhbDt2WFq9","contest":"Model Superstar","episode":"Model Superstar","category":null,"contestant":{"voting_id":"12","name":"Rabin Ghising"},"vote_count":1,"created_on":"2019-12-25T16:53:25.807910+05:45"},{"idx":"bP9VEexmhpiiWnuhWcFfEf","contest":"Model Superstar","episode":"Model Superstar","category":null,"contestant":{"voting_id":"12","name":"Rabin Ghising"},"vote_count":1,"created_on":"2019-12-25T16:52:53.160282+05:45"},{"idx":"5mcPua9rgGj3LAiHTxi33C","contest":"Model Superstar","episode":"Model Superstar","category":null,"contestant":{"voting_id":"12","name":"Rabin Ghising"},"vote_count":1,"created_on":"2019-12-25T16:52:33.713427+05:45"},{"idx":"GZLPJx6RYFb34toA5hqPPH","contest":"Model Superstar","episode":"Model Superstar","category":null,"contestant":{"voting_id":"12","name":"Rabin Ghising"},"vote_count":1,"created_on":"2019-12-25T16:52:27.895326+05:45"},{"idx":"3DWgJcmpMKyitumKNgrg8e","contest":"Model Superstar","episode":"Model Superstar","category":null,"contestant":{"voting_id":"12","name":"Rabin Ghising"},"vote_count":1,"created_on":"2019-12-25T16:51:58.578349+05:45"},{"idx":"AoKsmwqSemGWuyqRLVUdKk","contest":"Model Superstar","episode":"Model Superstar","category":null,"contestant":{"voting_id":"12","name":"Rabin Ghising"},"vote_count":1,"created_on":"2019-12-25T16:51:46.103578+05:45"},{"idx":"sETXMREwNkNoDPNZMm7ToB","contest":"Model Superstar","episode":"Model Superstar","category":null,"contestant":{"voting_id":"12","name":"Rabin Ghising"},"vote_count":1,"created_on":"2019-12-25T16:51:42.976455+05:45"},{"idx":"mHgheTHoNiouyB6cLksyAF","contest":"Model Superstar","episode":"Model Superstar","category":null,"contestant":{"voting_id":"12","name":"Rabin Ghising"},"vote_count":1,"created_on":"2019-12-25T16:51:21.814930+05:45"},{"idx":"3zEVBV4ebBVAQpzfEzbCR5","contest":"Model Superstar","episode":"Model Superstar","category":null,"contestant":{"voting_id":"12","name":"Rabin Ghising"},"vote_count":1,"created_on":"2019-12-25T16:51:09.783732+05:45"},{"idx":"W7FLkiE7sGsPNqLKbazepN","contest":"Model Superstar","episode":"Model Superstar","category":null,"contestant":{"voting_id":"12","name":"Rabin Ghising"},"vote_count":1,"created_on":"2019-12-25T16:50:56.296156+05:45"},{"idx":"Z5Do2BpdWRSvznrUues3wJ","contest":"Model Superstar","episode":"Model Superstar","category":null,"contestant":{"voting_id":"12","name":"Rabin Ghising"},"vote_count":1,"created_on":"2019-12-25T16:50:46.225164+05:45"},{"idx":"zhB7QmWBFXaiLyuHGkTeTk","contest":"Model Superstar","episode":"Model Superstar","category":null,"contestant":{"voting_id":"12","name":"Rabin Ghising"},"vote_count":1,"created_on":"2019-12-25T16:50:19.433972+05:45"},{"idx":"dtiQSSqyKVcntQhrLGRmjY","contest":"Model Superstar","episode":"Model Superstar","category":null,"contestant":{"voting_id":"12","name":"Rabin Ghising"},"vote_count":1,"created_on":"2019-12-25T16:50:07.356322+05:45"},{"idx":"kQdCqnKQpHHULFG2DvzgoB","contest":"Model Superstar","episode":"Model Superstar","category":null,"contestant":{"voting_id":"12","name":"Rabin Ghising"},"vote_count":1,"created_on":"2019-12-25T16:49:54.039700+05:45"},{"idx":"MoCj6yvojJ9qtbnQLg6MCH","contest":"Model Superstar","episode":"Model Superstar","category":null,"contestant":{"voting_id":"12","name":"Rabin Ghising"},"vote_count":1,"created_on":"2019-12-25T16:49:42.889781+05:45"},{"idx":"bexMQmVMJhGwYUsxx3CbWj","contest":"Model Superstar","episode":"Model Superstar","category":null,"contestant":{"voting_id":"12","name":"Rabin Ghising"},"vote_count":1,"created_on":"2019-12-25T16:49:28.668697+05:45"},{"idx":"gsZ6hSFuGawCa2zNAgUnWj","contest":"Model Superstar","episode":"Model Superstar","category":null,"contestant":{"voting_id":"12","name":"Rabin Ghising"},"vote_count":1,"created_on":"2019-12-25T16:49:16.312797+05:45"},{"idx":"HErtcpJGEoqDudTj5nhXvZ","contest":"Model Superstar","episode":"Model Superstar","category":null,"contestant":{"voting_id":"12","name":"Rabin Ghising"},"vote_count":1,"created_on":"2019-12-25T16:49:01.793299+05:45"},{"idx":"BWUVVczbDZFWHL6MaJprWF","contest":"Model Superstar","episode":"Model Superstar","category":null,"contestant":{"voting_id":"12","name":"Rabin Ghising"},"vote_count":1,"created_on":"2019-12-25T16:49:01.061170+05:45"},{"idx":"vtST3cPPfabU5EFi5ryDzZ","contest":"Model Superstar","episode":"Model Superstar","category":null,"contestant":{"voting_id":"12","name":"Rabin Ghising"},"vote_count":1,"created_on":"2019-12-25T16:48:33.334229+05:45"},{"idx":"UYguLz6X8EDyWMPtTt99AK","contest":"Model Superstar","episode":"Model Superstar","category":null,"contestant":{"voting_id":"12","name":"Rabin Ghising"},"vote_count":1,"created_on":"2019-12-25T16:48:20.778655+05:45"},{"idx":"5TauPFJPnACXh8rAMhY4GR","contest":"Model Superstar","episode":"Model Superstar","category":null,"contestant":{"voting_id":"12","name":"Rabin Ghising"},"vote_count":1,"created_on":"2019-12-25T16:48:12.693445+05:45"},{"idx":"cj6V525ymGHLupac6E4B2D","contest":"Model Superstar","episode":"Model Superstar","category":null,"contestant":{"voting_id":"12","name":"Rabin Ghising"},"vote_count":1,"created_on":"2019-12-25T16:48:07.879931+05:45"},{"idx":"ZDDrngUNqktC5yZWEbJhnK","contest":"Model Superstar","episode":"Model Superstar","category":null,"contestant":{"voting_id":"12","name":"Rabin Ghising"},"vote_count":1,"created_on":"2019-12-25T16:47:27.919214+05:45"},{"idx":"6ubpWuUCigYcGbjjuD4Coh","contest":"Model Superstar","episode":"Model Superstar","category":null,"contestant":{"voting_id":"12","name":"Rabin Ghising"},"vote_count":1,"created_on":"2019-12-25T16:47:08.714463+05:45"},{"idx":"ZDEzrCGyWWi3693PiMEQxb","contest":"Model Superstar","episode":"Model Superstar","category":null,"contestant":{"voting_id":"12","name":"Rabin Ghising"},"vote_count":1,"created_on":"2019-12-25T16:44:38.987143+05:45"},{"idx":"BaEjPrChrHt24wDTw242ER","contest":"Model Superstar","episode":"Model Superstar","category":null,"contestant":{"voting_id":"12","name":"Rabin Ghising"},"vote_count":1,"created_on":"2019-12-25T16:44:28.823671+05:45"},{"idx":"fsB5XFk78FkPutMdwuRVNH","contest":"Model Superstar","episode":"Model Superstar","category":null,"contestant":{"voting_id":"12","name":"Rabin Ghising"},"vote_count":1,"created_on":"2019-12-25T16:43:59.638155+05:45"},{"idx":"Rm67D3Gs2N6PR3hXPdV3iK","contest":"Model Superstar","episode":"Model Superstar","category":null,"contestant":{"voting_id":"12","name":"Rabin Ghising"},"vote_count":1,"created_on":"2019-12-25T16:43:48.243266+05:45"},{"idx":"4Wj4TRKcsZjkwM6mmGdm9N","contest":"Model Superstar","episode":"Model Superstar","category":null,"contestant":{"voting_id":"12","name":"Rabin Ghising"},"vote_count":1,"created_on":"2019-12-25T16:43:36.928015+05:45"},{"idx":"8bDyxNqS2mAkpYC3ZdUxa7","contest":"Model Superstar","episode":"Model Superstar","category":null,"contestant":{"voting_id":"12","name":"Rabin Ghising"},"vote_count":1,"created_on":"2019-12-25T16:43:22.831290+05:45"},{"idx":"pfqPBHFn4CuXyVwQNWGQte","contest":"Model Superstar","episode":"Model Superstar","category":null,"contestant":{"voting_id":"12","name":"Rabin Ghising"},"vote_count":1,"created_on":"2019-12-25T16:42:56.378359+05:45"},{"idx":"j588DxoaZQHkfdFsQwuGc8","contest":"Model Superstar","episode":"Model Superstar","category":null,"contestant":{"voting_id":"12","name":"Rabin Ghising"},"vote_count":1,"created_on":"2019-12-25T16:42:36.005116+05:45"},{"idx":"77GuXihSqHEX3xd6uyuepj","contest":"Model Superstar","episode":"Model Superstar","category":null,"contestant":{"voting_id":"12","name":"Rabin Ghising"},"vote_count":1,"created_on":"2019-12-25T16:42:18.929972+05:45"},{"idx":"d6xwhVCLYsyvv8WK9NgmLj","contest":"Model Superstar","episode":"Model Superstar","category":null,"contestant":{"voting_id":"12","name":"Rabin Ghising"},"vote_count":1,"created_on":"2019-12-25T16:42:01.686933+05:45"},{"idx":"aM5KDk8qf4mXmUZAo5dofg","contest":"Model Superstar","episode":"Model Superstar","category":null,"contestant":{"voting_id":"12","name":"Rabin Ghising"},"vote_count":1,"created_on":"2019-12-25T16:41:49.230371+05:45"},{"idx":"J8p5i4DS9ccTqE4LdimjBh","contest":"Model Superstar","episode":"Model Superstar","category":null,"contestant":{"voting_id":"12","name":"Rabin Ghising"},"vote_count":1,"created_on":"2019-12-25T16:41:28.705678+05:45"},{"idx":"khmtzJ4XdFVeYfvxbzeABk","contest":"Model Superstar","episode":"Model Superstar","category":null,"contestant":{"voting_id":"12","name":"Rabin Ghising"},"vote_count":1,"created_on":"2019-12-25T16:39:50.068792+05:45"},{"idx":"t5AHkzbcWvYNivJnXRK7HW","contest":"Model Superstar","episode":"Model Superstar","category":null,"contestant":{"voting_id":"12","name":"Rabin Ghising"},"vote_count":1,"created_on":"2019-12-25T16:39:29.979589+05:45"},{"idx":"jusfkPJDVxYR28vwiJ2RJm","contest":"Model Superstar","episode":"Model Superstar","category":null,"contestant":{"voting_id":"12","name":"Rabin Ghising"},"vote_count":1,"created_on":"2019-12-25T16:38:52.248240+05:45"},{"idx":"GNTmwefh6isWT9HU4eZpWg","contest":"Model Superstar","episode":"Model Superstar","category":null,"contestant":{"voting_id":"12","name":"Rabin Ghising"},"vote_count":1,"created_on":"2019-12-25T16:38:21.836377+05:45"},{"idx":"M5ZJfVLbtzTjq3gBbvRGZZ","contest":"Model Superstar","episode":"Model Superstar","category":null,"contestant":{"voting_id":"12","name":"Rabin Ghising"},"vote_count":1,"created_on":"2019-12-25T16:36:42.973511+05:45"},{"idx":"MximJZmEDVyqjoYfMUPYwM","contest":"Model Superstar","episode":"Model Superstar","category":null,"contestant":{"voting_id":"12","name":"Rabin Ghising"},"vote_count":1,"created_on":"2019-12-25T16:28:40.394651+05:45"},{"idx":"fuB4A6AtyZvWaRHMDUbfF3","contest":"Model Superstar","episode":"Model Superstar","category":null,"contestant":{"voting_id":"04","name":"Sabita Maharjan"},"vote_count":1,"created_on":"2019-12-25T16:22:38.856542+05:45"},{"idx":"upGrw4agH8y69LuuBrVRU8","contest":"Model Superstar","episode":"Model Superstar","category":null,"contestant":{"voting_id":"14","name":"Ashish Shakya"},"vote_count":1,"created_on":"2019-12-25T16:12:42.705505+05:45"},{"idx":"pRANmHNTtpoLDG42Gj24iV","contest":"Model Superstar","episode":"Model Superstar","category":null,"contestant":{"voting_id":"14","name":"Ashish Shakya"},"vote_count":1,"created_on":"2019-12-25T16:12:22.188519+05:45"},{"idx":"pwRS9dkkWNe2mrJASwriiY","contest":"Model Superstar","episode":"Model Superstar","category":null,"contestant":{"voting_id":"27","name":"Suweta Shrestha"},"vote_count":1,"created_on":"2019-12-25T16:08:54.618975+05:45"}]}