{"total_pages":275,"total_records":13721,"next":"https://khalti.com/api/v2/vuservote/?page=226","previous":"https://khalti.com/api/v2/vuservote/?page=224","record_range":[11201,11250],"current_page":225,"records":[{"idx":"rLaqC3U6L7Y5gmdT33f7Hm","contest":"Model Superstar","episode":"Model Superstar","category":null,"contestant":{"voting_id":"04","name":"Sabita Maharjan"},"vote_count":1,"created_on":"2019-12-25T16:08:24.697658+05:45"},{"idx":"5STc5RwAQSJPjXBPUBeS65","contest":"Model Superstar","episode":"Model Superstar","category":null,"contestant":{"voting_id":"04","name":"Sabita Maharjan"},"vote_count":1,"created_on":"2019-12-25T15:51:46.016613+05:45"},{"idx":"FMNwnqQMwjDrWPQf2vdneR","contest":"Model Superstar","episode":"Model Superstar","category":null,"contestant":{"voting_id":"02","name":"Srijana Basnet"},"vote_count":1,"created_on":"2019-12-25T15:49:38.571939+05:45"},{"idx":"JrX7HxxNK6wNLpDV9co9Yd","contest":"Model Superstar","episode":"Model Superstar","category":null,"contestant":{"voting_id":"02","name":"Srijana Basnet"},"vote_count":1,"created_on":"2019-12-25T15:49:00.808249+05:45"},{"idx":"qFocHhTeT5PSCgVHfz8MZa","contest":"Model Superstar","episode":"Model Superstar","category":null,"contestant":{"voting_id":"09","name":"Sagar Ghimire"},"vote_count":1,"created_on":"2019-12-25T15:44:04.224797+05:45"},{"idx":"TGVzUjXinunMkB3s9ejEZY","contest":"Model Superstar","episode":"Model Superstar","category":null,"contestant":{"voting_id":"14","name":"Ashish Shakya"},"vote_count":1,"created_on":"2019-12-25T15:43:08.150161+05:45"},{"idx":"gVtx7VemEGzhifLZXCqUGc","contest":"Model Superstar","episode":"Model Superstar","category":null,"contestant":{"voting_id":"14","name":"Ashish Shakya"},"vote_count":1,"created_on":"2019-12-25T15:41:38.190482+05:45"},{"idx":"u5G5uExs7LDDh7Ms9VgtV3","contest":"Model Superstar","episode":"Model Superstar","category":null,"contestant":{"voting_id":"14","name":"Ashish Shakya"},"vote_count":1,"created_on":"2019-12-25T15:41:16.523136+05:45"},{"idx":"hvQeRtmsZiyBs7g66ExEz8","contest":"NEPALBHASA STAR MUSIC VIDEO AWARDS-2019","episode":null,"category":"BEST MODEL, MALE","contestant":{"voting_id":"11E","name":"Surendra Maharjan"},"vote_count":1,"created_on":"2019-12-25T15:40:55.482652+05:45"},{"idx":"RBnPehbW4Myv4YwbkTZNwR","contest":"Model Superstar","episode":"Model Superstar","category":null,"contestant":{"voting_id":"14","name":"Ashish Shakya"},"vote_count":1,"created_on":"2019-12-25T15:40:52.132381+05:45"},{"idx":"SQ3vokLi5PGSccLLQQgko9","contest":"Model Superstar","episode":"Model Superstar","category":null,"contestant":{"voting_id":"14","name":"Ashish Shakya"},"vote_count":1,"created_on":"2019-12-25T15:40:28.262306+05:45"},{"idx":"z4x29N975RJj548g3XsHCA","contest":"NEPALBHASA STAR MUSIC VIDEO AWARDS-2019","episode":null,"category":"BEST DANCE DIRECTOR","contestant":{"voting_id":"19G","name":"Surendra Maharjan"},"vote_count":1,"created_on":"2019-12-25T15:40:24.888692+05:45"},{"idx":"yqSAwbocB5idP6Bwhgr8W9","contest":"Model Superstar","episode":"Model Superstar","category":null,"contestant":{"voting_id":"14","name":"Ashish Shakya"},"vote_count":1,"created_on":"2019-12-25T15:34:10.111170+05:45"},{"idx":"X4EnMbYgKKjKaoHcWNQ6pV","contest":"Model Superstar","episode":"Model Superstar","category":null,"contestant":{"voting_id":"14","name":"Ashish Shakya"},"vote_count":1,"created_on":"2019-12-25T15:33:47.861040+05:45"},{"idx":"suoKKK6oAdXTVaVzjxX4nP","contest":"Model Superstar","episode":"Model Superstar","category":null,"contestant":{"voting_id":"14","name":"Ashish Shakya"},"vote_count":1,"created_on":"2019-12-25T15:31:26.410243+05:45"},{"idx":"S3zX5hE9C5AqCas9fMXNCj","contest":"Model Superstar","episode":"Model Superstar","category":null,"contestant":{"voting_id":"14","name":"Ashish Shakya"},"vote_count":1,"created_on":"2019-12-25T15:30:34.724765+05:45"},{"idx":"U7g5gEZXc5Z5rnubMJfXv6","contest":"Model Superstar","episode":"Model Superstar","category":null,"contestant":{"voting_id":"14","name":"Ashish Shakya"},"vote_count":1,"created_on":"2019-12-25T15:30:17.092403+05:45"},{"idx":"VBEyRXqtxHF6dvc62Qb3bB","contest":"Model Superstar","episode":"Model Superstar","category":null,"contestant":{"voting_id":"14","name":"Ashish Shakya"},"vote_count":1,"created_on":"2019-12-25T15:29:25.996536+05:45"},{"idx":"aEiGxYvY9u77vxcPsY7SZY","contest":"Model Superstar","episode":"Model Superstar","category":null,"contestant":{"voting_id":"14","name":"Ashish Shakya"},"vote_count":1,"created_on":"2019-12-25T15:29:00.722083+05:45"},{"idx":"7JBNCmVcpURCgCFwRwxb4D","contest":"Model Superstar","episode":"Model Superstar","category":null,"contestant":{"voting_id":"07","name":"Narman Malla"},"vote_count":1,"created_on":"2019-12-25T15:24:00.256357+05:45"},{"idx":"br584tDL6mPXjEhg6XE8gm","contest":"Model Superstar","episode":"Model Superstar","category":null,"contestant":{"voting_id":"07","name":"Narman Malla"},"vote_count":1,"created_on":"2019-12-25T15:23:46.093240+05:45"},{"idx":"3txGheuA8aJi5PTzZeEkMm","contest":"Model Superstar","episode":"Model Superstar","category":null,"contestant":{"voting_id":"07","name":"Narman Malla"},"vote_count":1,"created_on":"2019-12-25T15:23:30.644684+05:45"},{"idx":"DDHkD6iuT7WpkRmZeTTZZH","contest":"Model Superstar","episode":"Model Superstar","category":null,"contestant":{"voting_id":"07","name":"Narman Malla"},"vote_count":1,"created_on":"2019-12-25T15:23:08.652968+05:45"},{"idx":"dBBCfdYvh9qusB6JQt6LzS","contest":"Model Superstar","episode":"Model Superstar","category":null,"contestant":{"voting_id":"07","name":"Narman Malla"},"vote_count":1,"created_on":"2019-12-25T15:22:51.595904+05:45"},{"idx":"ZecmwCWk9V8FHDy6mRWu4J","contest":"Model Superstar","episode":"Model Superstar","category":null,"contestant":{"voting_id":"07","name":"Narman Malla"},"vote_count":1,"created_on":"2019-12-25T15:22:21.928646+05:45"},{"idx":"URURudQW4ydeiU8H92rct4","contest":"Model Superstar","episode":"Model Superstar","category":null,"contestant":{"voting_id":"13","name":"Prashant Shah"},"vote_count":1,"created_on":"2019-12-25T15:22:17.186015+05:45"},{"idx":"fnHCGLqDxgJT7ixaQ6eXKa","contest":"Model Superstar","episode":"Model Superstar","category":null,"contestant":{"voting_id":"14","name":"Ashish Shakya"},"vote_count":1,"created_on":"2019-12-25T14:44:07.541353+05:45"},{"idx":"eZQr9QKdqoissVPr7ZviXL","contest":"Model Superstar","episode":"Model Superstar","category":null,"contestant":{"voting_id":"14","name":"Ashish Shakya"},"vote_count":1,"created_on":"2019-12-25T14:43:12.706367+05:45"},{"idx":"weq2xXW8E4efJF9wehgZyB","contest":"Model Superstar","episode":"Model Superstar","category":null,"contestant":{"voting_id":"12","name":"Rabin Ghising"},"vote_count":1,"created_on":"2019-12-25T14:37:11.713460+05:45"},{"idx":"NJuAtw8yP4jLk8PwWAopqh","contest":"Model Superstar","episode":"Model Superstar","category":null,"contestant":{"voting_id":"12","name":"Rabin Ghising"},"vote_count":1,"created_on":"2019-12-25T14:36:25.440854+05:45"},{"idx":"vQrv35GTsAGxWP3Nn9gonf","contest":"Model Superstar","episode":"Model Superstar","category":null,"contestant":{"voting_id":"14","name":"Ashish Shakya"},"vote_count":1,"created_on":"2019-12-25T14:34:30.775471+05:45"},{"idx":"f9AwynmqCdgveid87U4Qs6","contest":"Model Superstar","episode":"Model Superstar","category":null,"contestant":{"voting_id":"14","name":"Ashish Shakya"},"vote_count":1,"created_on":"2019-12-25T14:33:58.842419+05:45"},{"idx":"dtzKaGAa7g6xogDPUJA9aK","contest":"Model Superstar","episode":"Model Superstar","category":null,"contestant":{"voting_id":"06","name":"Sujan Basnet"},"vote_count":1,"created_on":"2019-12-25T14:30:43.139582+05:45"},{"idx":"ejdyJoMTZ3c6RHRyt4v5zk","contest":"Model Superstar","episode":"Model Superstar","category":null,"contestant":{"voting_id":"07","name":"Narman Malla"},"vote_count":1,"created_on":"2019-12-25T14:23:24.405767+05:45"},{"idx":"VBBUcJX5uaicHrbb5bG77C","contest":"Model Superstar","episode":"Model Superstar","category":null,"contestant":{"voting_id":"07","name":"Narman Malla"},"vote_count":1,"created_on":"2019-12-25T14:23:07.836171+05:45"},{"idx":"AftVVQwhQEnGeVyHDAauD5","contest":"Model Superstar","episode":"Model Superstar","category":null,"contestant":{"voting_id":"07","name":"Narman Malla"},"vote_count":1,"created_on":"2019-12-25T14:22:40.411031+05:45"},{"idx":"MW4GT7cV9ghLaHP5LTMXE3","contest":"Model Superstar","episode":"Model Superstar","category":null,"contestant":{"voting_id":"07","name":"Narman Malla"},"vote_count":1,"created_on":"2019-12-25T14:22:26.660688+05:45"},{"idx":"adirgmCwyzS6BEEG7h2a9L","contest":"Model Superstar","episode":"Model Superstar","category":null,"contestant":{"voting_id":"04","name":"Sabita Maharjan"},"vote_count":1,"created_on":"2019-12-25T14:22:05.545994+05:45"},{"idx":"YRigCcQDAZgAbwx3TU53WY","contest":"Model Superstar","episode":"Model Superstar","category":null,"contestant":{"voting_id":"01","name":"Sajina Subba"},"vote_count":1,"created_on":"2019-12-25T14:21:44.494184+05:45"},{"idx":"HsmHtUtanxXrZE4KPNSjkN","contest":"Model Superstar","episode":"Model Superstar","category":null,"contestant":{"voting_id":"05","name":"Asmita Thapa Magar"},"vote_count":1,"created_on":"2019-12-25T14:20:56.323428+05:45"},{"idx":"69RBKqdaj2MaFJf7YGpYC6","contest":"Model Superstar","episode":"Model Superstar","category":null,"contestant":{"voting_id":"07","name":"Narman Malla"},"vote_count":1,"created_on":"2019-12-25T14:20:37.918463+05:45"},{"idx":"R3oxTWiMgopFUhv323Z5nF","contest":"Model Superstar","episode":"Model Superstar","category":null,"contestant":{"voting_id":"07","name":"Narman Malla"},"vote_count":1,"created_on":"2019-12-25T14:20:17.613976+05:45"},{"idx":"W7AvWSB4wY6tx956xwUJjB","contest":"Model Superstar","episode":"Model Superstar","category":null,"contestant":{"voting_id":"07","name":"Narman Malla"},"vote_count":1,"created_on":"2019-12-25T14:19:59.705247+05:45"},{"idx":"CBym9dLgxGnvdcVPBQoL83","contest":"Model Superstar","episode":"Model Superstar","category":null,"contestant":{"voting_id":"07","name":"Narman Malla"},"vote_count":1,"created_on":"2019-12-25T14:19:40.360699+05:45"},{"idx":"bwsdamkFrRiQrfCbqoRK4H","contest":"Model Superstar","episode":"Model Superstar","category":null,"contestant":{"voting_id":"07","name":"Narman Malla"},"vote_count":1,"created_on":"2019-12-25T14:19:18.440240+05:45"},{"idx":"7us7EBFM3mUjeCZQgpb5uh","contest":"Model Superstar","episode":"Model Superstar","category":null,"contestant":{"voting_id":"07","name":"Narman Malla"},"vote_count":1,"created_on":"2019-12-25T14:18:52.924717+05:45"},{"idx":"vsansVCkbTNDpDXpSYnUNd","contest":"Model Superstar","episode":"Model Superstar","category":null,"contestant":{"voting_id":"07","name":"Narman Malla"},"vote_count":1,"created_on":"2019-12-25T14:18:32.793376+05:45"},{"idx":"eAP7pHgdfyEtQGssu5xDSb","contest":"Model Superstar","episode":"Model Superstar","category":null,"contestant":{"voting_id":"07","name":"Narman Malla"},"vote_count":1,"created_on":"2019-12-25T14:18:04.042625+05:45"},{"idx":"RrWX9GmaZMrVdaB4tKeqh6","contest":"Model Superstar","episode":"Model Superstar","category":null,"contestant":{"voting_id":"07","name":"Narman Malla"},"vote_count":1,"created_on":"2019-12-25T14:17:41.484277+05:45"},{"idx":"q3gFpue2fwRhpkvyPCckY8","contest":"Model Superstar","episode":"Model Superstar","category":null,"contestant":{"voting_id":"07","name":"Narman Malla"},"vote_count":1,"created_on":"2019-12-25T14:16:52.527156+05:45"}]}