{"total_pages":275,"total_records":13721,"next":"https://khalti.com/api/v2/vuservote/?page=227","previous":"https://khalti.com/api/v2/vuservote/?page=225","record_range":[11251,11300],"current_page":226,"records":[{"idx":"Sp9aMLn9vaA5fbpcfExJcX","contest":"Model Superstar","episode":"Model Superstar","category":null,"contestant":{"voting_id":"07","name":"Narman Malla"},"vote_count":1,"created_on":"2019-12-25T14:16:23.958334+05:45"},{"idx":"TgyDpjUdbKZovSc2FBVCtN","contest":"Model Superstar","episode":"Model Superstar","category":null,"contestant":{"voting_id":"12","name":"Rabin Ghising"},"vote_count":1,"created_on":"2019-12-25T13:52:28.205837+05:45"},{"idx":"8SvQBXZgp3aR33LH4VU8qR","contest":"Model Superstar","episode":"Model Superstar","category":null,"contestant":{"voting_id":"14","name":"Ashish Shakya"},"vote_count":1,"created_on":"2019-12-25T13:44:58.141517+05:45"},{"idx":"vvQJoMH9QgYQsft8DpLH9E","contest":"Model Superstar","episode":"Model Superstar","category":null,"contestant":{"voting_id":"02","name":"Srijana Basnet"},"vote_count":1,"created_on":"2019-12-25T13:40:25.476837+05:45"},{"idx":"LJyzGqMnwTs3jSM8wak6AV","contest":"Model Superstar","episode":"Model Superstar","category":null,"contestant":{"voting_id":"17","name":"Sajana Panta"},"vote_count":1,"created_on":"2019-12-25T13:32:50.452150+05:45"},{"idx":"Jorthd9dZDETftYdH5fV4M","contest":"Model Superstar","episode":"Model Superstar","category":null,"contestant":{"voting_id":"17","name":"Sajana Panta"},"vote_count":1,"created_on":"2019-12-25T13:24:32.456804+05:45"},{"idx":"jocJoeKrdTqn67p3te9Bgn","contest":"NEPALBHASA STAR MUSIC VIDEO AWARDS-2019","episode":null,"category":"BEST MUSIC DIRECTOR","contestant":{"voting_id":"6C","name":"Purna Man Maharjan "},"vote_count":100,"created_on":"2019-12-25T13:08:30.782080+05:45"},{"idx":"D8D3ScThFAoxbLzE5FdtdB","contest":"NEPALBHASA STAR MUSIC VIDEO AWARDS-2019","episode":null,"category":"THE RISING STAR SINGER","contestant":{"voting_id":"21E","name":"Purna Man Maharjan"},"vote_count":100,"created_on":"2019-12-25T13:07:21.886596+05:45"},{"idx":"abrpYK3TyzzcisAqZkMvJN","contest":"Model Superstar","episode":"Model Superstar","category":null,"contestant":{"voting_id":"14","name":"Ashish Shakya"},"vote_count":1,"created_on":"2019-12-25T13:05:52.873716+05:45"},{"idx":"PogWwAsGvQ8HVFufJFncqW","contest":"Model Superstar","episode":"Model Superstar","category":null,"contestant":{"voting_id":"07","name":"Narman Malla"},"vote_count":1,"created_on":"2019-12-25T13:00:42.783062+05:45"},{"idx":"54ifdF9W2etGfC7x7VrYAB","contest":"Model Superstar","episode":"Model Superstar","category":null,"contestant":{"voting_id":"12","name":"Rabin Ghising"},"vote_count":1,"created_on":"2019-12-25T13:00:13.203182+05:45"},{"idx":"m8GgDd2DnyLf9BwYJvwm7e","contest":"Model Superstar","episode":"Model Superstar","category":null,"contestant":{"voting_id":"07","name":"Narman Malla"},"vote_count":1,"created_on":"2019-12-25T12:59:05.699295+05:45"},{"idx":"D3BiYBQn9djrqdwz3JDDoM","contest":"Model Superstar","episode":"Model Superstar","category":null,"contestant":{"voting_id":"07","name":"Narman Malla"},"vote_count":1,"created_on":"2019-12-25T12:58:51.070340+05:45"},{"idx":"tiBABySHgn7goUK3SP3fT3","contest":"Model Superstar","episode":"Model Superstar","category":null,"contestant":{"voting_id":"07","name":"Narman Malla"},"vote_count":1,"created_on":"2019-12-25T12:58:16.409345+05:45"},{"idx":"2VTbMpgZN7Z8ewh4bKnCzF","contest":"Model Superstar","episode":"Model Superstar","category":null,"contestant":{"voting_id":"07","name":"Narman Malla"},"vote_count":1,"created_on":"2019-12-25T12:57:47.749697+05:45"},{"idx":"djwoWc7MXRMYCVAGFvCbXo","contest":"Model Superstar","episode":"Model Superstar","category":null,"contestant":{"voting_id":"07","name":"Narman Malla"},"vote_count":1,"created_on":"2019-12-25T12:54:20.657291+05:45"},{"idx":"rPuas4Y8UX5a7QPsRvaDjk","contest":"Model Superstar","episode":"Model Superstar","category":null,"contestant":{"voting_id":"07","name":"Narman Malla"},"vote_count":1,"created_on":"2019-12-25T12:54:07.321973+05:45"},{"idx":"6vV5ZwDbyUUshTnSoPNKQG","contest":"Model Superstar","episode":"Model Superstar","category":null,"contestant":{"voting_id":"07","name":"Narman Malla"},"vote_count":1,"created_on":"2019-12-25T12:51:06.794536+05:45"},{"idx":"78DXEZXnrouvhUSiFQm4pn","contest":"Model Superstar","episode":"Model Superstar","category":null,"contestant":{"voting_id":"07","name":"Narman Malla"},"vote_count":1,"created_on":"2019-12-25T12:50:07.329521+05:45"},{"idx":"bw9G89yJomtk2yqNQNJ7dL","contest":"Model Superstar","episode":"Model Superstar","category":null,"contestant":{"voting_id":"09","name":"Sagar Ghimire"},"vote_count":1,"created_on":"2019-12-25T12:49:44.488333+05:45"},{"idx":"aa2dATX7eKWiKQGs6AJwP2","contest":"Model Superstar","episode":"Model Superstar","category":null,"contestant":{"voting_id":"07","name":"Narman Malla"},"vote_count":1,"created_on":"2019-12-25T12:49:21.793094+05:45"},{"idx":"hzToAVzFBVAH2QT4B5BVz7","contest":"Model Superstar","episode":"Model Superstar","category":null,"contestant":{"voting_id":"07","name":"Narman Malla"},"vote_count":1,"created_on":"2019-12-25T12:49:07.251648+05:45"},{"idx":"tb85HpJe4bLszfDcHNB6pL","contest":"Model Superstar","episode":"Model Superstar","category":null,"contestant":{"voting_id":"07","name":"Narman Malla"},"vote_count":1,"created_on":"2019-12-25T12:48:01.796223+05:45"},{"idx":"qW2VnzA5oGr4y8BDag7zt6","contest":"Model Superstar","episode":"Model Superstar","category":null,"contestant":{"voting_id":"07","name":"Narman Malla"},"vote_count":1,"created_on":"2019-12-25T12:48:00.341121+05:45"},{"idx":"an7Z2TPrhsN6kFkt7Db3y3","contest":"Model Superstar","episode":"Model Superstar","category":null,"contestant":{"voting_id":"07","name":"Narman Malla"},"vote_count":1,"created_on":"2019-12-25T12:46:36.430414+05:45"},{"idx":"WA2XxcbqLbZffvSv8PeeoT","contest":"Model Superstar","episode":"Model Superstar","category":null,"contestant":{"voting_id":"07","name":"Narman Malla"},"vote_count":1,"created_on":"2019-12-25T12:46:24.629575+05:45"},{"idx":"hu97qEetXyf4nXwvvRwRgc","contest":"Model Superstar","episode":"Model Superstar","category":null,"contestant":{"voting_id":"07","name":"Narman Malla"},"vote_count":1,"created_on":"2019-12-25T12:44:28.787880+05:45"},{"idx":"HxXbgtdm7SsHgf8CNmJamK","contest":"Model Superstar","episode":"Model Superstar","category":null,"contestant":{"voting_id":"07","name":"Narman Malla"},"vote_count":1,"created_on":"2019-12-25T12:44:13.809310+05:45"},{"idx":"5tpVt5n5NdzS3nyuxDuNJe","contest":"Model Superstar","episode":"Model Superstar","category":null,"contestant":{"voting_id":"07","name":"Narman Malla"},"vote_count":1,"created_on":"2019-12-25T12:43:57.763436+05:45"},{"idx":"p3M8NM5Gsqpufj3YhQ4wK9","contest":"Model Superstar","episode":"Model Superstar","category":null,"contestant":{"voting_id":"07","name":"Narman Malla"},"vote_count":1,"created_on":"2019-12-25T12:43:44.673136+05:45"},{"idx":"9ESLvtK8PRT7UjstJa7XAB","contest":"NEPALBHASA STAR MUSIC VIDEO AWARDS-2019","episode":null,"category":"BEST MUSIC VIDEO","contestant":{"voting_id":"1J","name":"Ashok Maharjan"},"vote_count":1,"created_on":"2019-12-25T12:43:29.330045+05:45"},{"idx":"5bCHZmTzs6PsrrS3tSuPHN","contest":"Model Superstar","episode":"Model Superstar","category":null,"contestant":{"voting_id":"07","name":"Narman Malla"},"vote_count":1,"created_on":"2019-12-25T12:42:13.767051+05:45"},{"idx":"HwiqCYVXLot4VJwCtnaPn6","contest":"Model Superstar","episode":"Model Superstar","category":null,"contestant":{"voting_id":"07","name":"Narman Malla"},"vote_count":1,"created_on":"2019-12-25T12:41:40.469438+05:45"},{"idx":"tWQ5LJ7zbjsydR8wB9WpHJ","contest":"Model Superstar","episode":"Model Superstar","category":null,"contestant":{"voting_id":"14","name":"Ashish Shakya"},"vote_count":1,"created_on":"2019-12-25T12:17:43.763462+05:45"},{"idx":"NrajouqXsXSg4NhuuiA5NS","contest":"Model Superstar","episode":"Model Superstar","category":null,"contestant":{"voting_id":"07","name":"Narman Malla"},"vote_count":1,"created_on":"2019-12-25T12:08:32.865320+05:45"},{"idx":"k6SebnQUh3DvEL6pzedQmn","contest":"Model Superstar","episode":"Model Superstar","category":null,"contestant":{"voting_id":"07","name":"Narman Malla"},"vote_count":1,"created_on":"2019-12-25T12:03:55.398510+05:45"},{"idx":"MYB7KPP4u5fgpzWi3ohpKD","contest":"Model Superstar","episode":"Model Superstar","category":null,"contestant":{"voting_id":"07","name":"Narman Malla"},"vote_count":1,"created_on":"2019-12-25T12:02:16.441556+05:45"},{"idx":"XDbF7y92PkV9WpcBDrWZJT","contest":"Model Superstar","episode":"Model Superstar","category":null,"contestant":{"voting_id":"07","name":"Narman Malla"},"vote_count":1,"created_on":"2019-12-25T12:01:13.401105+05:45"},{"idx":"RKY6ZnrYXh5QPj4WbDnAAK","contest":"Model Superstar","episode":"Model Superstar","category":null,"contestant":{"voting_id":"07","name":"Narman Malla"},"vote_count":1,"created_on":"2019-12-25T12:01:01.446107+05:45"},{"idx":"t836cG4EfbSJZBB8edgicU","contest":"Model Superstar","episode":"Model Superstar","category":null,"contestant":{"voting_id":"07","name":"Narman Malla"},"vote_count":1,"created_on":"2019-12-25T12:00:48.052376+05:45"},{"idx":"VRZKGLAQapBsdgHVAP9w4G","contest":"Model Superstar","episode":"Model Superstar","category":null,"contestant":{"voting_id":"07","name":"Narman Malla"},"vote_count":1,"created_on":"2019-12-25T12:00:25.475803+05:45"},{"idx":"22D7Ct3bFzLNLLSGi3AycQ","contest":"Model Superstar","episode":"Model Superstar","category":null,"contestant":{"voting_id":"07","name":"Narman Malla"},"vote_count":1,"created_on":"2019-12-25T12:00:13.201242+05:45"},{"idx":"FVXbLjUP5TALPwRqfavCMk","contest":"Model Superstar","episode":"Model Superstar","category":null,"contestant":{"voting_id":"07","name":"Narman Malla"},"vote_count":1,"created_on":"2019-12-25T11:59:43.742154+05:45"},{"idx":"GGUtQcodT2sUfxNLTQgtbV","contest":"Model Superstar","episode":"Model Superstar","category":null,"contestant":{"voting_id":"07","name":"Narman Malla"},"vote_count":1,"created_on":"2019-12-25T11:59:30.827065+05:45"},{"idx":"uZ64Sjq9GZLG8odmnoVdW2","contest":"Model Superstar","episode":"Model Superstar","category":null,"contestant":{"voting_id":"07","name":"Narman Malla"},"vote_count":1,"created_on":"2019-12-25T11:59:10.790737+05:45"},{"idx":"WC9Jd4oQdjzqLjnsnsPHei","contest":"Model Superstar","episode":"Model Superstar","category":null,"contestant":{"voting_id":"07","name":"Narman Malla"},"vote_count":1,"created_on":"2019-12-25T11:57:10.720287+05:45"},{"idx":"89wyemgjVx97yYu8kCLDhi","contest":"Model Superstar","episode":"Model Superstar","category":null,"contestant":{"voting_id":"07","name":"Narman Malla"},"vote_count":1,"created_on":"2019-12-25T11:56:41.477712+05:45"},{"idx":"ixZDgrLVvRRdXMaLzjgjdC","contest":"Model Superstar","episode":"Model Superstar","category":null,"contestant":{"voting_id":"14","name":"Ashish Shakya"},"vote_count":1,"created_on":"2019-12-25T11:53:19.017489+05:45"},{"idx":"ShksSRPEvZAdcjxchZufEd","contest":"Model Superstar","episode":"Model Superstar","category":null,"contestant":{"voting_id":"14","name":"Ashish Shakya"},"vote_count":1,"created_on":"2019-12-25T11:52:52.092054+05:45"},{"idx":"pd4nSLkhEtCtMhssCgiMhT","contest":"Model Superstar","episode":"Model Superstar","category":null,"contestant":{"voting_id":"14","name":"Ashish Shakya"},"vote_count":1,"created_on":"2019-12-25T11:52:28.488460+05:45"}]}