{"total_pages":275,"total_records":13721,"next":"https://khalti.com/api/v2/vuservote/?page=228","previous":"https://khalti.com/api/v2/vuservote/?page=226","record_range":[11301,11350],"current_page":227,"records":[{"idx":"t5QDRjevTJMfSj3er3K8Yd","contest":"Model Superstar","episode":"Model Superstar","category":null,"contestant":{"voting_id":"14","name":"Ashish Shakya"},"vote_count":1,"created_on":"2019-12-25T11:51:40.715654+05:45"},{"idx":"MGHxsMDfxV3zRakox98H8P","contest":"Model Superstar","episode":"Model Superstar","category":null,"contestant":{"voting_id":"14","name":"Ashish Shakya"},"vote_count":1,"created_on":"2019-12-25T11:51:14.996601+05:45"},{"idx":"wevUceafVwWXrbptySsTjM","contest":"Model Superstar","episode":"Model Superstar","category":null,"contestant":{"voting_id":"14","name":"Ashish Shakya"},"vote_count":1,"created_on":"2019-12-25T11:50:51.676370+05:45"},{"idx":"bJGrnkfcpJfDgbLHy3tDUj","contest":"Model Superstar","episode":"Model Superstar","category":null,"contestant":{"voting_id":"14","name":"Ashish Shakya"},"vote_count":1,"created_on":"2019-12-25T11:50:23.800709+05:45"},{"idx":"5aAbXusCvwvSYv9GYqENQj","contest":"Model Superstar","episode":"Model Superstar","category":null,"contestant":{"voting_id":"14","name":"Ashish Shakya"},"vote_count":1,"created_on":"2019-12-25T11:49:59.781732+05:45"},{"idx":"GZbdinP5jyGCzjJtBxNmT4","contest":"Model Superstar","episode":"Model Superstar","category":null,"contestant":{"voting_id":"14","name":"Ashish Shakya"},"vote_count":1,"created_on":"2019-12-25T11:24:04.086073+05:45"},{"idx":"hLRoCb8BBHiFKTcNygb8tF","contest":"Model Superstar","episode":"Model Superstar","category":null,"contestant":{"voting_id":"14","name":"Ashish Shakya"},"vote_count":1,"created_on":"2019-12-25T11:23:35.555102+05:45"},{"idx":"b3afWw5vJJQxXs7eQQstpf","contest":"Model Superstar","episode":"Model Superstar","category":null,"contestant":{"voting_id":"14","name":"Ashish Shakya"},"vote_count":1,"created_on":"2019-12-25T11:23:14.046926+05:45"},{"idx":"f4nWfkn8ePBs6TFZxNJxdi","contest":"Model Superstar","episode":"Model Superstar","category":null,"contestant":{"voting_id":"14","name":"Ashish Shakya"},"vote_count":1,"created_on":"2019-12-25T11:22:50.420961+05:45"},{"idx":"96SWgmghdV6Bzj9amM3DsR","contest":"Model Superstar","episode":"Model Superstar","category":null,"contestant":{"voting_id":"14","name":"Ashish Shakya"},"vote_count":1,"created_on":"2019-12-25T11:22:24.165822+05:45"},{"idx":"7p87Hvmakos4RorVAJXPV9","contest":"Model Superstar","episode":"Model Superstar","category":null,"contestant":{"voting_id":"14","name":"Ashish Shakya"},"vote_count":1,"created_on":"2019-12-25T11:21:56.028500+05:45"},{"idx":"2t2EpokqRPPXGDcynqMaCE","contest":"Model Superstar","episode":"Model Superstar","category":null,"contestant":{"voting_id":"14","name":"Ashish Shakya"},"vote_count":1,"created_on":"2019-12-25T11:16:54.911138+05:45"},{"idx":"reYJtSh8gzzzHsofUH2hHi","contest":"Model Superstar","episode":"Model Superstar","category":null,"contestant":{"voting_id":"14","name":"Ashish Shakya"},"vote_count":1,"created_on":"2019-12-25T11:16:34.098686+05:45"},{"idx":"BJJ9imUeQeAYJ3FLXr9Vai","contest":"Model Superstar","episode":"Model Superstar","category":null,"contestant":{"voting_id":"14","name":"Ashish Shakya"},"vote_count":1,"created_on":"2019-12-25T11:16:14.074156+05:45"},{"idx":"VJ9GBMyGPcjC3qbC3aA55g","contest":"Model Superstar","episode":"Model Superstar","category":null,"contestant":{"voting_id":"14","name":"Ashish Shakya"},"vote_count":1,"created_on":"2019-12-25T11:15:41.502582+05:45"},{"idx":"yiacwocoVau5ZqQc3AhEmG","contest":"Model Superstar","episode":"Model Superstar","category":null,"contestant":{"voting_id":"14","name":"Ashish Shakya"},"vote_count":1,"created_on":"2019-12-25T11:15:17.231313+05:45"},{"idx":"bn8FHFe7WybCh6ocoUx96X","contest":"Model Superstar","episode":"Model Superstar","category":null,"contestant":{"voting_id":"14","name":"Ashish Shakya"},"vote_count":1,"created_on":"2019-12-25T11:14:22.512208+05:45"},{"idx":"Nt4Uuxvgr5xRqRb4cb7nfT","contest":"Model Superstar","episode":"Model Superstar","category":null,"contestant":{"voting_id":"14","name":"Ashish Shakya"},"vote_count":1,"created_on":"2019-12-25T11:14:03.242494+05:45"},{"idx":"3fmnrhGJLzuMo4zzqt6LVf","contest":"Model Superstar","episode":"Model Superstar","category":null,"contestant":{"voting_id":"14","name":"Ashish Shakya"},"vote_count":1,"created_on":"2019-12-25T11:13:39.321459+05:45"},{"idx":"AqGmjwNDV6HLvtp2wJBQTg","contest":"Model Superstar","episode":"Model Superstar","category":null,"contestant":{"voting_id":"14","name":"Ashish Shakya"},"vote_count":1,"created_on":"2019-12-25T11:13:15.460672+05:45"},{"idx":"dT7osThjEedSSpVBbRtPHR","contest":"Model Superstar","episode":"Model Superstar","category":null,"contestant":{"voting_id":"14","name":"Ashish Shakya"},"vote_count":1,"created_on":"2019-12-25T11:12:48.011858+05:45"},{"idx":"9dC44WGtBs6TTHRPayi8eE","contest":"Model Superstar","episode":"Model Superstar","category":null,"contestant":{"voting_id":"14","name":"Ashish Shakya"},"vote_count":1,"created_on":"2019-12-25T11:12:20.675177+05:45"},{"idx":"gnsiwNscLKq4LKTdHxC9Ho","contest":"Model Superstar","episode":"Model Superstar","category":null,"contestant":{"voting_id":"14","name":"Ashish Shakya"},"vote_count":1,"created_on":"2019-12-25T11:11:51.444862+05:45"},{"idx":"nHCYXcMyNwy4TXpMSDEc2e","contest":"Model Superstar","episode":"Model Superstar","category":null,"contestant":{"voting_id":"14","name":"Ashish Shakya"},"vote_count":1,"created_on":"2019-12-25T11:11:26.605273+05:45"},{"idx":"hhc2t4Mdhvv54BrvNakaYj","contest":"Model Superstar","episode":"Model Superstar","category":null,"contestant":{"voting_id":"14","name":"Ashish Shakya"},"vote_count":1,"created_on":"2019-12-25T11:10:37.969018+05:45"},{"idx":"7BukhGnXuSsioTBBudaqLH","contest":"Model Superstar","episode":"Model Superstar","category":null,"contestant":{"voting_id":"14","name":"Ashish Shakya"},"vote_count":1,"created_on":"2019-12-25T11:10:09.176133+05:45"},{"idx":"c9Cnq9MfaDcaydLvoqhJmU","contest":"Model Superstar","episode":"Model Superstar","category":null,"contestant":{"voting_id":"14","name":"Ashish Shakya"},"vote_count":1,"created_on":"2019-12-25T11:09:45.562517+05:45"},{"idx":"BdTaSYjjAfMJqSvKeim5Jj","contest":"Model Superstar","episode":"Model Superstar","category":null,"contestant":{"voting_id":"14","name":"Ashish Shakya"},"vote_count":1,"created_on":"2019-12-25T11:09:22.111807+05:45"},{"idx":"gDqcEaRN4rnNrhCeLZbtLZ","contest":"Model Superstar","episode":"Model Superstar","category":null,"contestant":{"voting_id":"14","name":"Ashish Shakya"},"vote_count":1,"created_on":"2019-12-25T11:08:35.917303+05:45"},{"idx":"qxS8yedQcJEbx5Dc38AhzU","contest":"Model Superstar","episode":"Model Superstar","category":null,"contestant":{"voting_id":"14","name":"Ashish Shakya"},"vote_count":1,"created_on":"2019-12-25T11:08:08.296052+05:45"},{"idx":"VHrvWrDhoZMne23swU2BZ2","contest":"Model Superstar","episode":"Model Superstar","category":null,"contestant":{"voting_id":"14","name":"Ashish Shakya"},"vote_count":1,"created_on":"2019-12-25T11:07:42.602031+05:45"},{"idx":"iP7zvzxS6kGvimyG5KoLJN","contest":"Model Superstar","episode":"Model Superstar","category":null,"contestant":{"voting_id":"14","name":"Ashish Shakya"},"vote_count":1,"created_on":"2019-12-25T11:07:03.260753+05:45"},{"idx":"4LjKUYuzCbRbmA3a9RrDkT","contest":"Model Superstar","episode":"Model Superstar","category":null,"contestant":{"voting_id":"14","name":"Ashish Shakya"},"vote_count":1,"created_on":"2019-12-25T11:06:35.745746+05:45"},{"idx":"oNVkBJxjExzMMFkK5AtodB","contest":"Model Superstar","episode":"Model Superstar","category":null,"contestant":{"voting_id":"14","name":"Ashish Shakya"},"vote_count":1,"created_on":"2019-12-25T11:05:13.163150+05:45"},{"idx":"MBezyDmRbBFQzRWtbtvjce","contest":"Model Superstar","episode":"Model Superstar","category":null,"contestant":{"voting_id":"14","name":"Ashish Shakya"},"vote_count":1,"created_on":"2019-12-25T11:04:05.834449+05:45"},{"idx":"icchaUDvzgD6UfFpXj5y29","contest":"Model Superstar","episode":"Model Superstar","category":null,"contestant":{"voting_id":"14","name":"Ashish Shakya"},"vote_count":50,"created_on":"2019-12-25T11:01:27.378366+05:45"},{"idx":"bcAHdJQYY7Ewqk5y4c34RR","contest":"Model Superstar","episode":"Model Superstar","category":null,"contestant":{"voting_id":"14","name":"Ashish Shakya"},"vote_count":1,"created_on":"2019-12-25T10:59:48.801962+05:45"},{"idx":"oULvpfMoxqMreZyFxXfXh8","contest":"Model Superstar","episode":"Model Superstar","category":null,"contestant":{"voting_id":"14","name":"Ashish Shakya"},"vote_count":1,"created_on":"2019-12-25T10:56:17.493222+05:45"},{"idx":"rXQ5pXJqmYosV6JFZnZSAN","contest":"Model Superstar","episode":"Model Superstar","category":null,"contestant":{"voting_id":"14","name":"Ashish Shakya"},"vote_count":1,"created_on":"2019-12-25T10:55:46.010854+05:45"},{"idx":"JAsNyftKVAVqk79kdrZcoj","contest":"Model Superstar","episode":"Model Superstar","category":null,"contestant":{"voting_id":"09","name":"Sagar Ghimire"},"vote_count":1,"created_on":"2019-12-25T10:55:06.890033+05:45"},{"idx":"QCK7AthwotJUJEDBMhaUdX","contest":"Model Superstar","episode":"Model Superstar","category":null,"contestant":{"voting_id":"14","name":"Ashish Shakya"},"vote_count":1,"created_on":"2019-12-25T10:48:47.805681+05:45"},{"idx":"9rt6cs5TJqDq2hzWicp2hH","contest":"NEPALBHASA STAR MUSIC VIDEO AWARDS-2019","episode":null,"category":"THE RISING STAR SINGER","contestant":{"voting_id":"21E","name":"Purna Man Maharjan"},"vote_count":1,"created_on":"2019-12-25T10:46:59.457211+05:45"},{"idx":"M6pPiaC8n9PRjpCNuGSeBM","contest":"Model Superstar","episode":"Model Superstar","category":null,"contestant":{"voting_id":"14","name":"Ashish Shakya"},"vote_count":1,"created_on":"2019-12-25T10:41:56.787115+05:45"},{"idx":"KY7EygzvZwSjhhwxE5RhTm","contest":"Model Superstar","episode":"Model Superstar","category":null,"contestant":{"voting_id":"14","name":"Ashish Shakya"},"vote_count":1,"created_on":"2019-12-25T10:40:43.486462+05:45"},{"idx":"2LUaxEzyw7Cc7RNWEzYsbV","contest":"Model Superstar","episode":"Model Superstar","category":null,"contestant":{"voting_id":"14","name":"Ashish Shakya"},"vote_count":1,"created_on":"2019-12-25T10:40:25.181108+05:45"},{"idx":"hW8CqnDAWmXPaNG4iy6Tzd","contest":"Model Superstar","episode":"Model Superstar","category":null,"contestant":{"voting_id":"14","name":"Ashish Shakya"},"vote_count":1,"created_on":"2019-12-25T10:39:25.408455+05:45"},{"idx":"6HBsDqeCUmX3hzfSWFG3nT","contest":"Model Superstar","episode":"Model Superstar","category":null,"contestant":{"voting_id":"14","name":"Ashish Shakya"},"vote_count":1,"created_on":"2019-12-25T10:36:29.912410+05:45"},{"idx":"2VyEC4UHMMGhAc8JqY2sad","contest":"Model Superstar","episode":"Model Superstar","category":null,"contestant":{"voting_id":"14","name":"Ashish Shakya"},"vote_count":1,"created_on":"2019-12-25T10:35:59.375440+05:45"},{"idx":"5hw6f6WeCBwux84Hpe54Lm","contest":"Model Superstar","episode":"Model Superstar","category":null,"contestant":{"voting_id":"07","name":"Narman Malla"},"vote_count":1,"created_on":"2019-12-25T10:33:52.578220+05:45"},{"idx":"zx86DYQP6cCSinfbfp46Xf","contest":"NEPALBHASA STAR MUSIC VIDEO AWARDS-2019","episode":null,"category":"BEST DEBUT MODEL, MALE","contestant":{"voting_id":"12I","name":"Nirajan Pradhan"},"vote_count":1,"created_on":"2019-12-25T10:32:32.931282+05:45"}]}