{"total_pages":275,"total_records":13721,"next":"https://khalti.com/api/v2/vuservote/?page=229","previous":"https://khalti.com/api/v2/vuservote/?page=227","record_range":[11351,11400],"current_page":228,"records":[{"idx":"oR5h7VB34nczpaTqcAAaTT","contest":"Model Superstar","episode":"Model Superstar","category":null,"contestant":{"voting_id":"14","name":"Ashish Shakya"},"vote_count":1,"created_on":"2019-12-25T10:30:33.235729+05:45"},{"idx":"ybKQy8W4cRRYXiXddNukij","contest":"Model Superstar","episode":"Model Superstar","category":null,"contestant":{"voting_id":"06","name":"Sujan Basnet"},"vote_count":1,"created_on":"2019-12-25T10:23:51.769458+05:45"},{"idx":"zzpbnFhQnabj4yoCQrcdw7","contest":"Model Superstar","episode":"Model Superstar","category":null,"contestant":{"voting_id":"14","name":"Ashish Shakya"},"vote_count":1,"created_on":"2019-12-25T10:22:59.588925+05:45"},{"idx":"fpCDfRiewJAC2M86iHyxLZ","contest":"Model Superstar","episode":"Model Superstar","category":null,"contestant":{"voting_id":"14","name":"Ashish Shakya"},"vote_count":1,"created_on":"2019-12-25T10:22:41.516985+05:45"},{"idx":"YPERGTRyRYyweuLFKBaTzV","contest":"Model Superstar","episode":"Model Superstar","category":null,"contestant":{"voting_id":"14","name":"Ashish Shakya"},"vote_count":1,"created_on":"2019-12-25T10:22:27.283303+05:45"},{"idx":"GvadbNuS4UpNcjFoKGT8kF","contest":"Model Superstar","episode":"Model Superstar","category":null,"contestant":{"voting_id":"14","name":"Ashish Shakya"},"vote_count":1,"created_on":"2019-12-25T10:22:12.491172+05:45"},{"idx":"JTztUpjYwteLb8dj4tdFPN","contest":"Model Superstar","episode":"Model Superstar","category":null,"contestant":{"voting_id":"14","name":"Ashish Shakya"},"vote_count":1,"created_on":"2019-12-25T10:21:55.539310+05:45"},{"idx":"g3duQ7czjxHGLnbnZDmmc6","contest":"Model Superstar","episode":"Model Superstar","category":null,"contestant":{"voting_id":"14","name":"Ashish Shakya"},"vote_count":1,"created_on":"2019-12-25T10:21:37.247981+05:45"},{"idx":"hhVvXbFy6PoafmwP4bg6uh","contest":"Model Superstar","episode":"Model Superstar","category":null,"contestant":{"voting_id":"13","name":"Prashant Shah"},"vote_count":1,"created_on":"2019-12-25T10:16:32.915576+05:45"},{"idx":"LGhzcL5JSU9xfUcYc2nsfd","contest":"Model Superstar","episode":"Model Superstar","category":null,"contestant":{"voting_id":"12","name":"Rabin Ghising"},"vote_count":1,"created_on":"2019-12-25T10:01:33.097213+05:45"},{"idx":"zg7ibwaxKFSYigkzi4yfTC","contest":"Model Superstar","episode":"Model Superstar","category":null,"contestant":{"voting_id":"14","name":"Ashish Shakya"},"vote_count":1,"created_on":"2019-12-25T10:01:20.009640+05:45"},{"idx":"ATBPk59gcbz5mxtbyNqBxk","contest":"Model Superstar","episode":"Model Superstar","category":null,"contestant":{"voting_id":"14","name":"Ashish Shakya"},"vote_count":1,"created_on":"2019-12-25T10:00:28.284476+05:45"},{"idx":"hQtobDbSd5urLvS2ZuY6tb","contest":"Model Superstar","episode":"Model Superstar","category":null,"contestant":{"voting_id":"22","name":"Sunil Laudrey"},"vote_count":1,"created_on":"2019-12-25T09:58:29.694433+05:45"},{"idx":"zS2j8eaWu8VvF5Vj2Lo9mX","contest":"Model Superstar","episode":"Model Superstar","category":null,"contestant":{"voting_id":"12","name":"Rabin Ghising"},"vote_count":1,"created_on":"2019-12-25T09:58:13.027788+05:45"},{"idx":"DTLJUjPnG93bTFhjqK3piN","contest":"Model Superstar","episode":"Model Superstar","category":null,"contestant":{"voting_id":"06","name":"Sujan Basnet"},"vote_count":1,"created_on":"2019-12-25T09:56:25.934511+05:45"},{"idx":"pHMNrTF9RyM2opDogfUtJX","contest":"Model Superstar","episode":"Model Superstar","category":null,"contestant":{"voting_id":"21","name":"Padam Bahadur Ranamagar"},"vote_count":1,"created_on":"2019-12-25T09:56:05.090100+05:45"},{"idx":"Ne4GqqHU953UrHHkrs4o3K","contest":"Model Superstar","episode":"Model Superstar","category":null,"contestant":{"voting_id":"14","name":"Ashish Shakya"},"vote_count":1,"created_on":"2019-12-25T09:55:45.983055+05:45"},{"idx":"KWvHFTyCBcEEvLboSfJKaE","contest":"Model Superstar","episode":"Model Superstar","category":null,"contestant":{"voting_id":"14","name":"Ashish Shakya"},"vote_count":1,"created_on":"2019-12-25T09:55:26.106806+05:45"},{"idx":"rTxx6cfU4NuwFLa3wPEry4","contest":"Model Superstar","episode":"Model Superstar","category":null,"contestant":{"voting_id":"14","name":"Ashish Shakya"},"vote_count":1,"created_on":"2019-12-25T09:55:02.438164+05:45"},{"idx":"e8XaE44fubHEgH9DaGrM2m","contest":"Model Superstar","episode":"Model Superstar","category":null,"contestant":{"voting_id":"07","name":"Narman Malla"},"vote_count":1,"created_on":"2019-12-25T09:53:19.270232+05:45"},{"idx":"xVtKGeU3jCUiygiPvYNxj4","contest":"Model Superstar","episode":"Model Superstar","category":null,"contestant":{"voting_id":"04","name":"Sabita Maharjan"},"vote_count":1,"created_on":"2019-12-25T09:52:49.882464+05:45"},{"idx":"8bGZKjRZRubbxmJ4uT5ooE","contest":"Model Superstar","episode":"Model Superstar","category":null,"contestant":{"voting_id":"12","name":"Rabin Ghising"},"vote_count":1,"created_on":"2019-12-25T09:52:16.081988+05:45"},{"idx":"6mZYyaxmr2cBT4xm7xt4BB","contest":"NEPALBHASA STAR MUSIC VIDEO AWARDS-2019","episode":null,"category":"BEST MUSIC DIRECTOR","contestant":{"voting_id":"6C","name":"Purna Man Maharjan "},"vote_count":1,"created_on":"2019-12-25T09:48:49.407460+05:45"},{"idx":"4LvCH9YMmpFitSAHWrGYUh","contest":"NEPALBHASA STAR MUSIC VIDEO AWARDS-2019","episode":null,"category":"BEST MUSIC VIDEO","contestant":{"voting_id":"1J","name":"Ashok Maharjan"},"vote_count":1,"created_on":"2019-12-25T08:43:00.725198+05:45"},{"idx":"xXV5QDjdx3ttf9c8QKccFo","contest":"NEPALBHASA STAR MUSIC VIDEO AWARDS-2019","episode":null,"category":"BEST MUSIC ARRANGER","contestant":{"voting_id":"15A","name":"Dr. Gopal Maharjan"},"vote_count":1,"created_on":"2019-12-25T08:42:18.407535+05:45"},{"idx":"aykzAucokkzubuKdnmEBMQ","contest":"NEPALBHASA STAR MUSIC VIDEO AWARDS-2019","episode":null,"category":"BEST MODEL, FEMALE","contestant":{"voting_id":"13B","name":"Ashishma Nakarmi"},"vote_count":1,"created_on":"2019-12-25T08:41:40.921923+05:45"},{"idx":"RnsKak32fgndGphuJE2AKD","contest":"NEPALBHASA STAR MUSIC VIDEO AWARDS-2019","episode":null,"category":"BEST DEBUT MODEL, FEMALE","contestant":{"voting_id":"14C","name":"Rakshya Shrestha"},"vote_count":1,"created_on":"2019-12-25T08:41:01.273871+05:45"},{"idx":"gjyAxyoe2Cb4Z73h4jtBRj","contest":"NEPALBHASA STAR MUSIC VIDEO AWARDS-2019","episode":null,"category":"BEST SINGER, MALE","contestant":{"voting_id":"15A","name":"Dr. Gopal Maharjan"},"vote_count":1,"created_on":"2019-12-25T08:40:35.614471+05:45"},{"idx":"UW5AxZxRZckAPkiRNpCRTM","contest":"NEPALBHASA STAR MUSIC VIDEO AWARDS-2019","episode":null,"category":"BEST DEBUT SINGER, MALE","contestant":{"voting_id":"16A","name":"Tirthaman Maharjan"},"vote_count":1,"created_on":"2019-12-25T08:40:12.774228+05:45"},{"idx":"6HQzyQYSVACHcdkyiTVCUM","contest":"NEPALBHASA STAR MUSIC VIDEO AWARDS-2019","episode":null,"category":"BEST Singer,FEMALE","contestant":{"voting_id":"17C","name":"Pooja Sunuwar"},"vote_count":1,"created_on":"2019-12-25T08:39:47.099119+05:45"},{"idx":"8PpEGBDzzT7co8Y6PkGQkn","contest":"NEPALBHASA STAR MUSIC VIDEO AWARDS-2019","episode":null,"category":"BEST DEBUT SINGER, FEMALE","contestant":{"voting_id":"18C","name":"KalpanaKapali"},"vote_count":1,"created_on":"2019-12-25T08:39:20.460059+05:45"},{"idx":"7EBrJZey6h6gXHuRWnGwDZ","contest":"NEPALBHASA STAR MUSIC VIDEO AWARDS-2019","episode":null,"category":"BEST DANCE DIRECTOR","contestant":{"voting_id":"19E","name":"Aaradhya Laxmi Khadgi"},"vote_count":1,"created_on":"2019-12-25T08:38:46.425053+05:45"},{"idx":"wcpcpYUZEi4wSexZEDgqWS","contest":"NEPALBHASA STAR MUSIC VIDEO AWARDS-2019","episode":null,"category":"BEST DIRECTOR","contestant":{"voting_id":"20F","name":"Sunita Rajbhandari"},"vote_count":1,"created_on":"2019-12-25T08:37:58.422825+05:45"},{"idx":"pSVvMuwDS5soEK8CDKzvMW","contest":"NEPALBHASA STAR MUSIC VIDEO AWARDS-2019","episode":null,"category":"THE RISING STAR SINGER","contestant":{"voting_id":"21A","name":"Macha Raja Maharjan"},"vote_count":1,"created_on":"2019-12-25T08:37:25.376854+05:45"},{"idx":"3H6EBP9zsBrXZCV5KwM4UT","contest":"NEPALBHASA STAR MUSIC VIDEO AWARDS-2019","episode":null,"category":"BEST MODEL, FEMALE","contestant":{"voting_id":"13H","name":"Sarita Bajracharya"},"vote_count":1,"created_on":"2019-12-25T08:02:18.189816+05:45"},{"idx":"HaGUvwgXwrWFNq2KtTJ3Ef","contest":"NEPALBHASA STAR MUSIC VIDEO AWARDS-2019","episode":null,"category":"BEST MUSIC ARRANGER","contestant":{"voting_id":"5F","name":"Sachin Singh"},"vote_count":1,"created_on":"2019-12-25T08:02:07.249764+05:45"},{"idx":"d3mRRm829BctFzQNpWK2of","contest":"NEPALBHASA STAR MUSIC VIDEO AWARDS-2019","episode":null,"category":"BEST LYRICIST","contestant":{"voting_id":"4E","name":"Dr. Chandra Man Bajracharya"},"vote_count":1,"created_on":"2019-12-25T08:01:48.763756+05:45"},{"idx":"4MK4juZZMCKSKqPjYbh7hB","contest":"NEPALBHASA STAR MUSIC VIDEO AWARDS-2019","episode":null,"category":"BEST DRESS DESIGNER","contestant":{"voting_id":"3J","name":"Jyotsana Maharjan"},"vote_count":1,"created_on":"2019-12-25T08:01:35.372672+05:45"},{"idx":"pV2VXAtmbknRsSMzBRDDXc","contest":"NEPALBHASA STAR MUSIC VIDEO AWARDS-2019","episode":null,"category":"BEST MAKE UP ARTIST","contestant":{"voting_id":"2I","name":"Matina Maharjan"},"vote_count":1,"created_on":"2019-12-25T08:01:23.986467+05:45"},{"idx":"YhRXuASccKRcQcscYexmvA","contest":"NEPALBHASA STAR MUSIC VIDEO AWARDS-2019","episode":null,"category":"BEST MUSIC VIDEO","contestant":{"voting_id":"1J","name":"Ashok Maharjan"},"vote_count":1,"created_on":"2019-12-25T08:01:10.334837+05:45"},{"idx":"AjrBpTTD5ezp6imr89HPnL","contest":"NEPALBHASA STAR MUSIC VIDEO AWARDS-2019","episode":null,"category":"BEST VIDEO EDITOR","contestant":{"voting_id":"9J","name":"Amrit Man Maharjan"},"vote_count":1,"created_on":"2019-12-25T08:00:59.182754+05:45"},{"idx":"nCtYGTvtmTCTd8CQXDshiK","contest":"NEPALBHASA STAR MUSIC VIDEO AWARDS-2019","episode":null,"category":"BEST MODEL, MALE","contestant":{"voting_id":"11J","name":"Rajendra Kumar Maharjan"},"vote_count":1,"created_on":"2019-12-25T08:00:43.901509+05:45"},{"idx":"X9YGUH2JUYHHkhjSKYUYyW","contest":"NEPALBHASA STAR MUSIC VIDEO AWARDS-2019","episode":null,"category":"BEST DEBUT SINGER, FEMALE","contestant":{"voting_id":"18G","name":"Devi Khadgi"},"vote_count":1,"created_on":"2019-12-25T08:00:21.643928+05:45"},{"idx":"HRiXh5XZ8X3USm7MhKPufZ","contest":"NEPALBHASA STAR MUSIC VIDEO AWARDS-2019","episode":null,"category":"BEST DIRECTOR","contestant":{"voting_id":"20G","name":"Hriday Prasad Mishra"},"vote_count":1,"created_on":"2019-12-25T08:00:00.656422+05:45"},{"idx":"tFTZCpgBcvGf5osfQJaCQi","contest":"NEPALBHASA STAR MUSIC VIDEO AWARDS-2019","episode":null,"category":"BEST Singer,FEMALE","contestant":{"voting_id":"17F","name":"Sonam Maharjan"},"vote_count":1,"created_on":"2019-12-25T07:59:21.234329+05:45"},{"idx":"8yaCaLdjbzkvcouB4pjNnF","contest":"NEPALBHASA STAR MUSIC VIDEO AWARDS-2019","episode":null,"category":"BEST DEBUT SINGER, MALE","contestant":{"voting_id":"16J","name":"Shailendra Tuladhar"},"vote_count":1,"created_on":"2019-12-25T07:58:48.902918+05:45"},{"idx":"RrrTmMAp5TpSz5fffJ4dj7","contest":"NEPALBHASA STAR MUSIC VIDEO AWARDS-2019","episode":null,"category":"BEST CAMERAPERSON","contestant":{"voting_id":"10D","name":"Lujaw Singh"},"vote_count":1,"created_on":"2019-12-25T07:47:10.796698+05:45"},{"idx":"Tu3xVbGTKMtkWoix2ucZmQ","contest":"NEPALBHASA STAR MUSIC VIDEO AWARDS-2019","episode":null,"category":"BEST MODEL, FEMALE","contestant":{"voting_id":"13G","name":"Bhintuna Joshi"},"vote_count":1,"created_on":"2019-12-25T02:40:28.594836+05:45"},{"idx":"m2CyZj5FnWVQR3BNtyiChD","contest":"NEPALBHASA STAR MUSIC VIDEO AWARDS-2019","episode":null,"category":"BEST Singer,FEMALE","contestant":{"voting_id":"17C","name":"Pooja Sunuwar"},"vote_count":1,"created_on":"2019-12-25T02:03:25.788921+05:45"},{"idx":"QV4rWrWV4sD4znfTwfrgHF","contest":"NEPALBHASA STAR MUSIC VIDEO AWARDS-2019","episode":null,"category":"BEST DEBUT MODEL, MALE","contestant":{"voting_id":"12I","name":"Nirajan Pradhan"},"vote_count":1,"created_on":"2019-12-24T22:47:27.145204+05:45"}]}