{"total_pages":275,"total_records":13721,"next":"https://khalti.com/api/v2/vuservote/?page=230","previous":"https://khalti.com/api/v2/vuservote/?page=228","record_range":[11401,11450],"current_page":229,"records":[{"idx":"Z6zpDLcVRGPNVdKym965eF","contest":"NEPALBHASA STAR MUSIC VIDEO AWARDS-2019","episode":null,"category":"BEST MUSIC VIDEO","contestant":{"voting_id":"1B","name":"Ram Bhakta Maharjan"},"vote_count":1,"created_on":"2019-12-24T22:44:37.650672+05:45"},{"idx":"vaDzWHHAavDZKnxXWGbGKX","contest":"NEPALBHASA STAR MUSIC VIDEO AWARDS-2019","episode":null,"category":"BEST DANCE DIRECTOR","contestant":{"voting_id":"19A","name":"Gautam Tandukar"},"vote_count":1,"created_on":"2019-12-24T22:43:57.358996+05:45"},{"idx":"pKpz5BoLabkxGLTwq8aJbC","contest":"NEPALBHASA STAR MUSIC VIDEO AWARDS-2019","episode":null,"category":"THE RISING STAR SINGER","contestant":{"voting_id":"21D","name":"Krishna Maharjan"},"vote_count":1,"created_on":"2019-12-24T22:43:23.831611+05:45"},{"idx":"SWcz5q9mvB9QYBF7PgQMGY","contest":"NEPALBHASA STAR MUSIC VIDEO AWARDS-2019","episode":null,"category":"BEST DIRECTOR","contestant":{"voting_id":"20D","name":"Ram Krishna Khadgi"},"vote_count":1,"created_on":"2019-12-24T22:42:32.897116+05:45"},{"idx":"RyhenkJMH4dF4rq8xpbxTj","contest":"NEPALBHASA STAR MUSIC VIDEO AWARDS-2019","episode":null,"category":"BEST MUSIC DIRECTOR","contestant":{"voting_id":"6C","name":"Purna Man Maharjan "},"vote_count":1,"created_on":"2019-12-24T18:08:24.686440+05:45"},{"idx":"yguG6rQ8FYrxXAzV8JbGVT","contest":"NEPALBHASA STAR MUSIC VIDEO AWARDS-2019","episode":null,"category":"THE RISING STAR SINGER","contestant":{"voting_id":"21E","name":"Purna Man Maharjan"},"vote_count":1,"created_on":"2019-12-24T18:01:42.584152+05:45"},{"idx":"yigmKY9GU7JtpSBmAQGhiP","contest":"NEPALBHASA STAR MUSIC VIDEO AWARDS-2019","episode":null,"category":"THE RISING STAR SINGER","contestant":{"voting_id":"21C","name":"Jack Maharjan"},"vote_count":1,"created_on":"2019-12-24T17:43:30.925328+05:45"},{"idx":"jWX9Ca9GGDKSdRnhK7SqJJ","contest":"NEPALBHASA STAR MUSIC VIDEO AWARDS-2019","episode":null,"category":"BEST Singer,FEMALE","contestant":{"voting_id":"17C","name":"Pooja Sunuwar"},"vote_count":1,"created_on":"2019-12-24T17:00:05.597892+05:45"},{"idx":"mMZucXefmzERPkniCYZG95","contest":"NEPALBHASA STAR MUSIC VIDEO AWARDS-2019","episode":null,"category":"BEST DEBUT MODEL, FEMALE","contestant":{"voting_id":"14B","name":"Binu Shakya"},"vote_count":1,"created_on":"2019-12-24T16:58:24.952132+05:45"},{"idx":"Um5BYjctVvphgBZDrZDdhE","contest":"NEPALBHASA STAR MUSIC VIDEO AWARDS-2019","episode":null,"category":"BEST MODEL, FEMALE","contestant":{"voting_id":"13G","name":"Bhintuna Joshi"},"vote_count":1,"created_on":"2019-12-24T16:56:48.790595+05:45"},{"idx":"7rw75NobPfYTjo2ha3fJVA","contest":"NEPALBHASA STAR MUSIC VIDEO AWARDS-2019","episode":null,"category":"BEST DIRECTOR","contestant":{"voting_id":"20B","name":"Rajesh Man Singh"},"vote_count":1,"created_on":"2019-12-24T16:43:03.028824+05:45"},{"idx":"6QwDUdkk4d7HKAJeRUmFf3","contest":"NEPALBHASA STAR MUSIC VIDEO AWARDS-2019","episode":null,"category":"BEST DIRECTOR","contestant":{"voting_id":"20A","name":"Bhuwan Shrestha"},"vote_count":1,"created_on":"2019-12-24T15:27:23.151857+05:45"},{"idx":"uRvUBHWZNsbNPPDekXGuY7","contest":"NEPALBHASA STAR MUSIC VIDEO AWARDS-2019","episode":null,"category":"BEST MUSIC DIRECTOR","contestant":{"voting_id":"6D","name":"Jugal Dangol"},"vote_count":1,"created_on":"2019-12-24T14:48:13.042445+05:45"},{"idx":"XZhMxFkYYE2cWDWbFi8D5j","contest":"NEPALBHASA STAR MUSIC VIDEO AWARDS-2019","episode":null,"category":"BEST MUSIC ARRANGER","contestant":{"voting_id":"5D","name":"Jugal Dangol"},"vote_count":1,"created_on":"2019-12-24T14:46:28.314295+05:45"},{"idx":"jyvrCgN4Mq672t7BWf6miY","contest":"NEPALBHASA STAR MUSIC VIDEO AWARDS-2019","episode":null,"category":"THE RISING STAR SINGER","contestant":{"voting_id":"21A","name":"Macha Raja Maharjan"},"vote_count":1,"created_on":"2019-12-24T10:50:06.428148+05:45"},{"idx":"R2bhav2nRJPk5AQHMVJvFh","contest":"NEPALBHASA STAR MUSIC VIDEO AWARDS-2019","episode":null,"category":"BEST MUSIC VIDEO","contestant":{"voting_id":"1H","name":"Sunita Rajbhandari"},"vote_count":1,"created_on":"2019-12-24T10:49:39.367376+05:45"},{"idx":"PPueKJPXryvLZ7KBjoYLja","contest":"NEPALBHASA STAR MUSIC VIDEO AWARDS-2019","episode":null,"category":"BEST DEBUT MODEL, MALE","contestant":{"voting_id":"12E","name":"Pratik Shrestha"},"vote_count":1,"created_on":"2019-12-24T10:29:35.691651+05:45"},{"idx":"AAPRJXbmME4BHUUxpTEZeQ","contest":"NEPALBHASA STAR MUSIC VIDEO AWARDS-2019","episode":null,"category":"BEST DRESS DESIGNER","contestant":{"voting_id":"3J","name":"Jyotsana Maharjan"},"vote_count":1,"created_on":"2019-12-24T10:28:38.750792+05:45"},{"idx":"rGki5CzH7LaWuPBda3HjZX","contest":"NEPALBHASA STAR MUSIC VIDEO AWARDS-2019","episode":null,"category":"BEST MUSIC DIRECTOR","contestant":{"voting_id":"6C","name":"Purna Man Maharjan "},"vote_count":1,"created_on":"2019-12-24T10:26:34.536030+05:45"},{"idx":"BNryuTTT9i2n38QKsYtjAS","contest":"NEPALBHASA STAR MUSIC VIDEO AWARDS-2019","episode":null,"category":"THE RISING STAR SINGER","contestant":{"voting_id":"21E","name":"Purna Man Maharjan"},"vote_count":1,"created_on":"2019-12-24T10:26:00.656256+05:45"},{"idx":"8KVaWZHpfytrQwfUJhWXve","contest":"NEPALBHASA STAR MUSIC VIDEO AWARDS-2019","episode":null,"category":"THE RISING STAR SINGER","contestant":{"voting_id":"21E","name":"Purna Man Maharjan"},"vote_count":50,"created_on":"2019-12-24T10:25:18.519064+05:45"},{"idx":"N4uLZMojJvBuhU8qS6b3E7","contest":"NEPALBHASA STAR MUSIC VIDEO AWARDS-2019","episode":null,"category":"BEST MUSIC DIRECTOR","contestant":{"voting_id":"6C","name":"Purna Man Maharjan "},"vote_count":50,"created_on":"2019-12-24T10:24:20.364853+05:45"},{"idx":"PVKUCkWJoJrtLmVpaLeaAY","contest":"NEPALBHASA STAR MUSIC VIDEO AWARDS-2019","episode":null,"category":"THE RISING STAR SINGER","contestant":{"voting_id":"21E","name":"Purna Man Maharjan"},"vote_count":1,"created_on":"2019-12-24T10:16:53.705227+05:45"},{"idx":"VinXXXE4eXWkKBj5gKsnnZ","contest":"NEPALBHASA STAR MUSIC VIDEO AWARDS-2019","episode":null,"category":"BEST DANCE DIRECTOR","contestant":{"voting_id":"19F","name":"Sunita Rajbhandari/Sujan Bajracharya"},"vote_count":1,"created_on":"2019-12-24T09:59:54.564660+05:45"},{"idx":"HHxNMv7N53i8B3D4JxebQC","contest":"NEPALBHASA STAR MUSIC VIDEO AWARDS-2019","episode":null,"category":"BEST DIRECTOR","contestant":{"voting_id":"20F","name":"Sunita Rajbhandari"},"vote_count":1,"created_on":"2019-12-24T09:59:12.373537+05:45"},{"idx":"aS3djzXqukDsTM3K7JdF4n","contest":"NEPALBHASA STAR MUSIC VIDEO AWARDS-2019","episode":null,"category":"BEST Singer,FEMALE","contestant":{"voting_id":"17C","name":"Pooja Sunuwar"},"vote_count":1,"created_on":"2019-12-24T07:55:30.568121+05:45"},{"idx":"PpbGC2rSWp6yAo8kJKrob3","contest":"NEPALBHASA STAR MUSIC VIDEO AWARDS-2019","episode":null,"category":"BEST MODEL, FEMALE","contestant":{"voting_id":"13G","name":"Bhintuna Joshi"},"vote_count":1,"created_on":"2019-12-23T23:24:35.172432+05:45"},{"idx":"bp7Xz7L4PoxycwQLJwyKJC","contest":"NEPALBHASA STAR MUSIC VIDEO AWARDS-2019","episode":null,"category":"BEST DIRECTOR","contestant":{"voting_id":"20J","name":"Sonam Pakhrin"},"vote_count":1,"created_on":"2019-12-23T21:45:50.373666+05:45"},{"idx":"jmYa4knidZo5Py2fq4N7t3","contest":"NEPALBHASA STAR MUSIC VIDEO AWARDS-2019","episode":null,"category":"BEST MODEL, FEMALE","contestant":{"voting_id":"13I","name":"Rajani Khadgi"},"vote_count":1,"created_on":"2019-12-23T21:07:22.449190+05:45"},{"idx":"eZffm79zmhrM89xhYhKTVZ","contest":"NEPALBHASA STAR MUSIC VIDEO AWARDS-2019","episode":null,"category":"BEST DEBUT MODEL, FEMALE","contestant":{"voting_id":"14E","name":"Karoona Shrestha"},"vote_count":1,"created_on":"2019-12-23T21:06:41.042470+05:45"},{"idx":"pkX2rkD4Byb92gxJD97Mag","contest":"NEPALBHASA STAR MUSIC VIDEO AWARDS-2019","episode":null,"category":"BEST MODEL, FEMALE","contestant":{"voting_id":"13B","name":"Ashishma Nakarmi"},"vote_count":1,"created_on":"2019-12-23T21:03:14.038901+05:45"},{"idx":"7Nr4AinmQKsRKtVPCPY8KM","contest":"NEPALBHASA STAR MUSIC VIDEO AWARDS-2019","episode":null,"category":"THE RISING STAR SINGER","contestant":{"voting_id":"21E","name":"Purna Man Maharjan"},"vote_count":1,"created_on":"2019-12-23T20:35:14.764590+05:45"},{"idx":"yZsEZGrn9TXBBfpsTaax7j","contest":"NEPALBHASA STAR MUSIC VIDEO AWARDS-2019","episode":null,"category":"BEST DEBUT SINGER, MALE","contestant":{"voting_id":"16B","name":"Raj Kumar Manandhar"},"vote_count":500,"created_on":"2019-12-23T20:32:56.027206+05:45"},{"idx":"fPv7jL7hhZjhKJqSK7gxng","contest":"NEPALBHASA STAR MUSIC VIDEO AWARDS-2019","episode":null,"category":"BEST DIRECTOR","contestant":{"voting_id":"20B","name":"Rajesh Man Singh"},"vote_count":1,"created_on":"2019-12-23T20:31:33.742939+05:45"},{"idx":"4562yVYdFU4wiA3jxVyjTY","contest":"NEPALBHASA STAR MUSIC VIDEO AWARDS-2019","episode":null,"category":"BEST DEBUT SINGER, MALE","contestant":{"voting_id":"16B","name":"Raj Kumar Manandhar"},"vote_count":500,"created_on":"2019-12-23T20:27:40.769047+05:45"},{"idx":"kYCSdRiEcm7YMMxMhmcxc2","contest":"NEPALBHASA STAR MUSIC VIDEO AWARDS-2019","episode":null,"category":"BEST DEBUT SINGER, MALE","contestant":{"voting_id":"16B","name":"Raj Kumar Manandhar"},"vote_count":500,"created_on":"2019-12-23T20:22:37.828396+05:45"},{"idx":"qEuXkt98MWtXAeowrPrDEP","contest":"NEPALBHASA STAR MUSIC VIDEO AWARDS-2019","episode":null,"category":"BEST DEBUT MODEL, MALE","contestant":{"voting_id":"12I","name":"Nirajan Pradhan"},"vote_count":1,"created_on":"2019-12-23T20:01:34.441447+05:45"},{"idx":"CvyE3xLeKeyd8wP8Y4WAyn","contest":"NEPALBHASA STAR MUSIC VIDEO AWARDS-2019","episode":null,"category":"BEST DEBUT MODEL, FEMALE","contestant":{"voting_id":"14C","name":"Rakshya Shrestha"},"vote_count":1,"created_on":"2019-12-23T20:00:14.520545+05:45"},{"idx":"jYVtCag7jw8VKuFSfgnwsm","contest":"NEPALBHASA STAR MUSIC VIDEO AWARDS-2019","episode":null,"category":"BEST DIRECTOR","contestant":{"voting_id":"20B","name":"Rajesh Man Singh"},"vote_count":1,"created_on":"2019-12-23T19:45:20.004352+05:45"},{"idx":"8L59fKSWGmxTJxbA7Y9Sja","contest":"NEPALBHASA STAR MUSIC VIDEO AWARDS-2019","episode":null,"category":"BEST DEBUT SINGER, MALE","contestant":{"voting_id":"16J","name":"Shailendra Tuladhar"},"vote_count":1,"created_on":"2019-12-23T18:39:02.512904+05:45"},{"idx":"R4BtxwHRwKF6xT5XuXmze9","contest":"NEPALBHASA STAR MUSIC VIDEO AWARDS-2019","episode":null,"category":"BEST DIRECTOR","contestant":{"voting_id":"20D","name":"Ram Krishna Khadgi"},"vote_count":1,"created_on":"2019-12-23T18:07:48.719026+05:45"},{"idx":"gBmfUpQ9QoEfMrvcrKXgB4","contest":"NEPALBHASA STAR MUSIC VIDEO AWARDS-2019","episode":null,"category":"BEST DANCE DIRECTOR","contestant":{"voting_id":"19J","name":"Bhuwan Shrestha"},"vote_count":1,"created_on":"2019-12-23T16:18:12.918725+05:45"},{"idx":"2imtwhhdmyTwkrGgSYSqcm","contest":"NEPALBHASA STAR MUSIC VIDEO AWARDS-2019","episode":null,"category":"BEST DIRECTOR","contestant":{"voting_id":"20A","name":"Bhuwan Shrestha"},"vote_count":1,"created_on":"2019-12-23T15:23:08.646387+05:45"},{"idx":"xHHBBvyZau4JnT7U4Y7eKi","contest":"NEPALBHASA STAR MUSIC VIDEO AWARDS-2019","episode":null,"category":"BEST MODEL, FEMALE","contestant":{"voting_id":"13G","name":"Bhintuna Joshi"},"vote_count":1,"created_on":"2019-12-23T15:03:15.552845+05:45"},{"idx":"wXth4KfMX3QBcdJ3cwnnPT","contest":"NEPALBHASA STAR MUSIC VIDEO AWARDS-2019","episode":null,"category":"THE RISING STAR SINGER","contestant":{"voting_id":"21D","name":"Krishna Maharjan"},"vote_count":1,"created_on":"2019-12-23T14:02:12.579960+05:45"},{"idx":"5TZkdh5MsjEHLaUoTxP9DA","contest":"NEPALBHASA STAR MUSIC VIDEO AWARDS-2019","episode":null,"category":"BEST DANCE DIRECTOR","contestant":{"voting_id":"19B","name":"Srijana Maharjan"},"vote_count":1,"created_on":"2019-12-23T13:59:18.714266+05:45"},{"idx":"uhFr3Et7r2g2faL98koiYX","contest":"NEPALBHASA STAR MUSIC VIDEO AWARDS-2019","episode":null,"category":"BEST DIRECTOR","contestant":{"voting_id":"20A","name":"Bhuwan Shrestha"},"vote_count":1,"created_on":"2019-12-23T13:58:54.415200+05:45"},{"idx":"VoVbDdL8WKuJPPxSfwx3R7","contest":"NEPALBHASA STAR MUSIC VIDEO AWARDS-2019","episode":null,"category":"THE RISING STAR SINGER","contestant":{"voting_id":"21E","name":"Purna Man Maharjan"},"vote_count":1,"created_on":"2019-12-23T13:58:34.933808+05:45"},{"idx":"dGNG3kqi6zoAJEtZPfgucA","contest":"NEPALBHASA STAR MUSIC VIDEO AWARDS-2019","episode":null,"category":"BEST MODEL, FEMALE","contestant":{"voting_id":"13B","name":"Ashishma Nakarmi"},"vote_count":1,"created_on":"2019-12-23T13:58:16.277703+05:45"},{"idx":"mvnHnRqzVmg4hHgyFwJmL2","contest":"NEPALBHASA STAR MUSIC VIDEO AWARDS-2019","episode":null,"category":"BEST DEBUT MODEL, FEMALE","contestant":{"voting_id":"14E","name":"Karoona Shrestha"},"vote_count":1,"created_on":"2019-12-23T13:57:47.820987+05:45"}]}