{"total_pages":275,"total_records":13717,"next":"https://khalti.com/api/v2/vuservote/?page=24","previous":"https://khalti.com/api/v2/vuservote/?page=22","record_range":[1101,1150],"current_page":23,"records":[{"idx":"AHpLrPWK4FvHwvHmYVwsj9","contest":"Locus 2020","episode":"Locus 2020","category":null,"contestant":{"voting_id":"66","name":"Project Alexa Pi"},"vote_count":1,"created_on":"2020-01-31T23:10:33.510852+05:45"},{"idx":"qSNzxFvBRJDjzeBjabYAdK","contest":"Locus 2020","episode":"Locus 2020","category":null,"contestant":{"voting_id":"66","name":"Project Alexa Pi"},"vote_count":1,"created_on":"2020-01-31T23:08:43.203261+05:45"},{"idx":"EFfdGxkNDhC7DP2bHv9FWG","contest":"Locus 2020","episode":"Locus 2020","category":null,"contestant":{"voting_id":"42","name":"Project P.I.M.P."},"vote_count":1,"created_on":"2020-01-31T23:00:38.602022+05:45"},{"idx":"reF22s42442x3geAddzVPC","contest":"Locus 2020","episode":"Locus 2020","category":null,"contestant":{"voting_id":"08","name":"Project A Smart Approach Towards Lifestyle in Nepal"},"vote_count":1,"created_on":"2020-01-31T22:49:57.525417+05:45"},{"idx":"uxcseqbxvsTvahZ47tjEEH","contest":"Locus 2020","episode":"Locus 2020","category":null,"contestant":{"voting_id":"08","name":"Project A Smart Approach Towards Lifestyle in Nepal"},"vote_count":1,"created_on":"2020-01-31T22:39:37.420578+05:45"},{"idx":"i8vmbRFmXQqRN5YxNrAUBc","contest":"Model Superstar","episode":"Model Superstar Finale","category":null,"contestant":{"voting_id":"31","name":"Aakriti Subedi"},"vote_count":1,"created_on":"2020-01-31T22:23:53.788281+05:45"},{"idx":"7pfgWhmokThFpTt9DP4U2c","contest":"Music Eve 2020","episode":"Music Eve 2020 IOE","category":null,"contestant":{"voting_id":"06","name":"Bishal shakya"},"vote_count":1,"created_on":"2020-01-31T22:16:30.236738+05:45"},{"idx":"JuugM7wPBoERmdjPR9ptTU","contest":"Music Eve 2020","episode":"Music Eve 2020 IOE","category":null,"contestant":{"voting_id":"08","name":"Kshitiz Basnet"},"vote_count":1,"created_on":"2020-01-31T22:01:48.274793+05:45"},{"idx":"t2qr2TCfuoU3qYcQYepJmb","contest":"Locus 2020","episode":"Locus 2020","category":null,"contestant":{"voting_id":"08","name":"Project A Smart Approach Towards Lifestyle in Nepal"},"vote_count":1,"created_on":"2020-01-31T21:58:32.952159+05:45"},{"idx":"6A4Qfxu7cy5wf3CSGUrmHS","contest":"Locus 2020","episode":"Locus 2020","category":null,"contestant":{"voting_id":"20","name":"Project Cable Fault Distance Finder"},"vote_count":1,"created_on":"2020-01-31T21:54:24.912023+05:45"},{"idx":"98FYrXhKopSTboLNnoo3ud","contest":"Locus 2020","episode":"Locus 2020","category":null,"contestant":{"voting_id":"08","name":"Project A Smart Approach Towards Lifestyle in Nepal"},"vote_count":1,"created_on":"2020-01-31T21:47:38.360952+05:45"},{"idx":"4j2BjKG2J44kYPMaZdsAgd","contest":"Locus 2020","episode":"Locus 2020","category":null,"contestant":{"voting_id":"04","name":"Project IRB -Robo Arm"},"vote_count":1,"created_on":"2020-01-31T21:37:02.905528+05:45"},{"idx":"aT8wXBVbRnuVeSD7BABBAn","contest":"Locus 2020","episode":"Locus 2020","category":null,"contestant":{"voting_id":"66","name":"Project Alexa Pi"},"vote_count":1,"created_on":"2020-01-31T21:32:59.657336+05:45"},{"idx":"QkqWBvmUmA7GMB6mN42EfN","contest":"Locus 2020","episode":"Locus 2020","category":null,"contestant":{"voting_id":"21","name":"Project Mero Smart Farm"},"vote_count":5,"created_on":"2020-01-31T21:27:25.741191+05:45"},{"idx":"Gz7nGqaQpC7EB46eKLiTyP","contest":"Locus 2020","episode":"Locus 2020","category":null,"contestant":{"voting_id":"08","name":"Project A Smart Approach Towards Lifestyle in Nepal"},"vote_count":1,"created_on":"2020-01-31T21:26:36.384348+05:45"},{"idx":"Hfv3wyokCudwdBzyjRcbfc","contest":"Locus 2020","episode":"Locus 2020","category":null,"contestant":{"voting_id":"17","name":"Project EN SAT"},"vote_count":1,"created_on":"2020-01-31T21:14:37.918215+05:45"},{"idx":"AousHYaFnBVFpLUDintYj2","contest":"Locus 2020","episode":"Locus 2020","category":null,"contestant":{"voting_id":"66","name":"Project Alexa Pi"},"vote_count":1,"created_on":"2020-01-31T21:12:14.850225+05:45"},{"idx":"wks67AccPyNVxVePy3uUHa","contest":"Locus 2020","episode":"Locus 2020","category":null,"contestant":{"voting_id":"66","name":"Project Alexa Pi"},"vote_count":1,"created_on":"2020-01-31T21:09:29.172244+05:45"},{"idx":"YzHiZxvLwhW7Hh8WeYSPqM","contest":"Locus 2020","episode":"Locus 2020","category":null,"contestant":{"voting_id":"17","name":"Project EN SAT"},"vote_count":1,"created_on":"2020-01-31T21:09:20.827797+05:45"},{"idx":"yxkq7XuyVcZ4D5Rr58CKfd","contest":"Locus 2020","episode":"Locus 2020","category":null,"contestant":{"voting_id":"66","name":"Project Alexa Pi"},"vote_count":1,"created_on":"2020-01-31T21:09:15.412619+05:45"},{"idx":"Z4htSiqydPFfpUdhvn7hnX","contest":"Locus 2020","episode":"Locus 2020","category":null,"contestant":{"voting_id":"66","name":"Project Alexa Pi"},"vote_count":1,"created_on":"2020-01-31T21:07:58.118693+05:45"},{"idx":"ujAuUDs2TsyRBreoAjGPi2","contest":"Locus 2020","episode":"Locus 2020","category":null,"contestant":{"voting_id":"66","name":"Project Alexa Pi"},"vote_count":1,"created_on":"2020-01-31T21:06:29.956115+05:45"},{"idx":"bhJHg9oESasLxc9oUuJusG","contest":"Locus 2020","episode":"Locus 2020","category":null,"contestant":{"voting_id":"08","name":"Project A Smart Approach Towards Lifestyle in Nepal"},"vote_count":1,"created_on":"2020-01-31T21:04:44.934417+05:45"},{"idx":"5uaBXmHq3r2V3HZiHYsevf","contest":"Locus 2020","episode":"Locus 2020","category":null,"contestant":{"voting_id":"08","name":"Project A Smart Approach Towards Lifestyle in Nepal"},"vote_count":1,"created_on":"2020-01-31T21:04:22.463546+05:45"},{"idx":"ofRmbYusv8ZNFQQyJeKZEo","contest":"Locus 2020","episode":"Locus 2020","category":null,"contestant":{"voting_id":"66","name":"Project Alexa Pi"},"vote_count":1,"created_on":"2020-01-31T21:03:34.400535+05:45"},{"idx":"BRhAviLub9yrV7ZaAVsbMZ","contest":"Locus 2020","episode":"Locus 2020","category":null,"contestant":{"voting_id":"08","name":"Project A Smart Approach Towards Lifestyle in Nepal"},"vote_count":1,"created_on":"2020-01-31T21:01:41.886369+05:45"},{"idx":"3D7c7EDQeNST2f2GjCvZqm","contest":"Locus 2020","episode":"Locus 2020","category":null,"contestant":{"voting_id":"08","name":"Project A Smart Approach Towards Lifestyle in Nepal"},"vote_count":5,"created_on":"2020-01-31T20:46:11.475358+05:45"},{"idx":"D7PY7M7AJrHnjjyBNcGNgP","contest":"Locus 2020","episode":"Locus 2020","category":null,"contestant":{"voting_id":"08","name":"Project A Smart Approach Towards Lifestyle in Nepal"},"vote_count":1,"created_on":"2020-01-31T20:43:08.882749+05:45"},{"idx":"EjBcUA54RT8dG7q5LxzRwL","contest":"Locus 2020","episode":"Locus 2020","category":null,"contestant":{"voting_id":"08","name":"Project A Smart Approach Towards Lifestyle in Nepal"},"vote_count":1,"created_on":"2020-01-31T20:37:49.520653+05:45"},{"idx":"TuCUDcBEtGBAwNu66rBFkM","contest":"Locus 2020","episode":"Locus 2020","category":null,"contestant":{"voting_id":"08","name":"Project A Smart Approach Towards Lifestyle in Nepal"},"vote_count":1,"created_on":"2020-01-31T20:35:17.744215+05:45"},{"idx":"cJXt8cwWoe7F9WYqxJDD6f","contest":"Locus 2020","episode":"Locus 2020","category":null,"contestant":{"voting_id":"66","name":"Project Alexa Pi"},"vote_count":1,"created_on":"2020-01-31T20:33:57.167257+05:45"},{"idx":"3qf6adKL8ET3yFZhEXUb2G","contest":"Locus 2020","episode":"Locus 2020","category":null,"contestant":{"voting_id":"08","name":"Project A Smart Approach Towards Lifestyle in Nepal"},"vote_count":1,"created_on":"2020-01-31T20:28:34.398158+05:45"},{"idx":"AeVbdA5Jsy9fQ59gpCVyG3","contest":"Locus 2020","episode":"Locus 2020","category":null,"contestant":{"voting_id":"08","name":"Project A Smart Approach Towards Lifestyle in Nepal"},"vote_count":1,"created_on":"2020-01-31T20:26:47.798043+05:45"},{"idx":"2MBoEEQnhQVKWVytDbxDmV","contest":"Locus 2020","episode":"Locus 2020","category":null,"contestant":{"voting_id":"66","name":"Project Alexa Pi"},"vote_count":1,"created_on":"2020-01-31T20:24:35.702639+05:45"},{"idx":"LGP7hiHCdBE27Ti7YqhRWH","contest":"Locus 2020","episode":"Locus 2020","category":null,"contestant":{"voting_id":"21","name":"Project Mero Smart Farm"},"vote_count":1,"created_on":"2020-01-31T20:24:35.282561+05:45"},{"idx":"cSVYvDYezEStfc4iAeXW4W","contest":"Locus 2020","episode":"Locus 2020","category":null,"contestant":{"voting_id":"66","name":"Project Alexa Pi"},"vote_count":1,"created_on":"2020-01-31T20:23:06.350374+05:45"},{"idx":"6X9XexcuvXzR4FdRkdZWqG","contest":"Locus 2020","episode":"Locus 2020","category":null,"contestant":{"voting_id":"08","name":"Project A Smart Approach Towards Lifestyle in Nepal"},"vote_count":1,"created_on":"2020-01-31T20:20:41.057280+05:45"},{"idx":"pEccHHRYLePZTXEKWaA7q7","contest":"Locus 2020","episode":"Locus 2020","category":null,"contestant":{"voting_id":"66","name":"Project Alexa Pi"},"vote_count":1,"created_on":"2020-01-31T20:18:22.595597+05:45"},{"idx":"tRhhXrFQWNZsrn79pPm7eL","contest":"Locus 2020","episode":"Locus 2020","category":null,"contestant":{"voting_id":"08","name":"Project A Smart Approach Towards Lifestyle in Nepal"},"vote_count":1,"created_on":"2020-01-31T20:17:23.748063+05:45"},{"idx":"Y2fV58a86PUZSfupzVThVV","contest":"Locus 2020","episode":"Locus 2020","category":null,"contestant":{"voting_id":"21","name":"Project Mero Smart Farm"},"vote_count":1,"created_on":"2020-01-31T20:16:48.874116+05:45"},{"idx":"QsNfk6nHp2RGbejL7jwgh5","contest":"Locus 2020","episode":"Locus 2020","category":null,"contestant":{"voting_id":"08","name":"Project A Smart Approach Towards Lifestyle in Nepal"},"vote_count":1,"created_on":"2020-01-31T20:02:24.077437+05:45"},{"idx":"cYkCT8L6uAjYSzowndY9n3","contest":"Locus 2020","episode":"Locus 2020","category":null,"contestant":{"voting_id":"66","name":"Project Alexa Pi"},"vote_count":1,"created_on":"2020-01-31T19:49:47.436960+05:45"},{"idx":"CWeM6QsjAPbj3FNPSEbYPn","contest":"Music Eve 2020","episode":"Music Eve 2020 IOE","category":null,"contestant":{"voting_id":"02","name":"abinash acharya"},"vote_count":1,"created_on":"2020-01-31T19:09:34.026021+05:45"},{"idx":"ChZMYp2mjTXHspFgvihqm2","contest":"Music Eve 2020","episode":"Music Eve 2020 IOE","category":null,"contestant":{"voting_id":"16","name":"saahil duo"},"vote_count":1,"created_on":"2020-01-31T19:03:47.170780+05:45"},{"idx":"3Dj27wUasc4RN7tjg5BfDg","contest":"Music Eve 2020","episode":"Music Eve 2020 IOE","category":null,"contestant":{"voting_id":"03","name":"Abishek Aryal"},"vote_count":1,"created_on":"2020-01-31T18:41:00.758760+05:45"},{"idx":"iXRd37wGXo8Kh3X4mfrafV","contest":"Music Eve 2020","episode":"Music Eve 2020 IOE","category":null,"contestant":{"voting_id":"03","name":"Abishek Aryal"},"vote_count":1,"created_on":"2020-01-31T18:28:56.690083+05:45"},{"idx":"jt92BiodjKXCATPXdhLTM2","contest":"Locus 2020","episode":"Locus 2020","category":null,"contestant":{"voting_id":"20","name":"Project Cable Fault Distance Finder"},"vote_count":1,"created_on":"2020-01-31T18:24:11.278589+05:45"},{"idx":"ecKoTyRrdJB6TNGQztMsUZ","contest":"Locus 2020","episode":"Locus 2020","category":null,"contestant":{"voting_id":"01","name":"Project Fire Robo"},"vote_count":1,"created_on":"2020-01-31T18:16:30.257908+05:45"},{"idx":"eD3TrW9UMaabBzH3yYkkfB","contest":"Music Eve 2020","episode":"Music Eve 2020 IOE","category":null,"contestant":{"voting_id":"03","name":"Abishek Aryal"},"vote_count":1,"created_on":"2020-01-31T18:11:12.943956+05:45"},{"idx":"5eAkwnNf2rss6Gazk7VVKe","contest":"Music Eve 2020","episode":"Music Eve 2020 IOE","category":null,"contestant":{"voting_id":"14","name":"Prabhat Kiran Chaulagain"},"vote_count":1,"created_on":"2020-01-31T18:06:37.371295+05:45"}]}