{"total_pages":275,"total_records":13721,"next":"https://khalti.com/api/v2/vuservote/?page=231","previous":"https://khalti.com/api/v2/vuservote/?page=229","record_range":[11451,11500],"current_page":230,"records":[{"idx":"gnGY8xMyRjsVHv7VGF5mhQ","contest":"NEPALBHASA STAR MUSIC VIDEO AWARDS-2019","episode":null,"category":"BEST DEBUT SINGER, MALE","contestant":{"voting_id":"16G","name":"Krishna Dangol"},"vote_count":1,"created_on":"2019-12-23T12:56:30.802637+05:45"},{"idx":"zVkgH9oTrQVCNt3T3KTiRE","contest":"NEPALBHASA STAR MUSIC VIDEO AWARDS-2019","episode":null,"category":"BEST VIDEO EDITOR","contestant":{"voting_id":"9B","name":"Naresh Shahi"},"vote_count":1,"created_on":"2019-12-23T12:21:21.407847+05:45"},{"idx":"GZ7UNeWuYqjgrgixhHRZGN","contest":"NEPALBHASA STAR MUSIC VIDEO AWARDS-2019","episode":null,"category":"BEST MODEL, FEMALE","contestant":{"voting_id":"13H","name":"Sarita Bajracharya"},"vote_count":1,"created_on":"2019-12-23T12:20:21.924569+05:45"},{"idx":"zsafBDDNh2LKUGYa2cpxoj","contest":"NEPALBHASA STAR MUSIC VIDEO AWARDS-2019","episode":null,"category":"BEST DIRECTOR","contestant":{"voting_id":"20B","name":"Rajesh Man Singh"},"vote_count":1,"created_on":"2019-12-23T12:04:53.151672+05:45"},{"idx":"npm3uH5UknXiVQcVM5CNsS","contest":"NEPALBHASA STAR MUSIC VIDEO AWARDS-2019","episode":null,"category":"BEST MODEL, MALE","contestant":{"voting_id":"11H","name":"Binod Shrestha"},"vote_count":1,"created_on":"2019-12-23T12:04:30.138213+05:45"},{"idx":"MAHj73AWTZzN79irvXSETd","contest":"NEPALBHASA STAR MUSIC VIDEO AWARDS-2019","episode":null,"category":"BEST MUSIC VIDEO","contestant":{"voting_id":"1I","name":"Raj kumar Manandhar"},"vote_count":1,"created_on":"2019-12-23T11:52:38.637577+05:45"},{"idx":"J8TyS6aHiFCQqZbxUCiu9e","contest":"NEPALBHASA STAR MUSIC VIDEO AWARDS-2019","episode":null,"category":"BEST DEBUT SINGER, MALE","contestant":{"voting_id":"16B","name":"Raj Kumar Manandhar"},"vote_count":1,"created_on":"2019-12-23T11:41:28.199216+05:45"},{"idx":"cYupaAmK2wbJtLv8wSF9WC","contest":"NEPALBHASA STAR MUSIC VIDEO AWARDS-2019","episode":null,"category":"BEST DEBUT SINGER, MALE","contestant":{"voting_id":"16B","name":"Raj Kumar Manandhar"},"vote_count":1,"created_on":"2019-12-23T11:21:45.588600+05:45"},{"idx":"HzbKMd7ceyNVN6XBUzBbVb","contest":"NEPALBHASA STAR MUSIC VIDEO AWARDS-2019","episode":null,"category":"BEST DEBUT SINGER, MALE","contestant":{"voting_id":"16B","name":"Raj Kumar Manandhar"},"vote_count":1,"created_on":"2019-12-23T10:58:53.622155+05:45"},{"idx":"da6L7YSjfLSpANZ2TPRnQo","contest":"NEPALBHASA STAR MUSIC VIDEO AWARDS-2019","episode":null,"category":"BEST MODEL, FEMALE","contestant":{"voting_id":"13G","name":"Bhintuna Joshi"},"vote_count":1,"created_on":"2019-12-23T10:56:56.657805+05:45"},{"idx":"JgqPrYyyHDBeZr3vrEemwj","contest":"NEPALBHASA STAR MUSIC VIDEO AWARDS-2019","episode":null,"category":"BEST DEBUT MODEL, FEMALE","contestant":{"voting_id":"14E","name":"Karoona Shrestha"},"vote_count":1,"created_on":"2019-12-23T10:55:57.861732+05:45"},{"idx":"JVywT2vQAr9isrxQCcLjnY","contest":"NEPALBHASA STAR MUSIC VIDEO AWARDS-2019","episode":null,"category":"BEST DANCE DIRECTOR","contestant":{"voting_id":"19B","name":"Srijana Maharjan"},"vote_count":1,"created_on":"2019-12-23T10:49:10.592764+05:45"},{"idx":"jhfcPy8eYDcFWe2mo9afVD","contest":"NEPALBHASA STAR MUSIC VIDEO AWARDS-2019","episode":null,"category":"BEST DEBUT SINGER, FEMALE","contestant":{"voting_id":"18J","name":"BabitaSitaula"},"vote_count":1,"created_on":"2019-12-23T10:48:18.066140+05:45"},{"idx":"fRwQaeCnW4VTbKidHoaEyJ","contest":"NEPALBHASA STAR MUSIC VIDEO AWARDS-2019","episode":null,"category":"BEST DRESS DESIGNER","contestant":{"voting_id":"3J","name":"Jyotsana Maharjan"},"vote_count":1,"created_on":"2019-12-23T04:22:20.309336+05:45"},{"idx":"3shPSAibfBP5QjNCdvgfHA","contest":"NEPALBHASA STAR MUSIC VIDEO AWARDS-2019","episode":null,"category":"BEST Singer,FEMALE","contestant":{"voting_id":"17I","name":"Ganga Devi Maharjan"},"vote_count":1,"created_on":"2019-12-23T04:21:55.787068+05:45"},{"idx":"vZatyb8VHfFFveVKXvCCXb","contest":"NEPALBHASA STAR MUSIC VIDEO AWARDS-2019","episode":null,"category":"BEST SINGER, MALE","contestant":{"voting_id":"15D","name":"Mohan Shakya"},"vote_count":100,"created_on":"2019-12-22T19:49:46.463279+05:45"},{"idx":"kbKodhnG9D29wn59fxmxfH","contest":"NEPALBHASA STAR MUSIC VIDEO AWARDS-2019","episode":null,"category":"BEST SINGER, MALE","contestant":{"voting_id":"15D","name":"Mohan Shakya"},"vote_count":1,"created_on":"2019-12-22T19:48:55.383590+05:45"},{"idx":"MFXKeNoP9FHKbdjc6h8TJM","contest":"NEPALBHASA STAR MUSIC VIDEO AWARDS-2019","episode":null,"category":"BEST MODEL, FEMALE","contestant":{"voting_id":"13I","name":"Rajani Khadgi"},"vote_count":1,"created_on":"2019-12-22T15:19:30.246985+05:45"},{"idx":"BpGfevuJXfViHqtbmAoiDS","contest":"NEPALBHASA STAR MUSIC VIDEO AWARDS-2019","episode":null,"category":"BEST MAKE UP ARTIST","contestant":{"voting_id":"2G","name":"Sarita Bajracharya "},"vote_count":1,"created_on":"2019-12-22T14:59:23.455651+05:45"},{"idx":"YLM4h895FXZgqdLp9iY3wE","contest":"NEPALBHASA STAR MUSIC VIDEO AWARDS-2019","episode":null,"category":"BEST MODEL, FEMALE","contestant":{"voting_id":"13B","name":"Ashishma Nakarmi"},"vote_count":1,"created_on":"2019-12-22T14:58:22.567027+05:45"},{"idx":"72ZPyA5WaST86VC3GHD5gi","contest":"NEPALBHASA STAR MUSIC VIDEO AWARDS-2019","episode":null,"category":"BEST DEBUT MODEL, FEMALE","contestant":{"voting_id":"14J","name":"Garima Maharjan"},"vote_count":1,"created_on":"2019-12-22T14:57:47.107221+05:45"},{"idx":"N5Nso4GaXNqRqCGDnfZNJ6","contest":"NEPALBHASA STAR MUSIC VIDEO AWARDS-2019","episode":null,"category":"THE RISING STAR SINGER","contestant":{"voting_id":"21A","name":"Macha Raja Maharjan"},"vote_count":1,"created_on":"2019-12-22T10:43:41.713442+05:45"},{"idx":"dWiWqFHM33PXQ4dWhgaQA7","contest":"NEPALBHASA STAR MUSIC VIDEO AWARDS-2019","episode":null,"category":"THE RISING STAR SINGER","contestant":{"voting_id":"21E","name":"Purna Man Maharjan"},"vote_count":1,"created_on":"2019-12-22T10:08:21.225581+05:45"},{"idx":"ASs2xkf8KnB7SRkonQmK8Y","contest":"NEPALBHASA STAR MUSIC VIDEO AWARDS-2019","episode":null,"category":"BEST MAKE UP ARTIST","contestant":{"voting_id":"2G","name":"Sarita Bajracharya "},"vote_count":1,"created_on":"2019-12-22T08:51:44.963587+05:45"},{"idx":"sYKbNRWwRqV97JDJQozZ4h","contest":"NEPALBHASA STAR MUSIC VIDEO AWARDS-2019","episode":null,"category":"BEST DANCE DIRECTOR","contestant":{"voting_id":"19B","name":"Srijana Maharjan"},"vote_count":1,"created_on":"2019-12-22T08:50:35.405023+05:45"},{"idx":"EUXw8Zo4DWqUhRSoJQtmPH","contest":"NEPALBHASA STAR MUSIC VIDEO AWARDS-2019","episode":null,"category":"BEST Singer,FEMALE","contestant":{"voting_id":"17A","name":"Deepa Maharjan"},"vote_count":1,"created_on":"2019-12-22T08:17:43.108457+05:45"},{"idx":"aB7qjWMV8DkU8rhnMjj7dm","contest":"NEPALBHASA STAR MUSIC VIDEO AWARDS-2019","episode":null,"category":"BEST VIDEO COLORIST","contestant":{"voting_id":"8F","name":"Bal Krishna Bansi "},"vote_count":1,"created_on":"2019-12-21T22:48:50.699819+05:45"},{"idx":"b4jk5776QhMAetFUXsP9HE","contest":"NEPALBHASA STAR MUSIC VIDEO AWARDS-2019","episode":null,"category":"BEST MODEL, FEMALE","contestant":{"voting_id":"13I","name":"Rajani Khadgi"},"vote_count":1,"created_on":"2019-12-21T21:50:58.941219+05:45"},{"idx":"CDzbFQrEXCqdnc834hB9HE","contest":"NEPALBHASA STAR MUSIC VIDEO AWARDS-2019","episode":null,"category":"BEST SINGER, MALE","contestant":{"voting_id":"15J","name":"Ram Bhakta Maharjan"},"vote_count":1,"created_on":"2019-12-21T21:50:28.989439+05:45"},{"idx":"mWTcVtXYCvT8JmLufeJ9DA","contest":"NEPALBHASA STAR MUSIC VIDEO AWARDS-2019","episode":null,"category":"BEST DRESS DESIGNER","contestant":{"voting_id":"3J","name":"Jyotsana Maharjan"},"vote_count":1,"created_on":"2019-12-21T21:35:25.035017+05:45"},{"idx":"R7VJp57tonkTdp9XKQK3CT","contest":"NEPALBHASA STAR MUSIC VIDEO AWARDS-2019","episode":null,"category":"BEST MUSIC DIRECTOR","contestant":{"voting_id":"6J","name":"Krishna Bhakta Maharjan"},"vote_count":1,"created_on":"2019-12-21T21:34:13.701175+05:45"},{"idx":"MMmqksQdbbjZY9A4tuuvoG","contest":"NEPALBHASA STAR MUSIC VIDEO AWARDS-2019","episode":null,"category":"BEST CAMERAPERSON","contestant":{"voting_id":"10A","name":"Shankar Maharjan"},"vote_count":1,"created_on":"2019-12-21T21:32:52.779996+05:45"},{"idx":"UZG2Rse4CG6rm3QkkyWm6m","contest":"NEPALBHASA STAR MUSIC VIDEO AWARDS-2019","episode":null,"category":"BEST Singer,FEMALE","contestant":{"voting_id":"17H","name":"Bishnu Maya Byanjankar"},"vote_count":1,"created_on":"2019-12-21T21:32:01.198912+05:45"},{"idx":"AyfXQ7yZ7PzMiWC5HfsBtV","contest":"NEPALBHASA STAR MUSIC VIDEO AWARDS-2019","episode":null,"category":"BEST DEBUT SINGER, FEMALE","contestant":{"voting_id":"18H","name":"HasanaShakya"},"vote_count":1,"created_on":"2019-12-21T21:31:37.711861+05:45"},{"idx":"SXMNnjMCSvWgwRpibqx6gM","contest":"NEPALBHASA STAR MUSIC VIDEO AWARDS-2019","episode":null,"category":"BEST VIDEO EDITOR","contestant":{"voting_id":"9J","name":"Amrit Man Maharjan"},"vote_count":1,"created_on":"2019-12-21T21:30:34.546320+05:45"},{"idx":"ycwtPeuRGutFxhALEoRvQF","contest":"NEPALBHASA STAR MUSIC VIDEO AWARDS-2019","episode":null,"category":"BEST DANCE DIRECTOR","contestant":{"voting_id":"19F","name":"Sunita Rajbhandari/Sujan Bajracharya"},"vote_count":1,"created_on":"2019-12-21T21:28:27.046632+05:45"},{"idx":"a2S3NpGqQYdsDw9XZPzXrV","contest":"NEPALBHASA STAR MUSIC VIDEO AWARDS-2019","episode":null,"category":"BEST DANCE DIRECTOR","contestant":{"voting_id":"19A","name":"Gautam Tandukar"},"vote_count":1,"created_on":"2019-12-21T20:53:33.541995+05:45"},{"idx":"7cmTNnqinS73qGwBvED9cR","contest":"NEPALBHASA STAR MUSIC VIDEO AWARDS-2019","episode":null,"category":"BEST MUSIC VIDEO","contestant":{"voting_id":"1A","name":"Macha Raja Maharjan"},"vote_count":1,"created_on":"2019-12-21T20:20:08.241030+05:45"},{"idx":"Uj25QQBs5uaCA988MV6D5E","contest":"NEPALBHASA STAR MUSIC VIDEO AWARDS-2019","episode":null,"category":"BEST MAKE UP ARTIST","contestant":{"voting_id":"2G","name":"Sarita Bajracharya "},"vote_count":1,"created_on":"2019-12-21T20:19:42.266050+05:45"},{"idx":"mpvyCNdHeJ89ySQhnHEPLE","contest":"NEPALBHASA STAR MUSIC VIDEO AWARDS-2019","episode":null,"category":"BEST DRESS DESIGNER","contestant":{"voting_id":"3h","name":"Sunita Rajbhandari"},"vote_count":1,"created_on":"2019-12-21T20:18:11.062999+05:45"},{"idx":"UM6tBHpbbBxTLgvn8LcMf5","contest":"NEPALBHASA STAR MUSIC VIDEO AWARDS-2019","episode":null,"category":"BEST MUSIC VIDEO","contestant":{"voting_id":"1D","name":"Krishna Bhakta Maharjan"},"vote_count":1,"created_on":"2019-12-21T20:18:05.231187+05:45"},{"idx":"raiZirRXpL62YTndtYNweB","contest":"NEPALBHASA STAR MUSIC VIDEO AWARDS-2019","episode":null,"category":"BEST MAKE UP ARTIST","contestant":{"voting_id":"2I","name":"Matina Maharjan"},"vote_count":1,"created_on":"2019-12-21T20:17:40.444946+05:45"},{"idx":"c9vJTwexZxDfH4BuReJChJ","contest":"NEPALBHASA STAR MUSIC VIDEO AWARDS-2019","episode":null,"category":"BEST LYRICIST","contestant":{"voting_id":"4G","name":"Shailesh Shakya "},"vote_count":1,"created_on":"2019-12-21T20:17:37.185468+05:45"},{"idx":"837jKNFM5Fv25ACPsBwg2D","contest":"NEPALBHASA STAR MUSIC VIDEO AWARDS-2019","episode":null,"category":"BEST DRESS DESIGNER","contestant":{"voting_id":"3h","name":"Sunita Rajbhandari"},"vote_count":1,"created_on":"2019-12-21T20:17:20.565588+05:45"},{"idx":"kaapacMrHGr6srSAvPztdd","contest":"NEPALBHASA STAR MUSIC VIDEO AWARDS-2019","episode":null,"category":"BEST MUSIC ARRANGER","contestant":{"voting_id":"5I","name":"Suman Kapali "},"vote_count":1,"created_on":"2019-12-21T20:17:11.970420+05:45"},{"idx":"eno6VjDVjAMcYZxUxGqkZG","contest":"NEPALBHASA STAR MUSIC VIDEO AWARDS-2019","episode":null,"category":"BEST LYRICIST","contestant":{"voting_id":"4G","name":"Shailesh Shakya "},"vote_count":1,"created_on":"2019-12-21T20:16:57.058225+05:45"},{"idx":"wTbym26dvidKbeTtqpqzAb","contest":"NEPALBHASA STAR MUSIC VIDEO AWARDS-2019","episode":null,"category":"BEST MUSIC DIRECTOR","contestant":{"voting_id":"6A","name":"Suman Kapali"},"vote_count":1,"created_on":"2019-12-21T20:16:51.957998+05:45"},{"idx":"earevQLVsBUxmEfhebR3eS","contest":"NEPALBHASA STAR MUSIC VIDEO AWARDS-2019","episode":null,"category":"BEST MUSIC ARRANGER","contestant":{"voting_id":"5G","name":"Hari Sharan Sayami"},"vote_count":1,"created_on":"2019-12-21T20:16:27.806283+05:45"},{"idx":"VLRmAGD7aMeGXtSVKFw5QA","contest":"NEPALBHASA STAR MUSIC VIDEO AWARDS-2019","episode":null,"category":"BEST RECORDING STUDIO","contestant":{"voting_id":"7C","name":"Artomuse Recording Studio"},"vote_count":1,"created_on":"2019-12-21T20:16:27.120479+05:45"},{"idx":"zuSYkpZzkiYsyrbZxGKE9L","contest":"NEPALBHASA STAR MUSIC VIDEO AWARDS-2019","episode":null,"category":"BEST MUSIC DIRECTOR","contestant":{"voting_id":"6A","name":"Suman Kapali"},"vote_count":1,"created_on":"2019-12-21T20:16:06.568501+05:45"}]}