{"total_pages":275,"total_records":13721,"next":"https://khalti.com/api/v2/vuservote/?page=232","previous":"https://khalti.com/api/v2/vuservote/?page=230","record_range":[11501,11550],"current_page":231,"records":[{"idx":"do9PQYeii767SDrbVAo2dk","contest":"NEPALBHASA STAR MUSIC VIDEO AWARDS-2019","episode":null,"category":"BEST VIDEO COLORIST","contestant":{"voting_id":"8F","name":"Bal Krishna Bansi "},"vote_count":1,"created_on":"2019-12-21T20:15:50.127481+05:45"},{"idx":"jbUYRbxUSqF88DHMNod6fH","contest":"NEPALBHASA STAR MUSIC VIDEO AWARDS-2019","episode":null,"category":"BEST RECORDING STUDIO","contestant":{"voting_id":"7C","name":"Artomuse Recording Studio"},"vote_count":1,"created_on":"2019-12-21T20:15:41.006823+05:45"},{"idx":"4tquVEGXZx2wY7J8R85ivk","contest":"NEPALBHASA STAR MUSIC VIDEO AWARDS-2019","episode":null,"category":"BEST VIDEO EDITOR","contestant":{"voting_id":"9H","name":"Rajan Shakya"},"vote_count":1,"created_on":"2019-12-21T20:15:25.843734+05:45"},{"idx":"FsNjanQfhpypJcsFb2hygS","contest":"NEPALBHASA STAR MUSIC VIDEO AWARDS-2019","episode":null,"category":"BEST VIDEO COLORIST","contestant":{"voting_id":"8G","name":"Amar Chitrakar"},"vote_count":1,"created_on":"2019-12-21T20:15:06.595624+05:45"},{"idx":"ALusNNxWf3Avbp8E5QfVk2","contest":"NEPALBHASA STAR MUSIC VIDEO AWARDS-2019","episode":null,"category":"BEST CAMERAPERSON","contestant":{"voting_id":"10E","name":"Yoban Shakya"},"vote_count":1,"created_on":"2019-12-21T20:14:56.060616+05:45"},{"idx":"W27GUZttuP4JMeNKgb5RtW","contest":"NEPALBHASA STAR MUSIC VIDEO AWARDS-2019","episode":null,"category":"BEST MODEL, MALE","contestant":{"voting_id":"11B","name":"Raju Maharjan 'Juju'"},"vote_count":1,"created_on":"2019-12-21T20:14:39.865745+05:45"},{"idx":"aKhcuDXFbYZWjkSNVSS3H4","contest":"NEPALBHASA STAR MUSIC VIDEO AWARDS-2019","episode":null,"category":"BEST VIDEO EDITOR","contestant":{"voting_id":"9C","name":"Yoban Shakya"},"vote_count":1,"created_on":"2019-12-21T20:14:36.071278+05:45"},{"idx":"xH2oXTc8yskQLt5YCZpewG","contest":"NEPALBHASA STAR MUSIC VIDEO AWARDS-2019","episode":null,"category":"BEST CAMERAPERSON","contestant":{"voting_id":"10A","name":"Shankar Maharjan"},"vote_count":1,"created_on":"2019-12-21T20:14:12.794960+05:45"},{"idx":"XL9E56DeWrYurDR4TZZeza","contest":"NEPALBHASA STAR MUSIC VIDEO AWARDS-2019","episode":null,"category":"BEST DEBUT MODEL, MALE","contestant":{"voting_id":"12I","name":"Nirajan Pradhan"},"vote_count":1,"created_on":"2019-12-21T20:13:58.568396+05:45"},{"idx":"Dshgf9mUtbdZA6q9eGm3qX","contest":"NEPALBHASA STAR MUSIC VIDEO AWARDS-2019","episode":null,"category":"BEST MODEL, MALE","contestant":{"voting_id":"11G","name":"Dhiren Shakya"},"vote_count":1,"created_on":"2019-12-21T20:13:33.267583+05:45"},{"idx":"zUvDwe6d3YbsaqqVUdkxLE","contest":"NEPALBHASA STAR MUSIC VIDEO AWARDS-2019","episode":null,"category":"BEST MODEL, FEMALE","contestant":{"voting_id":"13D","name":"Shova Maharjan"},"vote_count":1,"created_on":"2019-12-21T20:13:16.281053+05:45"},{"idx":"Dzoc2pxx4hzvwvCqYpVuxc","contest":"NEPALBHASA STAR MUSIC VIDEO AWARDS-2019","episode":null,"category":"BEST DEBUT MODEL, MALE","contestant":{"voting_id":"12I","name":"Nirajan Pradhan"},"vote_count":1,"created_on":"2019-12-21T20:12:55.102338+05:45"},{"idx":"mNkQPcAhMXXDJMz2es69zf","contest":"NEPALBHASA STAR MUSIC VIDEO AWARDS-2019","episode":null,"category":"BEST DEBUT MODEL, FEMALE","contestant":{"voting_id":"14E","name":"Karoona Shrestha"},"vote_count":1,"created_on":"2019-12-21T20:12:52.169398+05:45"},{"idx":"uhLyZFxVYEnCAsJvr7g5zc","contest":"NEPALBHASA STAR MUSIC VIDEO AWARDS-2019","episode":null,"category":"BEST SINGER, MALE","contestant":{"voting_id":"15A","name":"Dr. Gopal Maharjan"},"vote_count":1,"created_on":"2019-12-21T20:12:19.831975+05:45"},{"idx":"yX9HQxJRNAY7H2bBVUT8Y3","contest":"NEPALBHASA STAR MUSIC VIDEO AWARDS-2019","episode":null,"category":"BEST MODEL, FEMALE","contestant":{"voting_id":"13B","name":"Ashishma Nakarmi"},"vote_count":1,"created_on":"2019-12-21T20:12:12.093794+05:45"},{"idx":"NrQj5Q56viQYLGEZeYY3yn","contest":"NEPALBHASA STAR MUSIC VIDEO AWARDS-2019","episode":null,"category":"BEST DEBUT SINGER, MALE","contestant":{"voting_id":"16C","name":"Rajendra Shakya"},"vote_count":1,"created_on":"2019-12-21T20:11:45.930628+05:45"},{"idx":"Eq7JcyXzGm2S5cunhHACCk","contest":"NEPALBHASA STAR MUSIC VIDEO AWARDS-2019","episode":null,"category":"BEST DEBUT MODEL, FEMALE","contestant":{"voting_id":"14E","name":"Karoona Shrestha"},"vote_count":1,"created_on":"2019-12-21T20:11:13.272875+05:45"},{"idx":"TnGuxirvm3fpgWqk5NuP5H","contest":"NEPALBHASA STAR MUSIC VIDEO AWARDS-2019","episode":null,"category":"BEST Singer,FEMALE","contestant":{"voting_id":"17C","name":"Pooja Sunuwar"},"vote_count":1,"created_on":"2019-12-21T20:11:06.432430+05:45"},{"idx":"5zEWNPbjUbiyhPhHWvkY6h","contest":"NEPALBHASA STAR MUSIC VIDEO AWARDS-2019","episode":null,"category":"BEST DEBUT SINGER, FEMALE","contestant":{"voting_id":"18B","name":"Mohan Devi Maharjan"},"vote_count":1,"created_on":"2019-12-21T20:10:40.464582+05:45"},{"idx":"WUCh4mqwoDevj7zfoXb4jW","contest":"NEPALBHASA STAR MUSIC VIDEO AWARDS-2019","episode":null,"category":"BEST SINGER, MALE","contestant":{"voting_id":"15F","name":"Purna Kaji Jyapu"},"vote_count":1,"created_on":"2019-12-21T20:10:24.088800+05:45"},{"idx":"KrtJ9iB88Wwf7X2Uqov3NS","contest":"NEPALBHASA STAR MUSIC VIDEO AWARDS-2019","episode":null,"category":"BEST DANCE DIRECTOR","contestant":{"voting_id":"19F","name":"Sunita Rajbhandari/Sujan Bajracharya"},"vote_count":1,"created_on":"2019-12-21T20:10:01.121917+05:45"},{"idx":"H9ap9Pmd567yQTi3KjBRff","contest":"NEPALBHASA STAR MUSIC VIDEO AWARDS-2019","episode":null,"category":"BEST DEBUT SINGER, MALE","contestant":{"voting_id":"16I","name":"Shailendra Dangol"},"vote_count":1,"created_on":"2019-12-21T20:09:51.507337+05:45"},{"idx":"ZggyGUWz3S9EznaFZ2cFxC","contest":"NEPALBHASA STAR MUSIC VIDEO AWARDS-2019","episode":null,"category":"BEST Singer,FEMALE","contestant":{"voting_id":"17C","name":"Pooja Sunuwar"},"vote_count":1,"created_on":"2019-12-21T20:09:26.699620+05:45"},{"idx":"xEoFztqYKWyyGW3LipK2Ld","contest":"NEPALBHASA STAR MUSIC VIDEO AWARDS-2019","episode":null,"category":"BEST DIRECTOR","contestant":{"voting_id":"20J","name":"Sonam Pakhrin"},"vote_count":1,"created_on":"2019-12-21T20:09:08.869507+05:45"},{"idx":"8BTySg6CyvXXCwNPViLDvE","contest":"NEPALBHASA STAR MUSIC VIDEO AWARDS-2019","episode":null,"category":"BEST DEBUT SINGER, FEMALE","contestant":{"voting_id":"18D","name":"LaxmiMaharjan"},"vote_count":1,"created_on":"2019-12-21T20:08:55.410042+05:45"},{"idx":"6ToFRsXvpPvNjua7cQx6eW","contest":"NEPALBHASA STAR MUSIC VIDEO AWARDS-2019","episode":null,"category":"THE RISING STAR SINGER","contestant":{"voting_id":"21B","name":"Ves Maharjan"},"vote_count":1,"created_on":"2019-12-21T20:08:41.579328+05:45"},{"idx":"XUJ2SxEmuFLhuC4YvGnxud","contest":"NEPALBHASA STAR MUSIC VIDEO AWARDS-2019","episode":null,"category":"BEST DIRECTOR","contestant":{"voting_id":"20J","name":"Sonam Pakhrin"},"vote_count":1,"created_on":"2019-12-21T20:08:24.125627+05:45"},{"idx":"kL69xP2ghjSuySv4vmsspi","contest":"NEPALBHASA STAR MUSIC VIDEO AWARDS-2019","episode":null,"category":"THE RISING STAR SINGER","contestant":{"voting_id":"21D","name":"Krishna Maharjan"},"vote_count":1,"created_on":"2019-12-21T20:07:34.310009+05:45"},{"idx":"Yx9u8pTDyyapqDMUNN53gA","contest":"NEPALBHASA STAR MUSIC VIDEO AWARDS-2019","episode":null,"category":"BEST VIDEO COLORIST","contestant":{"voting_id":"8J","name":"Nabin Maharjan"},"vote_count":1,"created_on":"2019-12-21T19:41:16.918292+05:45"},{"idx":"7TDvn5nVgLDju9k2nkFmqL","contest":"NEPALBHASA STAR MUSIC VIDEO AWARDS-2019","episode":null,"category":"BEST DEBUT MODEL, FEMALE","contestant":{"voting_id":"14F","name":"Ramita Maharjan"},"vote_count":1,"created_on":"2019-12-21T19:40:49.071756+05:45"},{"idx":"vMLyfvpsE5UGECuxZefQQJ","contest":"NEPALBHASA STAR MUSIC VIDEO AWARDS-2019","episode":null,"category":"BEST DEBUT SINGER, MALE","contestant":{"voting_id":"16I","name":"Shailendra Dangol"},"vote_count":1,"created_on":"2019-12-21T19:40:08.038936+05:45"},{"idx":"8Wc8bvnTvgYKMDfAGsFooe","contest":"NEPALBHASA STAR MUSIC VIDEO AWARDS-2019","episode":null,"category":"BEST DANCE DIRECTOR","contestant":{"voting_id":"19J","name":"Bhuwan Shrestha"},"vote_count":1,"created_on":"2019-12-21T19:39:35.469983+05:45"},{"idx":"VWm4FBpyNtkL5AuYdJtpLH","contest":"NEPALBHASA STAR MUSIC VIDEO AWARDS-2019","episode":null,"category":"BEST DEBUT SINGER, FEMALE","contestant":{"voting_id":"18I","name":"MeenaMaharjan"},"vote_count":1,"created_on":"2019-12-21T19:38:57.592275+05:45"},{"idx":"kRfKhpR96taZLCJ9QKsskg","contest":"NEPALBHASA STAR MUSIC VIDEO AWARDS-2019","episode":null,"category":"BEST VIDEO EDITOR","contestant":{"voting_id":"9J","name":"Amrit Man Maharjan"},"vote_count":1,"created_on":"2019-12-21T19:38:42.955968+05:45"},{"idx":"pBgvosmtck2mKWo9rCnnjJ","contest":"NEPALBHASA STAR MUSIC VIDEO AWARDS-2019","episode":null,"category":"BEST MUSIC ARRANGER","contestant":{"voting_id":"5J","name":" Bhupendra Bajracharya"},"vote_count":1,"created_on":"2019-12-21T19:38:24.387404+05:45"},{"idx":"wu5E45WRgu42Goaq4UfsRi","contest":"NEPALBHASA STAR MUSIC VIDEO AWARDS-2019","episode":null,"category":"BEST LYRICIST","contestant":{"voting_id":"4A","name":"Dr. Gopal Maharjan"},"vote_count":1,"created_on":"2019-12-21T19:38:08.515034+05:45"},{"idx":"LxrmX9twwKwBEnjgdXw7zj","contest":"NEPALBHASA STAR MUSIC VIDEO AWARDS-2019","episode":null,"category":"BEST MAKE UP ARTIST","contestant":{"voting_id":"2I","name":"Matina Maharjan"},"vote_count":1,"created_on":"2019-12-21T19:37:46.868425+05:45"},{"idx":"9m2QP9FJgseguJuQHEomwD","contest":"NEPALBHASA STAR MUSIC VIDEO AWARDS-2019","episode":null,"category":"BEST Singer,FEMALE","contestant":{"voting_id":"17C","name":"Pooja Sunuwar"},"vote_count":1,"created_on":"2019-12-21T19:37:06.935848+05:45"},{"idx":"YksAcS7wKDdJLjqU8F8gsB","contest":"NEPALBHASA STAR MUSIC VIDEO AWARDS-2019","episode":null,"category":"BEST DIRECTOR","contestant":{"voting_id":"20B","name":"Rajesh Man Singh"},"vote_count":1,"created_on":"2019-12-21T19:36:15.088539+05:45"},{"idx":"2HXHfN25M2cyVdfJMB9HW5","contest":"NEPALBHASA STAR MUSIC VIDEO AWARDS-2019","episode":null,"category":"THE RISING STAR SINGER","contestant":{"voting_id":"21A","name":"Macha Raja Maharjan"},"vote_count":1,"created_on":"2019-12-21T19:35:39.152173+05:45"},{"idx":"BvQp6LFwKyP3WropxmtP4N","contest":"NEPALBHASA STAR MUSIC VIDEO AWARDS-2019","episode":null,"category":"BEST MUSIC VIDEO","contestant":{"voting_id":"1J","name":"Ashok Maharjan"},"vote_count":1,"created_on":"2019-12-21T19:35:07.634648+05:45"},{"idx":"DfVLB4N5NuLwhnGLvh8Ati","contest":"NEPALBHASA STAR MUSIC VIDEO AWARDS-2019","episode":null,"category":"BEST MUSIC VIDEO","contestant":{"voting_id":"1D","name":"Krishna Bhakta Maharjan"},"vote_count":1,"created_on":"2019-12-21T18:09:08.434580+05:45"},{"idx":"bPbDxah8fuyYhmE5EMdyHJ","contest":"NEPALBHASA STAR MUSIC VIDEO AWARDS-2019","episode":null,"category":"BEST MAKE UP ARTIST","contestant":{"voting_id":"2I","name":"Matina Maharjan"},"vote_count":1,"created_on":"2019-12-21T17:20:55.221718+05:45"},{"idx":"p7d4NgqRHtjNHnSGpuhRqJ","contest":"NEPALBHASA STAR MUSIC VIDEO AWARDS-2019","episode":null,"category":"BEST DEBUT MODEL, FEMALE","contestant":{"voting_id":"14C","name":"Rakshya Shrestha"},"vote_count":1,"created_on":"2019-12-21T10:46:39.612388+05:45"},{"idx":"zNejBKKLs669gU33sWJyWP","contest":"NEPALBHASA STAR MUSIC VIDEO AWARDS-2019","episode":null,"category":"BEST DIRECTOR","contestant":{"voting_id":"20J","name":"Sonam Pakhrin"},"vote_count":1,"created_on":"2019-12-21T10:32:45.037064+05:45"},{"idx":"aW5RT2sfjepnjVuNufYhtR","contest":"NEPALBHASA STAR MUSIC VIDEO AWARDS-2019","episode":null,"category":"THE RISING STAR SINGER","contestant":{"voting_id":"21E","name":"Purna Man Maharjan"},"vote_count":1,"created_on":"2019-12-21T10:31:28.253484+05:45"},{"idx":"gfkGRydcgF2FL3UE4grfaJ","contest":"NEPALBHASA STAR MUSIC VIDEO AWARDS-2019","episode":null,"category":"BEST DEBUT MODEL, MALE","contestant":{"voting_id":"12C","name":"Rahul Prajapati"},"vote_count":1,"created_on":"2019-12-21T09:29:23.110838+05:45"},{"idx":"kiFjMtLwqTey3ZZt9MJLFP","contest":"NEPALBHASA STAR MUSIC VIDEO AWARDS-2019","episode":null,"category":"BEST Singer,FEMALE","contestant":{"voting_id":"17J","name":"Anita Maharjan"},"vote_count":1,"created_on":"2019-12-21T09:18:45.904165+05:45"},{"idx":"gZsF4hF3P5APqsA2k4hZaL","contest":"NEPALBHASA STAR MUSIC VIDEO AWARDS-2019","episode":null,"category":"BEST DIRECTOR","contestant":{"voting_id":"20D","name":"Ram Krishna Khadgi"},"vote_count":1,"created_on":"2019-12-21T09:18:14.474303+05:45"},{"idx":"FDEN8zbyLe93NmSwbrnvcV","contest":"NEPALBHASA STAR MUSIC VIDEO AWARDS-2019","episode":null,"category":"THE RISING STAR SINGER","contestant":{"voting_id":"21E","name":"Purna Man Maharjan"},"vote_count":1,"created_on":"2019-12-21T01:14:33.939669+05:45"}]}