{"total_pages":275,"total_records":13721,"next":"https://khalti.com/api/v2/vuservote/?page=233","previous":"https://khalti.com/api/v2/vuservote/?page=231","record_range":[11551,11600],"current_page":232,"records":[{"idx":"UJKSwXKvNuvVKwi78C5yJk","contest":"NEPALBHASA STAR MUSIC VIDEO AWARDS-2019","episode":null,"category":"BEST DEBUT MODEL, MALE","contestant":{"voting_id":"12I","name":"Nirajan Pradhan"},"vote_count":1,"created_on":"2019-12-20T21:42:53.724182+05:45"},{"idx":"ErRzkfV8yTnaqe2SmFmJKW","contest":"NEPALBHASA STAR MUSIC VIDEO AWARDS-2019","episode":null,"category":"BEST MUSIC VIDEO","contestant":{"voting_id":"1B","name":"Ram Bhakta Maharjan"},"vote_count":1,"created_on":"2019-12-20T19:40:09.748245+05:45"},{"idx":"f3yho5cjdpegwcoL7gnt5X","contest":"NEPALBHASA STAR MUSIC VIDEO AWARDS-2019","episode":null,"category":"BEST CAMERAPERSON","contestant":{"voting_id":"10E","name":"Yoban Shakya"},"vote_count":1,"created_on":"2019-12-20T15:37:10.614941+05:45"},{"idx":"th6wfWwjWTLS7MotQFgMTA","contest":"NEPALBHASA STAR MUSIC VIDEO AWARDS-2019","episode":null,"category":"BEST MODEL, MALE","contestant":{"voting_id":"11G","name":"Dhiren Shakya"},"vote_count":1,"created_on":"2019-12-20T15:36:47.997941+05:45"},{"idx":"5ChGVHQrq5CZFkK5tGDkDA","contest":"NEPALBHASA STAR MUSIC VIDEO AWARDS-2019","episode":null,"category":"BEST DEBUT MODEL, MALE","contestant":{"voting_id":"12H","name":"Anup Shakya"},"vote_count":1,"created_on":"2019-12-20T15:36:31.628759+05:45"},{"idx":"ZFcgtFda9yo972vMDNhuNm","contest":"NEPALBHASA STAR MUSIC VIDEO AWARDS-2019","episode":null,"category":"BEST MODEL, FEMALE","contestant":{"voting_id":"13H","name":"Sarita Bajracharya"},"vote_count":1,"created_on":"2019-12-20T15:36:07.171583+05:45"},{"idx":"by2DeRe4Wat5LEK3HyGcPn","contest":"NEPALBHASA STAR MUSIC VIDEO AWARDS-2019","episode":null,"category":"BEST DEBUT MODEL, FEMALE","contestant":{"voting_id":"14H","name":"Sana Shakya"},"vote_count":1,"created_on":"2019-12-20T15:35:50.987047+05:45"},{"idx":"Nu7N4ePADTcPB9pT5NC6TX","contest":"NEPALBHASA STAR MUSIC VIDEO AWARDS-2019","episode":null,"category":"BEST SINGER, MALE","contestant":{"voting_id":"15E","name":" Prabesh Man Shakya"},"vote_count":1,"created_on":"2019-12-20T15:35:38.063810+05:45"},{"idx":"mPqE6NdPKXns7iCTdyS7x9","contest":"NEPALBHASA STAR MUSIC VIDEO AWARDS-2019","episode":null,"category":"BEST DEBUT SINGER, MALE","contestant":{"voting_id":"16C","name":"Rajendra Shakya"},"vote_count":1,"created_on":"2019-12-20T15:35:26.167045+05:45"},{"idx":"yzb9H8PVW5PdRNvh5FStrf","contest":"NEPALBHASA STAR MUSIC VIDEO AWARDS-2019","episode":null,"category":"BEST DIRECTOR","contestant":{"voting_id":"20E","name":"Lujaw Singh"},"vote_count":1,"created_on":"2019-12-20T15:35:24.789294+05:45"},{"idx":"ZmEREpB8DxTNexT5VjTaCS","contest":"NEPALBHASA STAR MUSIC VIDEO AWARDS-2019","episode":null,"category":"BEST Singer,FEMALE","contestant":{"voting_id":"17H","name":"Bishnu Maya Byanjankar"},"vote_count":1,"created_on":"2019-12-20T15:35:07.196111+05:45"},{"idx":"w23WT9jk72uFSxRxQgRE6C","contest":"NEPALBHASA STAR MUSIC VIDEO AWARDS-2019","episode":null,"category":"BEST DEBUT SINGER, FEMALE","contestant":{"voting_id":"18H","name":"HasanaShakya"},"vote_count":1,"created_on":"2019-12-20T15:34:43.652744+05:45"},{"idx":"oRthdjMBXqmzdia4MyZqCE","contest":"NEPALBHASA STAR MUSIC VIDEO AWARDS-2019","episode":null,"category":"BEST DANCE DIRECTOR","contestant":{"voting_id":"19F","name":"Sunita Rajbhandari/Sujan Bajracharya"},"vote_count":1,"created_on":"2019-12-20T15:33:58.765410+05:45"},{"idx":"8Hk5w2xkSmkcgfgy9M7eqe","contest":"NEPALBHASA STAR MUSIC VIDEO AWARDS-2019","episode":null,"category":"BEST DIRECTOR","contestant":{"voting_id":"20B","name":"Rajesh Man Singh"},"vote_count":1,"created_on":"2019-12-20T15:33:29.460332+05:45"},{"idx":"JFNCamNhMekpkByKdyGX4J","contest":"NEPALBHASA STAR MUSIC VIDEO AWARDS-2019","episode":null,"category":"THE RISING STAR SINGER","contestant":{"voting_id":"21B","name":"Ves Maharjan"},"vote_count":1,"created_on":"2019-12-20T15:33:14.236829+05:45"},{"idx":"HHRNEwMWUi2Q3iJ6E6yT3G","contest":"NEPALBHASA STAR MUSIC VIDEO AWARDS-2019","episode":null,"category":"BEST RECORDING STUDIO","contestant":{"voting_id":"7I","name":"Bijay Maskey "},"vote_count":1,"created_on":"2019-12-20T15:20:50.129458+05:45"},{"idx":"SuEDdFtLy3zStELy2s6c4M","contest":"NEPALBHASA STAR MUSIC VIDEO AWARDS-2019","episode":null,"category":"BEST SINGER, MALE","contestant":{"voting_id":"15D","name":"Mohan Shakya"},"vote_count":1,"created_on":"2019-12-20T13:04:15.713246+05:45"},{"idx":"REKWyZNDMBQYT3VwoZ56x6","contest":"NEPALBHASA STAR MUSIC VIDEO AWARDS-2019","episode":null,"category":"THE RISING STAR SINGER","contestant":{"voting_id":"21E","name":"Purna Man Maharjan"},"vote_count":1,"created_on":"2019-12-20T12:21:23.200003+05:45"},{"idx":"AT3Z34b4pBs6RxWjeKbKaY","contest":"NEPALBHASA STAR MUSIC VIDEO AWARDS-2019","episode":null,"category":"BEST Singer,FEMALE","contestant":{"voting_id":"17I","name":"Ganga Devi Maharjan"},"vote_count":1,"created_on":"2019-12-20T12:05:48.614375+05:45"},{"idx":"F5LmKXcPY6G3xx6uyEaQcM","contest":"NEPALBHASA STAR MUSIC VIDEO AWARDS-2019","episode":null,"category":"BEST CAMERAPERSON","contestant":{"voting_id":"10A","name":"Shankar Maharjan"},"vote_count":1,"created_on":"2019-12-20T11:30:59.472628+05:45"},{"idx":"HQpsGn7r5h7G4En6ugswpW","contest":"NEPALBHASA STAR MUSIC VIDEO AWARDS-2019","episode":null,"category":"BEST SINGER, MALE","contestant":{"voting_id":"15I","name":"Suraj Bir Bajracharya"},"vote_count":1,"created_on":"2019-12-20T11:29:56.548729+05:45"},{"idx":"CuwwJJteTFRPFYotJiH8ih","contest":"NEPALBHASA STAR MUSIC VIDEO AWARDS-2019","episode":null,"category":"BEST MODEL, FEMALE","contestant":{"voting_id":"13B","name":"Ashishma Nakarmi"},"vote_count":1,"created_on":"2019-12-20T10:41:38.439987+05:45"},{"idx":"uFNGLbxqcJRDExC4hL44Tb","contest":"NEPALBHASA STAR MUSIC VIDEO AWARDS-2019","episode":null,"category":"BEST MODEL, MALE","contestant":{"voting_id":"11G","name":"Dhiren Shakya"},"vote_count":1,"created_on":"2019-12-20T10:40:48.693225+05:45"},{"idx":"oBWuVMjpEzvGLSGvasfsNT","contest":"NEPALBHASA STAR MUSIC VIDEO AWARDS-2019","episode":null,"category":"BEST DRESS DESIGNER","contestant":{"voting_id":"3J","name":"Jyotsana Maharjan"},"vote_count":1,"created_on":"2019-12-20T10:13:59.255068+05:45"},{"idx":"TDwuqcL7wfCVM6oyvvvnJ3","contest":"NEPALBHASA STAR MUSIC VIDEO AWARDS-2019","episode":null,"category":"BEST SINGER, MALE","contestant":{"voting_id":"15J","name":"Ram Bhakta Maharjan"},"vote_count":1,"created_on":"2019-12-20T09:39:16.857200+05:45"},{"idx":"KP5aYGq6QtHxFcjhcSVWk6","contest":"NEPALBHASA STAR MUSIC VIDEO AWARDS-2019","episode":null,"category":"THE RISING STAR SINGER","contestant":{"voting_id":"21E","name":"Purna Man Maharjan"},"vote_count":1,"created_on":"2019-12-19T22:34:36.149907+05:45"},{"idx":"no9zuyKCxYsVBHkfzazz22","contest":"NEPALBHASA STAR MUSIC VIDEO AWARDS-2019","episode":null,"category":"BEST SINGER, MALE","contestant":{"voting_id":"15I","name":"Suraj Bir Bajracharya"},"vote_count":1,"created_on":"2019-12-19T22:01:33.915318+05:45"},{"idx":"CnUwYURDqsQdkrYbM64QxP","contest":"NEPALBHASA STAR MUSIC VIDEO AWARDS-2019","episode":null,"category":"THE RISING STAR SINGER","contestant":{"voting_id":"21D","name":"Krishna Maharjan"},"vote_count":1,"created_on":"2019-12-19T21:51:34.207674+05:45"},{"idx":"QdJmBrFbQJ48LmMddCihcR","contest":"NEPALBHASA STAR MUSIC VIDEO AWARDS-2019","episode":null,"category":"BEST DEBUT SINGER, MALE","contestant":{"voting_id":"16I","name":"Shailendra Dangol"},"vote_count":1,"created_on":"2019-12-19T21:38:24.624589+05:45"},{"idx":"AEVVTFrCBgbuCWMbNsDt3V","contest":"NEPALBHASA STAR MUSIC VIDEO AWARDS-2019","episode":null,"category":"BEST DEBUT MODEL, FEMALE","contestant":{"voting_id":"14C","name":"Rakshya Shrestha"},"vote_count":1,"created_on":"2019-12-19T17:48:45.224724+05:45"},{"idx":"LqZLANsZ7FCi6aoPXuNKqF","contest":"NEPALBHASA STAR MUSIC VIDEO AWARDS-2019","episode":null,"category":"BEST SINGER, MALE","contestant":{"voting_id":"15E","name":" Prabesh Man Shakya"},"vote_count":1,"created_on":"2019-12-19T17:42:43.852524+05:45"},{"idx":"Xp7p8jKvUR9jU9owgGLPPC","contest":"NEPALBHASA STAR MUSIC VIDEO AWARDS-2019","episode":null,"category":"BEST SINGER, MALE","contestant":{"voting_id":"15I","name":"Suraj Bir Bajracharya"},"vote_count":1,"created_on":"2019-12-19T16:52:54.719560+05:45"},{"idx":"tuxc7BWMPK4i6AFhCLY2n7","contest":"NEPALBHASA STAR MUSIC VIDEO AWARDS-2019","episode":null,"category":"BEST MODEL, FEMALE","contestant":{"voting_id":"13G","name":"Bhintuna Joshi"},"vote_count":1,"created_on":"2019-12-19T16:52:29.798276+05:45"},{"idx":"9tdPky9wAbBjSRZZnJXuRK","contest":"NEPALBHASA STAR MUSIC VIDEO AWARDS-2019","episode":null,"category":"THE RISING STAR SINGER","contestant":{"voting_id":"21E","name":"Purna Man Maharjan"},"vote_count":1,"created_on":"2019-12-19T15:31:43.380703+05:45"},{"idx":"tUxTMt4Yg45EoetnzoZs2Q","contest":"NEPALBHASA STAR MUSIC VIDEO AWARDS-2019","episode":null,"category":"THE RISING STAR SINGER","contestant":{"voting_id":"21E","name":"Purna Man Maharjan"},"vote_count":1,"created_on":"2019-12-19T15:30:26.862363+05:45"},{"idx":"fZG5QrUuq5gLSjMZDMhNRJ","contest":"NEPALBHASA STAR MUSIC VIDEO AWARDS-2019","episode":null,"category":"BEST DEBUT MODEL, MALE","contestant":{"voting_id":"12I","name":"Nirajan Pradhan"},"vote_count":1,"created_on":"2019-12-19T14:53:25.442351+05:45"},{"idx":"nb5JFUwn62fFx2Vxtf4QCG","contest":"NEPALBHASA STAR MUSIC VIDEO AWARDS-2019","episode":null,"category":"BEST DEBUT MODEL, FEMALE","contestant":{"voting_id":"14E","name":"Karoona Shrestha"},"vote_count":1,"created_on":"2019-12-19T14:51:52.705887+05:45"},{"idx":"tyxZd22tTaZrFt35J2tNZC","contest":"NEPALBHASA STAR MUSIC VIDEO AWARDS-2019","episode":null,"category":"BEST RECORDING STUDIO","contestant":{"voting_id":"7A","name":"Audio Nepal Recording Studio"},"vote_count":1,"created_on":"2019-12-19T14:34:04.695102+05:45"},{"idx":"92x5S3mVe7N6gk7S6CtATi","contest":"NEPALBHASA STAR MUSIC VIDEO AWARDS-2019","episode":null,"category":"BEST DRESS DESIGNER","contestant":{"voting_id":"3J","name":"Jyotsana Maharjan"},"vote_count":1,"created_on":"2019-12-19T13:42:16.010418+05:45"},{"idx":"JaM8UmRup7ooMiibXKmNp5","contest":"NEPALBHASA STAR MUSIC VIDEO AWARDS-2019","episode":null,"category":"BEST MODEL, FEMALE","contestant":{"voting_id":"13G","name":"Bhintuna Joshi"},"vote_count":1,"created_on":"2019-12-19T10:51:55.247678+05:45"},{"idx":"uLt3VvtmDaeoJ9mQ43DmMa","contest":"NEPALBHASA STAR MUSIC VIDEO AWARDS-2019","episode":null,"category":"BEST MUSIC VIDEO","contestant":{"voting_id":"1D","name":"Krishna Bhakta Maharjan"},"vote_count":1,"created_on":"2019-12-19T10:23:01.141036+05:45"},{"idx":"5oHkdXD6w84DBdDyMrYGSD","contest":"NEPALBHASA STAR MUSIC VIDEO AWARDS-2019","episode":null,"category":"BEST Singer,FEMALE","contestant":{"voting_id":"17B","name":"Ratna Shova Maharjan"},"vote_count":1,"created_on":"2019-12-19T10:21:50.620336+05:45"},{"idx":"jk8pN3REFPKihNubx3r9Gf","contest":"NEPALBHASA STAR MUSIC VIDEO AWARDS-2019","episode":null,"category":"BEST DANCE DIRECTOR","contestant":{"voting_id":"19D","name":"Sharmila Maharjan"},"vote_count":1,"created_on":"2019-12-19T10:21:01.185837+05:45"},{"idx":"ZaHihbaFydXkCwhr2p5KX6","contest":"NEPALBHASA STAR MUSIC VIDEO AWARDS-2019","episode":null,"category":"THE RISING STAR SINGER","contestant":{"voting_id":"21C","name":"Jack Maharjan"},"vote_count":1,"created_on":"2019-12-19T08:57:12.024385+05:45"},{"idx":"29jVZYjiyPnpSaii2nkGi5","contest":"NEPALBHASA STAR MUSIC VIDEO AWARDS-2019","episode":null,"category":"BEST MUSIC VIDEO","contestant":{"voting_id":"1E","name":"Raju Karmacharya"},"vote_count":1,"created_on":"2019-12-19T06:08:59.647520+05:45"},{"idx":"iye9N83LoLzoffmccZYpXF","contest":"NEPALBHASA STAR MUSIC VIDEO AWARDS-2019","episode":null,"category":"BEST DIRECTOR","contestant":{"voting_id":"20B","name":"Rajesh Man Singh"},"vote_count":1,"created_on":"2019-12-19T04:21:44.934645+05:45"},{"idx":"8YfwYEPvHFTCav46FXruSo","contest":"NEPALBHASA STAR MUSIC VIDEO AWARDS-2019","episode":null,"category":"BEST LYRICIST","contestant":{"voting_id":"4E","name":"Dr. Chandra Man Bajracharya"},"vote_count":1,"created_on":"2019-12-18T22:36:47.441355+05:45"},{"idx":"7Xad3xDyj9inpk6SWrTWxB","contest":"NEPALBHASA STAR MUSIC VIDEO AWARDS-2019","episode":null,"category":"BEST MUSIC DIRECTOR","contestant":{"voting_id":"6J","name":"Krishna Bhakta Maharjan"},"vote_count":1,"created_on":"2019-12-18T21:25:07.202623+05:45"},{"idx":"xqg5TQ4ZRagF2LzJGs7nsG","contest":"NEPALBHASA STAR MUSIC VIDEO AWARDS-2019","episode":null,"category":"BEST MUSIC VIDEO","contestant":{"voting_id":"1I","name":"Raj kumar Manandhar"},"vote_count":1,"created_on":"2019-12-18T21:24:53.641861+05:45"},{"idx":"3omHWw66V5NUhiNEwUu2yk","contest":"NEPALBHASA STAR MUSIC VIDEO AWARDS-2019","episode":null,"category":"BEST Singer,FEMALE","contestant":{"voting_id":"17I","name":"Ganga Devi Maharjan"},"vote_count":1,"created_on":"2019-12-18T21:24:33.893582+05:45"}]}