{"total_pages":275,"total_records":13721,"next":"https://khalti.com/api/v2/vuservote/?page=234","previous":"https://khalti.com/api/v2/vuservote/?page=232","record_range":[11601,11650],"current_page":233,"records":[{"idx":"BQcHHVXibzfjVyBwrY5YbB","contest":"NEPALBHASA STAR MUSIC VIDEO AWARDS-2019","episode":null,"category":"THE RISING STAR SINGER","contestant":{"voting_id":"21D","name":"Krishna Maharjan"},"vote_count":1,"created_on":"2019-12-18T21:23:51.999653+05:45"},{"idx":"kGXgYcSyy4wZiEtukVd67T","contest":"NEPALBHASA STAR MUSIC VIDEO AWARDS-2019","episode":null,"category":"BEST DIRECTOR","contestant":{"voting_id":"20B","name":"Rajesh Man Singh"},"vote_count":1,"created_on":"2019-12-18T21:07:39.009934+05:45"},{"idx":"24hSXzStEmH5UBZVPT2VsB","contest":"NEPALBHASA STAR MUSIC VIDEO AWARDS-2019","episode":null,"category":"THE RISING STAR SINGER","contestant":{"voting_id":"21D","name":"Krishna Maharjan"},"vote_count":1,"created_on":"2019-12-18T21:06:49.228685+05:45"},{"idx":"6b3tWDm8yhD6RoZHdwgZJ7","contest":"NEPALBHASA STAR MUSIC VIDEO AWARDS-2019","episode":null,"category":"BEST MODEL, MALE","contestant":{"voting_id":"11J","name":"Rajendra Kumar Maharjan"},"vote_count":1,"created_on":"2019-12-18T20:57:10.128556+05:45"},{"idx":"8WgEYG2FkER43ybHgmactW","contest":"NEPALBHASA STAR MUSIC VIDEO AWARDS-2019","episode":null,"category":"BEST VIDEO COLORIST","contestant":{"voting_id":"8H","name":"Yoban Shakya"},"vote_count":1,"created_on":"2019-12-18T20:28:25.303472+05:45"},{"idx":"76tQxjxrCXyZenbRn5RUKB","contest":"NEPALBHASA STAR MUSIC VIDEO AWARDS-2019","episode":null,"category":"BEST DEBUT SINGER, MALE","contestant":{"voting_id":"16J","name":"Shailendra Tuladhar"},"vote_count":1,"created_on":"2019-12-18T18:47:28.986843+05:45"},{"idx":"s4axxmxyCTh3CCB6YrPyL4","contest":"NEPALBHASA STAR MUSIC VIDEO AWARDS-2019","episode":null,"category":"BEST DIRECTOR","contestant":{"voting_id":"20F","name":"Sunita Rajbhandari"},"vote_count":500,"created_on":"2019-12-18T18:30:07.071737+05:45"},{"idx":"BXVz6ur79zZWp4MxZUuCUj","contest":"NEPALBHASA STAR MUSIC VIDEO AWARDS-2019","episode":null,"category":"BEST DIRECTOR","contestant":{"voting_id":"20A","name":"Bhuwan Shrestha"},"vote_count":1,"created_on":"2019-12-18T16:45:17.942788+05:45"},{"idx":"67rHrDyAUVbCuttewAA5qN","contest":"NEPALBHASA STAR MUSIC VIDEO AWARDS-2019","episode":null,"category":"BEST MUSIC VIDEO","contestant":{"voting_id":"1J","name":"Ashok Maharjan"},"vote_count":1,"created_on":"2019-12-18T16:44:40.628060+05:45"},{"idx":"4p4BVQBCeuX5khzb4SRpAo","contest":"NEPALBHASA STAR MUSIC VIDEO AWARDS-2019","episode":null,"category":"THE RISING STAR SINGER","contestant":{"voting_id":"21E","name":"Purna Man Maharjan"},"vote_count":1,"created_on":"2019-12-18T15:41:24.226259+05:45"},{"idx":"CKHokATfUfhfbDXrrXvQqa","contest":"NEPALBHASA STAR MUSIC VIDEO AWARDS-2019","episode":null,"category":"BEST MODEL, MALE","contestant":{"voting_id":"11G","name":"Dhiren Shakya"},"vote_count":1,"created_on":"2019-12-18T11:08:23.580142+05:45"},{"idx":"EHAieNPFXgE3ourRz5Rf4J","contest":"NEPALBHASA STAR MUSIC VIDEO AWARDS-2019","episode":null,"category":"THE RISING STAR SINGER","contestant":{"voting_id":"21B","name":"Ves Maharjan"},"vote_count":1,"created_on":"2019-12-18T09:23:52.557197+05:45"},{"idx":"Fj2N9TraQxUirNBPabGDQB","contest":"NEPALBHASA STAR MUSIC VIDEO AWARDS-2019","episode":null,"category":"BEST Singer,FEMALE","contestant":{"voting_id":"17C","name":"Pooja Sunuwar"},"vote_count":1,"created_on":"2019-12-18T08:43:13.770688+05:45"},{"idx":"J43j6FEsy5QR7XYKtymuAR","contest":"NEPALBHASA STAR MUSIC VIDEO AWARDS-2019","episode":null,"category":"BEST DANCE DIRECTOR","contestant":{"voting_id":"19I","name":"Rajan Shahi"},"vote_count":1,"created_on":"2019-12-18T08:25:29.353698+05:45"},{"idx":"8wHEK3ewj9ocMUVTCba2ji","contest":"NEPALBHASA STAR MUSIC VIDEO AWARDS-2019","episode":null,"category":"BEST DIRECTOR","contestant":{"voting_id":"20C","name":"Rajan Shahi"},"vote_count":1,"created_on":"2019-12-17T23:56:15.473592+05:45"},{"idx":"qess5HbJFS4FB9qiP8ZbsA","contest":"NEPALBHASA STAR MUSIC VIDEO AWARDS-2019","episode":null,"category":"BEST DEBUT MODEL, MALE","contestant":{"voting_id":"12E","name":"Pratik Shrestha"},"vote_count":1,"created_on":"2019-12-17T23:56:06.299886+05:45"},{"idx":"ZgSoZJSwtS3Y6iTRBUooY4","contest":"NEPALBHASA STAR MUSIC VIDEO AWARDS-2019","episode":null,"category":"BEST Singer,FEMALE","contestant":{"voting_id":"17I","name":"Ganga Devi Maharjan"},"vote_count":1,"created_on":"2019-12-17T23:55:22.673799+05:45"},{"idx":"3BHavVzonKzkH96zNPhmGY","contest":"NEPALBHASA STAR MUSIC VIDEO AWARDS-2019","episode":null,"category":"BEST DRESS DESIGNER","contestant":{"voting_id":"3G","name":"Natyaswor Dress Centre"},"vote_count":1,"created_on":"2019-12-17T23:54:58.897330+05:45"},{"idx":"x9E7xRKRk6WvqjYR6ZMLSP","contest":"NEPALBHASA STAR MUSIC VIDEO AWARDS-2019","episode":null,"category":"THE RISING STAR SINGER","contestant":{"voting_id":"21A","name":"Macha Raja Maharjan"},"vote_count":1,"created_on":"2019-12-17T23:38:17.887432+05:45"},{"idx":"RBjAKuXmesQY33n8XLEqGP","contest":"NEPALBHASA STAR MUSIC VIDEO AWARDS-2019","episode":null,"category":"BEST DANCE DIRECTOR","contestant":{"voting_id":"19J","name":"Bhuwan Shrestha"},"vote_count":1,"created_on":"2019-12-17T20:53:53.924150+05:45"},{"idx":"E9MPZcfJdHPv8qd7fXgDC2","contest":"NEPALBHASA STAR MUSIC VIDEO AWARDS-2019","episode":null,"category":"THE RISING STAR SINGER","contestant":{"voting_id":"21A","name":"Macha Raja Maharjan"},"vote_count":1,"created_on":"2019-12-17T20:32:33.387163+05:45"},{"idx":"CJjxcYgm9fptAS7AzR2uk8","contest":"NEPALBHASA STAR MUSIC VIDEO AWARDS-2019","episode":null,"category":"BEST Singer,FEMALE","contestant":{"voting_id":"17C","name":"Pooja Sunuwar"},"vote_count":1,"created_on":"2019-12-17T20:32:23.674441+05:45"},{"idx":"TnRbhmocHhUDc6ZAzkvg7n","contest":"NEPALBHASA STAR MUSIC VIDEO AWARDS-2019","episode":null,"category":"THE RISING STAR SINGER","contestant":{"voting_id":"21D","name":"Krishna Maharjan"},"vote_count":1,"created_on":"2019-12-17T16:10:27.368269+05:45"},{"idx":"HNNnrGUQRaK6v7ufukofPM","contest":"NEPALBHASA STAR MUSIC VIDEO AWARDS-2019","episode":null,"category":"BEST DEBUT SINGER, FEMALE","contestant":{"voting_id":"18F","name":"JamunaMaharjan"},"vote_count":1,"created_on":"2019-12-17T15:36:18.835490+05:45"},{"idx":"q7cqLCCB5vH3g6YLUEaU23","contest":"NEPALBHASA STAR MUSIC VIDEO AWARDS-2019","episode":null,"category":"BEST MUSIC ARRANGER","contestant":{"voting_id":"5I","name":"Suman Kapali "},"vote_count":1,"created_on":"2019-12-17T14:40:40.788638+05:45"},{"idx":"A7993FEkLAr5KD45dqscsG","contest":"NEPALBHASA STAR MUSIC VIDEO AWARDS-2019","episode":null,"category":"BEST MAKE UP ARTIST","contestant":{"voting_id":"2G","name":"Sarita Bajracharya "},"vote_count":1,"created_on":"2019-12-17T14:39:36.886582+05:45"},{"idx":"hgJbFEs79RiCPuTA4NMajk","contest":"NEPALBHASA STAR MUSIC VIDEO AWARDS-2019","episode":null,"category":"BEST Singer,FEMALE","contestant":{"voting_id":"17A","name":"Deepa Maharjan"},"vote_count":1,"created_on":"2019-12-17T13:50:14.943871+05:45"},{"idx":"Qij57rraRgYLQbTUyxkdmX","contest":"NEPALBHASA STAR MUSIC VIDEO AWARDS-2019","episode":null,"category":"THE RISING STAR SINGER","contestant":{"voting_id":"21E","name":"Purna Man Maharjan"},"vote_count":1,"created_on":"2019-12-17T13:49:28.023759+05:45"},{"idx":"u4XSxY64KG9WhiBCu9ZLu2","contest":"NEPALBHASA STAR MUSIC VIDEO AWARDS-2019","episode":null,"category":"BEST DANCE DIRECTOR","contestant":{"voting_id":"19I","name":"Rajan Shahi"},"vote_count":1,"created_on":"2019-12-17T11:05:10.155173+05:45"},{"idx":"bVSdKHcNdfFbV3soWJZBEi","contest":"NEPALBHASA STAR MUSIC VIDEO AWARDS-2019","episode":null,"category":"BEST DIRECTOR","contestant":{"voting_id":"20E","name":"Lujaw Singh"},"vote_count":1,"created_on":"2019-12-17T11:04:34.593177+05:45"},{"idx":"YBc2LkdMhR3sNqDxzZAzVK","contest":"NEPALBHASA STAR MUSIC VIDEO AWARDS-2019","episode":null,"category":"THE RISING STAR SINGER","contestant":{"voting_id":"21E","name":"Purna Man Maharjan"},"vote_count":1,"created_on":"2019-12-17T10:03:20.211562+05:45"},{"idx":"jWq8P4xSi8RYPiGNJiuNVM","contest":"NEPALBHASA STAR MUSIC VIDEO AWARDS-2019","episode":null,"category":"THE RISING STAR SINGER","contestant":{"voting_id":"21E","name":"Purna Man Maharjan"},"vote_count":1,"created_on":"2019-12-17T00:17:54.692005+05:45"},{"idx":"Aayd3Ukzf4BufRyR3RU6D6","contest":"NEPALBHASA STAR MUSIC VIDEO AWARDS-2019","episode":null,"category":"BEST DIRECTOR","contestant":{"voting_id":"20F","name":"Sunita Rajbhandari"},"vote_count":500,"created_on":"2019-12-16T23:47:08.858896+05:45"},{"idx":"cXgQNLWs878rDKgjWCuL2c","contest":"NEPALBHASA STAR MUSIC VIDEO AWARDS-2019","episode":null,"category":"BEST MUSIC VIDEO","contestant":{"voting_id":"1A","name":"Macha Raja Maharjan"},"vote_count":1,"created_on":"2019-12-16T21:29:03.333361+05:45"},{"idx":"oVBYYWT3gXTWPLpj8QwkLN","contest":"NEPALBHASA STAR MUSIC VIDEO AWARDS-2019","episode":null,"category":"BEST MAKE UP ARTIST","contestant":{"voting_id":"2G","name":"Sarita Bajracharya "},"vote_count":1,"created_on":"2019-12-16T21:28:38.848414+05:45"},{"idx":"yg5JaDjV2ioZGzYvRNGBEg","contest":"NEPALBHASA STAR MUSIC VIDEO AWARDS-2019","episode":null,"category":"BEST DRESS DESIGNER","contestant":{"voting_id":"3F","name":"Aradhya Laxmi Khadgi"},"vote_count":1,"created_on":"2019-12-16T21:28:07.474419+05:45"},{"idx":"xhQsbeKU88456Af6NdpX3e","contest":"NEPALBHASA STAR MUSIC VIDEO AWARDS-2019","episode":null,"category":"BEST LYRICIST","contestant":{"voting_id":"4C","name":"Bhim Bahadur Nakarmi"},"vote_count":1,"created_on":"2019-12-16T21:27:36.236510+05:45"},{"idx":"TyqknQ5fc73hRSoo8UL6MV","contest":"NEPALBHASA STAR MUSIC VIDEO AWARDS-2019","episode":null,"category":"BEST MUSIC ARRANGER","contestant":{"voting_id":"5C","name":"Buddha Sayami"},"vote_count":1,"created_on":"2019-12-16T21:26:30.189443+05:45"},{"idx":"kA4cTWff4T9Qr42GACDBMM","contest":"NEPALBHASA STAR MUSIC VIDEO AWARDS-2019","episode":null,"category":"BEST MUSIC DIRECTOR","contestant":{"voting_id":"6F","name":"Gujey Malakar"},"vote_count":1,"created_on":"2019-12-16T21:26:03.340881+05:45"},{"idx":"pkzW7C8aELmjB8i3vCHBvT","contest":"NEPALBHASA STAR MUSIC VIDEO AWARDS-2019","episode":null,"category":"BEST VIDEO COLORIST","contestant":{"voting_id":"8C","name":"Rajesh Shakya"},"vote_count":1,"created_on":"2019-12-16T21:25:09.953416+05:45"},{"idx":"DENbg2BAybcMNXXt3ET38G","contest":"NEPALBHASA STAR MUSIC VIDEO AWARDS-2019","episode":null,"category":"BEST VIDEO EDITOR","contestant":{"voting_id":"9I","name":"Rajesh Shakya"},"vote_count":1,"created_on":"2019-12-16T21:24:52.946408+05:45"},{"idx":"LSsAa6P7zhdP6VqRJZoU3c","contest":"NEPALBHASA STAR MUSIC VIDEO AWARDS-2019","episode":null,"category":"BEST CAMERAPERSON","contestant":{"voting_id":"10C","name":"Rajesh Shakya"},"vote_count":1,"created_on":"2019-12-16T21:24:31.880379+05:45"},{"idx":"rH9HLtoSgx7amNSGiqsLzS","contest":"NEPALBHASA STAR MUSIC VIDEO AWARDS-2019","episode":null,"category":"BEST MODEL, MALE","contestant":{"voting_id":"11G","name":"Dhiren Shakya"},"vote_count":1,"created_on":"2019-12-16T21:23:28.028214+05:45"},{"idx":"Hg5Q8kPgzV46XCqe7hm3tN","contest":"NEPALBHASA STAR MUSIC VIDEO AWARDS-2019","episode":null,"category":"BEST DEBUT MODEL, MALE","contestant":{"voting_id":"12H","name":"Anup Shakya"},"vote_count":1,"created_on":"2019-12-16T21:22:57.229340+05:45"},{"idx":"UkjozeHGPmYziefMY7u6Uk","contest":"NEPALBHASA STAR MUSIC VIDEO AWARDS-2019","episode":null,"category":"BEST MODEL, FEMALE","contestant":{"voting_id":"13G","name":"Bhintuna Joshi"},"vote_count":1,"created_on":"2019-12-16T21:21:59.435709+05:45"},{"idx":"nT5gK353CPiJEvwjfkakUV","contest":"NEPALBHASA STAR MUSIC VIDEO AWARDS-2019","episode":null,"category":"BEST DEBUT MODEL, FEMALE","contestant":{"voting_id":"14C","name":"Rakshya Shrestha"},"vote_count":1,"created_on":"2019-12-16T21:21:31.449779+05:45"},{"idx":"EL9tjkq6eKH5HPffmMFfoF","contest":"NEPALBHASA STAR MUSIC VIDEO AWARDS-2019","episode":null,"category":"BEST SINGER, MALE","contestant":{"voting_id":"15E","name":" Prabesh Man Shakya"},"vote_count":1,"created_on":"2019-12-16T21:20:58.162409+05:45"},{"idx":"WnjAJPyNv9VqRAJ6dMqaED","contest":"NEPALBHASA STAR MUSIC VIDEO AWARDS-2019","episode":null,"category":"BEST DEBUT SINGER, MALE","contestant":{"voting_id":"16B","name":"Raj Kumar Manandhar"},"vote_count":1,"created_on":"2019-12-16T21:20:35.752930+05:45"},{"idx":"dN4xvk3gJ5MR4fz9j95ywk","contest":"NEPALBHASA STAR MUSIC VIDEO AWARDS-2019","episode":null,"category":"BEST Singer,FEMALE","contestant":{"voting_id":"17G","name":"Saraswati Manandhar"},"vote_count":1,"created_on":"2019-12-16T21:20:14.005477+05:45"},{"idx":"BGSSmec7QTCDtFpNVouJg3","contest":"NEPALBHASA STAR MUSIC VIDEO AWARDS-2019","episode":null,"category":"BEST DEBUT SINGER, FEMALE","contestant":{"voting_id":"18A","name":"DrishnuManandhar"},"vote_count":1,"created_on":"2019-12-16T21:19:50.919857+05:45"}]}