{"total_pages":275,"total_records":13721,"next":"https://khalti.com/api/v2/vuservote/?page=235","previous":"https://khalti.com/api/v2/vuservote/?page=233","record_range":[11651,11700],"current_page":234,"records":[{"idx":"Z4AZ2uGLEC5tfEqU8ndLJG","contest":"NEPALBHASA STAR MUSIC VIDEO AWARDS-2019","episode":null,"category":"BEST DANCE DIRECTOR","contestant":{"voting_id":"19D","name":"Sharmila Maharjan"},"vote_count":1,"created_on":"2019-12-16T21:19:23.965794+05:45"},{"idx":"yrSdiWc33WyPs7YMuJAa83","contest":"NEPALBHASA STAR MUSIC VIDEO AWARDS-2019","episode":null,"category":"BEST DIRECTOR","contestant":{"voting_id":"20J","name":"Sonam Pakhrin"},"vote_count":1,"created_on":"2019-12-16T21:19:00.101523+05:45"},{"idx":"wR5dTijatxFR84pdRcMyQ4","contest":"NEPALBHASA STAR MUSIC VIDEO AWARDS-2019","episode":null,"category":"THE RISING STAR SINGER","contestant":{"voting_id":"21A","name":"Macha Raja Maharjan"},"vote_count":1,"created_on":"2019-12-16T21:17:27.643550+05:45"},{"idx":"HkwqLkkpLJWbVUKZfaKTmZ","contest":"NEPALBHASA STAR MUSIC VIDEO AWARDS-2019","episode":null,"category":"BEST Singer,FEMALE","contestant":{"voting_id":"17C","name":"Pooja Sunuwar"},"vote_count":1,"created_on":"2019-12-16T20:52:57.243062+05:45"},{"idx":"W6rsJayzx9UCiJEp2iDfbK","contest":"NEPALBHASA STAR MUSIC VIDEO AWARDS-2019","episode":null,"category":"BEST DEBUT MODEL, MALE","contestant":{"voting_id":"12C","name":"Rahul Prajapati"},"vote_count":1,"created_on":"2019-12-16T19:49:08.392847+05:45"},{"idx":"bdJWvRftmXAm5tpC53fLbA","contest":"NEPALBHASA STAR MUSIC VIDEO AWARDS-2019","episode":null,"category":"THE RISING STAR SINGER","contestant":{"voting_id":"21D","name":"Krishna Maharjan"},"vote_count":1,"created_on":"2019-12-16T17:15:41.180947+05:45"},{"idx":"PSTDLbN5pf4wuRry2QGT7k","contest":"NEPALBHASA STAR MUSIC VIDEO AWARDS-2019","episode":null,"category":"THE RISING STAR SINGER","contestant":{"voting_id":"21C","name":"Jack Maharjan"},"vote_count":1,"created_on":"2019-12-16T16:25:45.919295+05:45"},{"idx":"VqorQsY3uu735LmdiHmqF6","contest":"NEPALBHASA STAR MUSIC VIDEO AWARDS-2019","episode":null,"category":"BEST RECORDING STUDIO","contestant":{"voting_id":"7C","name":"Artomuse Recording Studio"},"vote_count":1,"created_on":"2019-12-16T16:13:12.678689+05:45"},{"idx":"8Xx7oUNBXx72yeb3oCQDEi","contest":"NEPALBHASA STAR MUSIC VIDEO AWARDS-2019","episode":null,"category":"THE RISING STAR SINGER","contestant":{"voting_id":"21A","name":"Macha Raja Maharjan"},"vote_count":1,"created_on":"2019-12-16T12:08:00.444146+05:45"},{"idx":"Ro9NBqWDZvnfFdoNwA7nbS","contest":"NEPALBHASA STAR MUSIC VIDEO AWARDS-2019","episode":null,"category":"BEST SINGER, MALE","contestant":{"voting_id":"15J","name":"Ram Bhakta Maharjan"},"vote_count":1,"created_on":"2019-12-16T12:07:22.638886+05:45"},{"idx":"qQUcR6qwXLiryEfnfETZ9G","contest":"NEPALBHASA STAR MUSIC VIDEO AWARDS-2019","episode":null,"category":"BEST DANCE DIRECTOR","contestant":{"voting_id":"19F","name":"Sunita Rajbhandari/Sujan Bajracharya"},"vote_count":1,"created_on":"2019-12-16T11:37:31.899096+05:45"},{"idx":"LhSrMKWTJgmjLLBmysHy5K","contest":"NEPALBHASA STAR MUSIC VIDEO AWARDS-2019","episode":null,"category":"BEST MUSIC VIDEO","contestant":{"voting_id":"1H","name":"Sunita Rajbhandari"},"vote_count":1,"created_on":"2019-12-16T11:36:53.998213+05:45"},{"idx":"UFA5kYsDDHFodtef2W965Z","contest":"NEPALBHASA STAR MUSIC VIDEO AWARDS-2019","episode":null,"category":"BEST DRESS DESIGNER","contestant":{"voting_id":"3h","name":"Sunita Rajbhandari"},"vote_count":1,"created_on":"2019-12-16T11:36:26.281792+05:45"},{"idx":"QDuXgDzShFNfqj7pG3TdaZ","contest":"NEPALBHASA STAR MUSIC VIDEO AWARDS-2019","episode":null,"category":"BEST DIRECTOR","contestant":{"voting_id":"20F","name":"Sunita Rajbhandari"},"vote_count":1,"created_on":"2019-12-16T11:31:51.891811+05:45"},{"idx":"9K7KTjbTneEj9PaxD4a9DR","contest":"NEPALBHASA STAR MUSIC VIDEO AWARDS-2019","episode":null,"category":"BEST SINGER, MALE","contestant":{"voting_id":"15I","name":"Suraj Bir Bajracharya"},"vote_count":1,"created_on":"2019-12-16T10:00:47.853841+05:45"},{"idx":"TjGnLfdec33b8wVE3Ch9gh","contest":"NEPALBHASA STAR MUSIC VIDEO AWARDS-2019","episode":null,"category":"BEST LYRICIST","contestant":{"voting_id":"4C","name":"Bhim Bahadur Nakarmi"},"vote_count":1,"created_on":"2019-12-16T09:38:56.028422+05:45"},{"idx":"vpBZnJZg5vmT5RLJK336QN","contest":"NEPALBHASA STAR MUSIC VIDEO AWARDS-2019","episode":null,"category":"BEST Singer,FEMALE","contestant":{"voting_id":"17F","name":"Sonam Maharjan"},"vote_count":1,"created_on":"2019-12-16T07:44:23.636600+05:45"},{"idx":"mxMeezuaaP9oqfe6rWNQ5j","contest":"NEPALBHASA STAR MUSIC VIDEO AWARDS-2019","episode":null,"category":"BEST MODEL, MALE","contestant":{"voting_id":"11G","name":"Dhiren Shakya"},"vote_count":1,"created_on":"2019-12-15T20:03:07.718558+05:45"},{"idx":"gTYAsNJFk66q5V93RsMtRc","contest":"NEPALBHASA STAR MUSIC VIDEO AWARDS-2019","episode":null,"category":"BEST DANCE DIRECTOR","contestant":{"voting_id":"19F","name":"Sunita Rajbhandari/Sujan Bajracharya"},"vote_count":1,"created_on":"2019-12-15T18:40:33.103917+05:45"},{"idx":"i2EGPYveULqNgh3WxecqN8","contest":"NEPALBHASA STAR MUSIC VIDEO AWARDS-2019","episode":null,"category":"BEST DANCE DIRECTOR","contestant":{"voting_id":"19F","name":"Sunita Rajbhandari/Sujan Bajracharya"},"vote_count":1,"created_on":"2019-12-15T18:33:35.764268+05:45"},{"idx":"cLABQLYCAGsR6WnY3iXAch","contest":"NEPALBHASA STAR MUSIC VIDEO AWARDS-2019","episode":null,"category":"BEST DANCE DIRECTOR","contestant":{"voting_id":"19F","name":"Sunita Rajbhandari/Sujan Bajracharya"},"vote_count":1,"created_on":"2019-12-15T18:28:43.342233+05:45"},{"idx":"troJyVXQv3w6364PN9SiJ5","contest":"NEPALBHASA STAR MUSIC VIDEO AWARDS-2019","episode":null,"category":"BEST DIRECTOR","contestant":{"voting_id":"20H","name":"Suresh Khadgi"},"vote_count":1,"created_on":"2019-12-15T17:44:10.257110+05:45"},{"idx":"3NtXWj5FifQTTEeyeMwgUP","contest":"NEPALBHASA STAR MUSIC VIDEO AWARDS-2019","episode":null,"category":"BEST DEBUT MODEL, FEMALE","contestant":{"voting_id":"14I","name":"Deepmala Maharjan"},"vote_count":1,"created_on":"2019-12-15T16:28:50.015112+05:45"},{"idx":"VBHdNHJFM5fEZGf7mYHHoB","contest":"NEPALBHASA STAR MUSIC VIDEO AWARDS-2019","episode":null,"category":"BEST SINGER, MALE","contestant":{"voting_id":"15E","name":" Prabesh Man Shakya"},"vote_count":1,"created_on":"2019-12-15T16:22:42.781351+05:45"},{"idx":"QxzTkgTjQNTLW7ydrVHX9L","contest":"NEPALBHASA STAR MUSIC VIDEO AWARDS-2019","episode":null,"category":"BEST DEBUT MODEL, FEMALE","contestant":{"voting_id":"14J","name":"Garima Maharjan"},"vote_count":1,"created_on":"2019-12-15T15:54:57.745508+05:45"},{"idx":"kKFUCG9biWafacckmZY3Tf","contest":"NEPALBHASA STAR MUSIC VIDEO AWARDS-2019","episode":null,"category":"THE RISING STAR SINGER","contestant":{"voting_id":"21E","name":"Purna Man Maharjan"},"vote_count":1,"created_on":"2019-12-15T15:54:06.869479+05:45"},{"idx":"REs6Pdy3iZX8EAnZScN5yj","contest":"NEPALBHASA STAR MUSIC VIDEO AWARDS-2019","episode":null,"category":"BEST MODEL, FEMALE","contestant":{"voting_id":"13B","name":"Ashishma Nakarmi"},"vote_count":1,"created_on":"2019-12-15T15:53:00.434596+05:45"},{"idx":"8TXi843yenkDwzMwgTUVcj","contest":"NEPALBHASA STAR MUSIC VIDEO AWARDS-2019","episode":null,"category":"BEST DEBUT MODEL, FEMALE","contestant":{"voting_id":"14E","name":"Karoona Shrestha"},"vote_count":1,"created_on":"2019-12-15T15:51:29.841913+05:45"},{"idx":"4xoYaedF82U4AJQE7oc3Uf","contest":"Man of the World","episode":"MOW","category":null,"contestant":{"voting_id":"04","name":"Rukash Subedi"},"vote_count":1,"created_on":"2019-12-15T15:47:14.178423+05:45"},{"idx":"tJ4UDPb9DucopxkagCw5ka","contest":"Man of the World","episode":"MOW","category":null,"contestant":{"voting_id":"02","name":"Sameer Maharjan"},"vote_count":1,"created_on":"2019-12-15T15:00:37.240225+05:45"},{"idx":"V333hNyPUPNizBbYrY6iJN","contest":"Man of the World","episode":"MOW","category":null,"contestant":{"voting_id":"01","name":"Rajendra Rawol"},"vote_count":1,"created_on":"2019-12-15T14:37:06.641862+05:45"},{"idx":"VWRAyY3mVR58M5wm5QY4sR","contest":"Man of the World","episode":"MOW","category":null,"contestant":{"voting_id":"09","name":"Chiran Jivi Thapa"},"vote_count":1,"created_on":"2019-12-15T13:40:39.041359+05:45"},{"idx":"Ma3eZo74jziLaYXZfEisNi","contest":"NEPALBHASA STAR MUSIC VIDEO AWARDS-2019","episode":null,"category":"BEST VIDEO EDITOR","contestant":{"voting_id":"9J","name":"Amrit Man Maharjan"},"vote_count":1,"created_on":"2019-12-15T12:32:31.514280+05:45"},{"idx":"mZrtv7nuMMfZaVTdJG86Ye","contest":"NEPALBHASA STAR MUSIC VIDEO AWARDS-2019","episode":null,"category":"BEST DIRECTOR","contestant":{"voting_id":"20F","name":"Sunita Rajbhandari"},"vote_count":1,"created_on":"2019-12-15T12:29:28.669497+05:45"},{"idx":"8EufQWvq52DMh8MxyxCp6U","contest":"NEPALBHASA STAR MUSIC VIDEO AWARDS-2019","episode":null,"category":"THE RISING STAR SINGER","contestant":{"voting_id":"21E","name":"Purna Man Maharjan"},"vote_count":5,"created_on":"2019-12-15T10:19:37.627618+05:45"},{"idx":"EnXbpFdiKET2xDFYazdGCg","contest":"NEPALBHASA STAR MUSIC VIDEO AWARDS-2019","episode":null,"category":"BEST MUSIC VIDEO","contestant":{"voting_id":"1C","name":"Ves Maharjan"},"vote_count":1,"created_on":"2019-12-15T09:27:45.231597+05:45"},{"idx":"8rNEwJbU49ce8GYHTL87TP","contest":"NEPALBHASA STAR MUSIC VIDEO AWARDS-2019","episode":null,"category":"BEST Singer,FEMALE","contestant":{"voting_id":"17J","name":"Anita Maharjan"},"vote_count":1,"created_on":"2019-12-15T09:26:53.457122+05:45"},{"idx":"ZLoTiCPemHdb2wJXrYoyPd","contest":"NEPALBHASA STAR MUSIC VIDEO AWARDS-2019","episode":null,"category":"BEST SINGER, MALE","contestant":{"voting_id":"15E","name":" Prabesh Man Shakya"},"vote_count":1,"created_on":"2019-12-15T09:25:56.974027+05:45"},{"idx":"7ijf2Ts5HRsXzvBHojD6JG","contest":"Man of the World","episode":"Man of the World","category":null,"contestant":{"voting_id":"06","name":"Prince Millinium Subba"},"vote_count":1,"created_on":"2019-12-14T21:57:28.674972+05:45"},{"idx":"TzhLKsCwDbFeaBBz3gSSAE","contest":"NEPALBHASA STAR MUSIC VIDEO AWARDS-2019","episode":null,"category":"BEST DEBUT MODEL, MALE","contestant":{"voting_id":"12F","name":"Manoj Maharjan"},"vote_count":1,"created_on":"2019-12-14T21:42:35.905351+05:45"},{"idx":"GKx9hvPeoXocmihaY9Wkhe","contest":"Man of the World","episode":"Man of the World","category":null,"contestant":{"voting_id":"09","name":"Chiran Jivi Thapa"},"vote_count":1,"created_on":"2019-12-14T21:31:17.940877+05:45"},{"idx":"6RV9xj3YRd8Ss9HhCGax3T","contest":"Man of the World","episode":"Man of the World","category":null,"contestant":{"voting_id":"11","name":"Kebindra Limbu"},"vote_count":1,"created_on":"2019-12-14T21:04:25.769523+05:45"},{"idx":"xBTYvopzmWX4GefjtVwxdg","contest":"Man of the World","episode":"Man of the World","category":null,"contestant":{"voting_id":"11","name":"Kebindra Limbu"},"vote_count":1,"created_on":"2019-12-14T20:54:48.153899+05:45"},{"idx":"8rFNAAPJ2WpEsJHFEtTuU2","contest":"Man of the World","episode":"Man of the World","category":null,"contestant":{"voting_id":"09","name":"Chiran Jivi Thapa"},"vote_count":1,"created_on":"2019-12-14T18:53:30.518523+05:45"},{"idx":"sTMu8GDSacP3s9q3LyCoMQ","contest":"Man of the World","episode":"Man of the World","category":null,"contestant":{"voting_id":"06","name":"Prince Millinium Subba"},"vote_count":1,"created_on":"2019-12-14T18:35:46.684679+05:45"},{"idx":"wfKvjWs5F3xLjiaKdEVZSk","contest":"Man of the World","episode":"Man of the World","category":null,"contestant":{"voting_id":"04","name":"Rukash Subedi"},"vote_count":1,"created_on":"2019-12-14T17:24:57.867671+05:45"},{"idx":"ycjwXtcjPggNff5NYiZbyB","contest":"NEPALBHASA STAR MUSIC VIDEO AWARDS-2019","episode":null,"category":"BEST MODEL, MALE","contestant":{"voting_id":"11H","name":"Binod Shrestha"},"vote_count":1,"created_on":"2019-12-14T17:23:50.989939+05:45"},{"idx":"tcc3Wjx7439zT9dSkhuV4M","contest":"Man of the World","episode":"Man of the World","category":null,"contestant":{"voting_id":"01","name":"Rajendra Rawol"},"vote_count":1,"created_on":"2019-12-14T15:48:56.006108+05:45"},{"idx":"eHVefjZSinTSfFWakK2mb9","contest":"NEPALBHASA STAR MUSIC VIDEO AWARDS-2019","episode":null,"category":"BEST SINGER, MALE","contestant":{"voting_id":"15E","name":" Prabesh Man Shakya"},"vote_count":1,"created_on":"2019-12-14T15:41:03.232791+05:45"},{"idx":"opMJbR9R5B54NwStCRwqqW","contest":"Man of the World","episode":"Man of the World","category":null,"contestant":{"voting_id":"04","name":"Rukash Subedi"},"vote_count":1,"created_on":"2019-12-14T15:32:17.363896+05:45"}]}