{"total_pages":275,"total_records":13721,"next":"https://khalti.com/api/v2/vuservote/?page=236","previous":"https://khalti.com/api/v2/vuservote/?page=234","record_range":[11701,11750],"current_page":235,"records":[{"idx":"EqT3dQE86LnYvs9VkfgDam","contest":"Man of the World","episode":"Man of the World","category":null,"contestant":{"voting_id":"12","name":"Saroj Rai"},"vote_count":1,"created_on":"2019-12-14T14:44:45.247787+05:45"},{"idx":"cmSKXJtDX62fcXAVkp62uk","contest":"Man of the World","episode":"Man of the World","category":null,"contestant":{"voting_id":"08","name":"Manish Dhakal"},"vote_count":1,"created_on":"2019-12-14T14:06:50.990169+05:45"},{"idx":"qECLd8wh25J4UThVtWtQN5","contest":"Man of the World","episode":"Man of the World","category":null,"contestant":{"voting_id":"06","name":"Prince Millinium Subba"},"vote_count":1,"created_on":"2019-12-14T13:21:17.279312+05:45"},{"idx":"NJdG8iQz4QaRNQNMWLHMFF","contest":"Man of the World","episode":"Man of the World","category":null,"contestant":{"voting_id":"03","name":"Abhilash Lama"},"vote_count":1,"created_on":"2019-12-14T13:07:48.652935+05:45"},{"idx":"w2spb4GgUtj5rjopWwW95T","contest":"NEPALBHASA STAR MUSIC VIDEO AWARDS-2019","episode":null,"category":"BEST Singer,FEMALE","contestant":{"voting_id":"17H","name":"Bishnu Maya Byanjankar"},"vote_count":1,"created_on":"2019-12-14T11:43:44.950981+05:45"},{"idx":"yymhn6SnwvxhsdqQbFiMMY","contest":"NEPALBHASA STAR MUSIC VIDEO AWARDS-2019","episode":null,"category":"BEST Singer,FEMALE","contestant":{"voting_id":"17J","name":"Anita Maharjan"},"vote_count":1,"created_on":"2019-12-14T10:52:00.143703+05:45"},{"idx":"5LFC6orwASHKneVhFDbQKU","contest":"Man of the World","episode":"Man of the World","category":null,"contestant":{"voting_id":"02","name":"Sameer Maharjan"},"vote_count":1,"created_on":"2019-12-14T10:51:29.951412+05:45"},{"idx":"aTTUrVXZhSknYBVTmz8GpQ","contest":"Man of the World","episode":"Man of the World","category":null,"contestant":{"voting_id":"02","name":"Sameer Maharjan"},"vote_count":1,"created_on":"2019-12-14T09:42:57.756488+05:45"},{"idx":"7U326Wb4eWGs7QqtEbjdST","contest":"NEPALBHASA STAR MUSIC VIDEO AWARDS-2019","episode":null,"category":"THE RISING STAR SINGER","contestant":{"voting_id":"21A","name":"Macha Raja Maharjan"},"vote_count":1,"created_on":"2019-12-14T09:29:03.043406+05:45"},{"idx":"tRFsSq8vMut5QNt6HZc8Si","contest":"Man of the World","episode":"Man of the World","category":null,"contestant":{"voting_id":"08","name":"Manish Dhakal"},"vote_count":1,"created_on":"2019-12-14T09:28:24.302813+05:45"},{"idx":"XpHPqo6BcYCG6g8WDCr4qF","contest":"NEPALBHASA STAR MUSIC VIDEO AWARDS-2019","episode":null,"category":"BEST MUSIC DIRECTOR","contestant":{"voting_id":"6H","name":"Padam Jyoti Bajracharya "},"vote_count":1,"created_on":"2019-12-14T07:49:45.108418+05:45"},{"idx":"5XesbC9abVocFCYnrnansV","contest":"Man of the World","episode":"Man of the World","category":null,"contestant":{"voting_id":"12","name":"Saroj Rai"},"vote_count":1,"created_on":"2019-12-14T00:33:21.696514+05:45"},{"idx":"qTRLgbKCtf4UKj6GdUZb94","contest":"NEPALBHASA STAR MUSIC VIDEO AWARDS-2019","episode":null,"category":"BEST MUSIC VIDEO","contestant":{"voting_id":"1I","name":"Raj kumar Manandhar"},"vote_count":1,"created_on":"2019-12-14T00:08:44.050679+05:45"},{"idx":"cfjUCwZCQ2DbWexpRQYcth","contest":"NEPALBHASA STAR MUSIC VIDEO AWARDS-2019","episode":null,"category":"BEST MAKE UP ARTIST","contestant":{"voting_id":"2G","name":"Sarita Bajracharya "},"vote_count":1,"created_on":"2019-12-14T00:07:29.655922+05:45"},{"idx":"MMFHBh6Tw6ZKpc9PpQuQWd","contest":"NEPALBHASA STAR MUSIC VIDEO AWARDS-2019","episode":null,"category":"BEST DRESS DESIGNER","contestant":{"voting_id":"3J","name":"Jyotsana Maharjan"},"vote_count":1,"created_on":"2019-12-14T00:06:41.087106+05:45"},{"idx":"FZ8rWsrCWw3HabKSWeqrzD","contest":"NEPALBHASA STAR MUSIC VIDEO AWARDS-2019","episode":null,"category":"BEST LYRICIST","contestant":{"voting_id":"4E","name":"Dr. Chandra Man Bajracharya"},"vote_count":1,"created_on":"2019-12-14T00:05:52.585588+05:45"},{"idx":"jcWc9gKgUhuidxEh8TVsrN","contest":"NEPALBHASA STAR MUSIC VIDEO AWARDS-2019","episode":null,"category":"BEST MUSIC ARRANGER","contestant":{"voting_id":"5J","name":" Bhupendra Bajracharya"},"vote_count":1,"created_on":"2019-12-14T00:04:10.430508+05:45"},{"idx":"SDsi9ZW6L54LK2ycW4BN8e","contest":"NEPALBHASA STAR MUSIC VIDEO AWARDS-2019","episode":null,"category":"BEST MUSIC DIRECTOR","contestant":{"voting_id":"6E","name":"Bhim Tuladhar "},"vote_count":1,"created_on":"2019-12-14T00:03:37.633250+05:45"},{"idx":"nmMKrSPk4uLMfmdnQoiPiD","contest":"NEPALBHASA STAR MUSIC VIDEO AWARDS-2019","episode":null,"category":"BEST DIRECTOR","contestant":{"voting_id":"20I","name":"Amrit Man Maharjan"},"vote_count":1,"created_on":"2019-12-14T00:03:31.447252+05:45"},{"idx":"v8nGoxXF7saNSPvoqZW4Ko","contest":"NEPALBHASA STAR MUSIC VIDEO AWARDS-2019","episode":null,"category":"THE RISING STAR SINGER","contestant":{"voting_id":"21B","name":"Ves Maharjan"},"vote_count":1,"created_on":"2019-12-14T00:03:03.288095+05:45"},{"idx":"ED2Q3iuXALzXiZgVzvUKrN","contest":"NEPALBHASA STAR MUSIC VIDEO AWARDS-2019","episode":null,"category":"BEST RECORDING STUDIO","contestant":{"voting_id":"7F","name":"Platinum Recording Studio"},"vote_count":1,"created_on":"2019-12-14T00:02:47.464169+05:45"},{"idx":"UgYnLGqi4sVycyBCyd44bX","contest":"Man of the World","episode":"Man of the World","category":null,"contestant":{"voting_id":"04","name":"Rukash Subedi"},"vote_count":1,"created_on":"2019-12-14T00:02:09.481327+05:45"},{"idx":"H6ryfEypRz7kWHUcL6uqde","contest":"NEPALBHASA STAR MUSIC VIDEO AWARDS-2019","episode":null,"category":"BEST VIDEO COLORIST","contestant":{"voting_id":"8H","name":"Yoban Shakya"},"vote_count":1,"created_on":"2019-12-14T00:01:55.295733+05:45"},{"idx":"9f5Lh7yTcEMdkmvRdmBs8b","contest":"NEPALBHASA STAR MUSIC VIDEO AWARDS-2019","episode":null,"category":"BEST VIDEO EDITOR","contestant":{"voting_id":"9C","name":"Yoban Shakya"},"vote_count":1,"created_on":"2019-12-13T23:58:54.438388+05:45"},{"idx":"M76Rxbhizfkv8Nw9XHHVYi","contest":"NEPALBHASA STAR MUSIC VIDEO AWARDS-2019","episode":null,"category":"BEST CAMERAPERSON","contestant":{"voting_id":"10E","name":"Yoban Shakya"},"vote_count":1,"created_on":"2019-12-13T23:58:23.961584+05:45"},{"idx":"cUipMCnzrYojgfxpWQDUAj","contest":"NEPALBHASA STAR MUSIC VIDEO AWARDS-2019","episode":null,"category":"BEST MODEL, MALE","contestant":{"voting_id":"11G","name":"Dhiren Shakya"},"vote_count":1,"created_on":"2019-12-13T23:57:49.064776+05:45"},{"idx":"mWCHZqR7nGiogmiu3KMfqC","contest":"NEPALBHASA STAR MUSIC VIDEO AWARDS-2019","episode":null,"category":"BEST DEBUT MODEL, MALE","contestant":{"voting_id":"12H","name":"Anup Shakya"},"vote_count":1,"created_on":"2019-12-13T23:57:05.759283+05:45"},{"idx":"ndYLe99ZKYcgsSmBWXfhQd","contest":"NEPALBHASA STAR MUSIC VIDEO AWARDS-2019","episode":null,"category":"THE RISING STAR SINGER","contestant":{"voting_id":"21E","name":"Purna Man Maharjan"},"vote_count":1,"created_on":"2019-12-13T23:54:31.412891+05:45"},{"idx":"Rh9vrCgRSArS5S4bkefsUk","contest":"NEPALBHASA STAR MUSIC VIDEO AWARDS-2019","episode":null,"category":"BEST MODEL, FEMALE","contestant":{"voting_id":"13A","name":"Salona Bajracharya"},"vote_count":1,"created_on":"2019-12-13T23:54:31.145092+05:45"},{"idx":"MUap8XaYkuspKMJcq5fSGc","contest":"NEPALBHASA STAR MUSIC VIDEO AWARDS-2019","episode":null,"category":"BEST DEBUT MODEL, FEMALE","contestant":{"voting_id":"14B","name":"Binu Shakya"},"vote_count":1,"created_on":"2019-12-13T23:54:00.023103+05:45"},{"idx":"ADrfrGEez9JD93hBoYXwYW","contest":"NEPALBHASA STAR MUSIC VIDEO AWARDS-2019","episode":null,"category":"BEST SINGER, MALE","contestant":{"voting_id":"15E","name":" Prabesh Man Shakya"},"vote_count":1,"created_on":"2019-12-13T23:53:04.648812+05:45"},{"idx":"XKmX3hvnVSvFtnGcVeBZn6","contest":"NEPALBHASA STAR MUSIC VIDEO AWARDS-2019","episode":null,"category":"BEST DEBUT SINGER, MALE","contestant":{"voting_id":"16C","name":"Rajendra Shakya"},"vote_count":1,"created_on":"2019-12-13T23:52:30.711909+05:45"},{"idx":"6ar6ZatzHjjUgovdzindPn","contest":"NEPALBHASA STAR MUSIC VIDEO AWARDS-2019","episode":null,"category":"BEST Singer,FEMALE","contestant":{"voting_id":"17C","name":"Pooja Sunuwar"},"vote_count":1,"created_on":"2019-12-13T23:51:49.336503+05:45"},{"idx":"tUNVd55FRqqUJmGv5WKCpB","contest":"NEPALBHASA STAR MUSIC VIDEO AWARDS-2019","episode":null,"category":"BEST DEBUT SINGER, FEMALE","contestant":{"voting_id":"18H","name":"HasanaShakya"},"vote_count":1,"created_on":"2019-12-13T23:51:10.025899+05:45"},{"idx":"bErRFHgNjMdrRxCLs9emW3","contest":"NEPALBHASA STAR MUSIC VIDEO AWARDS-2019","episode":null,"category":"BEST DIRECTOR","contestant":{"voting_id":"20F","name":"Sunita Rajbhandari"},"vote_count":1,"created_on":"2019-12-13T23:49:58.489389+05:45"},{"idx":"E5uo48CmzuXrbB2yJTcGoT","contest":"Man of the World","episode":"Man of the World","category":null,"contestant":{"voting_id":"02","name":"Sameer Maharjan"},"vote_count":1,"created_on":"2019-12-13T23:48:35.629964+05:45"},{"idx":"Y99uxEXmTWzgSFoFgSGM7n","contest":"Man of the World","episode":"Man of the World","category":null,"contestant":{"voting_id":"05","name":"Janak Thada Magar"},"vote_count":1,"created_on":"2019-12-13T22:26:27.814098+05:45"},{"idx":"hPqLaE9iBfLFGguYLKA9zi","contest":"Man of the World","episode":"Man of the World","category":null,"contestant":{"voting_id":"08","name":"Manish Dhakal"},"vote_count":1,"created_on":"2019-12-13T21:59:23.146862+05:45"},{"idx":"4fRACesYBqG44pbbGxypXf","contest":"Man of the World","episode":"Man of the World","category":null,"contestant":{"voting_id":"04","name":"Rukash Subedi"},"vote_count":1,"created_on":"2019-12-13T20:55:32.994422+05:45"},{"idx":"aaUTHrvPz3h8TqqP7Lsv5B","contest":"Man of the World","episode":"Man of the World","category":null,"contestant":{"voting_id":"09","name":"Chiran Jivi Thapa"},"vote_count":1,"created_on":"2019-12-13T20:01:16.074727+05:45"},{"idx":"oK7AbMChMHuQpSZEZqn2ed","contest":"NEPALBHASA STAR MUSIC VIDEO AWARDS-2019","episode":null,"category":"BEST Singer,FEMALE","contestant":{"voting_id":"17A","name":"Deepa Maharjan"},"vote_count":1,"created_on":"2019-12-13T19:16:25.797630+05:45"},{"idx":"VYn755qU9mekCYYckMPRS8","contest":"Man of the World","episode":"Man of the World","category":null,"contestant":{"voting_id":"09","name":"Chiran Jivi Thapa"},"vote_count":1,"created_on":"2019-12-13T19:15:17.207040+05:45"},{"idx":"nU2RbG2heYcoa9RkWP9b7W","contest":"Man of the World","episode":"Man of the World","category":null,"contestant":{"voting_id":"12","name":"Saroj Rai"},"vote_count":1,"created_on":"2019-12-13T17:45:55.375357+05:45"},{"idx":"NRVqUwCWVG9ZqQC4BACbcR","contest":"NEPALBHASA STAR MUSIC VIDEO AWARDS-2019","episode":null,"category":"BEST LYRICIST","contestant":{"voting_id":"4F","name":"Rajbhai Jakami"},"vote_count":1,"created_on":"2019-12-13T16:46:58.283133+05:45"},{"idx":"PwmujyCQcNFANJaHnHWW7j","contest":"NEPALBHASA STAR MUSIC VIDEO AWARDS-2019","episode":null,"category":"BEST MUSIC ARRANGER","contestant":{"voting_id":"5I","name":"Suman Kapali "},"vote_count":1,"created_on":"2019-12-13T16:46:22.026642+05:45"},{"idx":"fXyHgmP3B7vCb9YPTP6T8D","contest":"NEPALBHASA STAR MUSIC VIDEO AWARDS-2019","episode":null,"category":"BEST RECORDING STUDIO","contestant":{"voting_id":"7G","name":"Hisi Recording Studio"},"vote_count":1,"created_on":"2019-12-13T16:45:46.166728+05:45"},{"idx":"DMFxknnnyUcKaJHUcUpAwG","contest":"NEPALBHASA STAR MUSIC VIDEO AWARDS-2019","episode":null,"category":"BEST MODEL, FEMALE","contestant":{"voting_id":"13G","name":"Bhintuna Joshi"},"vote_count":1,"created_on":"2019-12-13T16:45:11.411123+05:45"},{"idx":"itoBRpxGGmDKZmNdJrocHE","contest":"NEPALBHASA STAR MUSIC VIDEO AWARDS-2019","episode":null,"category":"BEST DEBUT SINGER, MALE","contestant":{"voting_id":"16G","name":"Krishna Dangol"},"vote_count":1,"created_on":"2019-12-13T16:44:16.764502+05:45"},{"idx":"QTYQA5kHpsNkhVhvtqipeH","contest":"NEPALBHASA STAR MUSIC VIDEO AWARDS-2019","episode":null,"category":"BEST MUSIC DIRECTOR","contestant":{"voting_id":"6D","name":"Jugal Dangol"},"vote_count":1,"created_on":"2019-12-13T16:43:17.826660+05:45"},{"idx":"eEk6oJNEnDNn7H74W8m4xT","contest":"NEPALBHASA STAR MUSIC VIDEO AWARDS-2019","episode":null,"category":"BEST MODEL, MALE","contestant":{"voting_id":"11B","name":"Raju Maharjan 'Juju'"},"vote_count":1,"created_on":"2019-12-13T16:42:45.832216+05:45"}]}