{"total_pages":275,"total_records":13721,"next":"https://khalti.com/api/v2/vuservote/?page=237","previous":"https://khalti.com/api/v2/vuservote/?page=235","record_range":[11751,11800],"current_page":236,"records":[{"idx":"kiQJf3qb3frcotYVgS7dA8","contest":"NEPALBHASA STAR MUSIC VIDEO AWARDS-2019","episode":null,"category":"BEST Singer,FEMALE","contestant":{"voting_id":"17B","name":"Ratna Shova Maharjan"},"vote_count":1,"created_on":"2019-12-13T16:42:13.518790+05:45"},{"idx":"Eu9ZTsijRbY3y7ukKGnt82","contest":"NEPALBHASA STAR MUSIC VIDEO AWARDS-2019","episode":null,"category":"BEST MAKE UP ARTIST","contestant":{"voting_id":"2A","name":"Buddhi Lama"},"vote_count":1,"created_on":"2019-12-13T16:41:53.266420+05:45"},{"idx":"aDFaWXTLYuESHBd3UdTFXK","contest":"NEPALBHASA STAR MUSIC VIDEO AWARDS-2019","episode":null,"category":"BEST VIDEO COLORIST","contestant":{"voting_id":"8D","name":"Sohan Manandhar"},"vote_count":1,"created_on":"2019-12-13T16:41:35.241840+05:45"},{"idx":"9VvfUF6DAu6YFU5ajvmJNo","contest":"NEPALBHASA STAR MUSIC VIDEO AWARDS-2019","episode":null,"category":"BEST VIDEO EDITOR","contestant":{"voting_id":"9D","name":"Sohan Manandhar"},"vote_count":1,"created_on":"2019-12-13T16:41:14.473544+05:45"},{"idx":"QrknWZwQdPEeB5XgBr2PX6","contest":"NEPALBHASA STAR MUSIC VIDEO AWARDS-2019","episode":null,"category":"BEST CAMERAPERSON","contestant":{"voting_id":"10I","name":"Sohan Manandhar"},"vote_count":1,"created_on":"2019-12-13T16:40:41.442908+05:45"},{"idx":"RuDCYDZLADsvdeUeN5QDmL","contest":"Man of the World","episode":"Man of the World","category":null,"contestant":{"voting_id":"01","name":"Rajendra Rawol"},"vote_count":1,"created_on":"2019-12-13T16:28:24.160727+05:45"},{"idx":"9YYpDoGAwhYAYneCJPxBEh","contest":"NEPALBHASA STAR MUSIC VIDEO AWARDS-2019","episode":null,"category":"BEST SINGER, MALE","contestant":{"voting_id":"15D","name":"Mohan Shakya"},"vote_count":1,"created_on":"2019-12-13T16:27:19.767634+05:45"},{"idx":"nyoE3CigQyFsSGA3ZmwuiA","contest":"NEPALBHASA STAR MUSIC VIDEO AWARDS-2019","episode":null,"category":"THE RISING STAR SINGER","contestant":{"voting_id":"21A","name":"Macha Raja Maharjan"},"vote_count":1,"created_on":"2019-12-13T16:16:13.542448+05:45"},{"idx":"rUizpx7NkwRq668bc2D9DZ","contest":"Man of the World","episode":"Man of the World","category":null,"contestant":{"voting_id":"04","name":"Rukash Subedi"},"vote_count":1,"created_on":"2019-12-13T15:59:38.437509+05:45"},{"idx":"xKhEiW4hGsY7uU9mKGRopd","contest":"Man of the World","episode":"Man of the World","category":null,"contestant":{"voting_id":"04","name":"Rukash Subedi"},"vote_count":1,"created_on":"2019-12-13T15:44:13.693442+05:45"},{"idx":"32AGNnTDWYdxVnWontitdC","contest":"NEPALBHASA STAR MUSIC VIDEO AWARDS-2019","episode":null,"category":"BEST DIRECTOR","contestant":{"voting_id":"20D","name":"Ram Krishna Khadgi"},"vote_count":1,"created_on":"2019-12-13T15:43:21.075368+05:45"},{"idx":"NNPXEbi3TFWKrBzTVzDJNU","contest":"Man of the World","episode":"Man of the World","category":null,"contestant":{"voting_id":"05","name":"Janak Thada Magar"},"vote_count":1,"created_on":"2019-12-13T15:34:30.848200+05:45"},{"idx":"8zh5GEqCP7nY4RYwan79LQ","contest":"Man of the World","episode":"Man of the World","category":null,"contestant":{"voting_id":"05","name":"Janak Thada Magar"},"vote_count":1,"created_on":"2019-12-13T15:27:53.691875+05:45"},{"idx":"wNKENoiKAaMmBTwYM4P9Ak","contest":"NEPALBHASA STAR MUSIC VIDEO AWARDS-2019","episode":null,"category":"THE RISING STAR SINGER","contestant":{"voting_id":"21A","name":"Macha Raja Maharjan"},"vote_count":1,"created_on":"2019-12-13T14:11:50.335575+05:45"},{"idx":"bHfPzM3RWSNqcK2DrwDScn","contest":"Man of the World","episode":"Man of the World","category":null,"contestant":{"voting_id":"04","name":"Rukash Subedi"},"vote_count":1,"created_on":"2019-12-13T14:10:53.556373+05:45"},{"idx":"pfuTazcYbGuCNxqgVmMU5J","contest":"NEPALBHASA STAR MUSIC VIDEO AWARDS-2019","episode":null,"category":"BEST RECORDING STUDIO","contestant":{"voting_id":"7I","name":"Bijay Maskey "},"vote_count":1,"created_on":"2019-12-13T12:29:04.021003+05:45"},{"idx":"z83H4tNzNuBfk4Qq8WPrwY","contest":"NEPALBHASA STAR MUSIC VIDEO AWARDS-2019","episode":null,"category":"BEST RECORDING STUDIO","contestant":{"voting_id":"7I","name":"Bijay Maskey "},"vote_count":1,"created_on":"2019-12-13T12:24:55.315921+05:45"},{"idx":"HHRPxhy5jaaY2pF8LkKaeh","contest":"NEPALBHASA STAR MUSIC VIDEO AWARDS-2019","episode":null,"category":"BEST MODEL, FEMALE","contestant":{"voting_id":"13B","name":"Ashishma Nakarmi"},"vote_count":1,"created_on":"2019-12-13T11:25:23.237571+05:45"},{"idx":"jWgQH44cTXfi4Fh6e6M7Aj","contest":"Man of the World","episode":"Man of the World","category":null,"contestant":{"voting_id":"12","name":"Saroj Rai"},"vote_count":1,"created_on":"2019-12-13T11:07:15.662451+05:45"},{"idx":"ceiJG2hcqWhKTi9QFtyCu7","contest":"NEPALBHASA STAR MUSIC VIDEO AWARDS-2019","episode":null,"category":"BEST DRESS DESIGNER","contestant":{"voting_id":"3h","name":"Sunita Rajbhandari"},"vote_count":1,"created_on":"2019-12-13T09:39:49.408454+05:45"},{"idx":"tRx2jPwf6j2fG5dXwMnTAL","contest":"NEPALBHASA STAR MUSIC VIDEO AWARDS-2019","episode":null,"category":"BEST MUSIC VIDEO","contestant":{"voting_id":"1H","name":"Sunita Rajbhandari"},"vote_count":1,"created_on":"2019-12-13T09:39:27.221704+05:45"},{"idx":"APtaekwRxUp7rF3cjsxEci","contest":"NEPALBHASA STAR MUSIC VIDEO AWARDS-2019","episode":null,"category":"THE RISING STAR SINGER","contestant":{"voting_id":"21E","name":"Purna Man Maharjan"},"vote_count":1,"created_on":"2019-12-13T09:39:07.246135+05:45"},{"idx":"TFy8otyykewPjQv6wC7tki","contest":"NEPALBHASA STAR MUSIC VIDEO AWARDS-2019","episode":null,"category":"BEST DANCE DIRECTOR","contestant":{"voting_id":"19F","name":"Sunita Rajbhandari/Sujan Bajracharya"},"vote_count":1,"created_on":"2019-12-13T09:38:56.797190+05:45"},{"idx":"UnZDzLKoy4S2WZmtZmHJvD","contest":"NEPALBHASA STAR MUSIC VIDEO AWARDS-2019","episode":null,"category":"BEST DIRECTOR","contestant":{"voting_id":"20F","name":"Sunita Rajbhandari"},"vote_count":1,"created_on":"2019-12-13T09:38:19.013183+05:45"},{"idx":"4P8QVi9AzCCovRCWxwKELe","contest":"NEPALBHASA STAR MUSIC VIDEO AWARDS-2019","episode":null,"category":"BEST DEBUT MODEL, FEMALE","contestant":{"voting_id":"14I","name":"Deepmala Maharjan"},"vote_count":1,"created_on":"2019-12-13T09:34:11.830485+05:45"},{"idx":"aRkWYArxGXdD3HkRbNdCSo","contest":"NEPALBHASA STAR MUSIC VIDEO AWARDS-2019","episode":null,"category":"BEST LYRICIST","contestant":{"voting_id":"4F","name":"Rajbhai Jakami"},"vote_count":1,"created_on":"2019-12-13T00:50:57.854012+05:45"},{"idx":"YXrZPD2BSQgrh8QsYGwMgG","contest":"NEPALBHASA STAR MUSIC VIDEO AWARDS-2019","episode":null,"category":"BEST MODEL, FEMALE","contestant":{"voting_id":"13C","name":"Anjala Nakarmi"},"vote_count":1,"created_on":"2019-12-13T00:49:57.987602+05:45"},{"idx":"Y9zGMX984DH7JGdnCU5ceS","contest":"NEPALBHASA STAR MUSIC VIDEO AWARDS-2019","episode":null,"category":"BEST DIRECTOR","contestant":{"voting_id":"20D","name":"Ram Krishna Khadgi"},"vote_count":1,"created_on":"2019-12-13T00:46:53.034673+05:45"},{"idx":"UVbzbXRVhXHzi6LKk7eWY9","contest":"NEPALBHASA STAR MUSIC VIDEO AWARDS-2019","episode":null,"category":"THE RISING STAR SINGER","contestant":{"voting_id":"21E","name":"Purna Man Maharjan"},"vote_count":1,"created_on":"2019-12-13T00:46:09.135046+05:45"},{"idx":"fMo3fLztQ5hYktLMPUrVVe","contest":"Man of the World","episode":"Man of the World","category":null,"contestant":{"voting_id":"02","name":"Sameer Maharjan"},"vote_count":1,"created_on":"2019-12-13T00:45:24.982281+05:45"},{"idx":"iT7AzZfG54XsnSS3Q63eTV","contest":"Man of the World","episode":"Man of the World","category":null,"contestant":{"voting_id":"04","name":"Rukash Subedi"},"vote_count":1,"created_on":"2019-12-12T21:43:56.958041+05:45"},{"idx":"fyYsaVXWAXv9omMhKMFjU5","contest":"NEPALBHASA STAR MUSIC VIDEO AWARDS-2019","episode":null,"category":"BEST SINGER, MALE","contestant":{"voting_id":"15E","name":" Prabesh Man Shakya"},"vote_count":1,"created_on":"2019-12-12T21:32:17.088386+05:45"},{"idx":"oyokBedncLLtewGRURSyF8","contest":"NEPALBHASA STAR MUSIC VIDEO AWARDS-2019","episode":null,"category":"BEST DEBUT MODEL, FEMALE","contestant":{"voting_id":"14J","name":"Garima Maharjan"},"vote_count":1,"created_on":"2019-12-12T21:30:27.155204+05:45"},{"idx":"8aLCbAZx3RvUQzEAShZk5S","contest":"NEPALBHASA STAR MUSIC VIDEO AWARDS-2019","episode":null,"category":"BEST DEBUT SINGER, MALE","contestant":{"voting_id":"16J","name":"Shailendra Tuladhar"},"vote_count":1,"created_on":"2019-12-12T21:29:43.016326+05:45"},{"idx":"tLELMwJZZyri3pwGfNS6yB","contest":"Man of the World","episode":"Man of the World","category":null,"contestant":{"voting_id":"06","name":"Prince Millinium Subba"},"vote_count":1,"created_on":"2019-12-12T21:28:35.988688+05:45"},{"idx":"cKfXmnK8WrLuqasA2Jffd3","contest":"Man of the World","episode":"Man of the World","category":null,"contestant":{"voting_id":"01","name":"Rajendra Rawol"},"vote_count":25,"created_on":"2019-12-12T21:11:45.371200+05:45"},{"idx":"PRyKJt4XjumRXtxYP4qK6L","contest":"NEPALBHASA STAR MUSIC VIDEO AWARDS-2019","episode":null,"category":"BEST CAMERAPERSON","contestant":{"voting_id":"10E","name":"Yoban Shakya"},"vote_count":1,"created_on":"2019-12-12T21:09:33.687680+05:45"},{"idx":"fv5tvXDRniHj5GJAxqB6BZ","contest":"NEPALBHASA STAR MUSIC VIDEO AWARDS-2019","episode":null,"category":"BEST MUSIC DIRECTOR","contestant":{"voting_id":"6C","name":"Purna Man Maharjan "},"vote_count":1,"created_on":"2019-12-12T21:08:38.182143+05:45"},{"idx":"8GCGG9chQW4WMmhAiSXMvS","contest":"Man of the World","episode":"Man of the World","category":null,"contestant":{"voting_id":"01","name":"Rajendra Rawol"},"vote_count":1,"created_on":"2019-12-12T20:53:46.209760+05:45"},{"idx":"kuXdsamF7o8cdWP9AujGEB","contest":"Man of the World","episode":"Man of the World","category":null,"contestant":{"voting_id":"01","name":"Rajendra Rawol"},"vote_count":5,"created_on":"2019-12-12T20:51:20.374308+05:45"},{"idx":"mXhVA9XPfpAngViZBTqDTh","contest":"NEPALBHASA STAR MUSIC VIDEO AWARDS-2019","episode":null,"category":"BEST MODEL, FEMALE","contestant":{"voting_id":"13B","name":"Ashishma Nakarmi"},"vote_count":1,"created_on":"2019-12-12T20:49:57.555371+05:45"},{"idx":"zo7mGEmGu7CHaLxxjyi2YW","contest":"NEPALBHASA STAR MUSIC VIDEO AWARDS-2019","episode":null,"category":"BEST SINGER, MALE","contestant":{"voting_id":"15J","name":"Ram Bhakta Maharjan"},"vote_count":1,"created_on":"2019-12-12T20:49:09.906328+05:45"},{"idx":"oFMPnBHFMUbyKHapNdQtij","contest":"Man of the World","episode":"Man of the World","category":null,"contestant":{"voting_id":"08","name":"Manish Dhakal"},"vote_count":1,"created_on":"2019-12-12T19:49:21.256146+05:45"},{"idx":"Qgmy7wxZoHKmc3SuST3vXj","contest":"Man of the World","episode":"Man of the World","category":null,"contestant":{"voting_id":"04","name":"Rukash Subedi"},"vote_count":1,"created_on":"2019-12-12T19:08:07.638642+05:45"},{"idx":"ty4NfnfYKGtCaDXNnspvyC","contest":"Man of the World","episode":"Man of the World","category":null,"contestant":{"voting_id":"05","name":"Janak Thada Magar"},"vote_count":1,"created_on":"2019-12-12T17:15:06.573468+05:45"},{"idx":"VJaoU5MmMy8vHTP4Cxtsfn","contest":"NEPALBHASA STAR MUSIC VIDEO AWARDS-2019","episode":null,"category":"THE RISING STAR SINGER","contestant":{"voting_id":"21E","name":"Purna Man Maharjan"},"vote_count":1,"created_on":"2019-12-12T16:56:22.928776+05:45"},{"idx":"5Ra8iCiXx9fd6tm4rYuYv6","contest":"NEPALBHASA STAR MUSIC VIDEO AWARDS-2019","episode":null,"category":"BEST DIRECTOR","contestant":{"voting_id":"20F","name":"Sunita Rajbhandari"},"vote_count":1,"created_on":"2019-12-12T16:49:58.693679+05:45"},{"idx":"pFNBRQCktGaxwNet7K3LK8","contest":"NEPALBHASA STAR MUSIC VIDEO AWARDS-2019","episode":null,"category":"BEST SINGER, MALE","contestant":{"voting_id":"15C","name":"Rajendra Kumar Maharjan"},"vote_count":1,"created_on":"2019-12-12T13:38:51.575797+05:45"},{"idx":"gSo7JMbcZMuuJBx4hKsXsi","contest":"Man of the World","episode":"Man of the World","category":null,"contestant":{"voting_id":"04","name":"Rukash Subedi"},"vote_count":1,"created_on":"2019-12-12T13:25:51.208701+05:45"},{"idx":"mYADq442BzQGW4QVecCca2","contest":"Man of the World","episode":"Man of the World","category":null,"contestant":{"voting_id":"01","name":"Rajendra Rawol"},"vote_count":1,"created_on":"2019-12-12T11:51:40.926674+05:45"}]}