{"total_pages":275,"total_records":13721,"next":"https://khalti.com/api/v2/vuservote/?page=238","previous":"https://khalti.com/api/v2/vuservote/?page=236","record_range":[11801,11850],"current_page":237,"records":[{"idx":"vHzno2n8xR3oGuok2Fpe8b","contest":"NEPALBHASA STAR MUSIC VIDEO AWARDS-2019","episode":null,"category":"THE RISING STAR SINGER","contestant":{"voting_id":"21E","name":"Purna Man Maharjan"},"vote_count":1,"created_on":"2019-12-12T09:05:42.288251+05:45"},{"idx":"G9J7DfP3RitEFs2msWbp8h","contest":"NEPALBHASA STAR MUSIC VIDEO AWARDS-2019","episode":null,"category":"BEST DANCE DIRECTOR","contestant":{"voting_id":"19F","name":"Sunita Rajbhandari/Sujan Bajracharya"},"vote_count":1,"created_on":"2019-12-12T08:03:56.143101+05:45"},{"idx":"aGGUvn5mEMdPiVkrvoaLjP","contest":"NEPALBHASA STAR MUSIC VIDEO AWARDS-2019","episode":null,"category":"BEST MODEL, FEMALE","contestant":{"voting_id":"13C","name":"Anjala Nakarmi"},"vote_count":1,"created_on":"2019-12-12T08:03:35.382485+05:45"},{"idx":"diRdowwioZ3qwCjEdP9ehR","contest":"NEPALBHASA STAR MUSIC VIDEO AWARDS-2019","episode":null,"category":"BEST DIRECTOR","contestant":{"voting_id":"20F","name":"Sunita Rajbhandari"},"vote_count":1,"created_on":"2019-12-12T08:03:01.583923+05:45"},{"idx":"Xuin6SWBL57toVBarij272","contest":"NEPALBHASA STAR MUSIC VIDEO AWARDS-2019","episode":null,"category":"BEST MUSIC VIDEO","contestant":{"voting_id":"1H","name":"Sunita Rajbhandari"},"vote_count":1,"created_on":"2019-12-12T07:56:03.752200+05:45"},{"idx":"dJ2Xq67vy8C5m8LFhziKt2","contest":"NEPALBHASA STAR MUSIC VIDEO AWARDS-2019","episode":null,"category":"BEST DRESS DESIGNER","contestant":{"voting_id":"3h","name":"Sunita Rajbhandari"},"vote_count":1,"created_on":"2019-12-12T07:55:34.279001+05:45"},{"idx":"qshYobfrgDWaFZasQJjBWJ","contest":"NEPALBHASA STAR MUSIC VIDEO AWARDS-2019","episode":null,"category":"BEST DANCE DIRECTOR","contestant":{"voting_id":"19F","name":"Sunita Rajbhandari/Sujan Bajracharya"},"vote_count":1,"created_on":"2019-12-12T07:54:46.840423+05:45"},{"idx":"DL56zHQWyLzRiYDu3gWm6d","contest":"NEPALBHASA STAR MUSIC VIDEO AWARDS-2019","episode":null,"category":"BEST DIRECTOR","contestant":{"voting_id":"20F","name":"Sunita Rajbhandari"},"vote_count":1,"created_on":"2019-12-12T07:54:09.929510+05:45"},{"idx":"5Ha5qkWLjERizYX29oy6U4","contest":"NEPALBHASA STAR MUSIC VIDEO AWARDS-2019","episode":null,"category":"BEST DIRECTOR","contestant":{"voting_id":"20F","name":"Sunita Rajbhandari"},"vote_count":5,"created_on":"2019-12-12T07:33:36.798864+05:45"},{"idx":"yiWubWqCEEMyYM5zjNvzdB","contest":"NEPALBHASA STAR MUSIC VIDEO AWARDS-2019","episode":null,"category":"BEST MUSIC VIDEO","contestant":{"voting_id":"1H","name":"Sunita Rajbhandari"},"vote_count":5,"created_on":"2019-12-12T07:33:08.142364+05:45"},{"idx":"uRe7vUgBpcXH8tGmbig3EA","contest":"NEPALBHASA STAR MUSIC VIDEO AWARDS-2019","episode":null,"category":"BEST DANCE DIRECTOR","contestant":{"voting_id":"19F","name":"Sunita Rajbhandari/Sujan Bajracharya"},"vote_count":5,"created_on":"2019-12-12T07:31:39.338712+05:45"},{"idx":"Ju3rRkBj7sWpH3nXVWFBya","contest":"NEPALBHASA STAR MUSIC VIDEO AWARDS-2019","episode":null,"category":"BEST DRESS DESIGNER","contestant":{"voting_id":"3h","name":"Sunita Rajbhandari"},"vote_count":5,"created_on":"2019-12-12T07:30:52.776894+05:45"},{"idx":"hiyhTJzSgndpqL2hf4c8mP","contest":"NEPALBHASA STAR MUSIC VIDEO AWARDS-2019","episode":null,"category":"THE RISING STAR SINGER","contestant":{"voting_id":"21C","name":"Jack Maharjan"},"vote_count":1,"created_on":"2019-12-12T05:24:53.841724+05:45"},{"idx":"T4mtVvdN7i69KPoL2UuTjA","contest":"NEPALBHASA STAR MUSIC VIDEO AWARDS-2019","episode":null,"category":"BEST MODEL, FEMALE","contestant":{"voting_id":"13I","name":"Rajani Khadgi"},"vote_count":1,"created_on":"2019-12-12T01:17:56.215439+05:45"},{"idx":"bsD8BVcrEqDmBomWgLiouW","contest":"NEPALBHASA STAR MUSIC VIDEO AWARDS-2019","episode":null,"category":"BEST MUSIC VIDEO","contestant":{"voting_id":"1H","name":"Sunita Rajbhandari"},"vote_count":100,"created_on":"2019-12-11T21:54:49.357571+05:45"},{"idx":"nmCBhHuB9vdQRddXWf3rn9","contest":"NEPALBHASA STAR MUSIC VIDEO AWARDS-2019","episode":null,"category":"BEST CAMERAPERSON","contestant":{"voting_id":"10D","name":"Lujaw Singh"},"vote_count":1,"created_on":"2019-12-11T21:54:29.324934+05:45"},{"idx":"H4rcfv9hJCeQ9VqG4MWX4d","contest":"NEPALBHASA STAR MUSIC VIDEO AWARDS-2019","episode":null,"category":"BEST MAKE UP ARTIST","contestant":{"voting_id":"2G","name":"Sarita Bajracharya "},"vote_count":1,"created_on":"2019-12-11T21:54:05.450650+05:45"},{"idx":"U7DXWVJjPpNvddhzhGLAJP","contest":"NEPALBHASA STAR MUSIC VIDEO AWARDS-2019","episode":null,"category":"BEST DIRECTOR","contestant":{"voting_id":"20F","name":"Sunita Rajbhandari"},"vote_count":100,"created_on":"2019-12-11T21:53:35.961399+05:45"},{"idx":"KBM8sG3obTQezwB2SYapKk","contest":"NEPALBHASA STAR MUSIC VIDEO AWARDS-2019","episode":null,"category":"BEST DRESS DESIGNER","contestant":{"voting_id":"3J","name":"Jyotsana Maharjan"},"vote_count":1,"created_on":"2019-12-11T21:53:03.308093+05:45"},{"idx":"LsrwQWar8roQ78JFRqdWAR","contest":"NEPALBHASA STAR MUSIC VIDEO AWARDS-2019","episode":null,"category":"BEST MODEL, FEMALE","contestant":{"voting_id":"13C","name":"Anjala Nakarmi"},"vote_count":1,"created_on":"2019-12-11T21:52:43.767506+05:45"},{"idx":"T9yRs3h7q4jwt8V9GYaPkF","contest":"NEPALBHASA STAR MUSIC VIDEO AWARDS-2019","episode":null,"category":"BEST Singer,FEMALE","contestant":{"voting_id":"17I","name":"Ganga Devi Maharjan"},"vote_count":1,"created_on":"2019-12-11T21:52:11.220698+05:45"},{"idx":"DXf7sYa5w9ehAU2sEbBZJB","contest":"NEPALBHASA STAR MUSIC VIDEO AWARDS-2019","episode":null,"category":"BEST SINGER, MALE","contestant":{"voting_id":"15A","name":"Dr. Gopal Maharjan"},"vote_count":1,"created_on":"2019-12-11T21:51:13.174575+05:45"},{"idx":"wN9nW9iqqPXGSY6MXNzQ48","contest":"NEPALBHASA STAR MUSIC VIDEO AWARDS-2019","episode":null,"category":"BEST MODEL, FEMALE","contestant":{"voting_id":"13G","name":"Bhintuna Joshi"},"vote_count":1,"created_on":"2019-12-11T21:07:14.328385+05:45"},{"idx":"D3UddmytbQCwMyHU4Jy4ie","contest":"NEPALBHASA STAR MUSIC VIDEO AWARDS-2019","episode":null,"category":"BEST MUSIC VIDEO","contestant":{"voting_id":"1A","name":"Macha Raja Maharjan"},"vote_count":1,"created_on":"2019-12-11T19:53:55.543734+05:45"},{"idx":"ywm89V6fWEGZjZu33SKHgD","contest":"NEPALBHASA STAR MUSIC VIDEO AWARDS-2019","episode":null,"category":"BEST RECORDING STUDIO","contestant":{"voting_id":"7B","name":"Hisi Recording Studio"},"vote_count":1,"created_on":"2019-12-11T19:11:19.209468+05:45"},{"idx":"xVNbz8kttbVis8o3fNBmdD","contest":"NEPALBHASA STAR MUSIC VIDEO AWARDS-2019","episode":null,"category":"BEST MODEL, FEMALE","contestant":{"voting_id":"13D","name":"Shova Maharjan"},"vote_count":1,"created_on":"2019-12-11T18:25:37.387041+05:45"},{"idx":"SuxmEKNVRrJX7xbMX58Uj9","contest":"NEPALBHASA STAR MUSIC VIDEO AWARDS-2019","episode":null,"category":"BEST DEBUT MODEL, FEMALE","contestant":{"voting_id":"14G","name":"Rajya Laxmi Sthapit"},"vote_count":1,"created_on":"2019-12-11T15:27:37.990457+05:45"},{"idx":"FGYmQnzgWmXPptZy4o9uwm","contest":"NEPALBHASA STAR MUSIC VIDEO AWARDS-2019","episode":null,"category":"THE RISING STAR SINGER","contestant":{"voting_id":"21E","name":"Purna Man Maharjan"},"vote_count":1,"created_on":"2019-12-11T15:16:09.408189+05:45"},{"idx":"Yd3J8P83zN6rFxbtSh8quf","contest":"NEPALBHASA STAR MUSIC VIDEO AWARDS-2019","episode":null,"category":"BEST MUSIC VIDEO","contestant":{"voting_id":"1H","name":"Sunita Rajbhandari"},"vote_count":1,"created_on":"2019-12-11T13:55:24.539443+05:45"},{"idx":"bDcoUd7mTzYD7V4XmXenrn","contest":"NEPALBHASA STAR MUSIC VIDEO AWARDS-2019","episode":null,"category":"BEST DEBUT MODEL, FEMALE","contestant":{"voting_id":"14E","name":"Karoona Shrestha"},"vote_count":1,"created_on":"2019-12-11T11:29:49.466589+05:45"},{"idx":"nCfi5V84TKAgsxc44fqPAS","contest":"NEPALBHASA STAR MUSIC VIDEO AWARDS-2019","episode":null,"category":"BEST MODEL, FEMALE","contestant":{"voting_id":"13I","name":"Rajani Khadgi"},"vote_count":1,"created_on":"2019-12-11T11:28:59.249109+05:45"},{"idx":"vNU3FFUQz2rQ3vnEcjoVyG","contest":"NEPALBHASA STAR MUSIC VIDEO AWARDS-2019","episode":null,"category":"BEST LYRICIST","contestant":{"voting_id":"4C","name":"Bhim Bahadur Nakarmi"},"vote_count":1,"created_on":"2019-12-11T10:35:25.403062+05:45"},{"idx":"5njKoKpSUS3NseyQhTKDSk","contest":"NEPALBHASA STAR MUSIC VIDEO AWARDS-2019","episode":null,"category":"BEST MODEL, FEMALE","contestant":{"voting_id":"13C","name":"Anjala Nakarmi"},"vote_count":1,"created_on":"2019-12-11T10:31:31.260562+05:45"},{"idx":"9NzvEn5aPbTkriK9g6gKFi","contest":"NEPALBHASA STAR MUSIC VIDEO AWARDS-2019","episode":null,"category":"BEST DEBUT MODEL, MALE","contestant":{"voting_id":"12E","name":"Pratik Shrestha"},"vote_count":1,"created_on":"2019-12-11T10:30:32.417144+05:45"},{"idx":"RuHoJzzLcCjY3n5JhrqeyD","contest":"NEPALBHASA STAR MUSIC VIDEO AWARDS-2019","episode":null,"category":"BEST Singer,FEMALE","contestant":{"voting_id":"17E","name":"Aasha Nakarmi"},"vote_count":1,"created_on":"2019-12-11T10:28:59.577840+05:45"},{"idx":"mgjDnZSh7vyb2njxkWtGLS","contest":"NEPALBHASA STAR MUSIC VIDEO AWARDS-2019","episode":null,"category":"BEST DRESS DESIGNER","contestant":{"voting_id":"3E","name":"Kabya Shrestha "},"vote_count":1,"created_on":"2019-12-11T10:25:22.663783+05:45"},{"idx":"V7GMgvuSnAJutEyXseUy6j","contest":"NEPALBHASA STAR MUSIC VIDEO AWARDS-2019","episode":null,"category":"BEST DANCE DIRECTOR","contestant":{"voting_id":"19F","name":"Sunita Rajbhandari/Sujan Bajracharya"},"vote_count":1,"created_on":"2019-12-11T10:22:22.079755+05:45"},{"idx":"SYhv5XUzMRLAqLxfxMufvB","contest":"NEPALBHASA STAR MUSIC VIDEO AWARDS-2019","episode":null,"category":"BEST DIRECTOR","contestant":{"voting_id":"20F","name":"Sunita Rajbhandari"},"vote_count":1,"created_on":"2019-12-11T10:21:36.746472+05:45"},{"idx":"wqopU3BWur6DMiaCkqEs59","contest":"NEPALBHASA STAR MUSIC VIDEO AWARDS-2019","episode":null,"category":"THE RISING STAR SINGER","contestant":{"voting_id":"21D","name":"Krishna Maharjan"},"vote_count":1,"created_on":"2019-12-11T10:21:01.442328+05:45"},{"idx":"zN8oR6bVuZpfJHCbhafXLL","contest":"NEPALBHASA STAR MUSIC VIDEO AWARDS-2019","episode":null,"category":"THE RISING STAR SINGER","contestant":{"voting_id":"21E","name":"Purna Man Maharjan"},"vote_count":5,"created_on":"2019-12-11T10:20:18.483377+05:45"},{"idx":"kRcomdzsdWV8yegGbFnTc2","contest":"NEPALBHASA STAR MUSIC VIDEO AWARDS-2019","episode":null,"category":"BEST DRESS DESIGNER","contestant":{"voting_id":"3I","name":"Hira Dress Centre"},"vote_count":1,"created_on":"2019-12-11T07:00:16.919872+05:45"},{"idx":"Ah4nYoZR2Sys2mopLn5W58","contest":"NEPALBHASA STAR MUSIC VIDEO AWARDS-2019","episode":null,"category":"THE RISING STAR SINGER","contestant":{"voting_id":"21E","name":"Purna Man Maharjan"},"vote_count":1,"created_on":"2019-12-11T06:47:03.978629+05:45"},{"idx":"MkfKVpX5Mzhv9gPTWG6LkG","contest":"NEPALBHASA STAR MUSIC VIDEO AWARDS-2019","episode":null,"category":"BEST MUSIC DIRECTOR","contestant":{"voting_id":"6C","name":"Purna Man Maharjan "},"vote_count":1,"created_on":"2019-12-11T06:27:00.804835+05:45"},{"idx":"ssTAe8tnKoaaH5XaHYhGbS","contest":"NEPALBHASA STAR MUSIC VIDEO AWARDS-2019","episode":null,"category":"THE RISING STAR SINGER","contestant":{"voting_id":"21E","name":"Purna Man Maharjan"},"vote_count":1,"created_on":"2019-12-11T06:25:49.490075+05:45"},{"idx":"vaCxKAFD5oiAHnCoMpDBQX","contest":"NEPALBHASA STAR MUSIC VIDEO AWARDS-2019","episode":null,"category":"BEST Singer,FEMALE","contestant":{"voting_id":"17D","name":"Sarita Shahi"},"vote_count":1,"created_on":"2019-12-10T23:13:00.048323+05:45"},{"idx":"y8KrRMKssdUwdRhnFPwiP5","contest":"NEPALBHASA STAR MUSIC VIDEO AWARDS-2019","episode":null,"category":"BEST DEBUT SINGER, FEMALE","contestant":{"voting_id":"18D","name":"LaxmiMaharjan"},"vote_count":1,"created_on":"2019-12-10T23:12:15.847438+05:45"},{"idx":"8qXko2hvJ8kstcYB5ZV6qK","contest":"NEPALBHASA STAR MUSIC VIDEO AWARDS-2019","episode":null,"category":"BEST DIRECTOR","contestant":{"voting_id":"20C","name":"Rajan Shahi"},"vote_count":1,"created_on":"2019-12-10T23:11:19.926548+05:45"},{"idx":"DSmQxuFYWSrdGRz7JtvvTW","contest":"NEPALBHASA STAR MUSIC VIDEO AWARDS-2019","episode":null,"category":"BEST VIDEO EDITOR","contestant":{"voting_id":"9C","name":"Yoban Shakya"},"vote_count":1,"created_on":"2019-12-10T22:38:55.267259+05:45"},{"idx":"HVzEinHvumtrLivkDoJdzf","contest":"NEPALBHASA STAR MUSIC VIDEO AWARDS-2019","episode":null,"category":"BEST SINGER, MALE","contestant":{"voting_id":"15A","name":"Dr. Gopal Maharjan"},"vote_count":1,"created_on":"2019-12-10T21:57:28.678037+05:45"},{"idx":"QcAFn4WZxkFrbUngoyrrga","contest":"NEPALBHASA STAR MUSIC VIDEO AWARDS-2019","episode":null,"category":"THE RISING STAR SINGER","contestant":{"voting_id":"21E","name":"Purna Man Maharjan"},"vote_count":1,"created_on":"2019-12-10T21:27:43.064508+05:45"}]}