{"total_pages":275,"total_records":13721,"next":"https://khalti.com/api/v2/vuservote/?page=239","previous":"https://khalti.com/api/v2/vuservote/?page=237","record_range":[11851,11900],"current_page":238,"records":[{"idx":"7GvEVrWtw6GWSb4tPYiESM","contest":"NEPALBHASA STAR MUSIC VIDEO AWARDS-2019","episode":null,"category":"BEST MODEL, MALE","contestant":{"voting_id":"11J","name":"Rajendra Kumar Maharjan"},"vote_count":1,"created_on":"2019-12-10T21:09:34.627387+05:45"},{"idx":"j5z8FrgNJi4WQvMsznkJm3","contest":"NEPALBHASA STAR MUSIC VIDEO AWARDS-2019","episode":null,"category":"BEST LYRICIST","contestant":{"voting_id":"4C","name":"Bhim Bahadur Nakarmi"},"vote_count":1,"created_on":"2019-12-10T20:02:07.627396+05:45"},{"idx":"9gpH8Vbii78ryWhH7SvTPh","contest":"NEPALBHASA STAR MUSIC VIDEO AWARDS-2019","episode":null,"category":"BEST MUSIC VIDEO","contestant":{"voting_id":"1H","name":"Sunita Rajbhandari"},"vote_count":1,"created_on":"2019-12-10T19:59:28.769449+05:45"},{"idx":"eRThUpWRLBdUJep4c6bnAG","contest":"NEPALBHASA STAR MUSIC VIDEO AWARDS-2019","episode":null,"category":"THE RISING STAR SINGER","contestant":{"voting_id":"21D","name":"Krishna Maharjan"},"vote_count":1,"created_on":"2019-12-10T19:43:11.006742+05:45"},{"idx":"BQSn2GYox3zkd59BbtBxsS","contest":"NEPALBHASA STAR MUSIC VIDEO AWARDS-2019","episode":null,"category":"BEST MAKE UP ARTIST","contestant":{"voting_id":"2I","name":"Matina Maharjan"},"vote_count":1,"created_on":"2019-12-10T19:38:09.390207+05:45"},{"idx":"ENyKMfBqzfPTQVYuohhvWL","contest":"NEPALBHASA STAR MUSIC VIDEO AWARDS-2019","episode":null,"category":"THE RISING STAR SINGER","contestant":{"voting_id":"21A","name":"Macha Raja Maharjan"},"vote_count":1,"created_on":"2019-12-10T19:28:11.341811+05:45"},{"idx":"YjJWQjgsfmv9S9t7knSgsP","contest":"NEPALBHASA STAR MUSIC VIDEO AWARDS-2019","episode":null,"category":"BEST DRESS DESIGNER","contestant":{"voting_id":"3B","name":"GIFT Nepal"},"vote_count":1,"created_on":"2019-12-10T19:03:27.645744+05:45"},{"idx":"vjmLUdBKzPMGxKX2acPi6e","contest":"NEPALBHASA STAR MUSIC VIDEO AWARDS-2019","episode":null,"category":"BEST DRESS DESIGNER","contestant":{"voting_id":"3h","name":"Sunita Rajbhandari"},"vote_count":1,"created_on":"2019-12-10T17:55:48.942966+05:45"},{"idx":"5oocg7okodrBvsgg9PAqhZ","contest":"NEPALBHASA STAR MUSIC VIDEO AWARDS-2019","episode":null,"category":"BEST DEBUT SINGER, FEMALE","contestant":{"voting_id":"18C","name":"KalpanaKapali"},"vote_count":1,"created_on":"2019-12-10T17:37:13.983426+05:45"},{"idx":"ENq5rpzwXkYZZBQtA7tzY4","contest":"NEPALBHASA STAR MUSIC VIDEO AWARDS-2019","episode":null,"category":"BEST MUSIC VIDEO","contestant":{"voting_id":"1J","name":"Ashok Maharjan"},"vote_count":1,"created_on":"2019-12-10T16:02:09.866351+05:45"},{"idx":"NQsbvLnR5pyGSW9zEQXVmC","contest":"NEPALBHASA STAR MUSIC VIDEO AWARDS-2019","episode":null,"category":"BEST SINGER, MALE","contestant":{"voting_id":"15J","name":"Ram Bhakta Maharjan"},"vote_count":1,"created_on":"2019-12-10T16:01:30.299026+05:45"},{"idx":"bTwr8zwbbNfdpfSRvA3zea","contest":"NEPALBHASA STAR MUSIC VIDEO AWARDS-2019","episode":null,"category":"THE RISING STAR SINGER","contestant":{"voting_id":"21A","name":"Macha Raja Maharjan"},"vote_count":1,"created_on":"2019-12-10T15:28:46.522722+05:45"},{"idx":"KUkeCdyfXJHHx7tyr5vgUF","contest":"NEPALBHASA STAR MUSIC VIDEO AWARDS-2019","episode":null,"category":"BEST DANCE DIRECTOR","contestant":{"voting_id":"19E","name":"Aaradhya Laxmi Khadgi"},"vote_count":1,"created_on":"2019-12-10T15:27:21.282294+05:45"},{"idx":"RjfyqMvkGmxabEWkB64FCR","contest":"NEPALBHASA STAR MUSIC VIDEO AWARDS-2019","episode":null,"category":"BEST MODEL, FEMALE","contestant":{"voting_id":"13I","name":"Rajani Khadgi"},"vote_count":1,"created_on":"2019-12-10T15:24:03.683719+05:45"},{"idx":"wejvZy95EymXFVyuPEG6Fb","contest":"NEPALBHASA STAR MUSIC VIDEO AWARDS-2019","episode":null,"category":"BEST DEBUT SINGER, FEMALE","contestant":{"voting_id":"18H","name":"HasanaShakya"},"vote_count":500,"created_on":"2019-12-10T15:22:05.146781+05:45"},{"idx":"4TQJF5dfZsz6HfjZw999yK","contest":"NEPALBHASA STAR MUSIC VIDEO AWARDS-2019","episode":null,"category":"BEST DEBUT SINGER, FEMALE","contestant":{"voting_id":"18H","name":"HasanaShakya"},"vote_count":500,"created_on":"2019-12-10T15:20:29.377518+05:45"},{"idx":"WMmjQPM6ovLcgJvL7iMXSQ","contest":"NEPALBHASA STAR MUSIC VIDEO AWARDS-2019","episode":null,"category":"BEST Singer,FEMALE","contestant":{"voting_id":"17C","name":"Pooja Sunuwar"},"vote_count":1,"created_on":"2019-12-10T15:18:20.629723+05:45"},{"idx":"hjcC7kZpMRs8fHbNe6nBLe","contest":"NEPALBHASA STAR MUSIC VIDEO AWARDS-2019","episode":null,"category":"BEST DEBUT MODEL, FEMALE","contestant":{"voting_id":"14C","name":"Rakshya Shrestha"},"vote_count":1,"created_on":"2019-12-10T15:17:42.558642+05:45"},{"idx":"U8TLiqTWfyRBbhsDD6EFZa","contest":"NEPALBHASA STAR MUSIC VIDEO AWARDS-2019","episode":null,"category":"BEST MODEL, FEMALE","contestant":{"voting_id":"13D","name":"Shova Maharjan"},"vote_count":1,"created_on":"2019-12-10T15:15:17.296198+05:45"},{"idx":"XbvEmV7Lk6Kki5FC3hxR93","contest":"NEPALBHASA STAR MUSIC VIDEO AWARDS-2019","episode":null,"category":"BEST MUSIC VIDEO","contestant":{"voting_id":"1H","name":"Sunita Rajbhandari"},"vote_count":1,"created_on":"2019-12-10T14:46:58.116316+05:45"},{"idx":"ttmzLj8c6LUBPHx22xMbiD","contest":"NEPALBHASA STAR MUSIC VIDEO AWARDS-2019","episode":null,"category":"BEST MODEL, MALE","contestant":{"voting_id":"11B","name":"Raju Maharjan 'Juju'"},"vote_count":1,"created_on":"2019-12-10T12:33:15.059428+05:45"},{"idx":"GKCH58wjvyLjth6ErkeM9n","contest":"NEPALBHASA STAR MUSIC VIDEO AWARDS-2019","episode":null,"category":"BEST MAKE UP ARTIST","contestant":{"voting_id":"2J","name":"Bimala Maharjan"},"vote_count":1,"created_on":"2019-12-10T11:19:56.918442+05:45"},{"idx":"TqjkhCFQqsbqmuP775Wjzm","contest":"NEPALBHASA STAR MUSIC VIDEO AWARDS-2019","episode":null,"category":"BEST DANCE DIRECTOR","contestant":{"voting_id":"19I","name":"Rajan Shahi"},"vote_count":1,"created_on":"2019-12-10T10:56:10.550285+05:45"},{"idx":"jWDuMSR5eeNgkSRBQ6oSVA","contest":"NEPALBHASA STAR MUSIC VIDEO AWARDS-2019","episode":null,"category":"BEST DEBUT MODEL, MALE","contestant":{"voting_id":"12A","name":"Rajesh Nakarmi"},"vote_count":1,"created_on":"2019-12-10T10:54:35.220452+05:45"},{"idx":"aAS4TZB85qKDEvDkpvLuxZ","contest":"NEPALBHASA STAR MUSIC VIDEO AWARDS-2019","episode":null,"category":"BEST DEBUT MODEL, FEMALE","contestant":{"voting_id":"14A","name":"Ruksana Maharjan"},"vote_count":1,"created_on":"2019-12-10T10:53:54.804575+05:45"},{"idx":"wBghQgsg6xB8EeFFHA24fM","contest":"NEPALBHASA STAR MUSIC VIDEO AWARDS-2019","episode":null,"category":"BEST MODEL, FEMALE","contestant":{"voting_id":"13H","name":"Sarita Bajracharya"},"vote_count":1,"created_on":"2019-12-10T10:53:16.221702+05:45"},{"idx":"yRyHqypvfmsyxDKAmSGNhB","contest":"NEPALBHASA STAR MUSIC VIDEO AWARDS-2019","episode":null,"category":"BEST MODEL, MALE","contestant":{"voting_id":"11J","name":"Rajendra Kumar Maharjan"},"vote_count":1,"created_on":"2019-12-10T10:52:35.038387+05:45"},{"idx":"ucWBwhizBhBq8aHF6YvRvG","contest":"NEPALBHASA STAR MUSIC VIDEO AWARDS-2019","episode":null,"category":"BEST DEBUT SINGER, MALE","contestant":{"voting_id":"16E","name":"Bhuwan Maharjan"},"vote_count":1,"created_on":"2019-12-10T10:51:47.759103+05:45"},{"idx":"egFG5ZzdgQUSWoUdhHHEy3","contest":"NEPALBHASA STAR MUSIC VIDEO AWARDS-2019","episode":null,"category":"THE RISING STAR SINGER","contestant":{"voting_id":"21E","name":"Purna Man Maharjan"},"vote_count":1,"created_on":"2019-12-10T10:50:48.448127+05:45"},{"idx":"uUUoVARnWYFPvw6aMXmbVQ","contest":"NEPALBHASA STAR MUSIC VIDEO AWARDS-2019","episode":null,"category":"BEST DIRECTOR","contestant":{"voting_id":"20B","name":"Rajesh Man Singh"},"vote_count":1,"created_on":"2019-12-10T10:47:54.750920+05:45"},{"idx":"ghFbhoLt6XJsW2cfwncCJk","contest":"NEPALBHASA STAR MUSIC VIDEO AWARDS-2019","episode":null,"category":"BEST MODEL, MALE","contestant":{"voting_id":"11G","name":"Dhiren Shakya"},"vote_count":1,"created_on":"2019-12-10T10:36:31.267610+05:45"},{"idx":"49f8uo4GvvTNLfY7Um8GDV","contest":"NEPALBHASA STAR MUSIC VIDEO AWARDS-2019","episode":null,"category":"BEST MODEL, FEMALE","contestant":{"voting_id":"13H","name":"Sarita Bajracharya"},"vote_count":1,"created_on":"2019-12-10T09:41:08.411618+05:45"},{"idx":"8dLPfqwGDpUttftEupjYmY","contest":"NEPALBHASA STAR MUSIC VIDEO AWARDS-2019","episode":null,"category":"THE RISING STAR SINGER","contestant":{"voting_id":"21E","name":"Purna Man Maharjan"},"vote_count":1,"created_on":"2019-12-10T07:55:40.842278+05:45"},{"idx":"rUnhmVHcY7MsXfKJjazdUV","contest":"NEPALBHASA STAR MUSIC VIDEO AWARDS-2019","episode":null,"category":"BEST Singer,FEMALE","contestant":{"voting_id":"17J","name":"Anita Maharjan"},"vote_count":1,"created_on":"2019-12-10T06:59:19.579777+05:45"},{"idx":"un4q9mhm3TZkZCPvJegThc","contest":"NEPALBHASA STAR MUSIC VIDEO AWARDS-2019","episode":null,"category":"BEST DIRECTOR","contestant":{"voting_id":"20H","name":"Suresh Khadgi"},"vote_count":1,"created_on":"2019-12-09T22:12:53.074517+05:45"},{"idx":"hUUtzcuJHVPHTLFHiPqqY9","contest":"NEPALBHASA STAR MUSIC VIDEO AWARDS-2019","episode":null,"category":"BEST LYRICIST","contestant":{"voting_id":"4H","name":"Purna Kaji Jyapu"},"vote_count":1,"created_on":"2019-12-09T21:21:18.177132+05:45"},{"idx":"octej8DHbwtJ8xNh6neaiK","contest":"NEPALBHASA STAR MUSIC VIDEO AWARDS-2019","episode":null,"category":"BEST DEBUT SINGER, MALE","contestant":{"voting_id":"16J","name":"Shailendra Tuladhar"},"vote_count":1,"created_on":"2019-12-09T21:16:32.170597+05:45"},{"idx":"XrbuzQAhzNnCyP76khh8tB","contest":"NEPALBHASA STAR MUSIC VIDEO AWARDS-2019","episode":null,"category":"THE RISING STAR SINGER","contestant":{"voting_id":"21E","name":"Purna Man Maharjan"},"vote_count":1,"created_on":"2019-12-09T21:15:26.002027+05:45"},{"idx":"AJoiQvLezhB7HzEFB2wKY4","contest":"NEPALBHASA STAR MUSIC VIDEO AWARDS-2019","episode":null,"category":"THE RISING STAR SINGER","contestant":{"voting_id":"21C","name":"Jack Maharjan"},"vote_count":1,"created_on":"2019-12-09T21:04:52.634253+05:45"},{"idx":"ittqLAzcAJAEKvqzxbBcpS","contest":"NEPALBHASA STAR MUSIC VIDEO AWARDS-2019","episode":null,"category":"THE RISING STAR SINGER","contestant":{"voting_id":"21C","name":"Jack Maharjan"},"vote_count":1,"created_on":"2019-12-09T20:50:30.434236+05:45"},{"idx":"vCWpnt9ssfYMEpnMJhYw7H","contest":"NEPALBHASA STAR MUSIC VIDEO AWARDS-2019","episode":null,"category":"BEST DIRECTOR","contestant":{"voting_id":"20A","name":"Bhuwan Shrestha"},"vote_count":1,"created_on":"2019-12-09T20:49:49.684988+05:45"},{"idx":"C2fA7XBNb2arUCuHuSRDsf","contest":"NEPALBHASA STAR MUSIC VIDEO AWARDS-2019","episode":null,"category":"BEST DEBUT MODEL, FEMALE","contestant":{"voting_id":"14A","name":"Ruksana Maharjan"},"vote_count":1,"created_on":"2019-12-09T20:25:40.024912+05:45"},{"idx":"QRV7VKjpcNxoudf7pxLdUk","contest":"NEPALBHASA STAR MUSIC VIDEO AWARDS-2019","episode":null,"category":"BEST SINGER, MALE","contestant":{"voting_id":"15E","name":" Prabesh Man Shakya"},"vote_count":1,"created_on":"2019-12-09T20:24:08.577094+05:45"},{"idx":"FFLKBVzizsHUivC6dmvMki","contest":"NEPALBHASA STAR MUSIC VIDEO AWARDS-2019","episode":null,"category":"BEST DIRECTOR","contestant":{"voting_id":"20D","name":"Ram Krishna Khadgi"},"vote_count":1,"created_on":"2019-12-09T20:13:14.856743+05:45"},{"idx":"2bJEsYecM693WPLcF2zBh5","contest":"NEPALBHASA STAR MUSIC VIDEO AWARDS-2019","episode":null,"category":"THE RISING STAR SINGER","contestant":{"voting_id":"21E","name":"Purna Man Maharjan"},"vote_count":1,"created_on":"2019-12-09T20:12:24.974837+05:45"},{"idx":"8mVHYcYbGws9kESKgjYQKV","contest":"NEPALBHASA STAR MUSIC VIDEO AWARDS-2019","episode":null,"category":"BEST SINGER, MALE","contestant":{"voting_id":"15A","name":"Dr. Gopal Maharjan"},"vote_count":1,"created_on":"2019-12-09T20:11:19.251985+05:45"},{"idx":"6qDVrBPAF392yF9j3GF6UR","contest":"NEPALBHASA STAR MUSIC VIDEO AWARDS-2019","episode":null,"category":"BEST LYRICIST","contestant":{"voting_id":"4A","name":"Dr. Gopal Maharjan"},"vote_count":1,"created_on":"2019-12-09T20:10:32.331589+05:45"},{"idx":"UU8L2neSfKVDxju7ZVXJGY","contest":"NEPALBHASA STAR MUSIC VIDEO AWARDS-2019","episode":null,"category":"BEST MAKE UP ARTIST","contestant":{"voting_id":"2I","name":"Matina Maharjan"},"vote_count":1,"created_on":"2019-12-09T19:22:45.810313+05:45"},{"idx":"UpeLcefMgMfN9msPFZUeXg","contest":"NEPALBHASA STAR MUSIC VIDEO AWARDS-2019","episode":null,"category":"BEST DIRECTOR","contestant":{"voting_id":"20D","name":"Ram Krishna Khadgi"},"vote_count":1,"created_on":"2019-12-09T18:29:24.909517+05:45"},{"idx":"Pm6ZTWWdhK7tSG9VDUvQ9m","contest":"NEPALBHASA STAR MUSIC VIDEO AWARDS-2019","episode":null,"category":"BEST SINGER, MALE","contestant":{"voting_id":"15H","name":"Krishna Bhakta Maharjan"},"vote_count":1,"created_on":"2019-12-09T18:28:34.934849+05:45"}]}