{"total_pages":275,"total_records":13721,"next":"https://khalti.com/api/v2/vuservote/?page=240","previous":"https://khalti.com/api/v2/vuservote/?page=238","record_range":[11901,11950],"current_page":239,"records":[{"idx":"fdfb5jK3LAJWmGVGTj3vtC","contest":"NEPALBHASA STAR MUSIC VIDEO AWARDS-2019","episode":null,"category":"BEST DIRECTOR","contestant":{"voting_id":"20F","name":"Sunita Rajbhandari"},"vote_count":1,"created_on":"2019-12-09T17:04:06.234983+05:45"},{"idx":"XVrwTj5rS8djDJMsoHfdA9","contest":"NEPALBHASA STAR MUSIC VIDEO AWARDS-2019","episode":null,"category":"THE RISING STAR SINGER","contestant":{"voting_id":"21E","name":"Purna Man Maharjan"},"vote_count":1,"created_on":"2019-12-09T17:03:20.243198+05:45"},{"idx":"KijWJM7xnaqeCS6ZEAsjY5","contest":"NEPALBHASA STAR MUSIC VIDEO AWARDS-2019","episode":null,"category":"BEST VIDEO EDITOR","contestant":{"voting_id":"9D","name":"Sohan Manandhar"},"vote_count":1,"created_on":"2019-12-09T16:17:06.699928+05:45"},{"idx":"JznvrNN3X3TqMtsMiUASJD","contest":"NEPALBHASA STAR MUSIC VIDEO AWARDS-2019","episode":null,"category":"BEST DEBUT MODEL, FEMALE","contestant":{"voting_id":"14A","name":"Ruksana Maharjan"},"vote_count":1,"created_on":"2019-12-09T14:36:18.284067+05:45"},{"idx":"8yZjgvzxqG4Qxgbux9xtdh","contest":"NEPALBHASA STAR MUSIC VIDEO AWARDS-2019","episode":null,"category":"BEST DEBUT SINGER, MALE","contestant":{"voting_id":"16J","name":"Shailendra Tuladhar"},"vote_count":1,"created_on":"2019-12-09T13:35:40.028119+05:45"},{"idx":"gUeiayiVGhXZWE4QwE7E48","contest":"NEPALBHASA STAR MUSIC VIDEO AWARDS-2019","episode":null,"category":"BEST DIRECTOR","contestant":{"voting_id":"20D","name":"Ram Krishna Khadgi"},"vote_count":1,"created_on":"2019-12-09T11:03:47.974861+05:45"},{"idx":"kGiLvFTcLRXF5zCdrEmAY3","contest":"NEPALBHASA STAR MUSIC VIDEO AWARDS-2019","episode":null,"category":"THE RISING STAR SINGER","contestant":{"voting_id":"21A","name":"Macha Raja Maharjan"},"vote_count":1,"created_on":"2019-12-09T11:03:11.021144+05:45"},{"idx":"xxFepPu9tnDaZxGLGuwdd6","contest":"NEPALBHASA STAR MUSIC VIDEO AWARDS-2019","episode":null,"category":"THE RISING STAR SINGER","contestant":{"voting_id":"21B","name":"Ves Maharjan"},"vote_count":1,"created_on":"2019-12-09T09:50:48.710074+05:45"},{"idx":"xdTc7JVJ3SVYQUg3QDX5GT","contest":"NEPALBHASA STAR MUSIC VIDEO AWARDS-2019","episode":null,"category":"THE RISING STAR SINGER","contestant":{"voting_id":"21D","name":"Krishna Maharjan"},"vote_count":1,"created_on":"2019-12-09T05:59:50.146492+05:45"},{"idx":"A6tNxt3nEaYx6sKwbJWnwH","contest":"NEPALBHASA STAR MUSIC VIDEO AWARDS-2019","episode":null,"category":"BEST MUSIC VIDEO","contestant":{"voting_id":"1G","name":"Rajendra Kumar Maharjan"},"vote_count":1,"created_on":"2019-12-08T23:45:57.070552+05:45"},{"idx":"f3Lv8WGDFUbpxjGy9LerHD","contest":"NEPALBHASA STAR MUSIC VIDEO AWARDS-2019","episode":null,"category":"BEST MAKE UP ARTIST","contestant":{"voting_id":"2J","name":"Bimala Maharjan"},"vote_count":25,"created_on":"2019-12-08T22:36:17.854372+05:45"},{"idx":"RvmUeygzMVJLusG8aThAfL","contest":"NEPALBHASA STAR MUSIC VIDEO AWARDS-2019","episode":null,"category":"BEST MAKE UP ARTIST","contestant":{"voting_id":"2J","name":"Bimala Maharjan"},"vote_count":5,"created_on":"2019-12-08T22:14:27.253136+05:45"},{"idx":"YMpRk3VKEbF6kLy5Di5W2j","contest":"NEPALBHASA STAR MUSIC VIDEO AWARDS-2019","episode":null,"category":"BEST MAKE UP ARTIST","contestant":{"voting_id":"2J","name":"Bimala Maharjan"},"vote_count":1,"created_on":"2019-12-08T22:11:54.335862+05:45"},{"idx":"FEJDqMQjDAHQp4Xxdk3mEU","contest":"NEPALBHASA STAR MUSIC VIDEO AWARDS-2019","episode":null,"category":"THE RISING STAR SINGER","contestant":{"voting_id":"21A","name":"Macha Raja Maharjan"},"vote_count":1,"created_on":"2019-12-08T21:41:04.938112+05:45"},{"idx":"w2BtSdp59i2h8cWpwcwBd2","contest":"NEPALBHASA STAR MUSIC VIDEO AWARDS-2019","episode":null,"category":"BEST DEBUT SINGER, FEMALE","contestant":{"voting_id":"18F","name":"JamunaMaharjan"},"vote_count":1,"created_on":"2019-12-08T21:30:50.703809+05:45"},{"idx":"aFzruUZJixAvLqt4SiZfyF","contest":"NEPALBHASA STAR MUSIC VIDEO AWARDS-2019","episode":null,"category":"BEST MUSIC DIRECTOR","contestant":{"voting_id":"6C","name":"Purna Man Maharjan "},"vote_count":1,"created_on":"2019-12-08T20:48:10.697543+05:45"},{"idx":"eL2Lau5PqRFzpSGaWNwJBk","contest":"NEPALBHASA STAR MUSIC VIDEO AWARDS-2019","episode":null,"category":"THE RISING STAR SINGER","contestant":{"voting_id":"21E","name":"Purna Man Maharjan"},"vote_count":1,"created_on":"2019-12-08T20:46:51.076144+05:45"},{"idx":"4iXbVaeKAjxWjsBBPG3zSh","contest":"NEPALBHASA STAR MUSIC VIDEO AWARDS-2019","episode":null,"category":"BEST DEBUT SINGER, MALE","contestant":{"voting_id":"16E","name":"Bhuwan Maharjan"},"vote_count":5,"created_on":"2019-12-08T19:43:23.660868+05:45"},{"idx":"ETYeb8HLdaWhWLWAWxp55S","contest":"NEPALBHASA STAR MUSIC VIDEO AWARDS-2019","episode":null,"category":"BEST DEBUT SINGER, MALE","contestant":{"voting_id":"16E","name":"Bhuwan Maharjan"},"vote_count":1,"created_on":"2019-12-08T19:41:21.039621+05:45"},{"idx":"DPYNbuZkeky26FfkwHFpuU","contest":"NEPALBHASA STAR MUSIC VIDEO AWARDS-2019","episode":null,"category":"BEST SINGER, MALE","contestant":{"voting_id":"15D","name":"Mohan Shakya"},"vote_count":500,"created_on":"2019-12-08T19:24:33.295962+05:45"},{"idx":"yfhYx3oKzGvAH8Hqk9cFjU","contest":"NEPALBHASA STAR MUSIC VIDEO AWARDS-2019","episode":null,"category":"BEST DANCE DIRECTOR","contestant":{"voting_id":"19G","name":"Surendra Maharjan"},"vote_count":1,"created_on":"2019-12-08T18:50:53.512631+05:45"},{"idx":"yGpQASSHYRkZhWFabYupKP","contest":"NEPALBHASA STAR MUSIC VIDEO AWARDS-2019","episode":null,"category":"BEST DEBUT MODEL, MALE","contestant":{"voting_id":"12F","name":"Manoj Maharjan"},"vote_count":1,"created_on":"2019-12-08T18:50:14.165304+05:45"},{"idx":"4dQxwtx3AkFfC7U58iGno5","contest":"NEPALBHASA STAR MUSIC VIDEO AWARDS-2019","episode":null,"category":"BEST LYRICIST","contestant":{"voting_id":"4C","name":"Bhim Bahadur Nakarmi"},"vote_count":1,"created_on":"2019-12-08T17:31:06.676908+05:45"},{"idx":"PWNtiyxupK2swJfFqzR9Rk","contest":"NEPALBHASA STAR MUSIC VIDEO AWARDS-2019","episode":null,"category":"BEST DANCE DIRECTOR","contestant":{"voting_id":"19J","name":"Bhuwan Shrestha"},"vote_count":1,"created_on":"2019-12-08T17:26:41.917320+05:45"},{"idx":"D8Rx7Zpcwbt6cGMufHbdPC","contest":"NEPALBHASA STAR MUSIC VIDEO AWARDS-2019","episode":null,"category":"THE RISING STAR SINGER","contestant":{"voting_id":"21E","name":"Purna Man Maharjan"},"vote_count":1,"created_on":"2019-12-08T17:25:09.605663+05:45"},{"idx":"rWEhsKKxVViRgGdw8L5fic","contest":"NEPALBHASA STAR MUSIC VIDEO AWARDS-2019","episode":null,"category":"BEST DIRECTOR","contestant":{"voting_id":"20G","name":"Hriday Prasad Mishra"},"vote_count":1,"created_on":"2019-12-08T17:23:51.690094+05:45"},{"idx":"JSu3aX4KD6e7ipB6HmK9m2","contest":"NEPALBHASA STAR MUSIC VIDEO AWARDS-2019","episode":null,"category":"BEST SINGER, MALE","contestant":{"voting_id":"15I","name":"Suraj Bir Bajracharya"},"vote_count":1,"created_on":"2019-12-08T16:15:05.482318+05:45"},{"idx":"t8AxmcmU5hnS48PeF7UmSd","contest":"NEPALBHASA STAR MUSIC VIDEO AWARDS-2019","episode":null,"category":"BEST DEBUT MODEL, MALE","contestant":{"voting_id":"12I","name":"Nirajan Pradhan"},"vote_count":1,"created_on":"2019-12-08T16:06:03.708193+05:45"},{"idx":"sfhgvHcpcAeYenq3dotQM5","contest":"NEPALBHASA STAR MUSIC VIDEO AWARDS-2019","episode":null,"category":"BEST MODEL, MALE","contestant":{"voting_id":"11G","name":"Dhiren Shakya"},"vote_count":1,"created_on":"2019-12-08T16:05:35.159009+05:45"},{"idx":"xSV8sHPpnEqMp45Cu7xZkY","contest":"NEPALBHASA STAR MUSIC VIDEO AWARDS-2019","episode":null,"category":"BEST MODEL, FEMALE","contestant":{"voting_id":"13B","name":"Ashishma Nakarmi"},"vote_count":1,"created_on":"2019-12-08T16:04:57.730571+05:45"},{"idx":"PqB5vxiGP5ByZMRvaiLXr7","contest":"NEPALBHASA STAR MUSIC VIDEO AWARDS-2019","episode":null,"category":"BEST DEBUT MODEL, FEMALE","contestant":{"voting_id":"14C","name":"Rakshya Shrestha"},"vote_count":1,"created_on":"2019-12-08T16:04:26.084148+05:45"},{"idx":"vtSRfE5eokxjABqT8Y7UqP","contest":"NEPALBHASA STAR MUSIC VIDEO AWARDS-2019","episode":null,"category":"BEST DEBUT SINGER, MALE","contestant":{"voting_id":"16D","name":"Raju Karmacharya"},"vote_count":1,"created_on":"2019-12-08T16:03:44.148555+05:45"},{"idx":"NSNet2zjocduU7fuJHXHGS","contest":"NEPALBHASA STAR MUSIC VIDEO AWARDS-2019","episode":null,"category":"BEST Singer,FEMALE","contestant":{"voting_id":"17B","name":"Ratna Shova Maharjan"},"vote_count":1,"created_on":"2019-12-08T16:03:12.520443+05:45"},{"idx":"izwP2vsNkFANGA7isNhw82","contest":"NEPALBHASA STAR MUSIC VIDEO AWARDS-2019","episode":null,"category":"BEST DEBUT SINGER, FEMALE","contestant":{"voting_id":"18A","name":"DrishnuManandhar"},"vote_count":1,"created_on":"2019-12-08T16:02:49.891586+05:45"},{"idx":"WMoFPZ76BBauqSdGb7mEXB","contest":"NEPALBHASA STAR MUSIC VIDEO AWARDS-2019","episode":null,"category":"BEST DANCE DIRECTOR","contestant":{"voting_id":"19C ","name":"Suraj Napit"},"vote_count":1,"created_on":"2019-12-08T16:02:24.819688+05:45"},{"idx":"EGZo27T6Sw6VDYjDFXZqjd","contest":"NEPALBHASA STAR MUSIC VIDEO AWARDS-2019","episode":null,"category":"BEST DIRECTOR","contestant":{"voting_id":"20B","name":"Rajesh Man Singh"},"vote_count":1,"created_on":"2019-12-08T16:01:54.404174+05:45"},{"idx":"5K2onERMdbR9o9fUUHQ3Xm","contest":"NEPALBHASA STAR MUSIC VIDEO AWARDS-2019","episode":null,"category":"THE RISING STAR SINGER","contestant":{"voting_id":"21E","name":"Purna Man Maharjan"},"vote_count":1,"created_on":"2019-12-08T16:01:40.611598+05:45"},{"idx":"sJLLSEAaeCqRKeUUrobdXG","contest":"NEPALBHASA STAR MUSIC VIDEO AWARDS-2019","episode":null,"category":"BEST SINGER, MALE","contestant":{"voting_id":"15J","name":"Ram Bhakta Maharjan"},"vote_count":1,"created_on":"2019-12-08T16:01:18.688119+05:45"},{"idx":"hg2JZFD2WXHD5JTnXpwyTD","contest":"NEPALBHASA STAR MUSIC VIDEO AWARDS-2019","episode":null,"category":"BEST MAKE UP ARTIST","contestant":{"voting_id":"2A","name":"Buddhi Lama"},"vote_count":1,"created_on":"2019-12-08T16:00:57.107047+05:45"},{"idx":"8YZBhfUo8bHpdLMdPB6of8","contest":"NEPALBHASA STAR MUSIC VIDEO AWARDS-2019","episode":null,"category":"BEST DANCE DIRECTOR","contestant":{"voting_id":"19G","name":"Surendra Maharjan"},"vote_count":1,"created_on":"2019-12-08T14:35:18.526381+05:45"},{"idx":"dzEKarKEfGGRsWobJFkdmY","contest":"NEPALBHASA STAR MUSIC VIDEO AWARDS-2019","episode":null,"category":"BEST MODEL, MALE","contestant":{"voting_id":"11E","name":"Surendra Maharjan"},"vote_count":1,"created_on":"2019-12-08T14:34:46.691807+05:45"},{"idx":"KZv4PFMyGCtN25wEwS6jAG","contest":"NEPALBHASA STAR MUSIC VIDEO AWARDS-2019","episode":null,"category":"BEST DEBUT MODEL, MALE","contestant":{"voting_id":"12F","name":"Manoj Maharjan"},"vote_count":1,"created_on":"2019-12-08T14:33:45.416308+05:45"},{"idx":"KqMdeH5JiaxWAWjmK59sVE","contest":"NEPALBHASA STAR MUSIC VIDEO AWARDS-2019","episode":null,"category":"BEST MODEL, MALE","contestant":{"voting_id":"11E","name":"Surendra Maharjan"},"vote_count":1,"created_on":"2019-12-08T14:26:58.499636+05:45"},{"idx":"WHRfLi3CpeN3FyBRJEWZgB","contest":"NEPALBHASA STAR MUSIC VIDEO AWARDS-2019","episode":null,"category":"BEST CAMERAPERSON","contestant":{"voting_id":"10J","name":"Basanta Maharjan"},"vote_count":1,"created_on":"2019-12-08T13:16:49.318541+05:45"},{"idx":"Y8tpdN54R7KMFioYo8aQEJ","contest":"NEPALBHASA STAR MUSIC VIDEO AWARDS-2019","episode":null,"category":"BEST MUSIC VIDEO","contestant":{"voting_id":"1F","name":"Shova Maharjan"},"vote_count":1,"created_on":"2019-12-08T11:02:13.397000+05:45"},{"idx":"iaFd7mGmxEGT9o2brUSGsf","contest":"NEPALBHASA STAR MUSIC VIDEO AWARDS-2019","episode":null,"category":"BEST MODEL, MALE","contestant":{"voting_id":"11F","name":"Suraj Byanjankar"},"vote_count":1,"created_on":"2019-12-08T10:40:40.328775+05:45"},{"idx":"jqsWsZKkUJUmE7Ycc6kqmH","contest":"NEPALBHASA STAR MUSIC VIDEO AWARDS-2019","episode":null,"category":"BEST MUSIC VIDEO","contestant":{"voting_id":"1J","name":"Ashok Maharjan"},"vote_count":1,"created_on":"2019-12-08T10:28:32.807308+05:45"},{"idx":"x9fEfrRREBKPo5GtDx8VGn","contest":"NEPALBHASA STAR MUSIC VIDEO AWARDS-2019","episode":null,"category":"THE RISING STAR SINGER","contestant":{"voting_id":"21E","name":"Purna Man Maharjan"},"vote_count":1,"created_on":"2019-12-08T09:53:47.551650+05:45"},{"idx":"zEqmeamGdzRGLLFnKK7ona","contest":"NEPALBHASA STAR MUSIC VIDEO AWARDS-2019","episode":null,"category":"BEST MUSIC DIRECTOR","contestant":{"voting_id":"6C","name":"Purna Man Maharjan "},"vote_count":1,"created_on":"2019-12-08T09:42:03.588800+05:45"},{"idx":"mjAH9nxHiobjMwWYaerz63","contest":"NEPALBHASA STAR MUSIC VIDEO AWARDS-2019","episode":null,"category":"THE RISING STAR SINGER","contestant":{"voting_id":"21E","name":"Purna Man Maharjan"},"vote_count":1,"created_on":"2019-12-08T09:41:20.433035+05:45"}]}