{"total_pages":275,"total_records":13717,"next":"https://khalti.com/api/v2/vuservote/?page=25","previous":"https://khalti.com/api/v2/vuservote/?page=23","record_range":[1151,1200],"current_page":24,"records":[{"idx":"W4BTn8KTnLBATo2axfUooT","contest":"Music Eve 2020","episode":"Music Eve 2020 IOE","category":null,"contestant":{"voting_id":"03","name":"Abishek Aryal"},"vote_count":1,"created_on":"2020-01-31T18:06:11.618610+05:45"},{"idx":"vCEZumVfpFLhUYg6UFqPKW","contest":"Model Superstar","episode":"Model Superstar Finale","category":null,"contestant":{"voting_id":"01","name":"Sajina Subba"},"vote_count":1,"created_on":"2020-01-31T18:05:26.206859+05:45"},{"idx":"FGSMR6sv38qKKANvBAkdnG","contest":"Locus 2020","episode":"Locus 2020","category":null,"contestant":{"voting_id":"81","name":"Project Self Balancing Platform"},"vote_count":1,"created_on":"2020-01-31T18:05:06.728269+05:45"},{"idx":"f3KCswj3VFtDjGgiv7Yrc8","contest":"Music Eve 2020","episode":"Music Eve 2020 IOE","category":null,"contestant":{"voting_id":"03","name":"Abishek Aryal"},"vote_count":50,"created_on":"2020-01-31T18:00:46.117820+05:45"},{"idx":"vDRdK2SnXFYxBx2PgnR2vJ","contest":"Music Eve 2020","episode":"Music Eve 2020 IOE","category":null,"contestant":{"voting_id":"03","name":"Abishek Aryal"},"vote_count":1,"created_on":"2020-01-31T18:00:27.765186+05:45"},{"idx":"KRbukJ8NZmtcXLLevmq9tR","contest":"Music Eve 2020","episode":"Music Eve 2020 IOE","category":null,"contestant":{"voting_id":"22","name":"swayam dhakal"},"vote_count":5,"created_on":"2020-01-31T17:48:43.844531+05:45"},{"idx":"tmm5Rgh2fJdbpqfzav9i9F","contest":"Music Eve 2020","episode":"Music Eve 2020 IOE","category":null,"contestant":{"voting_id":"03","name":"Abishek Aryal"},"vote_count":5,"created_on":"2020-01-31T17:48:03.986528+05:45"},{"idx":"8gmqo2hZkoBFcciAYEV3v6","contest":"Music Eve 2020","episode":"Music Eve 2020 IOE","category":null,"contestant":{"voting_id":"03","name":"Abishek Aryal"},"vote_count":1,"created_on":"2020-01-31T17:47:15.883447+05:45"},{"idx":"5b7iyRvHvffUAVxMy5kFxf","contest":"Music Eve 2020","episode":"Music Eve 2020 IOE","category":null,"contestant":{"voting_id":"03","name":"Abishek Aryal"},"vote_count":1,"created_on":"2020-01-31T17:44:36.520877+05:45"},{"idx":"8XnsrHgDvpv9CaeMRPHoJ7","contest":"Music Eve 2020","episode":"Music Eve 2020 IOE","category":null,"contestant":{"voting_id":"03","name":"Abishek Aryal"},"vote_count":5,"created_on":"2020-01-31T17:34:12.992861+05:45"},{"idx":"bR8fUhhjdp6jBJDwvjU4rd","contest":"Music Eve 2020","episode":"Music Eve 2020 IOE","category":null,"contestant":{"voting_id":"03","name":"Abishek Aryal"},"vote_count":25,"created_on":"2020-01-31T17:33:37.281382+05:45"},{"idx":"BBEGTG5Xkp9nkpeGBrbFkg","contest":"Model Superstar","episode":"Model Superstar Finale","category":null,"contestant":{"voting_id":"02","name":"Srijana Basnet"},"vote_count":1,"created_on":"2020-01-31T17:11:19.509071+05:45"},{"idx":"Ez2C4RNCAbRBUMQPhbgTr9","contest":"Model Superstar","episode":"Model Superstar Finale","category":null,"contestant":{"voting_id":"31","name":"Aakriti Subedi"},"vote_count":1,"created_on":"2020-01-31T17:11:01.914167+05:45"},{"idx":"9P6quxSE5H43jJSJ3ae8gW","contest":"Model Superstar","episode":"Model Superstar Finale","category":null,"contestant":{"voting_id":"01","name":"Sajina Subba"},"vote_count":1,"created_on":"2020-01-31T17:10:45.242816+05:45"},{"idx":"FvPPpa7M7kFUBnGrGmgAyP","contest":"Music Eve 2020","episode":"Music Eve 2020 IOE","category":null,"contestant":{"voting_id":"08","name":"Kshitiz Basnet"},"vote_count":1,"created_on":"2020-01-31T17:09:18.056064+05:45"},{"idx":"W9Wq2h773owHBQfqeZTxGY","contest":"Model Superstar","episode":"Model Superstar Finale","category":null,"contestant":{"voting_id":"02","name":"Srijana Basnet"},"vote_count":1,"created_on":"2020-01-31T16:39:17.495149+05:45"},{"idx":"2uvc4FxRJ8ehvurbc9BBDg","contest":"Model Superstar","episode":"Model Superstar Finale","category":null,"contestant":{"voting_id":"17","name":"Sajana Panta"},"vote_count":1,"created_on":"2020-01-31T16:36:44.293131+05:45"},{"idx":"nEBzrKDYz53BC46QnoDHyH","contest":"Model Superstar","episode":"Model Superstar Finale","category":null,"contestant":{"voting_id":"04","name":"Sabita Maharjan"},"vote_count":1,"created_on":"2020-01-31T16:36:12.518510+05:45"},{"idx":"wxSqmXeJP55MUipEv4qron","contest":"Model Superstar","episode":"Model Superstar Finale","category":null,"contestant":{"voting_id":"01","name":"Sajina Subba"},"vote_count":1,"created_on":"2020-01-31T15:22:28.814241+05:45"},{"idx":"JMEs6Wd7DzyinX346B2Gk3","contest":"Model Superstar","episode":"Model Superstar Finale","category":null,"contestant":{"voting_id":"02","name":"Srijana Basnet"},"vote_count":1,"created_on":"2020-01-31T15:22:16.642468+05:45"},{"idx":"Hku86BYDXP94ebFrKS2QKQ","contest":"Music Eve 2020","episode":"Music Eve 2020 IOE","category":null,"contestant":{"voting_id":"03","name":"Abishek Aryal"},"vote_count":5,"created_on":"2020-01-31T15:19:35.935610+05:45"},{"idx":"7xpq3z5sTTg2RdmNnzbeCU","contest":"Music Eve 2020","episode":"Music Eve 2020 IOE","category":null,"contestant":{"voting_id":"03","name":"Abishek Aryal"},"vote_count":5,"created_on":"2020-01-31T15:16:00.893727+05:45"},{"idx":"dmyarxgG4ycbyn8dnN86pb","contest":"Music Eve 2020","episode":"Music Eve 2020 IOE","category":null,"contestant":{"voting_id":"03","name":"Abishek Aryal"},"vote_count":25,"created_on":"2020-01-31T15:15:32.636022+05:45"},{"idx":"wZk7d2oZeX9DkvMmBi6sec","contest":"Model Superstar","episode":"Model Superstar Finale","category":null,"contestant":{"voting_id":"31","name":"Aakriti Subedi"},"vote_count":1,"created_on":"2020-01-31T14:57:04.932782+05:45"},{"idx":"cCTZ24wZKe5XjebvzfnnKL","contest":"Model Superstar","episode":"Model Superstar Finale","category":null,"contestant":{"voting_id":"31","name":"Aakriti Subedi"},"vote_count":1,"created_on":"2020-01-31T14:56:39.484735+05:45"},{"idx":"S8VazbqFSh6n2qQEUd6SnH","contest":"Model Superstar","episode":"Model Superstar Finale","category":null,"contestant":{"voting_id":"31","name":"Aakriti Subedi"},"vote_count":1,"created_on":"2020-01-31T14:56:19.811624+05:45"},{"idx":"88mrCWjH9W7BU6XUPy2SoE","contest":"Model Superstar","episode":"Model Superstar Finale","category":null,"contestant":{"voting_id":"31","name":"Aakriti Subedi"},"vote_count":1,"created_on":"2020-01-31T14:55:57.699811+05:45"},{"idx":"okTJntxyQE2GJu5hepixQc","contest":"Model Superstar","episode":"Model Superstar Finale","category":null,"contestant":{"voting_id":"31","name":"Aakriti Subedi"},"vote_count":1,"created_on":"2020-01-31T14:55:43.576124+05:45"},{"idx":"5s7q7zLreAC9C8FzXRVYhW","contest":"Model Superstar","episode":"Model Superstar Finale","category":null,"contestant":{"voting_id":"11","name":"Rachana Karki"},"vote_count":1,"created_on":"2020-01-31T14:18:32.773864+05:45"},{"idx":"kVq375a8JTknHHLnWabwBm","contest":"Music Eve 2020","episode":"Music Eve 2020 IOE","category":null,"contestant":{"voting_id":"15","name":"Purnima And Guys"},"vote_count":1,"created_on":"2020-01-31T14:17:43.721325+05:45"},{"idx":"PKfMCZDwSKWRmmw8dfdscj","contest":"Model Superstar","episode":"Model Superstar Finale","category":null,"contestant":{"voting_id":"04","name":"Sabita Maharjan"},"vote_count":1,"created_on":"2020-01-31T14:16:40.652977+05:45"},{"idx":"JjyhJokLhoRid98hiPw7KK","contest":"Model Superstar","episode":"Model Superstar Finale","category":null,"contestant":{"voting_id":"01","name":"Sajina Subba"},"vote_count":1,"created_on":"2020-01-31T13:05:57.404945+05:45"},{"idx":"4f6kDjXKs3v8CvrcGuXvGe","contest":"Model Superstar","episode":"Model Superstar Finale","category":null,"contestant":{"voting_id":"14","name":"Ashish Shakya"},"vote_count":1,"created_on":"2020-01-31T12:39:13.168380+05:45"},{"idx":"dw9LA34hURio2qpWW6zsR8","contest":"Model Superstar","episode":"Model Superstar Finale","category":null,"contestant":{"voting_id":"14","name":"Ashish Shakya"},"vote_count":1,"created_on":"2020-01-31T12:38:51.429198+05:45"},{"idx":"7P6U3YkkgHDutgpT3NiKpZ","contest":"Model Superstar","episode":"Model Superstar Finale","category":null,"contestant":{"voting_id":"21","name":"Padam Bahadur Ranamagar"},"vote_count":1,"created_on":"2020-01-31T11:30:26.640011+05:45"},{"idx":"dTyTRLqQb9Uph8jpTWLL2M","contest":"Model Superstar","episode":"Model Superstar Finale","category":null,"contestant":{"voting_id":"04","name":"Sabita Maharjan"},"vote_count":1,"created_on":"2020-01-31T11:11:20.860343+05:45"},{"idx":"LR7rxXMuCa6N7TEpCyNi9Y","contest":"Model Superstar","episode":"Model Superstar Finale","category":null,"contestant":{"voting_id":"02","name":"Srijana Basnet"},"vote_count":1,"created_on":"2020-01-31T10:24:38.037178+05:45"},{"idx":"wuqvqnh5L6UyRNFeSaGKJA","contest":"Music Eve 2020","episode":"Music Eve 2020 IOE","category":null,"contestant":{"voting_id":"03","name":"Abishek Aryal"},"vote_count":5,"created_on":"2020-01-31T10:06:30.013478+05:45"},{"idx":"q8ahFiRshxTwNxcNK8zkYo","contest":"Music Eve 2020","episode":"Music Eve 2020 IOE","category":null,"contestant":{"voting_id":"03","name":"Abishek Aryal"},"vote_count":5,"created_on":"2020-01-31T10:06:05.287197+05:45"},{"idx":"RqZnENDkMMSe9jW7zEwgvi","contest":"Music Eve 2020","episode":"Music Eve 2020 IOE","category":null,"contestant":{"voting_id":"03","name":"Abishek Aryal"},"vote_count":1,"created_on":"2020-01-31T10:03:37.395900+05:45"},{"idx":"DKC6N3UWzYf6LsgzFuMan3","contest":"Music Eve 2020","episode":"Music Eve 2020 IOE","category":null,"contestant":{"voting_id":"03","name":"Abishek Aryal"},"vote_count":1,"created_on":"2020-01-31T10:02:23.585036+05:45"},{"idx":"GECGy5hbe69H2WEq4i4eyH","contest":"Model Superstar","episode":"Model Superstar Finale","category":null,"contestant":{"voting_id":"30","name":"Nikita Shakya"},"vote_count":1,"created_on":"2020-01-31T09:46:49.233551+05:45"},{"idx":"n5wXpYgA3gjHNpo3sGwhm6","contest":"Model Superstar","episode":"Model Superstar Finale","category":null,"contestant":{"voting_id":"01","name":"Sajina Subba"},"vote_count":1,"created_on":"2020-01-31T09:46:00.879414+05:45"},{"idx":"nT7jNYuin6oyNHgUMHqmcd","contest":"Model Superstar","episode":"Model Superstar Finale","category":null,"contestant":{"voting_id":"12","name":"Rabin Ghising"},"vote_count":1,"created_on":"2020-01-31T09:44:45.121058+05:45"},{"idx":"yFGHwAYRCaR8CoyEzvPbY9","contest":"Model Superstar","episode":"Model Superstar Finale","category":null,"contestant":{"voting_id":"12","name":"Rabin Ghising"},"vote_count":1,"created_on":"2020-01-31T09:44:32.366089+05:45"},{"idx":"jKBcKiCMDzk2eqBjWknQ34","contest":"Model Superstar","episode":"Model Superstar Finale","category":null,"contestant":{"voting_id":"02","name":"Srijana Basnet"},"vote_count":1,"created_on":"2020-01-31T08:48:53.058966+05:45"},{"idx":"cCMSayTGFQKjU4GaYqQZzB","contest":"Music Eve 2020","episode":"Music Eve 2020 IOE","category":null,"contestant":{"voting_id":"02","name":"abinash acharya"},"vote_count":1,"created_on":"2020-01-31T08:13:15.542163+05:45"},{"idx":"6wxZd7LZ28hssvegCo3rvh","contest":"Model Superstar","episode":"Model Superstar Finale","category":null,"contestant":{"voting_id":"12","name":"Rabin Ghising"},"vote_count":1,"created_on":"2020-01-31T08:12:56.314433+05:45"},{"idx":"whcBH9xyasdDqQgKEgcVbd","contest":"Model Superstar","episode":"Model Superstar Finale","category":null,"contestant":{"voting_id":"04","name":"Sabita Maharjan"},"vote_count":1,"created_on":"2020-01-31T07:41:36.687888+05:45"},{"idx":"q4hxUaQNaSs8GV8HLGZBA5","contest":"Music Eve 2020","episode":"Music Eve 2020 IOE","category":null,"contestant":{"voting_id":"07","name":"Chemical Latch"},"vote_count":1,"created_on":"2020-01-31T00:21:56.734058+05:45"}]}