{"total_pages":275,"total_records":13721,"next":"https://khalti.com/api/v2/vuservote/?page=241","previous":"https://khalti.com/api/v2/vuservote/?page=239","record_range":[11951,12000],"current_page":240,"records":[{"idx":"YRHfFqvpZe9Ekrt8BLNuMd","contest":"NEPALBHASA STAR MUSIC VIDEO AWARDS-2019","episode":null,"category":"THE RISING STAR SINGER","contestant":{"voting_id":"21A","name":"Macha Raja Maharjan"},"vote_count":1,"created_on":"2019-12-08T09:27:29.519349+05:45"},{"idx":"6YrGq4Qj5J9n4MXq9GUDME","contest":"NEPALBHASA STAR MUSIC VIDEO AWARDS-2019","episode":null,"category":"BEST VIDEO EDITOR","contestant":{"voting_id":"9H","name":"Rajan Shakya"},"vote_count":1,"created_on":"2019-12-08T08:15:44.948396+05:45"},{"idx":"6WYZAwyhed7tkZ5AQYpF9J","contest":"NEPALBHASA STAR MUSIC VIDEO AWARDS-2019","episode":null,"category":"THE RISING STAR SINGER","contestant":{"voting_id":"21B","name":"Ves Maharjan"},"vote_count":1,"created_on":"2019-12-08T04:11:16.878971+05:45"},{"idx":"cRuGJ82fd4hoPmUxeTZyxn","contest":"NEPALBHASA STAR MUSIC VIDEO AWARDS-2019","episode":null,"category":"THE RISING STAR SINGER","contestant":{"voting_id":"21E","name":"Purna Man Maharjan"},"vote_count":1,"created_on":"2019-12-07T22:00:26.301323+05:45"},{"idx":"jNUjxqCoMYKRoGrCofF9A8","contest":"NEPALBHASA STAR MUSIC VIDEO AWARDS-2019","episode":null,"category":"BEST DIRECTOR","contestant":{"voting_id":"20B","name":"Rajesh Man Singh"},"vote_count":1,"created_on":"2019-12-07T22:00:09.281037+05:45"},{"idx":"hHJ7BEcFTEG9nt8LCYivWM","contest":"NEPALBHASA STAR MUSIC VIDEO AWARDS-2019","episode":null,"category":"THE RISING STAR SINGER","contestant":{"voting_id":"21B","name":"Ves Maharjan"},"vote_count":1,"created_on":"2019-12-07T21:24:16.896730+05:45"},{"idx":"D43tt4kV7qhTqohyuRSL7f","contest":"Actions for SDGs 2019","episode":"Contest","category":null,"contestant":{"voting_id":"E","name":"Fursadma (SDG -17)"},"vote_count":1,"created_on":"2019-12-07T19:22:03.831810+05:45"},{"idx":"bSqh3r4E8aiP3LjsNf8FTo","contest":"Actions for SDGs 2019","episode":"Contest","category":null,"contestant":{"voting_id":"B","name":"Agri Nepal (SDG-5)"},"vote_count":1,"created_on":"2019-12-07T19:00:04.700679+05:45"},{"idx":"Laz7YDX3qht4XB4RRHXeHc","contest":"Actions for SDGs 2019","episode":"Contest","category":null,"contestant":{"voting_id":"E","name":"Fursadma (SDG -17)"},"vote_count":1,"created_on":"2019-12-07T18:58:48.620103+05:45"},{"idx":"feYtMwHcMCd3ELhwmW9gs7","contest":"Actions for SDGs 2019","episode":"Contest","category":null,"contestant":{"voting_id":"B","name":"Agri Nepal (SDG-5)"},"vote_count":1,"created_on":"2019-12-07T18:58:33.893216+05:45"},{"idx":"i3dewdCKVWpWuvHTZ5ozY7","contest":"Actions for SDGs 2019","episode":"Contest","category":null,"contestant":{"voting_id":"E","name":"Fursadma (SDG -17)"},"vote_count":1,"created_on":"2019-12-07T18:51:56.395535+05:45"},{"idx":"xX3bNj7fSTfqNDbCnhFuR3","contest":"Actions for SDGs 2019","episode":"Contest","category":null,"contestant":{"voting_id":"E","name":"Fursadma (SDG -17)"},"vote_count":1,"created_on":"2019-12-07T18:49:12.590373+05:45"},{"idx":"WWLFWNvpU5x6N5w6ZQ8noM","contest":"NEPALBHASA STAR MUSIC VIDEO AWARDS-2019","episode":null,"category":"BEST MODEL, FEMALE","contestant":{"voting_id":"13I","name":"Rajani Khadgi"},"vote_count":1,"created_on":"2019-12-07T18:49:02.790418+05:45"},{"idx":"TKdYZy9pmdD3D7cmFwWvLa","contest":"NEPALBHASA STAR MUSIC VIDEO AWARDS-2019","episode":null,"category":"BEST MODEL, FEMALE","contestant":{"voting_id":"13I","name":"Rajani Khadgi"},"vote_count":1,"created_on":"2019-12-07T18:45:02.416254+05:45"},{"idx":"Ect6sSRx6YFm4EvTbD2XQc","contest":"NEPALBHASA STAR MUSIC VIDEO AWARDS-2019","episode":null,"category":"BEST MODEL, MALE","contestant":{"voting_id":"11G","name":"Dhiren Shakya"},"vote_count":1,"created_on":"2019-12-07T18:43:52.364637+05:45"},{"idx":"obftrpmtASoGdQtCdPnVSL","contest":"Actions for SDGs 2019","episode":"Contest","category":null,"contestant":{"voting_id":"D","name":"Teaching Rights through Trainings (SDG- 16)"},"vote_count":1,"created_on":"2019-12-07T18:39:08.290502+05:45"},{"idx":"mKipNmhjF6RQNQf2zrNqwM","contest":"Actions for SDGs 2019","episode":"Contest","category":null,"contestant":{"voting_id":"E","name":"Fursadma (SDG -17)"},"vote_count":1,"created_on":"2019-12-07T18:37:48.211781+05:45"},{"idx":"QTSZvu9GjLsNUjoKqduyMe","contest":"Actions for SDGs 2019","episode":"Contest","category":null,"contestant":{"voting_id":"E","name":"Fursadma (SDG -17)"},"vote_count":1,"created_on":"2019-12-07T18:35:26.862418+05:45"},{"idx":"A5rpKorWiyAW8yjH4GLyMQ","contest":"Actions for SDGs 2019","episode":"Contest","category":null,"contestant":{"voting_id":"E","name":"Fursadma (SDG -17)"},"vote_count":1,"created_on":"2019-12-07T18:33:59.124108+05:45"},{"idx":"FFAkW6K7MqXr7S6twQjViA","contest":"Actions for SDGs 2019","episode":"Contest","category":null,"contestant":{"voting_id":"E","name":"Fursadma (SDG -17)"},"vote_count":1,"created_on":"2019-12-07T18:29:48.342227+05:45"},{"idx":"Vja8gvfFwp4UyGZR2z88g7","contest":"Actions for SDGs 2019","episode":"Contest","category":null,"contestant":{"voting_id":"E","name":"Fursadma (SDG -17)"},"vote_count":1,"created_on":"2019-12-07T18:29:24.380975+05:45"},{"idx":"hGvtXxkuh6WxMX2dHwgSXV","contest":"Actions for SDGs 2019","episode":"Contest","category":null,"contestant":{"voting_id":"B","name":"Agri Nepal (SDG-5)"},"vote_count":1,"created_on":"2019-12-07T18:28:56.591273+05:45"},{"idx":"TYhSq3DQMMjH4eTNVQsSFo","contest":"Actions for SDGs 2019","episode":"Contest","category":null,"contestant":{"voting_id":"E","name":"Fursadma (SDG -17)"},"vote_count":1,"created_on":"2019-12-07T18:28:17.951804+05:45"},{"idx":"tpjweQZohbUpxHARgZ2GxT","contest":"Actions for SDGs 2019","episode":"Contest","category":null,"contestant":{"voting_id":"E","name":"Fursadma (SDG -17)"},"vote_count":1,"created_on":"2019-12-07T18:26:29.834338+05:45"},{"idx":"b3TpbythWumgAuLUWudCEG","contest":"Actions for SDGs 2019","episode":"Contest","category":null,"contestant":{"voting_id":"E","name":"Fursadma (SDG -17)"},"vote_count":1,"created_on":"2019-12-07T18:25:59.558821+05:45"},{"idx":"muFab9Ltw2iVGdEWmxwicX","contest":"Actions for SDGs 2019","episode":"Contest","category":null,"contestant":{"voting_id":"A","name":"Book Sharing App (SDG-4)"},"vote_count":1,"created_on":"2019-12-07T18:25:44.684375+05:45"},{"idx":"KRCJsavWuPU3oX28gxVVW4","contest":"Actions for SDGs 2019","episode":"Contest","category":null,"contestant":{"voting_id":"B","name":"Agri Nepal (SDG-5)"},"vote_count":1,"created_on":"2019-12-07T18:24:24.911454+05:45"},{"idx":"zhsnWrCc2qFosToNT5juf2","contest":"Actions for SDGs 2019","episode":"Contest","category":null,"contestant":{"voting_id":"A","name":"Book Sharing App (SDG-4)"},"vote_count":1,"created_on":"2019-12-07T18:24:11.154198+05:45"},{"idx":"FnEAdmZZoZKmCvJoPFcgw4","contest":"Actions for SDGs 2019","episode":"Contest","category":null,"contestant":{"voting_id":"E","name":"Fursadma (SDG -17)"},"vote_count":1,"created_on":"2019-12-07T18:23:58.566384+05:45"},{"idx":"V4iXj5ivsGQgNBgEamfD3k","contest":"Actions for SDGs 2019","episode":"Contest","category":null,"contestant":{"voting_id":"A","name":"Book Sharing App (SDG-4)"},"vote_count":1,"created_on":"2019-12-07T18:22:37.909707+05:45"},{"idx":"hZsRWrE5aTNmDNDhe97nym","contest":"Actions for SDGs 2019","episode":"Contest","category":null,"contestant":{"voting_id":"A","name":"Book Sharing App (SDG-4)"},"vote_count":1,"created_on":"2019-12-07T18:22:35.859878+05:45"},{"idx":"XeDkFbXjwqdwrXnUFecrCA","contest":"Actions for SDGs 2019","episode":"Contest","category":null,"contestant":{"voting_id":"A","name":"Book Sharing App (SDG-4)"},"vote_count":1,"created_on":"2019-12-07T18:22:02.350445+05:45"},{"idx":"yEdzV6nfVBWsDUVYkTV6i4","contest":"Actions for SDGs 2019","episode":"Contest","category":null,"contestant":{"voting_id":"A","name":"Book Sharing App (SDG-4)"},"vote_count":1,"created_on":"2019-12-07T18:21:46.667434+05:45"},{"idx":"LNAGHG7498J3Qrpuq7pXuN","contest":"Actions for SDGs 2019","episode":"Contest","category":null,"contestant":{"voting_id":"D","name":"Teaching Rights through Trainings (SDG- 16)"},"vote_count":1,"created_on":"2019-12-07T18:21:35.568612+05:45"},{"idx":"bRtAnqJP2QXthy9mxWFX4X","contest":"Actions for SDGs 2019","episode":"Contest","category":null,"contestant":{"voting_id":"A","name":"Book Sharing App (SDG-4)"},"vote_count":1,"created_on":"2019-12-07T18:20:53.446562+05:45"},{"idx":"H3wtQprbaMM8US8h8W9s3n","contest":"Actions for SDGs 2019","episode":"Contest","category":null,"contestant":{"voting_id":"A","name":"Book Sharing App (SDG-4)"},"vote_count":1,"created_on":"2019-12-07T18:20:17.077133+05:45"},{"idx":"qV9ZEAJnGtJuiRoxTix9QM","contest":"Actions for SDGs 2019","episode":"Contest","category":null,"contestant":{"voting_id":"D","name":"Teaching Rights through Trainings (SDG- 16)"},"vote_count":1,"created_on":"2019-12-07T18:20:09.601119+05:45"},{"idx":"p6hp7Jj9ChthHdZ6ZTKc49","contest":"Actions for SDGs 2019","episode":"Contest","category":null,"contestant":{"voting_id":"A","name":"Book Sharing App (SDG-4)"},"vote_count":1,"created_on":"2019-12-07T18:20:08.664773+05:45"},{"idx":"FwAN8mrDv7T4nEovsKJBfF","contest":"Actions for SDGs 2019","episode":"Contest","category":null,"contestant":{"voting_id":"C","name":"Youth Hub Organic Farm (SDG 4)"},"vote_count":1,"created_on":"2019-12-07T18:19:34.594311+05:45"},{"idx":"TFVLzHzsibkCPfbzeivvpP","contest":"Actions for SDGs 2019","episode":"Contest","category":null,"contestant":{"voting_id":"A","name":"Book Sharing App (SDG-4)"},"vote_count":1,"created_on":"2019-12-07T18:19:18.880537+05:45"},{"idx":"5w7hBf8vqcbha8WXkA4jtf","contest":"Actions for SDGs 2019","episode":"Contest","category":null,"contestant":{"voting_id":"A","name":"Book Sharing App (SDG-4)"},"vote_count":1,"created_on":"2019-12-07T18:19:05.477352+05:45"},{"idx":"5Z5LwXoE5n43Cv4EQvDByH","contest":"Actions for SDGs 2019","episode":"Contest","category":null,"contestant":{"voting_id":"E","name":"Fursadma (SDG -17)"},"vote_count":1,"created_on":"2019-12-07T18:18:19.824817+05:45"},{"idx":"SXEMPPFuPnTMt56Lmn8Rtj","contest":"Actions for SDGs 2019","episode":"Contest","category":null,"contestant":{"voting_id":"D","name":"Teaching Rights through Trainings (SDG- 16)"},"vote_count":1,"created_on":"2019-12-07T18:18:13.383761+05:45"},{"idx":"wcqxM3zoWKGKb6pskMwWqd","contest":"Actions for SDGs 2019","episode":"Contest","category":null,"contestant":{"voting_id":"A","name":"Book Sharing App (SDG-4)"},"vote_count":1,"created_on":"2019-12-07T18:18:11.914992+05:45"},{"idx":"hnZpX6mJAdUaxUSEq5d5bH","contest":"Actions for SDGs 2019","episode":"Contest","category":null,"contestant":{"voting_id":"A","name":"Book Sharing App (SDG-4)"},"vote_count":1,"created_on":"2019-12-07T18:18:11.334683+05:45"},{"idx":"nXsFV4JthD4y8yDpSwNiXN","contest":"Actions for SDGs 2019","episode":"Contest","category":null,"contestant":{"voting_id":"B","name":"Agri Nepal (SDG-5)"},"vote_count":1,"created_on":"2019-12-07T18:17:49.356050+05:45"},{"idx":"JWg6wQWfrPLZvD7etAobYP","contest":"Actions for SDGs 2019","episode":"Contest","category":null,"contestant":{"voting_id":"D","name":"Teaching Rights through Trainings (SDG- 16)"},"vote_count":1,"created_on":"2019-12-07T18:17:40.669216+05:45"},{"idx":"nspZrpqjCChbs5EdusQrwN","contest":"Actions for SDGs 2019","episode":"Contest","category":null,"contestant":{"voting_id":"E","name":"Fursadma (SDG -17)"},"vote_count":1,"created_on":"2019-12-07T18:17:32.092394+05:45"},{"idx":"ANPhUUdvTQNDavxFPhMVRZ","contest":"Actions for SDGs 2019","episode":"Contest","category":null,"contestant":{"voting_id":"A","name":"Book Sharing App (SDG-4)"},"vote_count":1,"created_on":"2019-12-07T18:16:53.181904+05:45"},{"idx":"rA5kzEQG2nVsfdx2J6tnvm","contest":"Actions for SDGs 2019","episode":"Contest","category":null,"contestant":{"voting_id":"E","name":"Fursadma (SDG -17)"},"vote_count":1,"created_on":"2019-12-07T18:16:39.109764+05:45"}]}