{"total_pages":275,"total_records":13721,"next":"https://khalti.com/api/v2/vuservote/?page=242","previous":"https://khalti.com/api/v2/vuservote/?page=240","record_range":[12001,12050],"current_page":241,"records":[{"idx":"LQtU7UMvFwD63wrxHnVDFo","contest":"Actions for SDGs 2019","episode":"Contest","category":null,"contestant":{"voting_id":"A","name":"Book Sharing App (SDG-4)"},"vote_count":1,"created_on":"2019-12-07T18:16:16.485986+05:45"},{"idx":"4Y2HNHXDjewvtnqbBoWn8X","contest":"Actions for SDGs 2019","episode":"Contest","category":null,"contestant":{"voting_id":"A","name":"Book Sharing App (SDG-4)"},"vote_count":1,"created_on":"2019-12-07T18:16:11.788059+05:45"},{"idx":"2DQtBZj8StRVg44TA2BAWU","contest":"Actions for SDGs 2019","episode":"Contest","category":null,"contestant":{"voting_id":"A","name":"Book Sharing App (SDG-4)"},"vote_count":1,"created_on":"2019-12-07T18:15:26.589539+05:45"},{"idx":"ybQbifkzyzCiG4GqoJpXqG","contest":"Actions for SDGs 2019","episode":"Contest","category":null,"contestant":{"voting_id":"A","name":"Book Sharing App (SDG-4)"},"vote_count":1,"created_on":"2019-12-07T18:15:00.361736+05:45"},{"idx":"uBPndmrjxE6ra9u62JsfSW","contest":"Actions for SDGs 2019","episode":"Contest","category":null,"contestant":{"voting_id":"A","name":"Book Sharing App (SDG-4)"},"vote_count":1,"created_on":"2019-12-07T18:14:54.486237+05:45"},{"idx":"KFfiREyLKi4PwiHT8ggZgK","contest":"Actions for SDGs 2019","episode":"Contest","category":null,"contestant":{"voting_id":"D","name":"Teaching Rights through Trainings (SDG- 16)"},"vote_count":1,"created_on":"2019-12-07T18:14:20.998779+05:45"},{"idx":"UAq8cNw7YQ8DPweTVwB3Sf","contest":"Actions for SDGs 2019","episode":"Contest","category":null,"contestant":{"voting_id":"B","name":"Agri Nepal (SDG-5)"},"vote_count":1,"created_on":"2019-12-07T18:14:17.087349+05:45"},{"idx":"ZNKTB4UxN4mCVSiaJsefk4","contest":"Actions for SDGs 2019","episode":"Contest","category":null,"contestant":{"voting_id":"D","name":"Teaching Rights through Trainings (SDG- 16)"},"vote_count":1,"created_on":"2019-12-07T18:14:10.695830+05:45"},{"idx":"5yn8sT5dF2gRJbiDzeC4a4","contest":"Actions for SDGs 2019","episode":"Contest","category":null,"contestant":{"voting_id":"B","name":"Agri Nepal (SDG-5)"},"vote_count":1,"created_on":"2019-12-07T18:13:08.113518+05:45"},{"idx":"ytEjepCSvmPQPN8ExG3mr6","contest":"Actions for SDGs 2019","episode":"Contest","category":null,"contestant":{"voting_id":"A","name":"Book Sharing App (SDG-4)"},"vote_count":1,"created_on":"2019-12-07T18:12:43.480203+05:45"},{"idx":"dWkJbrY3E8JA9YG2UvuxEd","contest":"Actions for SDGs 2019","episode":"Contest","category":null,"contestant":{"voting_id":"A","name":"Book Sharing App (SDG-4)"},"vote_count":1,"created_on":"2019-12-07T18:12:38.730339+05:45"},{"idx":"nUpeEpihP6v8Sigm8FUVMM","contest":"Actions for SDGs 2019","episode":"Contest","category":null,"contestant":{"voting_id":"B","name":"Agri Nepal (SDG-5)"},"vote_count":1,"created_on":"2019-12-07T18:12:20.467551+05:45"},{"idx":"XccJDhyfQTgyATqcGLx3L3","contest":"Actions for SDGs 2019","episode":"Contest","category":null,"contestant":{"voting_id":"E","name":"Fursadma (SDG -17)"},"vote_count":1,"created_on":"2019-12-07T18:12:19.784238+05:45"},{"idx":"cfHhtZGe2dM2yCFex7hZDD","contest":"Actions for SDGs 2019","episode":"Contest","category":null,"contestant":{"voting_id":"E","name":"Fursadma (SDG -17)"},"vote_count":1,"created_on":"2019-12-07T18:12:09.392115+05:45"},{"idx":"oN8sRWVyXfnjNgKjhKNa3B","contest":"Actions for SDGs 2019","episode":"Contest","category":null,"contestant":{"voting_id":"A","name":"Book Sharing App (SDG-4)"},"vote_count":1,"created_on":"2019-12-07T18:12:08.894210+05:45"},{"idx":"SEPuaEE82uLAjyrebPUrPU","contest":"Actions for SDGs 2019","episode":"Contest","category":null,"contestant":{"voting_id":"A","name":"Book Sharing App (SDG-4)"},"vote_count":1,"created_on":"2019-12-07T18:12:03.907491+05:45"},{"idx":"bgdvtxLJy4a56EwhpWcEuA","contest":"Actions for SDGs 2019","episode":"Contest","category":null,"contestant":{"voting_id":"E","name":"Fursadma (SDG -17)"},"vote_count":1,"created_on":"2019-12-07T18:11:38.356673+05:45"},{"idx":"AYcmBfcuaA5f62vk6Zx5ET","contest":"Actions for SDGs 2019","episode":"Contest","category":null,"contestant":{"voting_id":"A","name":"Book Sharing App (SDG-4)"},"vote_count":1,"created_on":"2019-12-07T18:11:19.907994+05:45"},{"idx":"gYgxzEbaijB8FEeMdXTNVK","contest":"Actions for SDGs 2019","episode":"Contest","category":null,"contestant":{"voting_id":"E","name":"Fursadma (SDG -17)"},"vote_count":1,"created_on":"2019-12-07T18:11:19.244857+05:45"},{"idx":"KkSi8ZsVcFGGsqZvcH7rsF","contest":"Actions for SDGs 2019","episode":"Contest","category":null,"contestant":{"voting_id":"A","name":"Book Sharing App (SDG-4)"},"vote_count":1,"created_on":"2019-12-07T18:10:43.579515+05:45"},{"idx":"Wkw95EAjuas4jMyP3CfHu3","contest":"Actions for SDGs 2019","episode":"Contest","category":null,"contestant":{"voting_id":"E","name":"Fursadma (SDG -17)"},"vote_count":1,"created_on":"2019-12-07T18:10:30.941833+05:45"},{"idx":"GpETQ9cWXiHwo8VBVZpLdc","contest":"Actions for SDGs 2019","episode":"Contest","category":null,"contestant":{"voting_id":"A","name":"Book Sharing App (SDG-4)"},"vote_count":1,"created_on":"2019-12-07T18:10:25.788426+05:45"},{"idx":"aqkyFPNdKiiT3bdEWsLtnB","contest":"Actions for SDGs 2019","episode":"Contest","category":null,"contestant":{"voting_id":"A","name":"Book Sharing App (SDG-4)"},"vote_count":1,"created_on":"2019-12-07T18:10:23.779161+05:45"},{"idx":"RfTggGBvHGb3PYrjqbvmzb","contest":"Actions for SDGs 2019","episode":"Contest","category":null,"contestant":{"voting_id":"A","name":"Book Sharing App (SDG-4)"},"vote_count":1,"created_on":"2019-12-07T18:09:37.375561+05:45"},{"idx":"tD5GtjkRqFMHVZ42ptuWdN","contest":"Actions for SDGs 2019","episode":"Contest","category":null,"contestant":{"voting_id":"A","name":"Book Sharing App (SDG-4)"},"vote_count":1,"created_on":"2019-12-07T18:09:34.926562+05:45"},{"idx":"5zyJoH9CkYigf8zxMuLvm3","contest":"Actions for SDGs 2019","episode":"Contest","category":null,"contestant":{"voting_id":"A","name":"Book Sharing App (SDG-4)"},"vote_count":1,"created_on":"2019-12-07T18:09:24.548225+05:45"},{"idx":"EjEeeBDUQDqDrCPvxSemDo","contest":"Actions for SDGs 2019","episode":"Contest","category":null,"contestant":{"voting_id":"A","name":"Book Sharing App (SDG-4)"},"vote_count":1,"created_on":"2019-12-07T18:08:02.952802+05:45"},{"idx":"Vid5b6ci2pcnugDmPrEPS5","contest":"Actions for SDGs 2019","episode":"Contest","category":null,"contestant":{"voting_id":"E","name":"Fursadma (SDG -17)"},"vote_count":1,"created_on":"2019-12-07T18:07:58.175111+05:45"},{"idx":"6MLxS8YKUjwhnoagnC4sG9","contest":"Actions for SDGs 2019","episode":"Contest","category":null,"contestant":{"voting_id":"E","name":"Fursadma (SDG -17)"},"vote_count":1,"created_on":"2019-12-07T18:07:25.468933+05:45"},{"idx":"dSMETbwHwahqBXRrTygU9i","contest":"Actions for SDGs 2019","episode":"Contest","category":null,"contestant":{"voting_id":"C","name":"Youth Hub Organic Farm (SDG 4)"},"vote_count":1,"created_on":"2019-12-07T18:06:47.810052+05:45"},{"idx":"3D7SrLQ7XU7ZPGGeJ665tH","contest":"Actions for SDGs 2019","episode":"Contest","category":null,"contestant":{"voting_id":"A","name":"Book Sharing App (SDG-4)"},"vote_count":1,"created_on":"2019-12-07T18:06:46.470309+05:45"},{"idx":"aFKYGcsizMBFtJTqeMEKqF","contest":"Actions for SDGs 2019","episode":"Contest","category":null,"contestant":{"voting_id":"E","name":"Fursadma (SDG -17)"},"vote_count":1,"created_on":"2019-12-07T18:05:59.753087+05:45"},{"idx":"W8AbAJYS7q6bB5gwXzzVv5","contest":"Actions for SDGs 2019","episode":"Contest","category":null,"contestant":{"voting_id":"A","name":"Book Sharing App (SDG-4)"},"vote_count":1,"created_on":"2019-12-07T18:05:22.517469+05:45"},{"idx":"W7Ua8SbdBWHVMhW2bLp3Hm","contest":"Actions for SDGs 2019","episode":"Contest","category":null,"contestant":{"voting_id":"B","name":"Agri Nepal (SDG-5)"},"vote_count":1,"created_on":"2019-12-07T18:04:15.261863+05:45"},{"idx":"PhE2MUjvvzVm4SctwAGa5S","contest":"Actions for SDGs 2019","episode":"Contest","category":null,"contestant":{"voting_id":"A","name":"Book Sharing App (SDG-4)"},"vote_count":1,"created_on":"2019-12-07T18:04:13.802627+05:45"},{"idx":"tpRRms49breWiTGAbpNvbm","contest":"Actions for SDGs 2019","episode":"Contest","category":null,"contestant":{"voting_id":"A","name":"Book Sharing App (SDG-4)"},"vote_count":1,"created_on":"2019-12-07T18:03:08.122388+05:45"},{"idx":"dgiR3bdGxki3GkDLtnGeLj","contest":"Actions for SDGs 2019","episode":"Contest","category":null,"contestant":{"voting_id":"A","name":"Book Sharing App (SDG-4)"},"vote_count":1,"created_on":"2019-12-07T18:02:26.847802+05:45"},{"idx":"2zHAofcWvmZG4M5QghUSPY","contest":"Actions for SDGs 2019","episode":"Contest","category":null,"contestant":{"voting_id":"A","name":"Book Sharing App (SDG-4)"},"vote_count":1,"created_on":"2019-12-07T18:02:18.310472+05:45"},{"idx":"vphbJFDsAq6FcZnBmGcx6h","contest":"Actions for SDGs 2019","episode":"Contest","category":null,"contestant":{"voting_id":"A","name":"Book Sharing App (SDG-4)"},"vote_count":1,"created_on":"2019-12-07T18:02:07.035651+05:45"},{"idx":"VsUaYZNRpVPMHNrSDYJsr7","contest":"Actions for SDGs 2019","episode":"Contest","category":null,"contestant":{"voting_id":"A","name":"Book Sharing App (SDG-4)"},"vote_count":1,"created_on":"2019-12-07T18:01:48.021616+05:45"},{"idx":"b6xZKC9PwoYMXXdWbp48ZW","contest":"Actions for SDGs 2019","episode":"Contest","category":null,"contestant":{"voting_id":"A","name":"Book Sharing App (SDG-4)"},"vote_count":1,"created_on":"2019-12-07T18:01:29.897507+05:45"},{"idx":"4VjAi8MjPWmKBjJq5h3Pfn","contest":"Actions for SDGs 2019","episode":"Contest","category":null,"contestant":{"voting_id":"C","name":"Youth Hub Organic Farm (SDG 4)"},"vote_count":1,"created_on":"2019-12-07T18:01:14.706041+05:45"},{"idx":"XUiDAAU9NC2xjTPPbJXfg2","contest":"Actions for SDGs 2019","episode":"Contest","category":null,"contestant":{"voting_id":"A","name":"Book Sharing App (SDG-4)"},"vote_count":1,"created_on":"2019-12-07T18:00:55.480173+05:45"},{"idx":"kZAMJ2kd5QsDSmoSkHb9nc","contest":"Actions for SDGs 2019","episode":"Contest","category":null,"contestant":{"voting_id":"A","name":"Book Sharing App (SDG-4)"},"vote_count":1,"created_on":"2019-12-07T17:59:51.593085+05:45"},{"idx":"bwAUQhxKFrF8CEceF5NKcR","contest":"Actions for SDGs 2019","episode":"Contest","category":null,"contestant":{"voting_id":"A","name":"Book Sharing App (SDG-4)"},"vote_count":1,"created_on":"2019-12-07T17:59:47.047137+05:45"},{"idx":"PFeVqNyvWKVx5ukXZCTfR7","contest":"Actions for SDGs 2019","episode":"Contest","category":null,"contestant":{"voting_id":"A","name":"Book Sharing App (SDG-4)"},"vote_count":1,"created_on":"2019-12-07T17:59:43.990601+05:45"},{"idx":"uHGu2nsqz2tWvx7j6C5J9T","contest":"Actions for SDGs 2019","episode":"Contest","category":null,"contestant":{"voting_id":"D","name":"Teaching Rights through Trainings (SDG- 16)"},"vote_count":1,"created_on":"2019-12-07T17:59:07.727475+05:45"},{"idx":"dsNSr8yrhXbmtszvDskUvM","contest":"Actions for SDGs 2019","episode":"Contest","category":null,"contestant":{"voting_id":"A","name":"Book Sharing App (SDG-4)"},"vote_count":1,"created_on":"2019-12-07T17:59:04.516237+05:45"},{"idx":"WcKuUxbtoJFshC6UziCkWg","contest":"Actions for SDGs 2019","episode":"Contest","category":null,"contestant":{"voting_id":"A","name":"Book Sharing App (SDG-4)"},"vote_count":1,"created_on":"2019-12-07T17:58:49.107531+05:45"},{"idx":"dQuEK53GEqTWZd5snxtoJS","contest":"Actions for SDGs 2019","episode":"Contest","category":null,"contestant":{"voting_id":"A","name":"Book Sharing App (SDG-4)"},"vote_count":1,"created_on":"2019-12-07T17:58:30.502891+05:45"}]}