{"total_pages":275,"total_records":13721,"next":"https://khalti.com/api/v2/vuservote/?page=243","previous":"https://khalti.com/api/v2/vuservote/?page=241","record_range":[12051,12100],"current_page":242,"records":[{"idx":"FdeQRxPnRrSeXmG2wqnVjU","contest":"Actions for SDGs 2019","episode":"Contest","category":null,"contestant":{"voting_id":"A","name":"Book Sharing App (SDG-4)"},"vote_count":1,"created_on":"2019-12-07T17:58:28.240807+05:45"},{"idx":"f29uTbnpF7tvtpBFiDWcC3","contest":"Actions for SDGs 2019","episode":"Contest","category":null,"contestant":{"voting_id":"D","name":"Teaching Rights through Trainings (SDG- 16)"},"vote_count":1,"created_on":"2019-12-07T17:58:04.635143+05:45"},{"idx":"2RCApEWJE4LH6bgpTowkqc","contest":"Actions for SDGs 2019","episode":"Contest","category":null,"contestant":{"voting_id":"A","name":"Book Sharing App (SDG-4)"},"vote_count":1,"created_on":"2019-12-07T17:57:44.899971+05:45"},{"idx":"4bDv8yXFWJ5fLKpcG4RSmW","contest":"Actions for SDGs 2019","episode":"Contest","category":null,"contestant":{"voting_id":"A","name":"Book Sharing App (SDG-4)"},"vote_count":1,"created_on":"2019-12-07T17:55:41.413223+05:45"},{"idx":"GGjZvguXLA6RRE7VVoebkB","contest":"Actions for SDGs 2019","episode":"Contest","category":null,"contestant":{"voting_id":"A","name":"Book Sharing App (SDG-4)"},"vote_count":1,"created_on":"2019-12-07T17:54:07.433791+05:45"},{"idx":"Sv6zAo8amxszKRYeoK2fkH","contest":"Actions for SDGs 2019","episode":"Contest","category":null,"contestant":{"voting_id":"A","name":"Book Sharing App (SDG-4)"},"vote_count":1,"created_on":"2019-12-07T17:53:57.357944+05:45"},{"idx":"uN5a33eiB9BBTH3ZBdes4X","contest":"Actions for SDGs 2019","episode":"Contest","category":null,"contestant":{"voting_id":"A","name":"Book Sharing App (SDG-4)"},"vote_count":1,"created_on":"2019-12-07T17:51:26.163175+05:45"},{"idx":"PpNfvZjimRpqcjEhSV9AkJ","contest":"Actions for SDGs 2019","episode":"Contest","category":null,"contestant":{"voting_id":"A","name":"Book Sharing App (SDG-4)"},"vote_count":1,"created_on":"2019-12-07T17:51:16.670869+05:45"},{"idx":"pMrvdeVo795rzVFmggKQGZ","contest":"Actions for SDGs 2019","episode":"Contest","category":null,"contestant":{"voting_id":"A","name":"Book Sharing App (SDG-4)"},"vote_count":1,"created_on":"2019-12-07T17:46:25.122370+05:45"},{"idx":"x3JDiT4h8ib4sCjRGwvDSn","contest":"Actions for SDGs 2019","episode":"Contest","category":null,"contestant":{"voting_id":"A","name":"Book Sharing App (SDG-4)"},"vote_count":1,"created_on":"2019-12-07T17:45:03.803263+05:45"},{"idx":"oA6s8jFgzy8b3eXoxVKFEb","contest":"Actions for SDGs 2019","episode":"Contest","category":null,"contestant":{"voting_id":"A","name":"Book Sharing App (SDG-4)"},"vote_count":1,"created_on":"2019-12-07T17:43:31.673293+05:45"},{"idx":"Ccm8ii2K2ShpvapWWcH4Nh","contest":"Actions for SDGs 2019","episode":"Contest","category":null,"contestant":{"voting_id":"A","name":"Book Sharing App (SDG-4)"},"vote_count":1,"created_on":"2019-12-07T17:37:54.892832+05:45"},{"idx":"LkHXWXfeUdpGvne9wdtvG5","contest":"NEPALBHASA STAR MUSIC VIDEO AWARDS-2019","episode":null,"category":"THE RISING STAR SINGER","contestant":{"voting_id":"21A","name":"Macha Raja Maharjan"},"vote_count":1,"created_on":"2019-12-07T17:14:49.123936+05:45"},{"idx":"FdSTQU238GyWCPDgah7J5h","contest":"Actions for SDGs 2019","episode":"Contest","category":null,"contestant":{"voting_id":"B","name":"Agri Nepal (SDG-5)"},"vote_count":1,"created_on":"2019-12-07T17:09:59.094157+05:45"},{"idx":"uURfoG5woiNt6bhKxALmQY","contest":"Actions for SDGs 2019","episode":"Contest","category":null,"contestant":{"voting_id":"E","name":"Fursadma (SDG -17)"},"vote_count":1,"created_on":"2019-12-07T17:07:02.871666+05:45"},{"idx":"dnnrcTGNFKqET9pJMWAdHB","contest":"Actions for SDGs 2019","episode":"Contest","category":null,"contestant":{"voting_id":"A","name":"Book Sharing App (SDG-4)"},"vote_count":1,"created_on":"2019-12-07T17:04:27.701785+05:45"},{"idx":"i7yQwxhaJFVivNFZQGVADB","contest":"Actions for SDGs 2019","episode":"Contest","category":null,"contestant":{"voting_id":"A","name":"Book Sharing App (SDG-4)"},"vote_count":1,"created_on":"2019-12-07T17:04:25.990289+05:45"},{"idx":"gNcX5gFRPzBMyFsnbAjBRm","contest":"Actions for SDGs 2019","episode":"Contest","category":null,"contestant":{"voting_id":"E","name":"Fursadma (SDG -17)"},"vote_count":1,"created_on":"2019-12-07T17:01:12.950066+05:45"},{"idx":"wQRy6dvTdKu4tGf8VTCNgG","contest":"Actions for SDGs 2019","episode":"Contest","category":null,"contestant":{"voting_id":"E","name":"Fursadma (SDG -17)"},"vote_count":1,"created_on":"2019-12-07T16:59:11.577260+05:45"},{"idx":"iNQk9zrB8QrX7bxFqwCFHF","contest":"Actions for SDGs 2019","episode":"Contest","category":null,"contestant":{"voting_id":"C","name":"Youth Hub Organic Farm (SDG 4)"},"vote_count":1,"created_on":"2019-12-07T16:23:05.955683+05:45"},{"idx":"oiH5SfRMjbw8QpxY2kuvAa","contest":"Actions for SDGs 2019","episode":"Contest","category":null,"contestant":{"voting_id":"A","name":"Book Sharing App (SDG-4)"},"vote_count":1,"created_on":"2019-12-07T15:21:09.338781+05:45"},{"idx":"NESeXJU7rrEydJ8qQaAScm","contest":"Actions for SDGs 2019","episode":"Contest","category":null,"contestant":{"voting_id":"B","name":"Agri Nepal (SDG-5)"},"vote_count":1,"created_on":"2019-12-07T15:04:58.477051+05:45"},{"idx":"EYyBHJVg8xZCymhJLxVCJE","contest":"Actions for SDGs 2019","episode":"Contest","category":null,"contestant":{"voting_id":"A","name":"Book Sharing App (SDG-4)"},"vote_count":1,"created_on":"2019-12-07T14:54:28.338421+05:45"},{"idx":"zZNwFEnK7qLSt5wmeNoQPm","contest":"NEPALBHASA STAR MUSIC VIDEO AWARDS-2019","episode":null,"category":"THE RISING STAR SINGER","contestant":{"voting_id":"21E","name":"Purna Man Maharjan"},"vote_count":1,"created_on":"2019-12-07T14:33:45.775913+05:45"},{"idx":"tJ7R8ytF2qphmyWwKDT3mf","contest":"NEPALBHASA STAR MUSIC VIDEO AWARDS-2019","episode":null,"category":"BEST Singer,FEMALE","contestant":{"voting_id":"17C","name":"Pooja Sunuwar"},"vote_count":1,"created_on":"2019-12-07T13:45:48.884696+05:45"},{"idx":"AaZqZv9YkXdXs7BCEtysih","contest":"Actions for SDGs 2019","episode":"Contest","category":null,"contestant":{"voting_id":"C","name":"Youth Hub Organic Farm (SDG 4)"},"vote_count":1,"created_on":"2019-12-07T13:43:50.383904+05:45"},{"idx":"2bcBFmv9Ro67pBhAABukkE","contest":"NEPALBHASA STAR MUSIC VIDEO AWARDS-2019","episode":null,"category":"BEST DEBUT SINGER, MALE","contestant":{"voting_id":"16C","name":"Rajendra Shakya"},"vote_count":1,"created_on":"2019-12-07T13:08:03.264424+05:45"},{"idx":"ULYogG7WN3z2f8NvjogCZf","contest":"Actions for SDGs 2019","episode":"Contest","category":null,"contestant":{"voting_id":"B","name":"Agri Nepal (SDG-5)"},"vote_count":1,"created_on":"2019-12-07T13:03:58.688799+05:45"},{"idx":"rYSDTSvyVVZP4QQ7uJa6TF","contest":"Actions for SDGs 2019","episode":"Contest","category":null,"contestant":{"voting_id":"A","name":"Book Sharing App (SDG-4)"},"vote_count":1,"created_on":"2019-12-07T12:50:23.009079+05:45"},{"idx":"Z9oZYzKGRVPvcsNxHwvBHB","contest":"NEPALBHASA STAR MUSIC VIDEO AWARDS-2019","episode":null,"category":"BEST LYRICIST","contestant":{"voting_id":"4E","name":"Dr. Chandra Man Bajracharya"},"vote_count":1,"created_on":"2019-12-07T12:48:10.759570+05:45"},{"idx":"nufEjEdq3ZxYV9FpLWRtk9","contest":"NEPALBHASA STAR MUSIC VIDEO AWARDS-2019","episode":null,"category":"BEST DIRECTOR","contestant":{"voting_id":"20B","name":"Rajesh Man Singh"},"vote_count":1,"created_on":"2019-12-07T12:47:08.997094+05:45"},{"idx":"QpzUmDCQp7gYxNma93tnP8","contest":"NEPALBHASA STAR MUSIC VIDEO AWARDS-2019","episode":null,"category":"THE RISING STAR SINGER","contestant":{"voting_id":"21A","name":"Macha Raja Maharjan"},"vote_count":1,"created_on":"2019-12-07T12:46:44.701517+05:45"},{"idx":"nY7VeHTzC22VVi7ytQY6TT","contest":"Actions for SDGs 2019","episode":"Contest","category":null,"contestant":{"voting_id":"A","name":"Book Sharing App (SDG-4)"},"vote_count":1,"created_on":"2019-12-07T12:45:20.156168+05:45"},{"idx":"34xBhxnnGmFTJGDVgsLZQC","contest":"NEPALBHASA STAR MUSIC VIDEO AWARDS-2019","episode":null,"category":"THE RISING STAR SINGER","contestant":{"voting_id":"21A","name":"Macha Raja Maharjan"},"vote_count":1,"created_on":"2019-12-07T12:08:00.444400+05:45"},{"idx":"wMh38VSdaPr7q4k54gwahX","contest":"Actions for SDGs 2019","episode":"Contest","category":null,"contestant":{"voting_id":"B","name":"Agri Nepal (SDG-5)"},"vote_count":1,"created_on":"2019-12-07T12:07:01.439520+05:45"},{"idx":"kgmUzCe2UPhsDsz4HMU7wT","contest":"NEPALBHASA STAR MUSIC VIDEO AWARDS-2019","episode":null,"category":"BEST DEBUT MODEL, FEMALE","contestant":{"voting_id":"14H","name":"Sana Shakya"},"vote_count":1,"created_on":"2019-12-07T11:50:24.759833+05:45"},{"idx":"Nh3AsYrwkNbe4ue8jg67Ed","contest":"NEPALBHASA STAR MUSIC VIDEO AWARDS-2019","episode":null,"category":"BEST DIRECTOR","contestant":{"voting_id":"20I","name":"Amrit Man Maharjan"},"vote_count":1,"created_on":"2019-12-07T11:24:26.445002+05:45"},{"idx":"3ukuPSqyGGjs4sS5tkhC93","contest":"NEPALBHASA STAR MUSIC VIDEO AWARDS-2019","episode":null,"category":"BEST DEBUT MODEL, FEMALE","contestant":{"voting_id":"14E","name":"Karoona Shrestha"},"vote_count":1,"created_on":"2019-12-07T09:06:09.691571+05:45"},{"idx":"gUbTzPi3CyNwp4SGDgSTgR","contest":"NEPALBHASA STAR MUSIC VIDEO AWARDS-2019","episode":null,"category":"BEST DEBUT MODEL, MALE","contestant":{"voting_id":"12A","name":"Rajesh Nakarmi"},"vote_count":1,"created_on":"2019-12-07T09:00:14.372671+05:45"},{"idx":"fYkGeQFmrJBgk5ygN7tvqb","contest":"NEPALBHASA STAR MUSIC VIDEO AWARDS-2019","episode":null,"category":"BEST SINGER, MALE","contestant":{"voting_id":"15H","name":"Krishna Bhakta Maharjan"},"vote_count":1,"created_on":"2019-12-07T08:24:20.554435+05:45"},{"idx":"KhVGhRLcFrghnyFEEDoJ8d","contest":"NEPALBHASA STAR MUSIC VIDEO AWARDS-2019","episode":null,"category":"BEST MODEL, FEMALE","contestant":{"voting_id":"13D","name":"Shova Maharjan"},"vote_count":1,"created_on":"2019-12-07T07:53:04.417607+05:45"},{"idx":"9je4gvsfST4aV79MoeobJa","contest":"NEPALBHASA STAR MUSIC VIDEO AWARDS-2019","episode":null,"category":"BEST Singer,FEMALE","contestant":{"voting_id":"17B","name":"Ratna Shova Maharjan"},"vote_count":1,"created_on":"2019-12-07T02:49:22.514534+05:45"},{"idx":"DCT9PkibMYMjtmPvURnS59","contest":"NEPALBHASA STAR MUSIC VIDEO AWARDS-2019","episode":null,"category":"BEST DEBUT MODEL, MALE","contestant":{"voting_id":"12C","name":"Rahul Prajapati"},"vote_count":1,"created_on":"2019-12-06T23:43:01.792079+05:45"},{"idx":"TRQwLYs7sKyEwhtwwZmzAC","contest":"NEPALBHASA STAR MUSIC VIDEO AWARDS-2019","episode":null,"category":"BEST DEBUT MODEL, MALE","contestant":{"voting_id":"12A","name":"Rajesh Nakarmi"},"vote_count":1,"created_on":"2019-12-06T23:07:01.136969+05:45"},{"idx":"fkj3q2u87r9sQqMcKpBNxP","contest":"NEPALBHASA STAR MUSIC VIDEO AWARDS-2019","episode":null,"category":"BEST DEBUT SINGER, MALE","contestant":{"voting_id":"16E","name":"Bhuwan Maharjan"},"vote_count":1,"created_on":"2019-12-06T22:04:50.122733+05:45"},{"idx":"vak7aZCYPqVJcAHhtV9Jbh","contest":"NEPALBHASA STAR MUSIC VIDEO AWARDS-2019","episode":null,"category":"BEST MODEL, FEMALE","contestant":{"voting_id":"13D","name":"Shova Maharjan"},"vote_count":1,"created_on":"2019-12-06T22:04:35.172863+05:45"},{"idx":"zGE3ZwUB6MZAWwYNyc6MmA","contest":"NEPALBHASA STAR MUSIC VIDEO AWARDS-2019","episode":null,"category":"BEST DIRECTOR","contestant":{"voting_id":"20F","name":"Sunita Rajbhandari"},"vote_count":1,"created_on":"2019-12-06T21:59:05.866135+05:45"},{"idx":"pZTSzDNjgwpZ6iDRYcca25","contest":"NEPALBHASA STAR MUSIC VIDEO AWARDS-2019","episode":null,"category":"BEST DEBUT MODEL, FEMALE","contestant":{"voting_id":"14A","name":"Ruksana Maharjan"},"vote_count":1,"created_on":"2019-12-06T21:55:44.843706+05:45"},{"idx":"AYAMynsZFthX6qkCwStxmH","contest":"NEPALBHASA STAR MUSIC VIDEO AWARDS-2019","episode":null,"category":"BEST MODEL, FEMALE","contestant":{"voting_id":"13D","name":"Shova Maharjan"},"vote_count":1,"created_on":"2019-12-06T21:51:56.965310+05:45"},{"idx":"gvY3p5xqKENpKgZPTBhDtm","contest":"NEPALBHASA STAR MUSIC VIDEO AWARDS-2019","episode":null,"category":"BEST SINGER, MALE","contestant":{"voting_id":"15B","name":"Ashok Maharjan"},"vote_count":1,"created_on":"2019-12-06T17:59:55.125104+05:45"}]}