{"total_pages":275,"total_records":13721,"next":"https://khalti.com/api/v2/vuservote/?page=244","previous":"https://khalti.com/api/v2/vuservote/?page=242","record_range":[12101,12150],"current_page":243,"records":[{"idx":"u7EHPNA9ApGWcWdaNndLSm","contest":"NEPALBHASA STAR MUSIC VIDEO AWARDS-2019","episode":null,"category":"THE RISING STAR SINGER","contestant":{"voting_id":"21A","name":"Macha Raja Maharjan"},"vote_count":1,"created_on":"2019-12-06T17:22:36.917273+05:45"},{"idx":"LGPE37rsXPCNv3dkQRGw23","contest":"NEPALBHASA STAR MUSIC VIDEO AWARDS-2019","episode":null,"category":"BEST DEBUT SINGER, MALE","contestant":{"voting_id":"16A","name":"Tirthaman Maharjan"},"vote_count":1,"created_on":"2019-12-06T17:17:16.143224+05:45"},{"idx":"afovJYp2BegeudQg67NxvN","contest":"NEPALBHASA STAR MUSIC VIDEO AWARDS-2019","episode":null,"category":"THE RISING STAR SINGER","contestant":{"voting_id":"21A","name":"Macha Raja Maharjan"},"vote_count":1,"created_on":"2019-12-06T17:17:00.079768+05:45"},{"idx":"X2rJrGCExuTss2kXjXgezL","contest":"NEPALBHASA STAR MUSIC VIDEO AWARDS-2019","episode":null,"category":"BEST MODEL, FEMALE","contestant":{"voting_id":"13F","name":"Aaradhya Laxmi Khadgi"},"vote_count":1,"created_on":"2019-12-06T17:15:24.192219+05:45"},{"idx":"Mo5mRH2VGxjjsSvBNAdBRk","contest":"NEPALBHASA STAR MUSIC VIDEO AWARDS-2019","episode":null,"category":"BEST DEBUT SINGER, FEMALE","contestant":{"voting_id":"18J","name":"BabitaSitaula"},"vote_count":1,"created_on":"2019-12-06T17:14:22.863625+05:45"},{"idx":"LpWcQBGJPbScw4JZiYvH7Y","contest":"NEPALBHASA STAR MUSIC VIDEO AWARDS-2019","episode":null,"category":"BEST DIRECTOR","contestant":{"voting_id":"20F","name":"Sunita Rajbhandari"},"vote_count":1,"created_on":"2019-12-06T17:13:31.644292+05:45"},{"idx":"nGLEwxjsx4J582dE6cbNQ6","contest":"NEPALBHASA STAR MUSIC VIDEO AWARDS-2019","episode":null,"category":"THE RISING STAR SINGER","contestant":{"voting_id":"21E","name":"Purna Man Maharjan"},"vote_count":1,"created_on":"2019-12-06T17:10:45.558358+05:45"},{"idx":"ZEV5DvD83ot3HAsSkBa5JL","contest":"NEPALBHASA STAR MUSIC VIDEO AWARDS-2019","episode":null,"category":"BEST DEBUT SINGER, MALE","contestant":{"voting_id":"16J","name":"Shailendra Tuladhar"},"vote_count":1,"created_on":"2019-12-06T17:10:04.880270+05:45"},{"idx":"X7bvQWMVr6f3DpWLyLazgc","contest":"NEPALBHASA STAR MUSIC VIDEO AWARDS-2019","episode":null,"category":"BEST DEBUT SINGER, FEMALE","contestant":{"voting_id":"18J","name":"BabitaSitaula"},"vote_count":1,"created_on":"2019-12-06T17:09:19.745769+05:45"},{"idx":"SoFC7ggcCKuE4SUUXL9yjZ","contest":"8th Music Khabar Music Awards 2019","episode":null,"category":"उत्कृष्ट लोकगीत","contestant":{"voting_id":"MKA 048","name":" भिषण मुकारुङ खोर्सानी डल्ले "},"vote_count":1,"created_on":"2019-12-06T15:56:26.940157+05:45"},{"idx":"6sXkXvnwtE2MXqEVrLf3Lo","contest":"8th Music Khabar Music Awards 2019","episode":null,"category":" उत्कृष्ट चलचित्र पाश्र्व गायिका","contestant":{"voting_id":"MKA 026","name":"अन्जु पन्त तिम्रो लागि (ब्ल्याक)"},"vote_count":1,"created_on":"2019-12-06T14:55:42.626568+05:45"},{"idx":"x3XTojKcMV6wp3aZbX7qQH","contest":"8th Music Khabar Music Awards 2019","episode":null,"category":"उत्कृष्ट गजल","contestant":{"voting_id":"MKA 116","name":"कुनै दिन त भेट होला डा.कृष्णहरि बराल "},"vote_count":1,"created_on":"2019-12-06T14:28:46.457972+05:45"},{"idx":"DXAL2LgwHz9ZGXgCC7XYMY","contest":"NEPALBHASA STAR MUSIC VIDEO AWARDS-2019","episode":null,"category":"BEST Singer,FEMALE","contestant":{"voting_id":"17G","name":"Saraswati Manandhar"},"vote_count":1,"created_on":"2019-12-06T12:54:03.652051+05:45"},{"idx":"eMYfXNsjxeHE7V9L5N4XgX","contest":"NEPALBHASA STAR MUSIC VIDEO AWARDS-2019","episode":null,"category":"BEST MODEL, FEMALE","contestant":{"voting_id":"13I","name":"Rajani Khadgi"},"vote_count":1,"created_on":"2019-12-06T11:13:34.310368+05:45"},{"idx":"7X4aUzWM69ankeAx7pE2jJ","contest":"NEPALBHASA STAR MUSIC VIDEO AWARDS-2019","episode":null,"category":"BEST DANCE DIRECTOR","contestant":{"voting_id":"19I","name":"Rajan Shahi"},"vote_count":1,"created_on":"2019-12-06T11:09:03.450533+05:45"},{"idx":"GDyyj6ZCbL4b2wTNWw6TfQ","contest":"NEPALBHASA STAR MUSIC VIDEO AWARDS-2019","episode":null,"category":"BEST DEBUT MODEL, FEMALE","contestant":{"voting_id":"14F","name":"Ramita Maharjan"},"vote_count":1,"created_on":"2019-12-06T10:35:03.216665+05:45"},{"idx":"Xe4Y2ugNBih3AZUQuLzWHj","contest":"NEPALBHASA STAR MUSIC VIDEO AWARDS-2019","episode":null,"category":"BEST DIRECTOR","contestant":{"voting_id":"20F","name":"Sunita Rajbhandari"},"vote_count":1,"created_on":"2019-12-06T09:18:41.458979+05:45"},{"idx":"TShMNLwQJtTaFc7fjSiYRZ","contest":"8th Music Khabar Music Awards 2019","episode":null,"category":" उत्कृष्ट चलचित्र पाश्र्व गायिका","contestant":{"voting_id":"MKA 030","name":"विन्दु परियार पहिलो नम्बरमा (छक्का पञ्जा ३) "},"vote_count":1,"created_on":"2019-12-05T23:50:21.618150+05:45"},{"idx":"ZtJoiZneakvRdWYT3f74Lh","contest":"NEPALBHASA STAR MUSIC VIDEO AWARDS-2019","episode":null,"category":"BEST SINGER, MALE","contestant":{"voting_id":"15D","name":"Mohan Shakya"},"vote_count":1,"created_on":"2019-12-05T23:48:23.924121+05:45"},{"idx":"T7dAa2KZ7CUUbjhj2wvXYn","contest":"8th Music Khabar Music Awards 2019","episode":null,"category":"उत्कृष्ट लोकगीत","contestant":{"voting_id":"MKA 047","name":" कृष्णा परियार खबर पाइनँ "},"vote_count":1,"created_on":"2019-12-05T23:46:53.015750+05:45"},{"idx":"hcXzDABGKTMqx7TTYmgTH8","contest":"8th Music Khabar Music Awards 2019","episode":null,"category":"उत्कृष्ट गायिका लोकदोहोरी","contestant":{"voting_id":"MKA 089","name":"सञ्जु न्यौपाने लाहुर "},"vote_count":25,"created_on":"2019-12-05T22:43:08.864820+05:45"},{"idx":"VED4qxNDLETDQtktoKSaUb","contest":"8th Music Khabar Music Awards 2019","episode":null,"category":"उत्कृष्ट गायिका लोकदोहोरी","contestant":{"voting_id":"MKA 089","name":"सञ्जु न्यौपाने लाहुर "},"vote_count":25,"created_on":"2019-12-05T22:42:41.126590+05:45"},{"idx":"DJ8hZBVF6tPdpzmqsCFxmU","contest":"8th Music Khabar Music Awards 2019","episode":null,"category":"उत्कृष्ट गायिका लोकदोहोरी","contestant":{"voting_id":"MKA 089","name":"सञ्जु न्यौपाने लाहुर "},"vote_count":500,"created_on":"2019-12-05T22:41:53.557405+05:45"},{"idx":"YnohGwf9RC9xPNBHSrp6s9","contest":"8th Music Khabar Music Awards 2019","episode":null,"category":"उत्कृष्ट गायिका लोकदोहोरी","contestant":{"voting_id":"MKA 089","name":"सञ्जु न्यौपाने लाहुर "},"vote_count":1,"created_on":"2019-12-05T22:41:27.551168+05:45"},{"idx":"CSk9rA4q5gvjzH5voe4ygV","contest":"NEPALBHASA STAR MUSIC VIDEO AWARDS-2019","episode":null,"category":"BEST DEBUT SINGER, FEMALE","contestant":{"voting_id":"18D","name":"LaxmiMaharjan"},"vote_count":1,"created_on":"2019-12-05T21:53:32.242650+05:45"},{"idx":"RAbdjGy4zFen2ofFzbntfK","contest":"NEPALBHASA STAR MUSIC VIDEO AWARDS-2019","episode":null,"category":"BEST Singer,FEMALE","contestant":{"voting_id":"17B","name":"Ratna Shova Maharjan"},"vote_count":1,"created_on":"2019-12-05T21:48:55.127027+05:45"},{"idx":"dbkZjTrhrfhEHXaB9tTEHG","contest":"8th Music Khabar Music Awards 2019","episode":null,"category":"उत्कृष्ट गजल","contestant":{"voting_id":"MKA 117","name":" चुपचाप छौ सुदन डोटेल "},"vote_count":1,"created_on":"2019-12-05T20:55:44.406074+05:45"},{"idx":"umnc5GJVQYjAwLNqVNHqbR","contest":"8th Music Khabar Music Awards 2019","episode":null,"category":"उत्कृष्ट मोडल पुरुष सुगम संगीत","contestant":{"voting_id":"MKA 147","name":" गुणराज श्रेष्ठ निवेदन "},"vote_count":100,"created_on":"2019-12-05T19:42:42.635644+05:45"},{"idx":"FyswEiUjY9VXQTxDKvVrHa","contest":"8th Music Khabar Music Awards 2019","episode":null,"category":"उत्कृष्ट मोडल पुरुष सुगम संगीत","contestant":{"voting_id":"MKA 147","name":" गुणराज श्रेष्ठ निवेदन "},"vote_count":100,"created_on":"2019-12-05T19:42:05.616500+05:45"},{"idx":"vk964bctGgomCH7bV7hjhW","contest":"8th Music Khabar Music Awards 2019","episode":null,"category":"उत्कृष्ट नव प्रतिभा महिला लोकदोहोरी","contestant":{"voting_id":"MKA 060","name":"सुमित्रा तामाङ चौतारीको बर "},"vote_count":1,"created_on":"2019-12-05T16:59:42.133509+05:45"},{"idx":"BsHtQbRmfNBEZnVKQ3tSJ7","contest":"8th Music Khabar Music Awards 2019","episode":null,"category":"उत्कृष्ट मोडल पुरुष सुगम संगीत","contestant":{"voting_id":"MKA 147","name":" गुणराज श्रेष्ठ निवेदन "},"vote_count":500,"created_on":"2019-12-05T16:50:53.307350+05:45"},{"idx":"iqHQmb7Z4pUJwmjxWNeogi","contest":"8th Music Khabar Music Awards 2019","episode":null,"category":"उत्कृष्ट राष्ट्रिय भावको गीत","contestant":{"voting_id":"MKA 003","name":"नेपाल हो आफ्नो देश बी.बी. थापा "},"vote_count":1,"created_on":"2019-12-05T16:18:44.540253+05:45"},{"idx":"GEjG2uktyYfXheZVvn78wY","contest":"NEPALBHASA STAR MUSIC VIDEO AWARDS-2019","episode":null,"category":"THE RISING STAR SINGER","contestant":{"voting_id":"21E","name":"Purna Man Maharjan"},"vote_count":1,"created_on":"2019-12-05T14:52:24.016449+05:45"},{"idx":"bBA2BBFzC4izBDicpphzHL","contest":"8th Music Khabar Music Awards 2019","episode":null,"category":"उत्कृष्ट गायिका लोकदोहोरी","contestant":{"voting_id":"MKA 089","name":"सञ्जु न्यौपाने लाहुर "},"vote_count":100,"created_on":"2019-12-05T13:52:26.144081+05:45"},{"idx":"teE5unwSLYwon2r6HQRhwS","contest":"8th Music Khabar Music Awards 2019","episode":null,"category":"उत्कृष्ट गायिका लोकदोहोरी","contestant":{"voting_id":"MKA 089","name":"सञ्जु न्यौपाने लाहुर "},"vote_count":50,"created_on":"2019-12-05T13:51:48.164553+05:45"},{"idx":"9Q4hsTh62udTznrUgucPPm","contest":"8th Music Khabar Music Awards 2019","episode":null,"category":"उत्कृष्ट गायिका लोकदोहोरी","contestant":{"voting_id":"MKA 089","name":"सञ्जु न्यौपाने लाहुर "},"vote_count":25,"created_on":"2019-12-05T13:51:21.779112+05:45"},{"idx":"qJst7XkXX7YpcsA7Li6bEm","contest":"8th Music Khabar Music Awards 2019","episode":null,"category":"उत्कृष्ट गायिका लोकदोहोरी","contestant":{"voting_id":"MKA 089","name":"सञ्जु न्यौपाने लाहुर "},"vote_count":25,"created_on":"2019-12-05T13:50:50.679501+05:45"},{"idx":"FdULyLF8hFxYH2WiV5yknG","contest":"8th Music Khabar Music Awards 2019","episode":null,"category":"उत्कृष्ट गायिका लोकदोहोरी","contestant":{"voting_id":"MKA 089","name":"सञ्जु न्यौपाने लाहुर "},"vote_count":500,"created_on":"2019-12-05T13:49:45.397598+05:45"},{"idx":"GcBe8MVdNW3823X2KcyK5Q","contest":"NEPALBHASA STAR MUSIC VIDEO AWARDS-2019","episode":null,"category":"BEST Singer,FEMALE","contestant":{"voting_id":"17G","name":"Saraswati Manandhar"},"vote_count":1,"created_on":"2019-12-05T12:24:22.177534+05:45"},{"idx":"4nz83ueNZgdQdN6d43pbj4","contest":"8th Music Khabar Music Awards 2019","episode":null,"category":"उत्कृष्ट गायिका लोकदोहोरी","contestant":{"voting_id":"MKA 089","name":"सञ्जु न्यौपाने लाहुर "},"vote_count":500,"created_on":"2019-12-05T12:14:17.581987+05:45"},{"idx":"RpjXN5e9qdQWJFhrisMKTX","contest":"8th Music Khabar Music Awards 2019","episode":null,"category":"उत्कृष्ट गायिका लोकदोहोरी","contestant":{"voting_id":"MKA 089","name":"सञ्जु न्यौपाने लाहुर "},"vote_count":50,"created_on":"2019-12-05T11:51:04.631651+05:45"},{"idx":"6USCW5raEREijkoctPLkTU","contest":"8th Music Khabar Music Awards 2019","episode":null,"category":"उत्कृष्ट गायिका लोकदोहोरी","contestant":{"voting_id":"MKA 089","name":"सञ्जु न्यौपाने लाहुर "},"vote_count":50,"created_on":"2019-12-05T11:50:22.372333+05:45"},{"idx":"BBLeqAMTy44zSRYxkGJpjH","contest":"NEPALBHASA STAR MUSIC VIDEO AWARDS-2019","episode":null,"category":"BEST DRESS DESIGNER","contestant":{"voting_id":"3h","name":"Sunita Rajbhandari"},"vote_count":50,"created_on":"2019-12-05T11:11:03.679560+05:45"},{"idx":"oCjeChUfCko3gZsHxRbWph","contest":"NEPALBHASA STAR MUSIC VIDEO AWARDS-2019","episode":null,"category":"BEST DIRECTOR","contestant":{"voting_id":"20F","name":"Sunita Rajbhandari"},"vote_count":50,"created_on":"2019-12-05T11:10:38.804912+05:45"},{"idx":"UCpMqCB2XbR9XpPbDFLs5A","contest":"NEPALBHASA STAR MUSIC VIDEO AWARDS-2019","episode":null,"category":"BEST DANCE DIRECTOR","contestant":{"voting_id":"19F","name":"Sunita Rajbhandari/Sujan Bajracharya"},"vote_count":50,"created_on":"2019-12-05T11:09:57.648036+05:45"},{"idx":"7j5Zc3X5sxVtYhou4zAZNo","contest":"NEPALBHASA STAR MUSIC VIDEO AWARDS-2019","episode":null,"category":"BEST MUSIC VIDEO","contestant":{"voting_id":"1H","name":"Sunita Rajbhandari"},"vote_count":50,"created_on":"2019-12-05T11:09:24.035887+05:45"},{"idx":"FGzHBUScggRS7SyX7Xyh4B","contest":"NEPALBHASA STAR MUSIC VIDEO AWARDS-2019","episode":null,"category":"BEST DIRECTOR","contestant":{"voting_id":"20F","name":"Sunita Rajbhandari"},"vote_count":1,"created_on":"2019-12-05T11:05:15.465607+05:45"},{"idx":"pcd8EVEEaXwkuBGmA4ETfH","contest":"NEPALBHASA STAR MUSIC VIDEO AWARDS-2019","episode":null,"category":"BEST DANCE DIRECTOR","contestant":{"voting_id":"19F","name":"Sunita Rajbhandari/Sujan Bajracharya"},"vote_count":1,"created_on":"2019-12-05T11:04:54.321677+05:45"},{"idx":"EoUJV9facvAukFyJejSU2D","contest":"NEPALBHASA STAR MUSIC VIDEO AWARDS-2019","episode":null,"category":"BEST MUSIC VIDEO","contestant":{"voting_id":"1H","name":"Sunita Rajbhandari"},"vote_count":1,"created_on":"2019-12-05T11:04:20.958814+05:45"},{"idx":"M6d4dEDLpHjzKnpocTiBeZ","contest":"NEPALBHASA STAR MUSIC VIDEO AWARDS-2019","episode":null,"category":"BEST DRESS DESIGNER","contestant":{"voting_id":"3h","name":"Sunita Rajbhandari"},"vote_count":1,"created_on":"2019-12-05T10:30:41.938353+05:45"}]}