{"total_pages":275,"total_records":13721,"next":"https://khalti.com/api/v2/vuservote/?page=245","previous":"https://khalti.com/api/v2/vuservote/?page=243","record_range":[12151,12200],"current_page":244,"records":[{"idx":"Grqfkx3vUg4pmGn2az4YUo","contest":"8th Music Khabar Music Awards 2019","episode":null,"category":"उत्कृष्ट चलचित्र पाश्र्व गायक","contestant":{"voting_id":"MKA 034","name":"सुगम पोखरेल तिम्रो लागि (ब्ल्या"},"vote_count":1,"created_on":"2019-12-05T10:12:13.706163+05:45"},{"idx":"MRtnsDNNaQWjvP2TVDrL7e","contest":"8th Music Khabar Music Awards 2019","episode":null,"category":" उत्कृष्ट चलचित्र पाश्र्व गायिका","contestant":{"voting_id":"MKA 030","name":"विन्दु परियार पहिलो नम्बरमा (छक्का पञ्जा ३) "},"vote_count":1,"created_on":"2019-12-05T10:11:45.400623+05:45"},{"idx":"fb2qyms9wdn6MUJ97UooyS","contest":"8th Music Khabar Music Awards 2019","episode":null,"category":"उत्कृष्ट राष्ट्रिय भावको गीत","contestant":{"voting_id":"MKA 001","name":"जननी जन्मभूमिश्च रमेश दाहाल "},"vote_count":1,"created_on":"2019-12-05T10:10:56.523790+05:45"},{"idx":"PFWzZo5BsbF5HnfUJRBwy8","contest":"NEPALBHASA STAR MUSIC VIDEO AWARDS-2019","episode":null,"category":"BEST MUSIC VIDEO","contestant":{"voting_id":"1D","name":"Krishna Bhakta Maharjan"},"vote_count":1,"created_on":"2019-12-05T10:10:15.692280+05:45"},{"idx":"MY8f7io27XEh7fuj8CBpU4","contest":"8th Music Khabar Music Awards 2019","episode":null,"category":" उत्कृष्ट चलचित्र पाश्र्व गायिका","contestant":{"voting_id":"MKA 026","name":"अन्जु पन्त तिम्रो लागि (ब्ल्याक)"},"vote_count":1,"created_on":"2019-12-05T09:48:10.900788+05:45"},{"idx":"rEq86rB8mdAah4dwnmJDpN","contest":"NEPALBHASA STAR MUSIC VIDEO AWARDS-2019","episode":null,"category":"BEST DEBUT SINGER, FEMALE","contestant":{"voting_id":"18H","name":"HasanaShakya"},"vote_count":500,"created_on":"2019-12-05T09:46:04.410780+05:45"},{"idx":"VxVCkPFWYRaF9fQyWbaXQA","contest":"NEPALBHASA STAR MUSIC VIDEO AWARDS-2019","episode":null,"category":"BEST DEBUT SINGER, FEMALE","contestant":{"voting_id":"18H","name":"HasanaShakya"},"vote_count":500,"created_on":"2019-12-05T09:43:33.188268+05:45"},{"idx":"EFoYkFfXXfhVUT4FdD2A7g","contest":"8th Music Khabar Music Awards 2019","episode":null,"category":" उत्कृष्ट चलचित्र पाश्र्व गायिका","contestant":{"voting_id":"MKA 030","name":"विन्दु परियार पहिलो नम्बरमा (छक्का पञ्जा ३) "},"vote_count":1,"created_on":"2019-12-05T07:09:51.133572+05:45"},{"idx":"49se8yDJHGJA7CFWeDWcpm","contest":"8th Music Khabar Music Awards 2019","episode":null,"category":"उत्कृष्ट पप गायिका","contestant":{"voting_id":"MKA 009","name":"सहिमा श्रेष्ठ उम्ल्यो उम्ल्यो "},"vote_count":1,"created_on":"2019-12-04T23:59:07.065317+05:45"},{"idx":"UL2HUBVHcV2DueYC4XCfiX","contest":"NEPALBHASA STAR MUSIC VIDEO AWARDS-2019","episode":null,"category":"BEST DEBUT SINGER, FEMALE","contestant":{"voting_id":"18G","name":"Devi Khadgi"},"vote_count":1,"created_on":"2019-12-04T22:24:52.313020+05:45"},{"idx":"HL4SPix2ik5heDAgTz4KpT","contest":"8th Music Khabar Music Awards 2019","episode":null,"category":"उत्कृष्ट गायक लोकदोहोरी","contestant":{"voting_id":"MKA 091","name":"कुलेन्द्र वि.क. सालको पात "},"vote_count":1,"created_on":"2019-12-04T22:23:11.492666+05:45"},{"idx":"6Bb24La5GbzkTskDtc8HZ6","contest":"8th Music Khabar Music Awards 2019","episode":null,"category":"उत्कृष्ट गायिका लोकदोहोरी","contestant":{"voting_id":"MKA 090","name":"सम्झना भण्डारी औंठी बेरुवाको "},"vote_count":1,"created_on":"2019-12-04T22:20:31.172638+05:45"},{"idx":"Z9gQd95ECtxsxVAdKdK6aP","contest":"8th Music Khabar Music Awards 2019","episode":null,"category":"उत्कृष्ट नवप्रतिभा पुरुष लोकदोहोरी","contestant":{"voting_id":"MKA 061","name":"देवानारायण मगर आकाश रुन्छ "},"vote_count":1,"created_on":"2019-12-04T22:18:59.938546+05:45"},{"idx":"RVcTxV8tr7DxYZ3nyQ3vZ2","contest":"8th Music Khabar Music Awards 2019","episode":null,"category":"उत्कृष्ट नव प्रतिभा महिला लोकदोहोरी","contestant":{"voting_id":"MKA 057","name":" टीका सानु झिल्के माया "},"vote_count":1,"created_on":"2019-12-04T22:18:14.583407+05:45"},{"idx":"Qq3QrWhoFEWCxHTAVqnnoP","contest":"8th Music Khabar Music Awards 2019","episode":null,"category":"उत्कृष्ट मोडल महिला लोकदोहोरी","contestant":{"voting_id":"MKA 110","name":"शशि पुन देशार चोखो माया लाको "},"vote_count":1,"created_on":"2019-12-04T22:17:17.317033+05:45"},{"idx":"tXB5Xbp4t5TnhhDgNiFR9T","contest":"8th Music Khabar Music Awards 2019","episode":null,"category":"उत्कृष्ट लोकगीत","contestant":{"voting_id":"MKA 047","name":" कृष्णा परियार खबर पाइनँ "},"vote_count":1,"created_on":"2019-12-04T22:16:01.945541+05:45"},{"idx":"Bue6QBuPVja7iVoVTQqYcY","contest":"NEPALBHASA STAR MUSIC VIDEO AWARDS-2019","episode":null,"category":"BEST Singer,FEMALE","contestant":{"voting_id":"17D","name":"Sarita Shahi"},"vote_count":1,"created_on":"2019-12-04T22:15:12.731804+05:45"},{"idx":"xfh79szLonwhGeEVkVojSW","contest":"8th Music Khabar Music Awards 2019","episode":null,"category":"उत्कृष्ट भाका लोकदोहोरी","contestant":{"voting_id":"MKA 081","name":"प्रकाश सपुत मुखैमा चिनी "},"vote_count":1,"created_on":"2019-12-04T22:13:32.065891+05:45"},{"idx":"cpSvruBoH8cCby9w8huzQC","contest":"NEPALBHASA STAR MUSIC VIDEO AWARDS-2019","episode":null,"category":"BEST MODEL, FEMALE","contestant":{"voting_id":"13H","name":"Sarita Bajracharya"},"vote_count":1,"created_on":"2019-12-04T22:09:40.675833+05:45"},{"idx":"zgqn5mARgmpA5qWwkrMqnG","contest":"8th Music Khabar Music Awards 2019","episode":null,"category":"उत्कृष्ट पप गीतकार","contestant":{"voting_id":"MKA 025","name":"शैलेन्द्र शरद खनाल यो मन उड्यो "},"vote_count":1,"created_on":"2019-12-04T21:51:54.436164+05:45"},{"idx":"MtMKyPmdvcbnZ4NM6HWBEQ","contest":"8th Music Khabar Music Awards 2019","episode":null,"category":"उत्कृष्ट पप गायिका","contestant":{"voting_id":"MKA 010","name":"सिर्जना खत्री डब्बल माया "},"vote_count":1,"created_on":"2019-12-04T21:51:11.428040+05:45"},{"idx":"4uqvvkYYfXH9U7ZQEQGKxn","contest":"8th Music Khabar Music Awards 2019","episode":null,"category":"उत्कृष्ट शब्द लोकदोहोरी","contestant":{"voting_id":"MKA 080","name":"शिव हमाल लालुमै "},"vote_count":1,"created_on":"2019-12-04T19:53:05.236117+05:45"},{"idx":"h6CHLy5Nbt8fwFcArbKqKW","contest":"8th Music Khabar Music Awards 2019","episode":null,"category":"उत्कृष्ट निर्देशक लोकदोहोरी","contestant":{"voting_id":"MKA 111","name":"प्रकाश भट्ट लालुमै "},"vote_count":1,"created_on":"2019-12-04T19:51:27.503804+05:45"},{"idx":"QFLZc3U7bYsVYcigc9VdhC","contest":"8th Music Khabar Music Awards 2019","episode":null,"category":"उत्कृष्ट दोहोरी गीत","contestant":{"voting_id":"MKA 100","name":"सालको पात कुलेन्द्र वि.क. "},"vote_count":1,"created_on":"2019-12-04T19:49:57.967296+05:45"},{"idx":"LvazLo6kxKAr8b4RJTd2v6","contest":"NEPALBHASA STAR MUSIC VIDEO AWARDS-2019","episode":null,"category":"BEST MUSIC VIDEO","contestant":{"voting_id":"1I","name":"Raj kumar Manandhar"},"vote_count":1,"created_on":"2019-12-04T19:04:00.186852+05:45"},{"idx":"ubWPHA4u3nzCsagDdjJxWd","contest":"NEPALBHASA STAR MUSIC VIDEO AWARDS-2019","episode":null,"category":"BEST MODEL, FEMALE","contestant":{"voting_id":"13C","name":"Anjala Nakarmi"},"vote_count":1,"created_on":"2019-12-04T19:03:01.408576+05:45"},{"idx":"ewTmdPuDWnhoYsGGFUNmi6","contest":"NEPALBHASA STAR MUSIC VIDEO AWARDS-2019","episode":null,"category":"BEST Singer,FEMALE","contestant":{"voting_id":"17G","name":"Saraswati Manandhar"},"vote_count":5,"created_on":"2019-12-04T18:29:02.524181+05:45"},{"idx":"UHiyKy5vKTzCurRpJXA4pY","contest":"NEPALBHASA STAR MUSIC VIDEO AWARDS-2019","episode":null,"category":"THE RISING STAR SINGER","contestant":{"voting_id":"21D","name":"Krishna Maharjan"},"vote_count":1,"created_on":"2019-12-04T18:27:31.539206+05:45"},{"idx":"RMnc7b74MQNawJ8bP7TssE","contest":"NEPALBHASA STAR MUSIC VIDEO AWARDS-2019","episode":null,"category":"BEST Singer,FEMALE","contestant":{"voting_id":"17G","name":"Saraswati Manandhar"},"vote_count":1,"created_on":"2019-12-04T18:01:02.787110+05:45"},{"idx":"uPytTGYBHo6YtLRJ9Yg937","contest":"8th Music Khabar Music Awards 2019","episode":null,"category":"उत्कृष्ट गायिका सुगम संगीत","contestant":{"voting_id":"MKA 183","name":" मिना निरौला देउरालीको फूल "},"vote_count":1,"created_on":"2019-12-04T17:59:37.753051+05:45"},{"idx":"CiXbBqFJ63dhvkRQpyEwJP","contest":"NEPALBHASA STAR MUSIC VIDEO AWARDS-2019","episode":null,"category":"BEST Singer,FEMALE","contestant":{"voting_id":"17G","name":"Saraswati Manandhar"},"vote_count":1,"created_on":"2019-12-04T17:56:25.749660+05:45"},{"idx":"zcEPr3KkUdrbk8vHeGpFuP","contest":"NEPALBHASA STAR MUSIC VIDEO AWARDS-2019","episode":null,"category":"BEST MODEL, FEMALE","contestant":{"voting_id":"13I","name":"Rajani Khadgi"},"vote_count":1,"created_on":"2019-12-04T17:55:34.903916+05:45"},{"idx":"y7C3RF5appL7NSz75qdapK","contest":"NEPALBHASA STAR MUSIC VIDEO AWARDS-2019","episode":null,"category":"BEST Singer,FEMALE","contestant":{"voting_id":"17G","name":"Saraswati Manandhar"},"vote_count":1,"created_on":"2019-12-04T17:54:21.382148+05:45"},{"idx":"9Csk2mEbhEVnQCYYeBqaRi","contest":"NEPALBHASA STAR MUSIC VIDEO AWARDS-2019","episode":null,"category":"BEST Singer,FEMALE","contestant":{"voting_id":"17G","name":"Saraswati Manandhar"},"vote_count":1,"created_on":"2019-12-04T17:53:58.176410+05:45"},{"idx":"mdEHCwdQ9pYQdDiJYYvRHm","contest":"NEPALBHASA STAR MUSIC VIDEO AWARDS-2019","episode":null,"category":"BEST Singer,FEMALE","contestant":{"voting_id":"17G","name":"Saraswati Manandhar"},"vote_count":1,"created_on":"2019-12-04T17:49:13.993931+05:45"},{"idx":"vqC6LLPGU5D6bNfQUPXtZX","contest":"NEPALBHASA STAR MUSIC VIDEO AWARDS-2019","episode":null,"category":"BEST Singer,FEMALE","contestant":{"voting_id":"17G","name":"Saraswati Manandhar"},"vote_count":1,"created_on":"2019-12-04T17:47:39.114269+05:45"},{"idx":"Y5uAq65X7bC5czA7HWfzbD","contest":"NEPALBHASA STAR MUSIC VIDEO AWARDS-2019","episode":null,"category":"BEST Singer,FEMALE","contestant":{"voting_id":"17G","name":"Saraswati Manandhar"},"vote_count":1,"created_on":"2019-12-04T17:44:52.895543+05:45"},{"idx":"wvfoxxikFiJMac2VRPFV4S","contest":"NEPALBHASA STAR MUSIC VIDEO AWARDS-2019","episode":null,"category":"BEST Singer,FEMALE","contestant":{"voting_id":"17G","name":"Saraswati Manandhar"},"vote_count":1,"created_on":"2019-12-04T17:42:16.834297+05:45"},{"idx":"GAJmsyoLjZ5zsvqtt9btVj","contest":"NEPALBHASA STAR MUSIC VIDEO AWARDS-2019","episode":null,"category":"BEST Singer,FEMALE","contestant":{"voting_id":"17G","name":"Saraswati Manandhar"},"vote_count":1,"created_on":"2019-12-04T17:41:36.324412+05:45"},{"idx":"ehRGUF7W4sqZp5tvDwub8e","contest":"NEPALBHASA STAR MUSIC VIDEO AWARDS-2019","episode":null,"category":"BEST Singer,FEMALE","contestant":{"voting_id":"17G","name":"Saraswati Manandhar"},"vote_count":1,"created_on":"2019-12-04T17:39:56.903302+05:45"},{"idx":"tprAypqoq5PQfbKpz5x7M4","contest":"NEPALBHASA STAR MUSIC VIDEO AWARDS-2019","episode":null,"category":"BEST Singer,FEMALE","contestant":{"voting_id":"17G","name":"Saraswati Manandhar"},"vote_count":1,"created_on":"2019-12-04T17:39:30.780071+05:45"},{"idx":"b9hvGhFrhciZqcLTuigPR4","contest":"NEPALBHASA STAR MUSIC VIDEO AWARDS-2019","episode":null,"category":"BEST Singer,FEMALE","contestant":{"voting_id":"17G","name":"Saraswati Manandhar"},"vote_count":1,"created_on":"2019-12-04T17:35:46.557308+05:45"},{"idx":"SRcmsLg9tx6A86Qumdoo4U","contest":"8th Music Khabar Music Awards 2019","episode":null,"category":" उत्कृष्ट चलचित्र पाश्र्व गायिका","contestant":{"voting_id":"MKA 026","name":"अन्जु पन्त तिम्रो लागि (ब्ल्याक)"},"vote_count":1,"created_on":"2019-12-04T16:35:32.711553+05:45"},{"idx":"nVVsPfxydewMHBPwuZrk2C","contest":"8th Music Khabar Music Awards 2019","episode":null,"category":"उत्कृष्ट पप गायिका","contestant":{"voting_id":"MKA 009","name":"सहिमा श्रेष्ठ उम्ल्यो उम्ल्यो "},"vote_count":1,"created_on":"2019-12-04T16:33:07.265471+05:45"},{"idx":"pQJBFh5vx6uhevUP6gijnJ","contest":"8th Music Khabar Music Awards 2019","episode":null,"category":"उत्कृष्ट गीत (आधुनिक÷पप)","contestant":{"voting_id":"MKA 198","name":" पिरिम नलाउनी आशिष सचिन "},"vote_count":1,"created_on":"2019-12-04T15:35:00.825051+05:45"},{"idx":"V5EHarGD4PbmcGEt3kKUgd","contest":"8th Music Khabar Music Awards 2019","episode":null,"category":"उत्कृष्ट राष्ट्रिय भावको गीत","contestant":{"voting_id":"MKA 001","name":"जननी जन्मभूमिश्च रमेश दाहाल "},"vote_count":1,"created_on":"2019-12-04T13:29:10.008696+05:45"},{"idx":"FZsrN4WxzZuPhAGXy8qv8j","contest":"8th Music Khabar Music Awards 2019","episode":null,"category":"उत्कृष्ट राष्ट्रिय भावको गीत","contestant":{"voting_id":"MKA 001","name":"जननी जन्मभूमिश्च रमेश दाहाल "},"vote_count":1,"created_on":"2019-12-04T13:21:44.087345+05:45"},{"idx":"xBLRQqa6bKTKEo8cpCZKca","contest":"8th Music Khabar Music Awards 2019","episode":null,"category":"उत्कृष्ट युगल गायन","contestant":{"voting_id":"MKA 168","name":" रामकृष्ण ढकाल÷मेनुका पौडेल वेदको अक्षर झैं "},"vote_count":1,"created_on":"2019-12-04T13:20:32.534443+05:45"},{"idx":"iGw3ytEeD9xRcEMUVYqs29","contest":"8th Music Khabar Music Awards 2019","episode":null,"category":"उत्कृष्ट गीत (आधुनिक÷पप)","contestant":{"voting_id":"MKA 200","name":"यो कुरा गोप्य प्रमोद खरेल "},"vote_count":1,"created_on":"2019-12-04T12:51:07.247229+05:45"},{"idx":"U69XYg2RkP6qu7itxxKRVe","contest":"8th Music Khabar Music Awards 2019","episode":null,"category":" उत्कृष्ट चलचित्र पाश्र्व गायिका","contestant":{"voting_id":"MKA 029","name":"मनिषा पोखरेल माया पिरिम (जात्रैजात्रा) "},"vote_count":1,"created_on":"2019-12-04T12:50:34.537583+05:45"}]}