{"total_pages":275,"total_records":13721,"next":"https://khalti.com/api/v2/vuservote/?page=246","previous":"https://khalti.com/api/v2/vuservote/?page=244","record_range":[12201,12250],"current_page":245,"records":[{"idx":"wh6eMgeUMDQWJ5Yau8nWXM","contest":"8th Music Khabar Music Awards 2019","episode":null,"category":"उत्कृष्ट पप गायिका","contestant":{"voting_id":"MKA 007","name":" नम्रता तामाङ ओइ सानी "},"vote_count":1,"created_on":"2019-12-04T12:50:01.938490+05:45"},{"idx":"kXZUuYebFGdWk9bnhr9cZZ","contest":"8th Music Khabar Music Awards 2019","episode":null,"category":"उत्कृष्ट राष्ट्रिय भावको गीत","contestant":{"voting_id":"MKA 003","name":"नेपाल हो आफ्नो देश बी.बी. थापा "},"vote_count":1,"created_on":"2019-12-04T12:49:30.257891+05:45"},{"idx":"xi2WNpPabaFodK5HTdPzZZ","contest":"8th Music Khabar Music Awards 2019","episode":null,"category":"उत्कृष्ट मोडल पुरुष सुगम संगीत","contestant":{"voting_id":"MKA 147","name":" गुणराज श्रेष्ठ निवेदन "},"vote_count":5,"created_on":"2019-12-04T10:30:34.985289+05:45"},{"idx":"oQWbakjrtxowUJiLzp8QuK","contest":"8th Music Khabar Music Awards 2019","episode":null,"category":"उत्कृष्ट मोडल पुरुष सुगम संगीत","contestant":{"voting_id":"MKA 147","name":" गुणराज श्रेष्ठ निवेदन "},"vote_count":1,"created_on":"2019-12-04T10:29:59.733527+05:45"},{"idx":"BY43yZoDGgb8Y2w93aBt7e","contest":"8th Music Khabar Music Awards 2019","episode":null,"category":"उत्कृष्ट गायक सुगम संगीत","contestant":{"voting_id":"MKA 187","name":" प्रमोद खरेल यो कुरा गोप्य "},"vote_count":1,"created_on":"2019-12-04T08:28:05.339951+05:45"},{"idx":"GoVXuJrgmbVvBhGhZFcdbP","contest":"8th Music Khabar Music Awards 2019","episode":null,"category":"उत्कृष्ट राष्ट्रिय भावको गीत","contestant":{"voting_id":"MKA 001","name":"जननी जन्मभूमिश्च रमेश दाहाल "},"vote_count":1,"created_on":"2019-12-04T08:27:21.177450+05:45"},{"idx":"VKeq45w2ujhnWnxZ7agxcc","contest":"8th Music Khabar Music Awards 2019","episode":null,"category":"उत्कृष्ट राष्ट्रिय भावको गीत","contestant":{"voting_id":"MKA 005","name":"हिमाल शीर हाम्रो पारसमणि बराल "},"vote_count":1,"created_on":"2019-12-03T20:41:23.009386+05:45"},{"idx":"HMsCjTEX4zzZbteEejHS7V","contest":"8th Music Khabar Music Awards 2019","episode":null,"category":"उत्कृष्ट संगीतकार सुगम संगीत","contestant":{"voting_id":"MKA 178","name":" मनोज चौलागाई यो नाटक जस्तो "},"vote_count":1,"created_on":"2019-12-03T20:34:48.842117+05:45"},{"idx":"T8QotbQKj3ncNK4Xw94Va8","contest":"8th Music Khabar Music Awards 2019","episode":null,"category":"उत्कृष्ट चलचित्र गीतकार","contestant":{"voting_id":"MKA 043","name":" दिग्गज द्यौराली रहर छ मलाई (क्याप्टेन) "},"vote_count":1,"created_on":"2019-12-03T18:33:59.586464+05:45"},{"idx":"FxV8PF6rXBdr8jocYXw8fL","contest":"8th Music Khabar Music Awards 2019","episode":null,"category":"उत्कृष्ट गायिका लोकदोहोरी","contestant":{"voting_id":"MKA 089","name":"सञ्जु न्यौपाने लाहुर "},"vote_count":25,"created_on":"2019-12-03T12:56:30.283386+05:45"},{"idx":"fxsdGaHi6ey7Gx47aHM8gK","contest":"8th Music Khabar Music Awards 2019","episode":null,"category":"उत्कृष्ट राष्ट्रिय भावको गीत","contestant":{"voting_id":"MKA 005","name":"हिमाल शीर हाम्रो पारसमणि बराल "},"vote_count":1,"created_on":"2019-12-03T11:20:58.620765+05:45"},{"idx":"fo474AKVxzHRUkKexQpZ6P","contest":"8th Music Khabar Music Awards 2019","episode":null,"category":"उत्कृष्ट पप गायिका","contestant":{"voting_id":"MKA 010","name":"सिर्जना खत्री डब्बल माया "},"vote_count":1,"created_on":"2019-12-03T11:06:14.457709+05:45"},{"idx":"PwSHqEh7R4dAAmEWnpvJu3","contest":"8th Music Khabar Music Awards 2019","episode":null,"category":"उत्कृष्ट लोकगीत","contestant":{"voting_id":"MKA 046","name":"अशोक मुकारुङ चैते दशैंलाई "},"vote_count":1,"created_on":"2019-12-03T08:56:39.611462+05:45"},{"idx":"bY57GrYD8wsRZ3VGZRQmZT","contest":"8th Music Khabar Music Awards 2019","episode":null,"category":"उत्कृष्ट युगल गायन","contestant":{"voting_id":"MKA 169","name":"सहिमा श्रेष्ठ÷डेविट शंकर सलल बगेको पानी "},"vote_count":1,"created_on":"2019-12-03T08:54:58.847686+05:45"},{"idx":"EUQKNBES5aq4AiJ4vWmR8U","contest":"8th Music Khabar Music Awards 2019","episode":null,"category":"उत्कृष्ट चलचित्र गीतकार","contestant":{"voting_id":"MKA 041","name":"एकनारायण भण्डारी जिन्दगी नै भन्दिनँ (ए मेरो हजुर ३) "},"vote_count":1,"created_on":"2019-12-02T20:10:05.343405+05:45"},{"idx":"PALf3RPJcJRJpxqVcpeDvF","contest":"8th Music Khabar Music Awards 2019","episode":null,"category":"उत्कृष्ट पप गायिका","contestant":{"voting_id":"MKA 006","name":"टीका प्रसाई लुकी लुकी "},"vote_count":1,"created_on":"2019-12-02T20:08:38.493475+05:45"},{"idx":"PLr98sRfuAuEdDEKPyRAcM","contest":"8th Music Khabar Music Awards 2019","episode":null,"category":" उत्कृष्ट चलचित्र पाश्र्व गायिका","contestant":{"voting_id":"MKA 026","name":"अन्जु पन्त तिम्रो लागि (ब्ल्याक)"},"vote_count":1,"created_on":"2019-12-02T18:19:39.680546+05:45"},{"idx":"xYPtieAGkF9ibPengpAmdQ","contest":"8th Music Khabar Music Awards 2019","episode":null,"category":"उत्कृष्ट गजल","contestant":{"voting_id":"MKA 120","name":"समय आएपछि ध्रुव केसी "},"vote_count":1,"created_on":"2019-12-02T14:32:38.138510+05:45"},{"idx":"YDs4pSN3UZUTVmJG4yzqrc","contest":"8th Music Khabar Music Awards 2019","episode":null,"category":"उत्कृष्ट राष्ट्रिय भावको गीत","contestant":{"voting_id":"MKA 004","name":"विश्वको अग्लो हिमाल पुरुषोत्तम सानु "},"vote_count":1,"created_on":"2019-12-02T14:31:53.238480+05:45"},{"idx":"iEZ3rz7zUoReR4s78K3rUV","contest":"8th Music Khabar Music Awards 2019","episode":null,"category":"उत्कृष्ट नवप्रतिभा महिला सुगम संगीत","contestant":{"voting_id":"MKA 127","name":" बेनिशा पौडेल आँखैमा लाउने "},"vote_count":50,"created_on":"2019-12-02T13:40:17.683909+05:45"},{"idx":"XDvHWuqFdrE929BdykqfkK","contest":"8th Music Khabar Music Awards 2019","episode":null,"category":"उत्कृष्ट चलचित्र संगीतकार","contestant":{"voting_id":"MKA 038","name":" दिपक शर्मा पहिलो नम्बरमा (छक्कापञ्जा ३) "},"vote_count":100,"created_on":"2019-12-02T13:38:25.527892+05:45"},{"idx":"FskVwg9Km4J76GP77ATR7b","contest":"8th Music Khabar Music Awards 2019","episode":null,"category":"उत्कृष्ट गजल","contestant":{"voting_id":"MKA 119","name":"भए पनि अफगान लोकराज अधिकारी "},"vote_count":1,"created_on":"2019-12-02T13:37:43.544567+05:45"},{"idx":"PVEEN5aswktA85USQJCgQg","contest":"8th Music Khabar Music Awards 2019","episode":null,"category":"उत्कृष्ट युगल गायन","contestant":{"voting_id":"MKA 170","name":"सिमान्त सन्तोष÷बबिना भट्टराई तिम्रो पछि लाग्ने "},"vote_count":5,"created_on":"2019-12-02T13:36:54.301279+05:45"},{"idx":"tE272fzZinNo7z65GNyzAe","contest":"8th Music Khabar Music Awards 2019","episode":null,"category":"उत्कृष्ट युगल गायन","contestant":{"voting_id":"MKA 170","name":"सिमान्त सन्तोष÷बबिना भट्टराई तिम्रो पछि लाग्ने "},"vote_count":1,"created_on":"2019-12-02T13:36:10.662174+05:45"},{"idx":"wsTAjsBn34AgtLZxLSnpeV","contest":"8th Music Khabar Music Awards 2019","episode":null,"category":"उत्कृष्ट चलचित्र संगीतकार","contestant":{"voting_id":"MKA 038","name":" दिपक शर्मा पहिलो नम्बरमा (छक्कापञ्जा ३) "},"vote_count":1,"created_on":"2019-12-02T13:35:17.142099+05:45"},{"idx":"CxrhWLUWFGNpG7SBeApMRc","contest":"8th Music Khabar Music Awards 2019","episode":null,"category":"उत्कृष्ट चलचित्र पाश्र्व गायक","contestant":{"voting_id":"MKA 034","name":"सुगम पोखरेल तिम्रो लागि (ब्ल्या"},"vote_count":1,"created_on":"2019-12-02T10:20:25.246709+05:45"},{"idx":"6UupLJUVa5ipWBwkyZ5ur2","contest":"8th Music Khabar Music Awards 2019","episode":null,"category":"उत्कृष्ट पप गीतकार","contestant":{"voting_id":"MKA 021","name":"दाना श्रेष्ठ कादम्बरी लैजाउन मलाई "},"vote_count":1,"created_on":"2019-12-01T19:34:16.740077+05:45"},{"idx":"G7kUAddTkPD37WCfMpcsBK","contest":"8th Music Khabar Music Awards 2019","episode":null,"category":"उत्कृष्ट पप संगीतकार","contestant":{"voting_id":"MKA 019","name":"हरिशरण सायमी बैंशालु ती डाली "},"vote_count":1,"created_on":"2019-12-01T19:33:45.130422+05:45"},{"idx":"PoMqbXBtvZ8tnAEFf35ZCN","contest":"8th Music Khabar Music Awards 2019","episode":null,"category":"उत्कृष्ट पप गायक","contestant":{"voting_id":"MKA 014","name":"सचिन रौनियार ए मान्छे "},"vote_count":1,"created_on":"2019-12-01T19:33:17.495072+05:45"},{"idx":"eEurymUovZhyxg85gjPPNh","contest":"8th Music Khabar Music Awards 2019","episode":null,"category":"उत्कृष्ट पप गायिका","contestant":{"voting_id":"MKA 009","name":"सहिमा श्रेष्ठ उम्ल्यो उम्ल्यो "},"vote_count":1,"created_on":"2019-12-01T19:32:43.202016+05:45"},{"idx":"q3EoxKM8GPzkxjFhsTRE7P","contest":"8th Music Khabar Music Awards 2019","episode":null,"category":"उत्कृष्ट पप गायिका","contestant":{"voting_id":"MKA 006","name":"टीका प्रसाई लुकी लुकी "},"vote_count":1,"created_on":"2019-12-01T10:51:50.785476+05:45"},{"idx":"WJZzBZgSR5iQkWzVrFbXLN","contest":"8th Music Khabar Music Awards 2019","episode":null,"category":"उत्कृष्ट दोहोरी गीत","contestant":{"voting_id":"MKA 100","name":"सालको पात कुलेन्द्र वि.क. "},"vote_count":1,"created_on":"2019-12-01T09:49:53.781832+05:45"},{"idx":"nNpbrPAr2CFd3rtynEqGgi","contest":"8th Music Khabar Music Awards 2019","episode":null,"category":"उत्कृष्ट राष्ट्रिय भावको गीत","contestant":{"voting_id":"MKA 001","name":"जननी जन्मभूमिश्च रमेश दाहाल "},"vote_count":1,"created_on":"2019-12-01T09:49:34.659352+05:45"},{"idx":"XAQqmnY3WN6myompuTvLoY","contest":"8th Music Khabar Music Awards 2019","episode":null,"category":"उत्कृष्ट पप गायक","contestant":{"voting_id":"MKA 014","name":"सचिन रौनियार ए मान्छे "},"vote_count":1,"created_on":"2019-12-01T09:03:25.421797+05:45"},{"idx":"pRPBY37Dx6PrfJ7Guk2tdG","contest":"8th Music Khabar Music Awards 2019","episode":null,"category":"उत्कृष्ट सांस्कृतिक गीत","contestant":{"voting_id":"MKA 055","name":"सिर्जना कार्की कान्छा (मारुनी) "},"vote_count":1,"created_on":"2019-11-30T18:41:39.318034+05:45"},{"idx":"JbNsRKYg7xdideZuTYK6jH","contest":"8th Music Khabar Music Awards 2019","episode":null,"category":"उत्कृष्ट संगीत संयोजन लोकदोहोरी","contestant":{"voting_id":"MKA 068","name":" झलक संगीतम् झिमझिम पानी "},"vote_count":1,"created_on":"2019-11-30T18:41:19.144725+05:45"},{"idx":"9BH53nJCFjzLLcZMMEyVsm","contest":"8th Music Khabar Music Awards 2019","episode":null,"category":"उत्कृष्ट गायिका सुगम संगीत","contestant":{"voting_id":"MKA 185","name":"रिता केसी मुटु चुडिन्छ "},"vote_count":1,"created_on":"2019-11-30T18:40:55.245474+05:45"},{"idx":"qyK28M4jh4G6Z34km3fg6E","contest":"8th Music Khabar Music Awards 2019","episode":null,"category":"उत्कृष्ट चलचित्र संगीतकार","contestant":{"voting_id":"MKA 038","name":" दिपक शर्मा पहिलो नम्बरमा (छक्कापञ्जा ३) "},"vote_count":1,"created_on":"2019-11-30T18:40:32.424767+05:45"},{"idx":"nMdGXceKfTm9eTCdn4Hja6","contest":"8th Music Khabar Music Awards 2019","episode":null,"category":"उत्कृष्ट राष्ट्रिय भावको गीत","contestant":{"voting_id":"MKA 005","name":"हिमाल शीर हाम्रो पारसमणि बराल "},"vote_count":1,"created_on":"2019-11-30T07:15:29.017234+05:45"},{"idx":"jhSoNUmPNkxXbhpe3BHMCN","contest":"Bindabasini Music Awards 2076","episode":null,"category":"सर्वोत्कृष्ट भिडियो सम्पादन","contestant":{"voting_id":"27A","name":"दिपक विष्ट"},"vote_count":5,"created_on":"2019-11-29T23:12:13.592440+05:45"},{"idx":"eeWQVx7nSPQVc4fhAxGMM6","contest":"Bindabasini Music Awards 2076","episode":null,"category":"सर्वोत्कृष्ट लोकदोहोरी रचना ","contestant":{"voting_id":"16A","name":"नवराज दाहाल"},"vote_count":100,"created_on":"2019-11-29T22:22:24.896384+05:45"},{"idx":"AfptLdRSzqcXwFVVR8EJvU","contest":"Bindabasini Music Awards 2076","episode":null,"category":"सर्वोत्कृष्ट लोकदोहोरी रचना ","contestant":{"voting_id":"16A","name":"नवराज दाहाल"},"vote_count":100,"created_on":"2019-11-29T22:20:19.720176+05:45"},{"idx":"hiDY98ATZrpKpPQbo4bWSc","contest":"8th Music Khabar Music Awards 2019","episode":null,"category":"उत्कृष्ट राष्ट्रिय भावको गीत","contestant":{"voting_id":"MKA 001","name":"जननी जन्मभूमिश्च रमेश दाहाल "},"vote_count":1,"created_on":"2019-11-29T20:34:50.800080+05:45"},{"idx":"SJHoEa2gGCtRvpB9hVboKY","contest":"Bindabasini Music Awards 2076","episode":null,"category":"सर्वोत्कृष्ट लोकदोहोरी गायिका","contestant":{"voting_id":"14D","name":"शान्ती श्री परियार"},"vote_count":5,"created_on":"2019-11-29T20:34:03.312713+05:45"},{"idx":"d93LqARtB78Cnu4QRGNx6d","contest":"8th Music Khabar Music Awards 2019","episode":null,"category":"उत्कृष्ट लोकगीत","contestant":{"voting_id":"MKA 049","name":"विमल परियार अधुरो पिरती "},"vote_count":1,"created_on":"2019-11-29T19:23:48.707033+05:45"},{"idx":"uHWHUgLvaSXadYsctH2sDH","contest":"8th Music Khabar Music Awards 2019","episode":null,"category":"उत्कृष्ट चलचित्र संगीतकार","contestant":{"voting_id":"MKA 036","name":"आशिष अबिरल जिन्दगी नै भन्दिनँ (ए मेरो हजुर३) "},"vote_count":1,"created_on":"2019-11-29T19:18:15.295895+05:45"},{"idx":"tDLaE5xrMSgNhmLeVFxPQG","contest":"Bindabasini Music Awards 2076","episode":null,"category":"सर्वोत्कृष्ट पप गायन महिला","contestant":{"voting_id":"10D","name":"टिका प्रसाई"},"vote_count":1,"created_on":"2019-11-29T19:17:18.239327+05:45"},{"idx":"qszs8VNuwa7tfwVLDBwGpL","contest":"Bindabasini Music Awards 2076","episode":null,"category":"सर्वोत्कृष्ट पप गायन पुरुष","contestant":{"voting_id":"9C","name":"बिक्रम बराल"},"vote_count":1,"created_on":"2019-11-29T19:16:38.359012+05:45"},{"idx":"ZnMVxLyDy733UEgcx2kNQc","contest":"8th Music Khabar Music Awards 2019","episode":null,"category":"उत्कृष्ट चलचित्र गीतकार","contestant":{"voting_id":"MKA 042","name":" डा.कृष्णहरि बराल मिसावट छ पिरतीमा (लीला) "},"vote_count":1,"created_on":"2019-11-29T19:15:59.025766+05:45"},{"idx":"ht8X4Lk7xEcA24fGPNYdR9","contest":"Mr and Miss Rauniyar 2019","episode":"Mr & Miss Rauniyar 2019","category":null,"contestant":{"voting_id":"006","name":"Angel Gupta"},"vote_count":1,"created_on":"2019-11-29T19:14:53.769390+05:45"}]}