{"total_pages":275,"total_records":13721,"next":"https://khalti.com/api/v2/vuservote/?page=247","previous":"https://khalti.com/api/v2/vuservote/?page=245","record_range":[12251,12300],"current_page":246,"records":[{"idx":"whyY2yHpWPERzStJbjT7Y2","contest":"8th Music Khabar Music Awards 2019","episode":null,"category":"उत्कृष्ट राष्ट्रिय भावको गीत","contestant":{"voting_id":"MKA 003","name":"नेपाल हो आफ्नो देश बी.बी. थापा "},"vote_count":1,"created_on":"2019-11-29T18:49:21.279840+05:45"},{"idx":"jXHvW6QE6ACMj7AKwroTGj","contest":"Bindabasini Music Awards 2076","episode":null,"category":"सर्वोत्कृष्ट गीत","contestant":{"voting_id":"1D","name":"वि. पाण्डे"},"vote_count":1,"created_on":"2019-11-29T18:03:41.640247+05:45"},{"idx":"wspaeeGDVJkDqGBxLEiLT4","contest":"Bindabasini Music Awards 2076","episode":null,"category":"सर्वोत्कृष्ट गीत","contestant":{"voting_id":"1E","name":"अर्जुनरत्न भिकारी "},"vote_count":1,"created_on":"2019-11-29T18:02:44.350748+05:45"},{"idx":"5gdsijtRogxP64ZBi3UzmF","contest":"8th Music Khabar Music Awards 2019","episode":null,"category":"उत्कृष्ट गीत (आधुनिक÷पप)","contestant":{"voting_id":"MKA 199","name":"लुकी लुकी टीका प्रसाई "},"vote_count":1,"created_on":"2019-11-29T15:16:37.746154+05:45"},{"idx":"fNHGAaF2LhhKyPd9LEjERi","contest":"Bindabasini Music Awards 2076","episode":null,"category":"सर्वोत्कृष्ट राष्ट्रिय भावनाले ओतप्रोत गीत","contestant":{"voting_id":"23A","name":"रमेश दाहाल"},"vote_count":5,"created_on":"2019-11-29T14:52:10.113321+05:45"},{"idx":"F39V9irhc8vfhV5ngnccjR","contest":"Bindabasini Music Awards 2076","episode":null,"category":"सर्वोत्कृष्ट राष्ट्रिय भावनाले ओतप्रोत गीत","contestant":{"voting_id":"23A","name":"रमेश दाहाल"},"vote_count":5,"created_on":"2019-11-29T14:51:26.029243+05:45"},{"idx":"CsELdWXkma4ApieygSjGJb","contest":"Bindabasini Music Awards 2076","episode":null,"category":"सर्वोत्कृष्ट राष्ट्रिय भावनाले ओतप्रोत गीत","contestant":{"voting_id":"23A","name":"रमेश दाहाल"},"vote_count":5,"created_on":"2019-11-29T14:43:35.549020+05:45"},{"idx":"4sT5uq98Yp543MS3FWg4R7","contest":"Bindabasini Music Awards 2076","episode":null,"category":"सर्वोत्कृष्ट राष्ट्रिय भावनाले ओतप्रोत गीत","contestant":{"voting_id":"23A","name":"रमेश दाहाल"},"vote_count":25,"created_on":"2019-11-29T14:41:21.926200+05:45"},{"idx":"MBAvGQQxZmrxRibF4tMhg5","contest":"8th Music Khabar Music Awards 2019","episode":null,"category":"उत्कृष्ट नव प्रतिभा महिला लोकदोहोरी","contestant":{"voting_id":"MKA 057","name":" टीका सानु झिल्के माया "},"vote_count":1,"created_on":"2019-11-29T14:05:04.848209+05:45"},{"idx":"g4CrEzYNZmE9HZ3vUqpdxL","contest":"Bindabasini Music Awards 2076","episode":null,"category":"सर्वोत्कृष्ट राष्ट्रिय भावनाले ओतप्रोत गीत","contestant":{"voting_id":"23A","name":"रमेश दाहाल"},"vote_count":100,"created_on":"2019-11-29T10:50:49.223015+05:45"},{"idx":"LtCoy8PZU7PoN66VAHkkmk","contest":"Bindabasini Music Awards 2076","episode":null,"category":"सर्वोत्कृष्ट गीत","contestant":{"voting_id":"1C","name":"आनन्दराज खनाल"},"vote_count":1,"created_on":"2019-11-28T21:28:30.847415+05:45"},{"idx":"idkoAay4dkVKxMb5evDWu4","contest":"8th Music Khabar Music Awards 2019","episode":null,"category":"उत्कृष्ट पप संगीतकार","contestant":{"voting_id":"MKA 020","name":"शंकर थापा ‘स्माइल’ आँखामा गाजल "},"vote_count":1,"created_on":"2019-11-28T21:27:42.518613+05:45"},{"idx":"AysewAb9EdpHhs5JTZhvmY","contest":"Mr and Miss Rauniyar 2019","episode":"Mr & Miss Rauniyar 2019","category":null,"contestant":{"voting_id":"004","name":"Supriya Rauniyar"},"vote_count":100,"created_on":"2019-11-28T18:40:23.283807+05:45"},{"idx":"iGA98SLtBLpVnHGvXXkHeN","contest":"Mr and Miss Rauniyar 2019","episode":"Mr & Miss Rauniyar 2019","category":null,"contestant":{"voting_id":"004","name":"Supriya Rauniyar"},"vote_count":100,"created_on":"2019-11-28T18:39:57.222104+05:45"},{"idx":"eskbRf6topyw9b9KJRjRXP","contest":"Mr and Miss Rauniyar 2019","episode":"Mr & Miss Rauniyar 2019","category":null,"contestant":{"voting_id":"004","name":"Supriya Rauniyar"},"vote_count":5,"created_on":"2019-11-28T18:27:42.834690+05:45"},{"idx":"ALvemWVuMRoLBoyRPjnJhW","contest":"Mr and Miss Rauniyar 2019","episode":"Mr & Miss Rauniyar 2019","category":null,"contestant":{"voting_id":"004","name":"Supriya Rauniyar"},"vote_count":5,"created_on":"2019-11-28T18:22:17.716897+05:45"},{"idx":"QLqPf4GhZ8tEhikeowWGmc","contest":"Mr and Miss Rauniyar 2019","episode":"Mr & Miss Rauniyar 2019","category":null,"contestant":{"voting_id":"004","name":"Supriya Rauniyar"},"vote_count":25,"created_on":"2019-11-28T18:20:56.715120+05:45"},{"idx":"ExDC5gK6zd2FzsvYJ2Gsfc","contest":"Mr and Miss Rauniyar 2019","episode":"Mr & Miss Rauniyar 2019","category":null,"contestant":{"voting_id":"003","name":"Nirmala Gupta"},"vote_count":5,"created_on":"2019-11-28T17:24:34.972391+05:45"},{"idx":"SFvUDbQN6ybWWbX9ovPZK4","contest":"Bindabasini Music Awards 2076","episode":null,"category":"सर्वोत्कृष्ट पप गायन पुरुष","contestant":{"voting_id":"9C","name":"बिक्रम बराल"},"vote_count":1,"created_on":"2019-11-28T16:42:21.561888+05:45"},{"idx":"XVQQm54VqkoGRWFKRWTUML","contest":"8th Music Khabar Music Awards 2019","episode":null,"category":"उत्कृष्ट दोहोरी गीत","contestant":{"voting_id":"MKA 100","name":"सालको पात कुलेन्द्र वि.क. "},"vote_count":1,"created_on":"2019-11-28T16:14:36.610736+05:45"},{"idx":"H2kipzajjdkt6D5BFXNWfa","contest":"Bindabasini Music Awards 2076","episode":null,"category":"सर्वोत्कृष्ट लोकदोहोरी गायक","contestant":{"voting_id":"13E","name":"कुलेन्द्र विश्वकर्मा"},"vote_count":1,"created_on":"2019-11-28T14:17:32.147117+05:45"},{"idx":"t5EfYMWipLkoCRkiQsg9A8","contest":"Bindabasini Music Awards 2076","episode":null,"category":"सर्वोत्कृष्ट राष्ट्रिय भावनाले ओतप्रोत गीत","contestant":{"voting_id":"23A","name":"रमेश दाहाल"},"vote_count":5,"created_on":"2019-11-28T12:07:12.063428+05:45"},{"idx":"VVyVaDpb68Fv653MpKX9i9","contest":"Bindabasini Music Awards 2076","episode":null,"category":"सर्वोत्कृष्ट राष्ट्रिय भावनाले ओतप्रोत गीत","contestant":{"voting_id":"23A","name":"रमेश दाहाल"},"vote_count":25,"created_on":"2019-11-28T12:06:38.851653+05:45"},{"idx":"8r2jp6z9ooJJaF2bUFsbAC","contest":"8th Music Khabar Music Awards 2019","episode":null,"category":"उत्कृष्ट राष्ट्रिय भावको गीत","contestant":{"voting_id":"MKA 003","name":"नेपाल हो आफ्नो देश बी.बी. थापा "},"vote_count":1,"created_on":"2019-11-28T11:26:15.178433+05:45"},{"idx":"WTG4Zw8fYr23WuXotjoSBW","contest":"Bindabasini Music Awards 2076","episode":null,"category":"सर्वोत्कृष्ट राष्ट्रिय भावनाले ओतप्रोत गीत","contestant":{"voting_id":"23A","name":"रमेश दाहाल"},"vote_count":500,"created_on":"2019-11-28T11:05:16.516622+05:45"},{"idx":"svCkkNC8Zuqvrmc3VHVyti","contest":"Bindabasini Music Awards 2076","episode":null,"category":"सर्वोत्कृष्ट राष्ट्रिय भावनाले ओतप्रोत गीत","contestant":{"voting_id":"23A","name":"रमेश दाहाल"},"vote_count":25,"created_on":"2019-11-28T10:55:35.137871+05:45"},{"idx":"WYfiGnrjVxPoSUmKw6o6ZL","contest":"Bindabasini Music Awards 2076","episode":null,"category":"सर्वोत्कृष्ट राष्ट्रिय भावनाले ओतप्रोत गीत","contestant":{"voting_id":"23A","name":"रमेश दाहाल"},"vote_count":25,"created_on":"2019-11-28T10:54:17.449737+05:45"},{"idx":"XVc6YpUEyFfopgEBtreKM3","contest":"Bindabasini Music Awards 2076","episode":null,"category":"सर्वोत्कृष्ट राष्ट्रिय भावनाले ओतप्रोत गीत","contestant":{"voting_id":"23A","name":"रमेश दाहाल"},"vote_count":50,"created_on":"2019-11-28T10:52:57.593455+05:45"},{"idx":"Xg4ZESEVxM7RojoByJy6Sb","contest":"8th Music Khabar Music Awards 2019","episode":null,"category":" उत्कृष्ट चलचित्र पाश्र्व गायिका","contestant":{"voting_id":"MKA 030","name":"विन्दु परियार पहिलो नम्बरमा (छक्का पञ्जा ३) "},"vote_count":1,"created_on":"2019-11-28T10:12:56.017860+05:45"},{"idx":"CakpApPBCTTVbASM2nkmLJ","contest":"Bindabasini Music Awards 2076","episode":null,"category":"सर्वोत्कृष्ट गीत","contestant":{"voting_id":"1E","name":"अर्जुनरत्न भिकारी "},"vote_count":5,"created_on":"2019-11-28T09:37:20.725797+05:45"},{"idx":"oBtHwfBP583ahsV5RMxtqM","contest":"Bindabasini Music Awards 2076","episode":null,"category":"सर्वोत्कृष्ट गीत","contestant":{"voting_id":"1E","name":"अर्जुनरत्न भिकारी "},"vote_count":1,"created_on":"2019-11-28T09:37:02.161687+05:45"},{"idx":"RWfTh6fwpwe22dVrWWoDHZ","contest":"Bindabasini Music Awards 2076","episode":null,"category":"सर्वोत्कृष्ट राष्ट्रिय भावनाले ओतप्रोत गीत","contestant":{"voting_id":"23A","name":"रमेश दाहाल"},"vote_count":1,"created_on":"2019-11-28T09:20:58.903216+05:45"},{"idx":"PrCkLGam7gtDTwtzSbmBsQ","contest":"Bindabasini Music Awards 2076","episode":null,"category":"सर्वोत्कृष्ट पप गायन पुरुष","contestant":{"voting_id":"9B","name":"प्रताप दास"},"vote_count":1,"created_on":"2019-11-27T22:56:00.555215+05:45"},{"idx":"zQjzwCEzuNmNkF4VJrDpvW","contest":"Mr and Miss Rauniyar 2019","episode":"Mr & Miss Rauniyar 2019","category":null,"contestant":{"voting_id":"003","name":"Nirmala Gupta"},"vote_count":1,"created_on":"2019-11-27T18:24:22.771323+05:45"},{"idx":"9EkSf9bE4gFhs4zrFhK9cS","contest":"Mr and Miss Rauniyar 2019","episode":"Mr & Miss Rauniyar 2019","category":null,"contestant":{"voting_id":"003","name":"Nirmala Gupta"},"vote_count":1,"created_on":"2019-11-27T18:13:25.248240+05:45"},{"idx":"tkBEeofJjrFAz66kdrMYcg","contest":"Mr and Miss Rauniyar 2019","episode":"Mr & Miss Rauniyar 2019","category":null,"contestant":{"voting_id":"003","name":"Nirmala Gupta"},"vote_count":1,"created_on":"2019-11-27T18:10:07.529655+05:45"},{"idx":"JSVCmmGoQfq9LTDfoVfrFi","contest":"Mr and Miss Rauniyar 2019","episode":"Mr & Miss Rauniyar 2019","category":null,"contestant":{"voting_id":"003","name":"Nirmala Gupta"},"vote_count":1,"created_on":"2019-11-27T18:08:18.320079+05:45"},{"idx":"wxkZFC6fQUxMzX2ZX9CGmA","contest":"Mr and Miss Rauniyar 2019","episode":"Mr & Miss Rauniyar 2019","category":null,"contestant":{"voting_id":"003","name":"Nirmala Gupta"},"vote_count":1,"created_on":"2019-11-27T17:16:10.012820+05:45"},{"idx":"RdBj4BggUPT9TvRCMHKiM4","contest":"Mr and Miss Rauniyar 2019","episode":"Mr & Miss Rauniyar 2019","category":null,"contestant":{"voting_id":"003","name":"Nirmala Gupta"},"vote_count":1,"created_on":"2019-11-27T17:01:33.844713+05:45"},{"idx":"hnA3BM7URgzRjdqDJx5LmR","contest":"Bindabasini Music Awards 2076","episode":null,"category":"सर्वोत्कृष्ट म्यूजिक भिडियो निर्देशक आधुनिक","contestant":{"voting_id":"25B","name":"जनक सिंह"},"vote_count":5,"created_on":"2019-11-27T15:57:20.553508+05:45"},{"idx":"md5FesHdjfatYYJS9Zj99C","contest":"Mr and Miss Rauniyar 2019","episode":"Mr & Miss Rauniyar 2019","category":null,"contestant":{"voting_id":"006","name":"Angel Gupta"},"vote_count":500,"created_on":"2019-11-27T12:04:31.413011+05:45"},{"idx":"rgdCnwubyTmRKxtKmZHVKB","contest":"Mr and Miss Rauniyar 2019","episode":"Mr & Miss Rauniyar 2019","category":null,"contestant":{"voting_id":"006","name":"Angel Gupta"},"vote_count":500,"created_on":"2019-11-27T12:03:54.217106+05:45"},{"idx":"JmqySCoGR9tTBYTdYvKHvA","contest":"Mr and Miss Rauniyar 2019","episode":"Mr & Miss Rauniyar 2019","category":null,"contestant":{"voting_id":"006","name":"Angel Gupta"},"vote_count":500,"created_on":"2019-11-27T04:17:40.068649+05:45"},{"idx":"JtRxZDrqzBsGwGkbXhbSXZ","contest":"Mr and Miss Rauniyar 2019","episode":"Mr & Miss Rauniyar 2019","category":null,"contestant":{"voting_id":"006","name":"Angel Gupta"},"vote_count":500,"created_on":"2019-11-27T04:17:11.786741+05:45"},{"idx":"9RyFLr2icNKcRiGrGeXnFJ","contest":"Mr and Miss Rauniyar 2019","episode":"Mr & Miss Rauniyar 2019","category":null,"contestant":{"voting_id":"007","name":"Janvi Rauniyar"},"vote_count":1,"created_on":"2019-11-26T21:28:45.468621+05:45"},{"idx":"kMkCN9gu8MLbn9GUsDXnTD","contest":"8th Music Khabar Music Awards 2019","episode":null,"category":"उत्कृष्ट सांस्कृतिक गीत","contestant":{"voting_id":"MKA 052","name":" प्रकाश गुरुङ÷शर्मिला गुरुङ माथी है लेकमा "},"vote_count":1,"created_on":"2019-11-26T17:19:40.499660+05:45"},{"idx":"a5Fveyj3528pMKr7JGGbbG","contest":"8th Music Khabar Music Awards 2019","episode":null,"category":"उत्कृष्ट भाका लोकदोहोरी","contestant":{"voting_id":"MKA 084","name":"राजेश बर्देवा फल मिठो "},"vote_count":1,"created_on":"2019-11-26T16:15:40.873603+05:45"},{"idx":"n4oWcso2ceiwcphtKAuSdh","contest":"Bindabasini Music Awards 2076","episode":null,"category":"सर्वोत्कृष्ट गीत","contestant":{"voting_id":"1C","name":"आनन्दराज खनाल"},"vote_count":1,"created_on":"2019-11-26T15:50:27.011107+05:45"},{"idx":"FLWW7yrHitaocfx4NTrM9P","contest":"Mr and Miss Rauniyar 2019","episode":"Mr & Miss Rauniyar 2019","category":null,"contestant":{"voting_id":"004","name":"Supriya Rauniyar"},"vote_count":5,"created_on":"2019-11-26T15:34:16.519666+05:45"},{"idx":"cFyJH54D6LVH48ENDhRBnD","contest":"Mr and Miss Rauniyar 2019","episode":"Mr & Miss Rauniyar 2019","category":null,"contestant":{"voting_id":"004","name":"Supriya Rauniyar"},"vote_count":1,"created_on":"2019-11-26T15:33:40.277283+05:45"}]}