{"total_pages":275,"total_records":13721,"next":"https://khalti.com/api/v2/vuservote/?page=248","previous":"https://khalti.com/api/v2/vuservote/?page=246","record_range":[12301,12350],"current_page":247,"records":[{"idx":"WNrw4LJbUc2Bg5u3jFS6um","contest":"Mr and Miss Rauniyar 2019","episode":"Mr & Miss Rauniyar 2019","category":null,"contestant":{"voting_id":"07","name":"Ronit Rauniyar"},"vote_count":1,"created_on":"2019-11-26T15:10:24.747089+05:45"},{"idx":"aJLLJ4ZLsnPJvvskJ7t2YJ","contest":"Mr and Miss Rauniyar 2019","episode":"Mr & Miss Rauniyar 2019","category":null,"contestant":{"voting_id":"006","name":"Angel Gupta"},"vote_count":500,"created_on":"2019-11-26T11:01:14.804257+05:45"},{"idx":"cPsdGAFLk9ipupojwnbj9Q","contest":"Mr and Miss Rauniyar 2019","episode":"Mr & Miss Rauniyar 2019","category":null,"contestant":{"voting_id":"006","name":"Angel Gupta"},"vote_count":500,"created_on":"2019-11-26T10:58:41.434432+05:45"},{"idx":"xZuM2WpP7QRmXH3GMxnWPJ","contest":"Bindabasini Music Awards 2076","episode":null,"category":"सर्वोत्कृष्ट गायन सुगम संगीत पुरुष","contestant":{"voting_id":"2A","name":"सजल न्यौपाने"},"vote_count":1,"created_on":"2019-11-26T06:50:37.059920+05:45"},{"idx":"5rp9gbcSynbNcpvAwgJ9KT","contest":"Mr and Miss Rauniyar 2019","episode":"Mr & Miss Rauniyar 2019","category":null,"contestant":{"voting_id":"003","name":"Nirmala Gupta"},"vote_count":1,"created_on":"2019-11-26T05:17:09.787501+05:45"},{"idx":"3uvup2r9WBbBthnd2pSJb7","contest":"Mr and Miss Rauniyar 2019","episode":"Mr & Miss Rauniyar 2019","category":null,"contestant":{"voting_id":"03","name":"Virat Rauniyar"},"vote_count":1,"created_on":"2019-11-25T22:02:40.464824+05:45"},{"idx":"moQNt5faWw9mV6H4DJTLY9","contest":"8th Music Khabar Music Awards 2019","episode":null,"category":" उत्कृष्ट चलचित्र पाश्र्व गायिका","contestant":{"voting_id":"MKA 026","name":"अन्जु पन्त तिम्रो लागि (ब्ल्याक)"},"vote_count":1,"created_on":"2019-11-25T20:44:21.560234+05:45"},{"idx":"SebnrkeK4BrTemDBTL5A58","contest":"Mr and Miss Rauniyar 2019","episode":"Mr & Miss Rauniyar 2019","category":null,"contestant":{"voting_id":"004","name":"Supriya Rauniyar"},"vote_count":1,"created_on":"2019-11-25T20:43:45.572602+05:45"},{"idx":"AdwV54B7tT9kXELGPdY6dL","contest":"Bindabasini Music Awards 2076","episode":null,"category":"सर्वोत्कृष्ट गीत","contestant":{"voting_id":"1E","name":"अर्जुनरत्न भिकारी "},"vote_count":1,"created_on":"2019-11-25T19:52:42.288920+05:45"},{"idx":"gbsXYTWQ9G8zTFDPAWKuTM","contest":"8th Music Khabar Music Awards 2019","episode":null,"category":"उत्कृष्ट राष्ट्रिय भावको गीत","contestant":{"voting_id":"MKA 003","name":"नेपाल हो आफ्नो देश बी.बी. थापा "},"vote_count":1,"created_on":"2019-11-25T18:52:22.990917+05:45"},{"idx":"URyifTkmTfHqjBVaPW9tok","contest":"8th Music Khabar Music Awards 2019","episode":null,"category":"उत्कृष्ट चलचित्र संगीतकार","contestant":{"voting_id":"MKA 038","name":" दिपक शर्मा पहिलो नम्बरमा (छक्कापञ्जा ३) "},"vote_count":1,"created_on":"2019-11-25T15:20:18.944359+05:45"},{"idx":"Nyc2afh6dQgavKBf2JCfkF","contest":"Mr and Miss Rauniyar 2019","episode":"Mr & Miss Rauniyar 2019","category":null,"contestant":{"voting_id":"010","name":"Roshani Rauniyar"},"vote_count":1,"created_on":"2019-11-25T15:19:38.319617+05:45"},{"idx":"T2nWcsbDAsxE6gHnMtm2Hc","contest":"8th Music Khabar Music Awards 2019","episode":null,"category":"उत्कृष्ट राष्ट्रिय भावको गीत","contestant":{"voting_id":" MKA 002","name":"ढाका टोपी दौरा सुरुवाल अमृतलाल देवकोटा सुनार"},"vote_count":1,"created_on":"2019-11-25T15:14:22.357354+05:45"},{"idx":"z2uHooEpKnDvavvjN7UF4h","contest":"Bindabasini Music Awards 2076","episode":null,"category":"सर्वोत्कृष्ट म्युजिक कम्पनी","contestant":{"voting_id":"30A","name":"भावना म्यूजिक सोलुशन"},"vote_count":1,"created_on":"2019-11-25T15:13:44.404312+05:45"},{"idx":"6KqhPe9UMaiKNNaUAf2DUB","contest":"Bindabasini Music Awards 2076","episode":null,"category":"सर्वोत्कृष्ट युगल गायन","contestant":{"voting_id":"12C","name":"पे्रम प्रकाश ओली र मेलिना राई"},"vote_count":1,"created_on":"2019-11-25T15:12:58.291586+05:45"},{"idx":"cTom8TPvtbK3RAwfweiSXd","contest":"Bindabasini Music Awards 2076","episode":null,"category":"सर्वोत्कृष्ट पप गायन पुरुष","contestant":{"voting_id":"9C","name":"बिक्रम बराल"},"vote_count":1,"created_on":"2019-11-25T15:12:22.293262+05:45"},{"idx":"Z9HQNa6vjN29v2uE7LGqU8","contest":"Bindabasini Music Awards 2076","episode":null,"category":"सर्वोत्कृष्ट छायांकन","contestant":{"voting_id":"26C","name":"राजेश घिमिरे"},"vote_count":1,"created_on":"2019-11-25T13:15:52.661362+05:45"},{"idx":"aZC3dWSpfBPDzKvyY6ASTH","contest":"Bindabasini Music Awards 2076","episode":null,"category":"सर्वोत्कृष्ट भिडियो सम्पादन","contestant":{"voting_id":"27B","name":"विश्णु शर्मा"},"vote_count":1,"created_on":"2019-11-25T13:15:16.355590+05:45"},{"idx":"YRdem3MwUcbCjVpgCjHp8i","contest":"Bindabasini Music Awards 2076","episode":null,"category":"सर्वोत्कृष्ट नवप्रतिभा आधुनिक, पप","contestant":{"voting_id":"28C","name":"बिक्रम बराल"},"vote_count":1,"created_on":"2019-11-25T13:14:40.087110+05:45"},{"idx":"MrvuHQSvhYSrLLWEDEmdxR","contest":"Bindabasini Music Awards 2076","episode":null,"category":"सर्वोत्कृष्ट नवप्रतिभा लोकदोहोरी","contestant":{"voting_id":"29E","name":"सुमित्रा तामाङ"},"vote_count":1,"created_on":"2019-11-25T13:14:02.533976+05:45"},{"idx":"8ovz2PPdV7uhhXvzAsU7mB","contest":"Bindabasini Music Awards 2076","episode":null,"category":"सर्वोत्कृष्ट म्युजिक कम्पनी","contestant":{"voting_id":"30A","name":"भावना म्यूजिक सोलुशन"},"vote_count":1,"created_on":"2019-11-25T13:13:16.098263+05:45"},{"idx":"8vWqGMKPYEmpQPrCkGFiKD","contest":"Bindabasini Music Awards 2076","episode":null,"category":"सर्वोत्कृष्ट लोकदोहोरी भाका","contestant":{"voting_id":"15D","name":"शिव हमाल "},"vote_count":1,"created_on":"2019-11-25T13:12:18.098017+05:45"},{"idx":"QjCaNz8wFZ6v7aw4QUfadg","contest":"Bindabasini Music Awards 2076","episode":null,"category":"सर्वोत्कृष्ट पप गायन पुरुष","contestant":{"voting_id":"9B","name":"प्रताप दास"},"vote_count":1,"created_on":"2019-11-25T11:08:36.547774+05:45"},{"idx":"FyM3cvR9WDXzgybdhTp4pV","contest":"Mr and Miss Rauniyar 2019","episode":"Mr & Miss Rauniyar 2019","category":null,"contestant":{"voting_id":"005","name":"Priya Rauniyar"},"vote_count":1,"created_on":"2019-11-25T11:07:55.300730+05:45"},{"idx":"SpMjqxthRKkmSmkAeZJ6rC","contest":"8th Music Khabar Music Awards 2019","episode":null,"category":"उत्कृष्ट गायक सुगम संगीत","contestant":{"voting_id":"MKA 187","name":" प्रमोद खरेल यो कुरा गोप्य "},"vote_count":1,"created_on":"2019-11-25T11:06:51.841177+05:45"},{"idx":"kt5niSaqNLFn5uX5Ucotkm","contest":"8th Music Khabar Music Awards 2019","episode":null,"category":"उत्कृष्ट गीत (आधुनिक÷पप)","contestant":{"voting_id":"MKA 200","name":"यो कुरा गोप्य प्रमोद खरेल "},"vote_count":1,"created_on":"2019-11-25T11:00:01.857884+05:45"},{"idx":"G8VtSb4eCHR7cDKcxYJ3KC","contest":"8th Music Khabar Music Awards 2019","episode":null,"category":"उत्कृष्ट चलचित्र पाश्र्व गायक","contestant":{"voting_id":"MKA 032","name":" युवराज चौलागाई मिसावट छ पिरतीमा (लीला) "},"vote_count":1,"created_on":"2019-11-25T10:21:51.178212+05:45"},{"idx":"mqkBkjocpQmhDeybxzEyVT","contest":"8th Music Khabar Music Awards 2019","episode":null,"category":"उत्कृष्ट पप संगीतकार","contestant":{"voting_id":"MKA 016","name":"आशिष अबिरल लुकी लुकी "},"vote_count":1,"created_on":"2019-11-25T10:20:53.974850+05:45"},{"idx":"DEz9AzEeUuqXVcMUJLqGL2","contest":"Bindabasini Music Awards 2076","episode":null,"category":"सर्वोत्कृष्ट गायन सुगम संगीत महिला","contestant":{"voting_id":"3C","name":"संगीता रान| प्रधान"},"vote_count":1,"created_on":"2019-11-25T10:20:07.385146+05:45"},{"idx":"iZnqbgAsktWuzGLM5qSWNb","contest":"8th Music Khabar Music Awards 2019","episode":null,"category":" उत्कृष्ट चलचित्र पाश्र्व गायिका","contestant":{"voting_id":"MKA 026","name":"अन्जु पन्त तिम्रो लागि (ब्ल्याक)"},"vote_count":1,"created_on":"2019-11-25T10:18:01.154636+05:45"},{"idx":"4RgRL3SjdmdAuK8NLXBDQK","contest":"Bindabasini Music Awards 2076","episode":null,"category":"सर्वोत्कृष्ट गीत","contestant":{"voting_id":"1A","name":"प्रदिप चापागाई"},"vote_count":1,"created_on":"2019-11-25T10:17:17.528491+05:45"},{"idx":"ei24YQY2zgcrs9L6sF9ypj","contest":"8th Music Khabar Music Awards 2019","episode":null,"category":"उत्कृष्ट राष्ट्रिय भावको गीत","contestant":{"voting_id":" MKA 002","name":"ढाका टोपी दौरा सुरुवाल अमृतलाल देवकोटा सुनार"},"vote_count":1,"created_on":"2019-11-25T10:16:01.442217+05:45"},{"idx":"EUteBmRrh2iW7XGKxPqjNF","contest":"Mr and Miss Rauniyar 2019","episode":"Mr & Miss Rauniyar 2019","category":null,"contestant":{"voting_id":"006","name":"Angel Gupta"},"vote_count":100,"created_on":"2019-11-25T08:06:57.836755+05:45"},{"idx":"tZHBuhXiQDPDcoaLbM2Dk6","contest":"Mr and Miss Rauniyar 2019","episode":"Mr & Miss Rauniyar 2019","category":null,"contestant":{"voting_id":"006","name":"Angel Gupta"},"vote_count":1,"created_on":"2019-11-25T07:48:51.231903+05:45"},{"idx":"7fXUsCgEHcEaRUqDm6SjBV","contest":"Mr and Miss Rauniyar 2019","episode":"Mr & Miss Rauniyar 2019","category":null,"contestant":{"voting_id":"006","name":"Angel Gupta"},"vote_count":1,"created_on":"2019-11-25T07:45:32.773257+05:45"},{"idx":"EpZpCsaVpKxoegXbnSBDQP","contest":"8th Music Khabar Music Awards 2019","episode":null,"category":"उत्कृष्ट नव प्रतिभा महिला लोकदोहोरी","contestant":{"voting_id":"MKA 058","name":" सपना थापा जुनीजुनी "},"vote_count":1,"created_on":"2019-11-25T01:07:25.092241+05:45"},{"idx":"k6YXxB4ujNnAibSyRYgSta","contest":"8th Music Khabar Music Awards 2019","episode":null,"category":"उत्कृष्ट पप गायिका","contestant":{"voting_id":"MKA 006","name":"टीका प्रसाई लुकी लुकी "},"vote_count":1,"created_on":"2019-11-24T23:05:29.684453+05:45"},{"idx":"KBUXR76TcMei4h2pgzAU8M","contest":"Mr and Miss Rauniyar 2019","episode":"Mr & Miss Rauniyar 2019","category":null,"contestant":{"voting_id":"009","name":"Puja Rauniyar"},"vote_count":1,"created_on":"2019-11-24T22:13:03.980712+05:45"},{"idx":"jAD3jGQvsrFmyTinDpcTgU","contest":"Mr and Miss Rauniyar 2019","episode":"Mr & Miss Rauniyar 2019","category":null,"contestant":{"voting_id":"009","name":"Puja Rauniyar"},"vote_count":1,"created_on":"2019-11-24T18:50:41.786082+05:45"},{"idx":"tB4Nhks65ysFwS96Zz63dk","contest":"Mr and Miss Rauniyar 2019","episode":"Mr & Miss Rauniyar 2019","category":null,"contestant":{"voting_id":"006","name":"Angel Gupta"},"vote_count":1,"created_on":"2019-11-24T18:45:39.883962+05:45"},{"idx":"dFgXBkQsiCAWJU6m8Pbn7F","contest":"Mr and Miss Rauniyar 2019","episode":"Mr & Miss Rauniyar 2019","category":null,"contestant":{"voting_id":"003","name":"Nirmala Gupta"},"vote_count":1,"created_on":"2019-11-24T18:40:59.320563+05:45"},{"idx":"6BYwarfbgqH2bWqgvBCiXG","contest":"Bindabasini Music Awards 2076","episode":null,"category":"सर्वोत्कृष्ट संगीत सुगम संगीत","contestant":{"voting_id":"4A","name":"शन्तोष श्रेष्ठ"},"vote_count":1,"created_on":"2019-11-24T16:24:54.039774+05:45"},{"idx":"EyKafRqh8dr3ftkTDcaTiK","contest":"Bindabasini Music Awards 2076","episode":null,"category":"सर्वोत्कृष्ट गायन सुगम संगीत पुरुष","contestant":{"voting_id":"2B","name":"सरोज कोईराला"},"vote_count":1,"created_on":"2019-11-24T16:24:33.578489+05:45"},{"idx":"YrgeLbxNDpjaXm3ggY9zUh","contest":"8th Music Khabar Music Awards 2019","episode":null,"category":"उत्कृष्ट राष्ट्रिय भावको गीत","contestant":{"voting_id":"MKA 001","name":"जननी जन्मभूमिश्च रमेश दाहाल "},"vote_count":1,"created_on":"2019-11-24T16:23:56.954210+05:45"},{"idx":"iZNviDRa9SCfxsVYBoMbyZ","contest":"Mr and Miss Rauniyar 2019","episode":"Mr & Miss Rauniyar 2019","category":null,"contestant":{"voting_id":"010","name":"Roshani Rauniyar"},"vote_count":1,"created_on":"2019-11-24T15:28:29.657951+05:45"},{"idx":"zuBqE3TGjT64dwn9PDvN7c","contest":"Mr and Miss Rauniyar 2019","episode":"Mr & Miss Rauniyar 2019","category":null,"contestant":{"voting_id":"005","name":"Priya Rauniyar"},"vote_count":1,"created_on":"2019-11-24T14:43:18.496198+05:45"},{"idx":"JHvcKMfvfhaKoidyfnsBQP","contest":"8th Music Khabar Music Awards 2019","episode":null,"category":"उत्कृष्ट छायाँकार सुगम संगीत","contestant":{"voting_id":"MKA 152","name":" राजेश घिमिरे त्यो रात बिर्सन "},"vote_count":1,"created_on":"2019-11-24T13:20:57.888435+05:45"},{"idx":"4zMCvo7HHxubLT4dGTqRnB","contest":"Mr and Miss Rauniyar 2019","episode":"Mr & Miss Rauniyar 2019","category":null,"contestant":{"voting_id":"005","name":"Priya Rauniyar"},"vote_count":1,"created_on":"2019-11-24T13:16:22.553902+05:45"},{"idx":"hpnGq9Z2inSpriZYCCFZbF","contest":"Mr and Miss Rauniyar 2019","episode":"Mr & Miss Rauniyar 2019","category":null,"contestant":{"voting_id":"006","name":"Angel Gupta"},"vote_count":1,"created_on":"2019-11-24T12:40:23.986170+05:45"},{"idx":"W6uieCYg4fG9naJW3Y3sQc","contest":"Bindabasini Music Awards 2076","episode":null,"category":"सर्वोत्कृष्ट गायन सुगम संगीत महिला","contestant":{"voting_id":"3E","name":"जुनु रिजाल काफ्ले"},"vote_count":1,"created_on":"2019-11-24T12:40:10.459407+05:45"}]}