{"total_pages":275,"total_records":13721,"next":"https://khalti.com/api/v2/vuservote/?page=249","previous":"https://khalti.com/api/v2/vuservote/?page=247","record_range":[12351,12400],"current_page":248,"records":[{"idx":"bnk7GmP3aHAHYWkFpwgenB","contest":"8th Music Khabar Music Awards 2019","episode":null,"category":"उत्कृष्ट राष्ट्रिय भावको गीत","contestant":{"voting_id":"MKA 004","name":"विश्वको अग्लो हिमाल पुरुषोत्तम सानु "},"vote_count":1,"created_on":"2019-11-24T11:58:18.601172+05:45"},{"idx":"42KCSCBZp3MdqXBzC66rEC","contest":"Mr and Miss Rauniyar 2019","episode":"Mr & Miss Rauniyar 2019","category":null,"contestant":{"voting_id":"003","name":"Nirmala Gupta"},"vote_count":5,"created_on":"2019-11-24T11:17:20.611328+05:45"},{"idx":"zFUvVJAX3N2ozAcAULmCrk","contest":"8th Music Khabar Music Awards 2019","episode":null,"category":"उत्कृष्ट राष्ट्रिय भावको गीत","contestant":{"voting_id":"MKA 001","name":"जननी जन्मभूमिश्च रमेश दाहाल "},"vote_count":1,"created_on":"2019-11-24T10:54:04.738143+05:45"},{"idx":"Tq9v8Vh9ird7JztnNewda3","contest":"Mr and Miss Rauniyar 2019","episode":"Mr & Miss Rauniyar 2019","category":null,"contestant":{"voting_id":"003","name":"Nirmala Gupta"},"vote_count":1,"created_on":"2019-11-24T10:48:30.752997+05:45"},{"idx":"jwfGBrKbKLw2zG79NqvEAC","contest":"Mr and Miss Rauniyar 2019","episode":"Mr & Miss Rauniyar 2019","category":null,"contestant":{"voting_id":"010","name":"Roshani Rauniyar"},"vote_count":1,"created_on":"2019-11-24T10:45:00.689304+05:45"},{"idx":"QEpxVW5kfJvWYThv5zrqAe","contest":"Bindabasini Music Awards 2076","episode":null,"category":"सर्वोत्कृष्ट म्यूजिक भिडियो निर्देशक आधुनिक","contestant":{"voting_id":"25B","name":"जनक सिंह"},"vote_count":1,"created_on":"2019-11-23T20:49:48.687951+05:45"},{"idx":"JmwRHtf9jnKDaDZb9xX9TB","contest":"Bindabasini Music Awards 2076","episode":null,"category":"सर्वोत्कृष्ट राष्ट्रिय भावनाले ओतप्रोत गीत","contestant":{"voting_id":"23D","name":"चेतन सापकोटा"},"vote_count":1,"created_on":"2019-11-23T13:57:28.966292+05:45"},{"idx":"gm6hGZKrV8uYAn97uEZxjb","contest":"Bindabasini Music Awards 2076","episode":null,"category":"सर्वोत्कृष्ट म्यूजिक भिडियो निर्देशक आधुनिक","contestant":{"voting_id":"25A","name":"प्रकाश धिताल"},"vote_count":1,"created_on":"2019-11-23T13:57:06.504688+05:45"},{"idx":"CKKHXNzaT2Umz98H2Gwm3R","contest":"Bindabasini Music Awards 2076","episode":null,"category":"सर्वोत्कृष्ट छायांकन","contestant":{"voting_id":"26E","name":"सागर गौतम"},"vote_count":1,"created_on":"2019-11-23T13:54:40.897635+05:45"},{"idx":"Ums92PyADFoMJE796P5L78","contest":"Bindabasini Music Awards 2076","episode":null,"category":"सर्वोत्कृष्ट भिडियो सम्पादन","contestant":{"voting_id":"27B","name":"विश्णु शर्मा"},"vote_count":1,"created_on":"2019-11-23T13:53:58.910758+05:45"},{"idx":"FhFeujBhwAcCWcf77iWe4M","contest":"Bindabasini Music Awards 2076","episode":null,"category":"सर्वोत्कृष्ट नवप्रतिभा आधुनिक, पप","contestant":{"voting_id":"28C","name":"बिक्रम बराल"},"vote_count":1,"created_on":"2019-11-23T13:53:20.628236+05:45"},{"idx":"qLBUvjs3ggVhaUTCKVPu3W","contest":"Bindabasini Music Awards 2076","episode":null,"category":"सर्वोत्कृष्ट नवप्रतिभा लोकदोहोरी","contestant":{"voting_id":"29B","name":"सुस्मिता घर्ती मगर"},"vote_count":1,"created_on":"2019-11-23T13:52:58.888317+05:45"},{"idx":"sxU7xiCMXy49CXj3jDBgvC","contest":"Bindabasini Music Awards 2076","episode":null,"category":"सर्वोत्कृष्ट म्युजिक कम्पनी","contestant":{"voting_id":"30A","name":"भावना म्यूजिक सोलुशन"},"vote_count":1,"created_on":"2019-11-23T13:51:35.964302+05:45"},{"idx":"KAYdfej8hijXAfdSN38LqZ","contest":"Bindabasini Music Awards 2076","episode":null,"category":"सर्वोत्कृष्ट लोकदोहोरी गीत","contestant":{"voting_id":"17B","name":"प्रकाश सपुत"},"vote_count":1,"created_on":"2019-11-23T13:49:42.337818+05:45"},{"idx":"w5YScNUx3Jj5HZGqcR57h2","contest":"Bindabasini Music Awards 2076","episode":null,"category":"सर्वोत्कृष्ट लोकदोहोरी भाका","contestant":{"voting_id":"15E","name":"बसन्त थापा"},"vote_count":1,"created_on":"2019-11-23T13:49:25.627896+05:45"},{"idx":"Rr932fRbyQz8icoCMyrrcB","contest":"Bindabasini Music Awards 2076","episode":null,"category":"सर्वोत्कृष्ट लोकदोहोरी गायिका","contestant":{"voting_id":"14D","name":"शान्ती श्री परियार"},"vote_count":1,"created_on":"2019-11-23T13:48:55.702999+05:45"},{"idx":"Vkvf7z5h9RFV4TuqTNjDZ4","contest":"Bindabasini Music Awards 2076","episode":null,"category":"सर्वोत्कृष्ट लोकदोहोरी गायक","contestant":{"voting_id":"13E","name":"कुलेन्द्र विश्वकर्मा"},"vote_count":1,"created_on":"2019-11-23T13:48:31.526848+05:45"},{"idx":"rbp25jYjZdu3YtnzCEEiTX","contest":"Bindabasini Music Awards 2076","episode":null,"category":"सर्वोत्कृष्ट युगल गायन","contestant":{"voting_id":"12D","name":"गुणराज श्रेष्ठ र टिका प्रसाई"},"vote_count":1,"created_on":"2019-11-23T13:48:11.790130+05:45"},{"idx":"LZUrSwruCuATDKGL3XCFfg","contest":"Bindabasini Music Awards 2076","episode":null,"category":"सर्वोत्कृष्ट पप संगीत","contestant":{"voting_id":"11A","name":"राजेश थापा"},"vote_count":1,"created_on":"2019-11-23T13:47:54.730530+05:45"},{"idx":"fHwEt7ZBcHgWsAwQgWqx9V","contest":"Bindabasini Music Awards 2076","episode":null,"category":"सर्वोत्कृष्ट पप गायन महिला","contestant":{"voting_id":"10D","name":"टिका प्रसाई"},"vote_count":1,"created_on":"2019-11-23T13:47:22.709843+05:45"},{"idx":"zq4PumAUguLdPqLeY8FwfW","contest":"Bindabasini Music Awards 2076","episode":null,"category":"सर्वोत्कृष्ट पप गायन पुरुष","contestant":{"voting_id":"9C","name":"बिक्रम बराल"},"vote_count":1,"created_on":"2019-11-23T13:46:19.182981+05:45"},{"idx":"vBdhK2zKhfYzUmQ3wspVZL","contest":"Bindabasini Music Awards 2076","episode":null,"category":"सर्वोत्कृष्ट एरेञ्जर संगीत संयोजन","contestant":{"voting_id":"8C","name":"उदयराज पौडेल"},"vote_count":1,"created_on":"2019-11-23T13:45:53.574729+05:45"},{"idx":"kNRGpvMMr5tbWuRuEBYmXk","contest":"Bindabasini Music Awards 2076","episode":null,"category":"सर्वोत्कृष्ट एल्बम सुगम संगीत","contestant":{"voting_id":"7D","name":"दुबषु क्षेत्री र पुनम क्षेत्री"},"vote_count":1,"created_on":"2019-11-23T13:45:10.547541+05:45"},{"idx":"TCHm2wENJMPwrhJzcneUPa","contest":"Bindabasini Music Awards 2076","episode":null,"category":"सर्वोत्कृष्ट महिला गीतकार","contestant":{"voting_id":"6E","name":"अम्बिका गुरुङ"},"vote_count":1,"created_on":"2019-11-23T13:44:42.641352+05:45"},{"idx":"P8uJFmXNfknpUcSBomGc4L","contest":"Bindabasini Music Awards 2076","episode":null,"category":"सर्वोत्कृष्ट रचना सुगम संगीत","contestant":{"voting_id":"5D","name":"एकनारायण भण्डारी"},"vote_count":1,"created_on":"2019-11-23T13:44:13.916022+05:45"},{"idx":"iuHnQz2TyS9fzjE922L5Ai","contest":"Bindabasini Music Awards 2076","episode":null,"category":"सर्वोत्कृष्ट संगीत सुगम संगीत","contestant":{"voting_id":"4C","name":"राजकुमार बगर"},"vote_count":1,"created_on":"2019-11-23T13:41:58.511616+05:45"},{"idx":"u8kapr3jpgkomwMa7KRayQ","contest":"Bindabasini Music Awards 2076","episode":null,"category":"सर्वोत्कृष्ट गायन सुगम संगीत पुरुष","contestant":{"voting_id":"2C","name":"राज सिग्देल"},"vote_count":1,"created_on":"2019-11-23T13:41:30.186692+05:45"},{"idx":"GmaUMp9GdUvwXbsVxzFU4T","contest":"Bindabasini Music Awards 2076","episode":null,"category":"सर्वोत्कृष्ट गीत","contestant":{"voting_id":"1D","name":"वि. पाण्डे"},"vote_count":1,"created_on":"2019-11-23T13:41:07.863182+05:45"},{"idx":"j4jr5Mj57zxanZGwMSEwd4","contest":"Mr and Miss Rauniyar 2019","episode":"Mr & Miss Rauniyar 2019","category":null,"contestant":{"voting_id":"006","name":"Angel Gupta"},"vote_count":1,"created_on":"2019-11-23T13:40:36.531592+05:45"},{"idx":"WVoyxTgYwDFLxLL3gpXCe5","contest":"Bindabasini Music Awards 2076","episode":null,"category":"सर्वोत्कृष्ट एल्बम सुगम संगीत","contestant":{"voting_id":"7D","name":"दुबषु क्षेत्री र पुनम क्षेत्री"},"vote_count":1,"created_on":"2019-11-22T21:03:07.645683+05:45"},{"idx":"GBa9iHSi679KsKnLiTqyp7","contest":"Bindabasini Music Awards 2076","episode":null,"category":"सर्वोत्कृष्ट गीत","contestant":{"voting_id":"1E","name":"अर्जुनरत्न भिकारी "},"vote_count":1,"created_on":"2019-11-22T21:02:49.123562+05:45"},{"idx":"qXY6hUyaFmvVui7zvtXLZH","contest":"8th Music Khabar Music Awards 2019","episode":null,"category":"उत्कृष्ट चलचित्र पाश्र्व गायक","contestant":{"voting_id":"MKA 031","name":"डेविट शंकर पहिलो नम्बरमा (छक्का पञ्जा ३) "},"vote_count":1,"created_on":"2019-11-22T17:55:28.175670+05:45"},{"idx":"8soU8HFhEgsqxJiSm9zaEf","contest":"Bindabasini Music Awards 2076","episode":null,"category":"सर्वोत्कृष्ट म्यूजिक भिडियो निर्देशक आधुनिक","contestant":{"voting_id":"25E","name":"काजिश श्रेष्ठ"},"vote_count":1,"created_on":"2019-11-22T11:39:40.266997+05:45"},{"idx":"zxYe5oWtDXcZtP75SJEzTj","contest":"Bindabasini Music Awards 2076","episode":null,"category":"सर्वोत्कृष्ट पप गायन महिला","contestant":{"voting_id":"10A","name":"छनु गुरुङ"},"vote_count":1,"created_on":"2019-11-22T10:09:08.238445+05:45"},{"idx":"vu5HkXwfkfnxGKiJ5uoU36","contest":"Bindabasini Music Awards 2076","episode":null,"category":"सर्वोत्कृष्ट राष्ट्रिय भावनाले ओतप्रोत गीत","contestant":{"voting_id":"23D","name":"चेतन सापकोटा"},"vote_count":1,"created_on":"2019-11-22T09:39:04.123750+05:45"},{"idx":"piibdupwvJHmYEYuTF74cn","contest":"Bindabasini Music Awards 2076","episode":null,"category":"सर्वोत्कृष्ट नवप्रतिभा आधुनिक, पप","contestant":{"voting_id":"28C","name":"बिक्रम बराल"},"vote_count":1,"created_on":"2019-11-22T09:38:01.615681+05:45"},{"idx":"YERKXhJsA2dymr3T8dNrWQ","contest":"Bindabasini Music Awards 2076","episode":null,"category":"सर्वोत्कृष्ट नवप्रतिभा लोकदोहोरी","contestant":{"voting_id":"29B","name":"सुस्मिता घर्ती मगर"},"vote_count":1,"created_on":"2019-11-22T09:37:08.740682+05:45"},{"idx":"qedebBPQaMc5fr2fNpUUSj","contest":"Bindabasini Music Awards 2076","episode":null,"category":"सर्वोत्कृष्ट पाश्र्व गायन पुरुष","contestant":{"voting_id":"20B","name":"रुपक डोटेल"},"vote_count":1,"created_on":"2019-11-22T09:35:33.879335+05:45"},{"idx":"WfMnFQpNrwktLhPn55qQcj","contest":"Bindabasini Music Awards 2076","episode":null,"category":"सर्वोत्कृष्ट संगीत चलचित्र","contestant":{"voting_id":"22A","name":"दिपक शर्मा"},"vote_count":1,"created_on":"2019-11-22T09:34:28.076620+05:45"},{"idx":"cHDG8RtWGSUzduwdeGwf2B","contest":"Bindabasini Music Awards 2076","episode":null,"category":"सर्वोत्कृष्ट लोकदोहोरी गीत","contestant":{"voting_id":"17B","name":"प्रकाश सपुत"},"vote_count":1,"created_on":"2019-11-22T09:33:28.090275+05:45"},{"idx":"kr9KWvcUNujHdEJjnfQ5A4","contest":"Bindabasini Music Awards 2076","episode":null,"category":"सर्वोत्कृष्ट लोकदोहोरी रचना ","contestant":{"voting_id":"16E","name":"एक नारायण भण्डारी"},"vote_count":1,"created_on":"2019-11-22T09:32:43.588331+05:45"},{"idx":"v3Shw4Jp4LEQptUsd44n7e","contest":"Bindabasini Music Awards 2076","episode":null,"category":"सर्वोत्कृष्ट लोकदोहोरी भाका","contestant":{"voting_id":"15E","name":"बसन्त थापा"},"vote_count":1,"created_on":"2019-11-22T09:32:01.062483+05:45"},{"idx":"h8qKPLBAfTJdHf8HBRQT58","contest":"Bindabasini Music Awards 2076","episode":null,"category":"सर्वोत्कृष्ट लोकदोहोरी गायक","contestant":{"voting_id":"13C","name":"सन्दिप न्यौपाने"},"vote_count":1,"created_on":"2019-11-22T09:31:25.608915+05:45"},{"idx":"5ro8vv5uAVQSRtSgDKC5Gi","contest":"Bindabasini Music Awards 2076","episode":null,"category":"सर्वोत्कृष्ट पप गायन पुरुष","contestant":{"voting_id":"9B","name":"प्रताप दास"},"vote_count":1,"created_on":"2019-11-22T09:30:23.734083+05:45"},{"idx":"T44tw3jiCPdrx8GiEvz4YP","contest":"Bindabasini Music Awards 2076","episode":null,"category":"सर्वोत्कृष्ट एरेञ्जर संगीत संयोजन","contestant":{"voting_id":"8E","name":"गोपाल रसाईली"},"vote_count":1,"created_on":"2019-11-22T09:29:37.840541+05:45"},{"idx":"ZqYUc9xtetG3cL5NLnM49L","contest":"Bindabasini Music Awards 2076","episode":null,"category":"सर्वोत्कृष्ट एल्बम सुगम संगीत","contestant":{"voting_id":"7B","name":"राज खम्बु"},"vote_count":1,"created_on":"2019-11-22T09:28:40.971856+05:45"},{"idx":"cgp2QjjUiJgtK9cxzcgRFd","contest":"Bindabasini Music Awards 2076","episode":null,"category":"सर्वोत्कृष्ट रचना सुगम संगीत","contestant":{"voting_id":"5D","name":"एकनारायण भण्डारी"},"vote_count":1,"created_on":"2019-11-22T09:27:38.567862+05:45"},{"idx":"8uunSZQTmEGC94w7hvsSaE","contest":"Bindabasini Music Awards 2076","episode":null,"category":"सर्वोत्कृष्ट संगीत सुगम संगीत","contestant":{"voting_id":"4A","name":"शन्तोष श्रेष्ठ"},"vote_count":1,"created_on":"2019-11-22T09:26:48.583298+05:45"},{"idx":"grXbZVc6QkCPnmEtGhA5TT","contest":"Bindabasini Music Awards 2076","episode":null,"category":"सर्वोत्कृष्ट गायन सुगम संगीत महिला","contestant":{"voting_id":"3C","name":"संगीता रान| प्रधान"},"vote_count":1,"created_on":"2019-11-22T09:26:00.591256+05:45"},{"idx":"EeXPwEGaZ7fAKBrGhDdksm","contest":"Bindabasini Music Awards 2076","episode":null,"category":"सर्वोत्कृष्ट गायन सुगम संगीत पुरुष","contestant":{"voting_id":"2C","name":"राज सिग्देल"},"vote_count":1,"created_on":"2019-11-22T09:25:12.834471+05:45"}]}