{"total_pages":275,"total_records":13721,"next":"https://khalti.com/api/v2/vuservote/?page=250","previous":"https://khalti.com/api/v2/vuservote/?page=248","record_range":[12401,12450],"current_page":249,"records":[{"idx":"XmPvnKJm3e6LvaJ4DcgWF4","contest":"Bindabasini Music Awards 2076","episode":null,"category":"सर्वोत्कृष्ट लोकदोहोरी गायिका","contestant":{"voting_id":"14D","name":"शान्ती श्री परियार"},"vote_count":5,"created_on":"2019-11-22T09:23:39.977549+05:45"},{"idx":"RKiz8q2N6aGrQDgx6Y9UX8","contest":"Bindabasini Music Awards 2076","episode":null,"category":"सर्वोत्कृष्ट गीत","contestant":{"voting_id":"1A","name":"प्रदिप चापागाई"},"vote_count":1,"created_on":"2019-11-22T09:21:20.545496+05:45"},{"idx":"MG8fksGKAK4JfTK5uo7jDZ","contest":"Bindabasini Music Awards 2076","episode":null,"category":"सर्वोत्कृष्ट लोकदोहोरी गायिका","contestant":{"voting_id":"14D","name":"शान्ती श्री परियार"},"vote_count":1,"created_on":"2019-11-22T09:21:09.269840+05:45"},{"idx":"r6w9EvcDqTTFYDoqgwtLPV","contest":"Bindabasini Music Awards 2076","episode":null,"category":"सर्वोत्कृष्ट संगीत चलचित्र","contestant":{"voting_id":"22C","name":"अर्जुन पोखरेल"},"vote_count":1,"created_on":"2019-11-22T09:20:53.582030+05:45"},{"idx":"BUqmRkSBqwFXx9dK7LKMHH","contest":"Bindabasini Music Awards 2076","episode":null,"category":"सर्वोत्कृष्ट गीत","contestant":{"voting_id":"1A","name":"प्रदिप चापागाई"},"vote_count":1,"created_on":"2019-11-22T08:53:51.489563+05:45"},{"idx":"f8Cop2MHPo72fL2xKeh7JP","contest":"Bindabasini Music Awards 2076","episode":null,"category":"सर्वोत्कृष्ट राष्ट्रिय भावनाले ओतप्रोत गीत","contestant":{"voting_id":"23B","name":"प्रभात सुवेदी"},"vote_count":1,"created_on":"2019-11-21T23:33:30.264799+05:45"},{"idx":"mMeEe2MsjiLfmyVgg2xkCh","contest":"Bindabasini Music Awards 2076","episode":null,"category":"सर्वोत्कृष्ट म्यूजिक भिडियो निर्देशक आधुनिक","contestant":{"voting_id":"25E","name":"काजिश श्रेष्ठ"},"vote_count":1,"created_on":"2019-11-21T23:32:09.973310+05:45"},{"idx":"AC2DZLDZVFnzpKoyXRZ8yi","contest":"Bindabasini Music Awards 2076","episode":null,"category":"सर्वोत्कृष्ट लोकदोहोरी गीत","contestant":{"voting_id":"17B","name":"प्रकाश सपुत"},"vote_count":1,"created_on":"2019-11-21T18:32:43.043146+05:45"},{"idx":"Vvd9NnuUzBGpyGa3XRaLyE","contest":"Bindabasini Music Awards 2076","episode":null,"category":"सर्वोत्कृष्ट मोडल भिडियोतर्फ लाकेदोहोरी","contestant":{"voting_id":"19E","name":"शंकर विसी र अन्जली अधिकारी"},"vote_count":1,"created_on":"2019-11-21T18:31:25.209168+05:45"},{"idx":"Xku7V4PHE29QhiZBsSmAb9","contest":"Bindabasini Music Awards 2076","episode":null,"category":"सर्वोत्कृष्ट गायन सुगम संगीत महिला","contestant":{"voting_id":"3E","name":"जुनु रिजाल काफ्ले"},"vote_count":1,"created_on":"2019-11-21T09:15:43.745951+05:45"},{"idx":"dzvaPB8hysJnvwGQwHhaH4","contest":"Bindabasini Music Awards 2076","episode":null,"category":"सर्वोत्कृष्ट म्युजिक कम्पनी","contestant":{"voting_id":"30B","name":"त्रिसना म्यूजिक कम्पनी"},"vote_count":1,"created_on":"2019-11-21T08:57:11.104839+05:45"},{"idx":"kh8djTgfSdUG6jfLT5TrWW","contest":"Bindabasini Music Awards 2076","episode":null,"category":"सर्वोत्कृष्ट गायन सुगम संगीत पुरुष","contestant":{"voting_id":"2A","name":"सजल न्यौपाने"},"vote_count":1,"created_on":"2019-11-21T08:56:50.069544+05:45"},{"idx":"UThi9GRAabPay5JT6GxX4e","contest":"Bindabasini Music Awards 2076","episode":null,"category":"सर्वोत्कृष्ट गीत","contestant":{"voting_id":"1A","name":"प्रदिप चापागाई"},"vote_count":1,"created_on":"2019-11-21T08:56:29.152846+05:45"},{"idx":"4VBHjx3MiBoBEs8fhbrsXZ","contest":"Bindabasini Music Awards 2076","episode":null,"category":"सर्वोत्कृष्ट लोकदोहोरी रचना ","contestant":{"voting_id":"16A","name":"नवराज दाहाल"},"vote_count":100,"created_on":"2019-11-20T21:18:21.673594+05:45"},{"idx":"xyKniSUXLq6EvNctnFSU3a","contest":"Mechi Singing Star","episode":"Mechi Rising Star","category":null,"contestant":{"voting_id":"02","name":"Rachana Rimal"},"vote_count":1,"created_on":"2019-11-20T20:46:18.080455+05:45"},{"idx":"JsuV74VHVoWWn9tkQmctMZ","contest":"Bindabasini Music Awards 2076","episode":null,"category":"सर्वोत्कृष्ट राष्ट्रिय भावनाले ओतप्रोत गीत","contestant":{"voting_id":"23D","name":"चेतन सापकोटा"},"vote_count":1,"created_on":"2019-11-20T19:48:24.669754+05:45"},{"idx":"esS4baCFktNKfGy7yRvw3c","contest":"Mechi Singing Star","episode":"Mechi Rising Star","category":null,"contestant":{"voting_id":"06","name":"Samjhana Pradhan"},"vote_count":5,"created_on":"2019-11-20T18:19:21.664185+05:45"},{"idx":"ykgTenx2BvZZxHMLVNbdVh","contest":"Mechi Singing Star","episode":"Mechi Rising Star","category":null,"contestant":{"voting_id":"01","name":"Anushka Malla"},"vote_count":1,"created_on":"2019-11-20T18:18:59.274248+05:45"},{"idx":"JWkkFLgME8Hs2uU7Rspi5U","contest":"Bindabasini Music Awards 2076","episode":null,"category":"सर्वोत्कृष्ट गीत","contestant":{"voting_id":"1E","name":"अर्जुनरत्न भिकारी "},"vote_count":1,"created_on":"2019-11-20T18:18:44.469798+05:45"},{"idx":"Pk3XWiFmFzmXysXtEMSDkL","contest":"Bindabasini Music Awards 2076","episode":null,"category":"सर्वोत्कृष्ट लोकदोहोरी रचना ","contestant":{"voting_id":"16B","name":"सावित्रा चिलुवाल"},"vote_count":1,"created_on":"2019-11-20T17:42:03.981888+05:45"},{"idx":"XwfFXPfqhAt2Vn9x8XDYp7","contest":"Bindabasini Music Awards 2076","episode":null,"category":"सर्वोत्कृष्ट लोकदोहोरी गीत","contestant":{"voting_id":"17B","name":"प्रकाश सपुत"},"vote_count":1,"created_on":"2019-11-20T11:55:27.845821+05:45"},{"idx":"ReQFAxzULnfvaMF98fSGa4","contest":"Bindabasini Music Awards 2076","episode":null,"category":"सर्वोत्कृष्ट संगीत चलचित्र","contestant":{"voting_id":"22C","name":"अर्जुन पोखरेल"},"vote_count":1,"created_on":"2019-11-20T10:22:17.683524+05:45"},{"idx":"MJgwSEN8mvzTgznYfFBxHN","contest":"Bindabasini Music Awards 2076","episode":null,"category":"सर्वोत्कृष्ट पप गायन महिला","contestant":{"voting_id":"10C","name":"सम्बृद्धि राई"},"vote_count":1,"created_on":"2019-11-20T08:11:43.131932+05:45"},{"idx":"A56G9u5Z59zD45RQFAvroM","contest":"Bindabasini Music Awards 2076","episode":null,"category":"सर्वोत्कृष्ट पप गायन पुरुष","contestant":{"voting_id":"9D","name":"सचिन रौनियार"},"vote_count":1,"created_on":"2019-11-20T08:10:21.942025+05:45"},{"idx":"rS5ziTZazSbiG3VB3NzrPQ","contest":"Mechi Singing Star","episode":"Mechi Rising Star","category":null,"contestant":{"voting_id":"18","name":"Ritu Rai"},"vote_count":1,"created_on":"2019-11-20T08:00:58.188582+05:45"},{"idx":"gFcoyqrKzM2aLeZ9YHF6tT","contest":"Bindabasini Music Awards 2076","episode":null,"category":"सर्वोत्कृष्ट भिडियो सम्पादन","contestant":{"voting_id":"27C","name":"बिनोद बम"},"vote_count":1,"created_on":"2019-11-19T21:22:41.771584+05:45"},{"idx":"apg95MtFB84KdUSf5frY2P","contest":"Bindabasini Music Awards 2076","episode":null,"category":"सर्वोत्कृष्ट राष्ट्रिय भावनाले ओतप्रोत गीत","contestant":{"voting_id":"23C","name":"ऋषि अधिकारी"},"vote_count":1,"created_on":"2019-11-19T21:21:12.196221+05:45"},{"idx":"zbWse5zUKck926pmoc6RR7","contest":"Bindabasini Music Awards 2076","episode":null,"category":"सर्वोत्कृष्ट लोकदोहोरी रचना ","contestant":{"voting_id":"16A","name":"नवराज दाहाल"},"vote_count":1,"created_on":"2019-11-19T21:10:37.033413+05:45"},{"idx":"rkqwRC7izUvPgzr7K2DSbC","contest":"Mechi Singing Star","episode":"Mechi Rising Star","category":null,"contestant":{"voting_id":"01","name":"Anushka Malla"},"vote_count":1,"created_on":"2019-11-19T20:49:04.187438+05:45"},{"idx":"k4mYyNcpC6DPFMz7GNzAb2","contest":"Mechi Singing Star","episode":"Mechi Rising Star","category":null,"contestant":{"voting_id":"03","name":"Prachi Subedi"},"vote_count":1,"created_on":"2019-11-19T19:34:36.325738+05:45"},{"idx":"VgBTaGWcEoKvJFyUmGDFjK","contest":"Bindabasini Music Awards 2076","episode":null,"category":"सर्वोत्कृष्ट संगीत चलचित्र","contestant":{"voting_id":"22C","name":"अर्जुन पोखरेल"},"vote_count":1,"created_on":"2019-11-19T19:17:18.478948+05:45"},{"idx":"LGtFne9xVazff536T9Jc3e","contest":"Mechi Singing Star","episode":"Mechi Rising Star","category":null,"contestant":{"voting_id":"01","name":"Anushka Malla"},"vote_count":1,"created_on":"2019-11-19T18:37:46.813497+05:45"},{"idx":"Kr2bWxDSyJYkAggdNbsQjf","contest":"Bindabasini Music Awards 2076","episode":null,"category":"सर्वोत्कृष्ट पप गायन महिला","contestant":{"voting_id":"10E","name":"प्रविशा अधिकारी"},"vote_count":1,"created_on":"2019-11-19T16:57:35.947425+05:45"},{"idx":"LrpV9kuRFGi9pJcahfqy3Z","contest":"Bindabasini Music Awards 2076","episode":null,"category":"सर्वोत्कृष्ट गायन सुगम संगीत पुरुष","contestant":{"voting_id":"2D","name":"नरेन्द्र प्यासी"},"vote_count":1,"created_on":"2019-11-19T13:48:13.887684+05:45"},{"idx":"eAMBerrj8PpquhHwrMvg6b","contest":"Bindabasini Music Awards 2076","episode":null,"category":"सर्वोत्कृष्ट पप गायन पुरुष","contestant":{"voting_id":"9E","name":"समिर आचार्य"},"vote_count":1,"created_on":"2019-11-19T13:01:18.735873+05:45"},{"idx":"2H6MjN5Kis3QN7GBk5W9Q6","contest":"Bindabasini Music Awards 2076","episode":null,"category":"सर्वोत्कृष्ट गीत","contestant":{"voting_id":"1E","name":"अर्जुनरत्न भिकारी "},"vote_count":1,"created_on":"2019-11-19T10:57:29.392668+05:45"},{"idx":"WzdJkZmhFg7226hPYTfFjH","contest":"Mechi Singing Star","episode":"Mechi Rising Star","category":null,"contestant":{"voting_id":"11","name":"Roshni Gahatraj"},"vote_count":1,"created_on":"2019-11-19T10:37:10.502838+05:45"},{"idx":"DVbTJwVWuNCJphmfAMkLvZ","contest":"Mechi Singing Star","episode":"Mechi Rising Star","category":null,"contestant":{"voting_id":"01","name":"Anushka Malla"},"vote_count":1,"created_on":"2019-11-19T09:21:52.258388+05:45"},{"idx":"Gkof5FH9A75oNP6Yw4bQ2C","contest":"Mechi Singing Star","episode":"Mechi Rising Star","category":null,"contestant":{"voting_id":"01","name":"Anushka Malla"},"vote_count":1,"created_on":"2019-11-18T23:19:53.887770+05:45"},{"idx":"QZjiF7JhJgKtCtxKK4EaAj","contest":"Bindabasini Music Awards 2076","episode":null,"category":"सर्वोत्कृष्ट पप गायन पुरुष","contestant":{"voting_id":"9B","name":"प्रताप दास"},"vote_count":1,"created_on":"2019-11-18T10:22:59.199467+05:45"},{"idx":"svZ6EASi6bD39MfVptosec","contest":"Bindabasini Music Awards 2076","episode":null,"category":"सर्वोत्कृष्ट गीत","contestant":{"voting_id":"1B","name":"दिलिप योञ्जन तामाङ"},"vote_count":1,"created_on":"2019-11-18T08:12:57.584994+05:45"},{"idx":"z2AjLXtEEHT7XwNN8PZusg","contest":"Mechi Singing Star","episode":"Mechi Rising Star","category":null,"contestant":{"voting_id":"07","name":"Rosha Phuyal"},"vote_count":1,"created_on":"2019-11-18T08:12:04.369253+05:45"},{"idx":"52D963Wystm6D6hu3iMc5i","contest":"Mechi Singing Star","episode":"Mechi Rising Star","category":null,"contestant":{"voting_id":"01","name":"Anushka Malla"},"vote_count":1,"created_on":"2019-11-17T21:03:01.310345+05:45"},{"idx":"K9ozMCMAnFfNbMDH8LftCV","contest":"Mechi Singing Star","episode":"Mechi Rising Star","category":null,"contestant":{"voting_id":"01","name":"Anushka Malla"},"vote_count":1,"created_on":"2019-11-16T13:59:58.338041+05:45"},{"idx":"Jf3HinBjzoUNKtyT6MFMSQ","contest":"Bindabasini Music Awards 2076","episode":null,"category":"सर्वोत्कृष्ट संगीत सुगम संगीत","contestant":{"voting_id":"4A","name":"शन्तोष श्रेष्ठ"},"vote_count":1,"created_on":"2019-11-16T10:38:15.885823+05:45"},{"idx":"vQzvdRbgAWx4QawDEhEXva","contest":"Bindabasini Music Awards 2076","episode":null,"category":"सर्वोत्कृष्ट म्यूजिक भिडियो निर्देशक लोकदोहोरी","contestant":{"voting_id":"24D","name":"बबिता श्रेष्ठ (मलेकु)"},"vote_count":1,"created_on":"2019-11-16T10:37:36.314517+05:45"},{"idx":"7eb9v3oRXc3uB45rpJ2cXa","contest":"Bindabasini Music Awards 2076","episode":null,"category":"सर्वोत्कृष्ट नवप्रतिभा आधुनिक, पप","contestant":{"voting_id":"28C","name":"बिक्रम बराल"},"vote_count":1,"created_on":"2019-11-16T08:13:19.175897+05:45"},{"idx":"woaed5Yv28S26KpjzJaUj9","contest":"Bindabasini Music Awards 2076","episode":null,"category":"सर्वोत्कृष्ट म्युजिक कम्पनी","contestant":{"voting_id":"30B","name":"त्रिसना म्यूजिक कम्पनी"},"vote_count":1,"created_on":"2019-11-16T08:12:44.875607+05:45"},{"idx":"XPEGHWs5GXsxcZbksK5QFS","contest":"Bindabasini Music Awards 2076","episode":null,"category":"सर्वोत्कृष्ट एल्बम सुगम संगीत","contestant":{"voting_id":"7A","name":"सुविन्द्र केसी"},"vote_count":1,"created_on":"2019-11-16T08:12:08.233679+05:45"},{"idx":"PxFowQt86nFPL8Eg62q4XL","contest":"Mechi Singing Star","episode":"Mechi Rising Star","category":null,"contestant":{"voting_id":"20","name":"Rojal Shrestha"},"vote_count":1,"created_on":"2019-11-16T08:11:36.705550+05:45"}]}