{"total_pages":275,"total_records":13717,"next":"https://khalti.com/api/v2/vuservote/?page=26","previous":"https://khalti.com/api/v2/vuservote/?page=24","record_range":[1201,1250],"current_page":25,"records":[{"idx":"f5FEdLmCkMLj7rchM7zPhY","contest":"Model Superstar","episode":"Model Superstar Finale","category":null,"contestant":{"voting_id":"01","name":"Sajina Subba"},"vote_count":1,"created_on":"2020-01-30T22:56:27.392433+05:45"},{"idx":"b6Ar2VCer83kTiW5RsadSF","contest":"Music Eve 2020","episode":"Music Eve 2020 IOE","category":null,"contestant":{"voting_id":"11","name":"Nitesh subedi"},"vote_count":1,"created_on":"2020-01-30T22:42:05.370341+05:45"},{"idx":"BBX9UhfNJpzEGX4Bp2QKqL","contest":"Model Superstar","episode":"Model Superstar Finale","category":null,"contestant":{"voting_id":"32","name":"Ichhya Adhikari"},"vote_count":1,"created_on":"2020-01-30T22:39:40.169465+05:45"},{"idx":"G4RBSsFjGRYfTsKLdyw6JH","contest":"Model Superstar","episode":"Model Superstar Finale","category":null,"contestant":{"voting_id":"02","name":"Srijana Basnet"},"vote_count":1,"created_on":"2020-01-30T22:38:30.829907+05:45"},{"idx":"VSJeiueyyvrbVtkTZFjgY3","contest":"Model Superstar","episode":"Model Superstar Finale","category":null,"contestant":{"voting_id":"11","name":"Rachana Karki"},"vote_count":1,"created_on":"2020-01-30T22:31:56.620635+05:45"},{"idx":"wya8hRQ3jTDSRd8RJuVhHe","contest":"Music Eve 2020","episode":"Music Eve 2020 IOE","category":null,"contestant":{"voting_id":"23","name":"The Acoustic Aero"},"vote_count":1,"created_on":"2020-01-30T22:27:57.665693+05:45"},{"idx":"zijGT7RX9vX6LoC3CFo9iP","contest":"Music Eve 2020","episode":"Music Eve 2020 IOE","category":null,"contestant":{"voting_id":"07","name":"Chemical Latch"},"vote_count":1,"created_on":"2020-01-30T22:27:13.511017+05:45"},{"idx":"3FjDFPKdxwXwbvB39WANff","contest":"Music Eve 2020","episode":"Music Eve 2020 IOE","category":null,"contestant":{"voting_id":"07","name":"Chemical Latch"},"vote_count":1,"created_on":"2020-01-30T21:30:33.022318+05:45"},{"idx":"MFAwYRsJpmw49mbbVRgY3k","contest":"Music Eve 2020","episode":"Music Eve 2020 IOE","category":null,"contestant":{"voting_id":"23","name":"The Acoustic Aero"},"vote_count":1,"created_on":"2020-01-30T21:13:25.926118+05:45"},{"idx":"xcRg8C2Si22JPH6pDx7fym","contest":"Music Eve 2020","episode":"Music Eve 2020 IOE","category":null,"contestant":{"voting_id":"01","name":"4th GH"},"vote_count":1,"created_on":"2020-01-30T21:11:14.952316+05:45"},{"idx":"xUs8YbPr2vbqFSuws3CFae","contest":"Model Superstar","episode":"Model Superstar Finale","category":null,"contestant":{"voting_id":"01","name":"Sajina Subba"},"vote_count":1,"created_on":"2020-01-30T21:10:58.738141+05:45"},{"idx":"gMhFZNmUb7bFCdNX7jDEzY","contest":"Music Eve 2020","episode":"Music Eve 2020 IOE","category":null,"contestant":{"voting_id":"23","name":"The Acoustic Aero"},"vote_count":1,"created_on":"2020-01-30T21:10:04.761873+05:45"},{"idx":"j8PaVUHanv8kLGXrDAehC8","contest":"Music Eve 2020","episode":"Music Eve 2020 IOE","category":null,"contestant":{"voting_id":"12","name":"one band"},"vote_count":5,"created_on":"2020-01-30T21:01:28.955800+05:45"},{"idx":"TLjZfH4p3r2f7oxLYSJAfN","contest":"Model Superstar","episode":"Model Superstar Finale","category":null,"contestant":{"voting_id":"12","name":"Rabin Ghising"},"vote_count":1,"created_on":"2020-01-30T20:57:18.986940+05:45"},{"idx":"UWzfzqpFzkQoGyc62dsYed","contest":"Model Superstar","episode":"Model Superstar Finale","category":null,"contestant":{"voting_id":"12","name":"Rabin Ghising"},"vote_count":1,"created_on":"2020-01-30T20:56:15.317968+05:45"},{"idx":"gceekRisc82niPftNrmWaJ","contest":"Music Eve 2020","episode":"Music Eve 2020 IOE","category":null,"contestant":{"voting_id":"26","name":"Utsav Pradhan"},"vote_count":1,"created_on":"2020-01-30T20:54:18.852004+05:45"},{"idx":"99MEaj26SqRdncJ2j6NnZY","contest":"Model Superstar","episode":"Model Superstar Finale","category":null,"contestant":{"voting_id":"01","name":"Sajina Subba"},"vote_count":1,"created_on":"2020-01-30T20:50:27.013862+05:45"},{"idx":"Cm78HUBnpAQ66prc3UbyL2","contest":"Model Superstar","episode":"Model Superstar Finale","category":null,"contestant":{"voting_id":"16","name":"Anil Karki"},"vote_count":1,"created_on":"2020-01-30T20:50:00.718372+05:45"},{"idx":"fg2AvrZVhWg8JEPNs59cX3","contest":"Model Superstar","episode":"Model Superstar Finale","category":null,"contestant":{"voting_id":"04","name":"Sabita Maharjan"},"vote_count":1,"created_on":"2020-01-30T20:46:15.456749+05:45"},{"idx":"JGBPbYcts9fkgP5WRqRvGF","contest":"Model Superstar","episode":"Model Superstar Finale","category":null,"contestant":{"voting_id":"04","name":"Sabita Maharjan"},"vote_count":1,"created_on":"2020-01-30T20:45:57.010311+05:45"},{"idx":"Df2mxTM3GEY4RaCkDF7TpT","contest":"Music Eve 2020","episode":"Music Eve 2020 IOE","category":null,"contestant":{"voting_id":"16","name":"saahil duo"},"vote_count":1,"created_on":"2020-01-30T20:32:16.468362+05:45"},{"idx":"6iyX8DYj3RLnqjhD8XHEDP","contest":"Music Eve 2020","episode":"Music Eve 2020 IOE","category":null,"contestant":{"voting_id":"07","name":"Chemical Latch"},"vote_count":1,"created_on":"2020-01-30T20:30:12.230911+05:45"},{"idx":"UJpxtSMf5GSxESc4n9a6tS","contest":"Music Eve 2020","episode":"Music Eve 2020 IOE","category":null,"contestant":{"voting_id":"11","name":"Nitesh subedi"},"vote_count":1,"created_on":"2020-01-30T20:25:26.201108+05:45"},{"idx":"eZtM9iyJwCnrcdV3QMrozn","contest":"Music Eve 2020","episode":"Music Eve 2020 IOE","category":null,"contestant":{"voting_id":"07","name":"Chemical Latch"},"vote_count":1,"created_on":"2020-01-30T20:25:07.347349+05:45"},{"idx":"xXwSwEjuwJMtkbaMkUy8Xk","contest":"Music Eve 2020","episode":"Music Eve 2020 IOE","category":null,"contestant":{"voting_id":"08","name":"Kshitiz Basnet"},"vote_count":5,"created_on":"2020-01-30T20:22:16.850007+05:45"},{"idx":"egz8VXhkWCry2cyBZmzBpJ","contest":"Music Eve 2020","episode":"Music Eve 2020 IOE","category":null,"contestant":{"voting_id":"07","name":"Chemical Latch"},"vote_count":50,"created_on":"2020-01-30T20:22:10.033464+05:45"},{"idx":"gpaHn32WU7DVqgWgKW2NXH","contest":"Model Superstar","episode":"Model Superstar Finale","category":null,"contestant":{"voting_id":"01","name":"Sajina Subba"},"vote_count":1,"created_on":"2020-01-30T20:14:13.384779+05:45"},{"idx":"29fedPL8y7xXa83AbCuneE","contest":"Music Eve 2020","episode":"Music Eve 2020 IOE","category":null,"contestant":{"voting_id":"23","name":"The Acoustic Aero"},"vote_count":1,"created_on":"2020-01-30T20:05:16.472125+05:45"},{"idx":"iwDLKHmv23Qjyec7EbJwjk","contest":"Music Eve 2020","episode":"Music Eve 2020 IOE","category":null,"contestant":{"voting_id":"23","name":"The Acoustic Aero"},"vote_count":1,"created_on":"2020-01-30T20:04:45.623816+05:45"},{"idx":"CHoq86sFfcDUiTgBEuws44","contest":"Music Eve 2020","episode":"Music Eve 2020 IOE","category":null,"contestant":{"voting_id":"23","name":"The Acoustic Aero"},"vote_count":1,"created_on":"2020-01-30T19:50:57.674476+05:45"},{"idx":"Fxc6L32B3MpyEoii6JwKb4","contest":"Music Eve 2020","episode":"Music Eve 2020 IOE","category":null,"contestant":{"voting_id":"03","name":"Abishek Aryal"},"vote_count":1,"created_on":"2020-01-30T19:47:34.994487+05:45"},{"idx":"qdwbtJUUYn2V6nCZratWAR","contest":"Music Eve 2020","episode":"Music Eve 2020 IOE","category":null,"contestant":{"voting_id":"09","name":"Manoj Bhattarai"},"vote_count":1,"created_on":"2020-01-30T19:40:14.136787+05:45"},{"idx":"fQ6deU4pmAvXxJHLsXvDZ8","contest":"Music Eve 2020","episode":"Music Eve 2020 IOE","category":null,"contestant":{"voting_id":"12","name":"one band"},"vote_count":1,"created_on":"2020-01-30T19:40:00.865284+05:45"},{"idx":"3BLeWERDkDZL4cPGTauryM","contest":"Music Eve 2020","episode":"Music Eve 2020 IOE","category":null,"contestant":{"voting_id":"12","name":"one band"},"vote_count":1,"created_on":"2020-01-30T19:32:59.198181+05:45"},{"idx":"AtxMBXUZELDneEPZ6DVKjn","contest":"Music Eve 2020","episode":"Music Eve 2020 IOE","category":null,"contestant":{"voting_id":"23","name":"The Acoustic Aero"},"vote_count":1,"created_on":"2020-01-30T19:26:49.493385+05:45"},{"idx":"KAX9Fnc2KpqdcdjNAZ9cKa","contest":"Music Eve 2020","episode":"Music Eve 2020 IOE","category":null,"contestant":{"voting_id":"23","name":"The Acoustic Aero"},"vote_count":1,"created_on":"2020-01-30T19:19:56.784985+05:45"},{"idx":"KDKcsxhWWkgqs5RTB7vPGo","contest":"Model Superstar","episode":"Model Superstar Finale","category":null,"contestant":{"voting_id":"31","name":"Aakriti Subedi"},"vote_count":1,"created_on":"2020-01-30T18:58:47.574665+05:45"},{"idx":"sNhDwCCNtqSYVQytMageVb","contest":"Music Eve 2020","episode":"Music Eve 2020 IOE","category":null,"contestant":{"voting_id":"07","name":"Chemical Latch"},"vote_count":1,"created_on":"2020-01-30T18:56:51.947928+05:45"},{"idx":"PNrEMrzDUqbD52F2xazAP4","contest":"Music Eve 2020","episode":"Music Eve 2020 IOE","category":null,"contestant":{"voting_id":"12","name":"one band"},"vote_count":1,"created_on":"2020-01-30T18:53:55.805439+05:45"},{"idx":"JbJtcJVYPUA247mkCcvmf4","contest":"Music Eve 2020","episode":"Music Eve 2020 IOE","category":null,"contestant":{"voting_id":"17","name":"sanskriti rimal"},"vote_count":1,"created_on":"2020-01-30T18:52:03.013593+05:45"},{"idx":"KPtB8ZPgjKi9F7nYa4pqFe","contest":"Model Superstar","episode":"Model Superstar Finale","category":null,"contestant":{"voting_id":"02","name":"Srijana Basnet"},"vote_count":1,"created_on":"2020-01-30T18:50:42.795466+05:45"},{"idx":"b66pJH2NqU7M6idsYUF2sE","contest":"Music Eve 2020","episode":"Music Eve 2020 IOE","category":null,"contestant":{"voting_id":"03","name":"Abishek Aryal"},"vote_count":1,"created_on":"2020-01-30T18:30:45.572801+05:45"},{"idx":"AKkEdR78m9da8QxV6fqdvX","contest":"Music Eve 2020","episode":"Music Eve 2020 IOE","category":null,"contestant":{"voting_id":"07","name":"Chemical Latch"},"vote_count":1,"created_on":"2020-01-30T17:50:22.887212+05:45"},{"idx":"Fe2BSwy5aVKVfDY4NbLD9f","contest":"Music Eve 2020","episode":"Music Eve 2020 IOE","category":null,"contestant":{"voting_id":"02","name":"abinash acharya"},"vote_count":1,"created_on":"2020-01-30T17:26:09.670308+05:45"},{"idx":"62LHYncJAxG8qNF2u6StvM","contest":"Music Eve 2020","episode":"Music Eve 2020 IOE","category":null,"contestant":{"voting_id":"08","name":"Kshitiz Basnet"},"vote_count":1,"created_on":"2020-01-30T16:37:43.455182+05:45"},{"idx":"t8DPockan2Y2Lvw5oNS35i","contest":"Music Eve 2020","episode":"Music Eve 2020 IOE","category":null,"contestant":{"voting_id":"06","name":"Bishal shakya"},"vote_count":1,"created_on":"2020-01-30T15:53:55.266977+05:45"},{"idx":"AVyhQuvcCA3f6EfMmPPspF","contest":"Music Eve 2020","episode":"Music Eve 2020 IOE","category":null,"contestant":{"voting_id":"16","name":"saahil duo"},"vote_count":1,"created_on":"2020-01-30T14:36:31.774070+05:45"},{"idx":"EVRS5Rheqnbz4uYxbUhTeh","contest":"Music Eve 2020","episode":"Music Eve 2020 IOE","category":null,"contestant":{"voting_id":"16","name":"saahil duo"},"vote_count":1,"created_on":"2020-01-30T14:25:37.476066+05:45"},{"idx":"tyTgmQF6JiDk4xvK6jJ58K","contest":"Music Eve 2020","episode":"Music Eve 2020 IOE","category":null,"contestant":{"voting_id":"26","name":"Utsav Pradhan"},"vote_count":1,"created_on":"2020-01-30T13:48:20.500899+05:45"},{"idx":"PssjWwuPGwKdPzy2eZu5Pk","contest":"Model Superstar","episode":"Model Superstar Finale","category":null,"contestant":{"voting_id":"12","name":"Rabin Ghising"},"vote_count":1,"created_on":"2020-01-30T13:47:23.404635+05:45"}]}