{"total_pages":275,"total_records":13721,"next":"https://khalti.com/api/v2/vuservote/?page=251","previous":"https://khalti.com/api/v2/vuservote/?page=249","record_range":[12451,12500],"current_page":250,"records":[{"idx":"5KUgJk4hAgJ7brU4K9eqHF","contest":"Bindabasini Music Awards 2076","episode":null,"category":"सर्वोत्कृष्ट गायन सुगम संगीत महिला","contestant":{"voting_id":"3A","name":"दुर्गा परियार"},"vote_count":1,"created_on":"2019-11-16T08:11:06.532791+05:45"},{"idx":"67mFqFpVQ6haPVf28ejjQh","contest":"Bindabasini Music Awards 2076","episode":null,"category":"सर्वोत्कृष्ट महिला गीतकार","contestant":{"voting_id":"6E","name":"अम्बिका गुरुङ"},"vote_count":1,"created_on":"2019-11-16T07:59:59.856440+05:45"},{"idx":"gWgTkYHoZ2m2ivacqu6CEU","contest":"Bindabasini Music Awards 2076","episode":null,"category":"सर्वोत्कृष्ट रचना सुगम संगीत","contestant":{"voting_id":"5D","name":"एकनारायण भण्डारी"},"vote_count":1,"created_on":"2019-11-16T07:59:28.443765+05:45"},{"idx":"tgRytmembobJBQSF9JJrrR","contest":"Bindabasini Music Awards 2076","episode":null,"category":"सर्वोत्कृष्ट संगीत सुगम संगीत","contestant":{"voting_id":"4B","name":"श्रीकृष्ण बममल्ल"},"vote_count":1,"created_on":"2019-11-16T07:59:00.366987+05:45"},{"idx":"ea49RopudTFcZyqdZ6cxWY","contest":"Bindabasini Music Awards 2076","episode":null,"category":"सर्वोत्कृष्ट गायन सुगम संगीत महिला","contestant":{"voting_id":"3E","name":"जुनु रिजाल काफ्ले"},"vote_count":1,"created_on":"2019-11-16T07:58:25.701864+05:45"},{"idx":"aVYJzu3KkR7aaTG6STytfY","contest":"Bindabasini Music Awards 2076","episode":null,"category":"सर्वोत्कृष्ट गायन सुगम संगीत पुरुष","contestant":{"voting_id":"2D","name":"नरेन्द्र प्यासी"},"vote_count":1,"created_on":"2019-11-16T07:58:00.389935+05:45"},{"idx":"ZKukMij4HzELrhzPUA7KqN","contest":"Bindabasini Music Awards 2076","episode":null,"category":"सर्वोत्कृष्ट गीत","contestant":{"voting_id":"1C","name":"आनन्दराज खनाल"},"vote_count":1,"created_on":"2019-11-16T07:57:27.589117+05:45"},{"idx":"H8X89nAXrgYqfTxApL6ZNm","contest":"Bindabasini Music Awards 2076","episode":null,"category":"सर्वोत्कृष्ट नवप्रतिभा लोकदोहोरी","contestant":{"voting_id":"29E","name":"सुमित्रा तामाङ"},"vote_count":1,"created_on":"2019-11-16T07:33:40.804123+05:45"},{"idx":"XrYdQMLSEqHquwKB4YQHfL","contest":"Bindabasini Music Awards 2076","episode":null,"category":"सर्वोत्कृष्ट नवप्रतिभा आधुनिक, पप","contestant":{"voting_id":"28D","name":"नम्रता तामाङ "},"vote_count":1,"created_on":"2019-11-16T07:32:57.521829+05:45"},{"idx":"dEmuSo8KUyPSKdu5BzssqK","contest":"Bindabasini Music Awards 2076","episode":null,"category":"सर्वोत्कृष्ट गायन सुगम संगीत पुरुष","contestant":{"voting_id":"2D","name":"नरेन्द्र प्यासी"},"vote_count":1,"created_on":"2019-11-16T07:30:47.720382+05:45"},{"idx":"haBWRzbiv5RSBTPKVkWHcj","contest":"Bindabasini Music Awards 2076","episode":null,"category":"सर्वोत्कृष्ट गीत","contestant":{"voting_id":"1B","name":"दिलिप योञ्जन तामाङ"},"vote_count":1,"created_on":"2019-11-16T07:30:21.445106+05:45"},{"idx":"EyAaUMLFVJczQZanADNGeP","contest":"Mechi Singing Star","episode":"Mechi Rising Star","category":null,"contestant":{"voting_id":"02","name":"Rachana Rimal"},"vote_count":1,"created_on":"2019-11-16T07:29:41.196580+05:45"},{"idx":"JGmGxfkr7gdf7CE4qYJLxU","contest":"Bindabasini Music Awards 2076","episode":null,"category":"सर्वोत्कृष्ट पाश्र्व गायन महिला","contestant":{"voting_id":"21C","name":"स्मिता दाहाल"},"vote_count":1,"created_on":"2019-11-16T07:04:58.616355+05:45"},{"idx":"yF3UcZw75wrYNtJSRrhW4S","contest":"Bindabasini Music Awards 2076","episode":null,"category":"सर्वोत्कृष्ट रचना सुगम संगीत","contestant":{"voting_id":"5A","name":"सुवाश संगम राई"},"vote_count":1,"created_on":"2019-11-15T22:17:15.145714+05:45"},{"idx":"FgGRZjxG3VVL5GGcjtGA6i","contest":"Bindabasini Music Awards 2076","episode":null,"category":"सर्वोत्कृष्ट गायन सुगम संगीत पुरुष","contestant":{"voting_id":"2A","name":"सजल न्यौपाने"},"vote_count":1,"created_on":"2019-11-15T22:16:44.957456+05:45"},{"idx":"oVN8RBjYcQsZSavEJx6h7m","contest":"Bindabasini Music Awards 2076","episode":null,"category":"सर्वोत्कृष्ट गीत","contestant":{"voting_id":"1B","name":"दिलिप योञ्जन तामाङ"},"vote_count":1,"created_on":"2019-11-15T22:16:04.202766+05:45"},{"idx":"cTSUo7zZhPzhBeoohEYg3j","contest":"Bindabasini Music Awards 2076","episode":null,"category":"सर्वोत्कृष्ट गीत","contestant":{"voting_id":"1A","name":"प्रदिप चापागाई"},"vote_count":1,"created_on":"2019-11-15T22:14:11.999228+05:45"},{"idx":"cJKZswWDBmpfHSsoBbULun","contest":"Mechi Singing Star","episode":"Mechi Rising Star","category":null,"contestant":{"voting_id":"05","name":"Pawan Dhakal"},"vote_count":1,"created_on":"2019-11-15T20:48:44.805891+05:45"},{"idx":"L3v9AnspbAPBXAc5MbGbFY","contest":"Mechi Singing Star","episode":"Mechi Rising Star","category":null,"contestant":{"voting_id":"01","name":"Anushka Malla"},"vote_count":1,"created_on":"2019-11-15T20:03:52.323919+05:45"},{"idx":"Xxw7EBgtjtv7d9Pagawq2g","contest":"Mechi Singing Star","episode":"Mechi Rising Star","category":null,"contestant":{"voting_id":"06","name":"Samjhana Pradhan"},"vote_count":1,"created_on":"2019-11-15T13:54:12.366345+05:45"},{"idx":"hEDZ5Y9XHYUaPhXzyqRu2o","contest":"Bindabasini Music Awards 2076","episode":null,"category":"सर्वोत्कृष्ट पप गायन पुरुष","contestant":{"voting_id":"9B","name":"प्रताप दास"},"vote_count":1,"created_on":"2019-11-15T13:53:51.470154+05:45"},{"idx":"DhstTpiibAUwJqoTPTdX5g","contest":"Mechi Singing Star","episode":"Mechi Rising Star","category":null,"contestant":{"voting_id":"18","name":"Ritu Rai"},"vote_count":1,"created_on":"2019-11-15T13:37:07.492198+05:45"},{"idx":"sTcAPpcYrakyT37rLUev4a","contest":"Bindabasini Music Awards 2076","episode":null,"category":"सर्वोत्कृष्ट नवप्रतिभा आधुनिक, पप","contestant":{"voting_id":"28C","name":"बिक्रम बराल"},"vote_count":1,"created_on":"2019-11-15T08:03:32.298820+05:45"},{"idx":"XMoTHoXtTz9MfZGTJ8aXs6","contest":"Bindabasini Music Awards 2076","episode":null,"category":"सर्वोत्कृष्ट लोकदोहोरी गायक","contestant":{"voting_id":"13E","name":"कुलेन्द्र विश्वकर्मा"},"vote_count":1,"created_on":"2019-11-15T08:03:01.259545+05:45"},{"idx":"5cd6WBuj6qdvr36F3iqzPY","contest":"Bindabasini Music Awards 2076","episode":null,"category":"सर्वोत्कृष्ट मोडल भिडियोतर्फ आधुनिक","contestant":{"voting_id":"18D","name":"देवेन्द्र क्षेत्री र अञ्जली अधिकारी"},"vote_count":1,"created_on":"2019-11-15T08:02:43.299435+05:45"},{"idx":"g5UVWd2vrKigu4RbH4F6WU","contest":"Bindabasini Music Awards 2076","episode":null,"category":"सर्वोत्कृष्ट गायन सुगम संगीत पुरुष","contestant":{"voting_id":"2C","name":"राज सिग्देल"},"vote_count":1,"created_on":"2019-11-15T08:02:06.002147+05:45"},{"idx":"TBXrWcfmptnwQiYpeJRccN","contest":"Bindabasini Music Awards 2076","episode":null,"category":"सर्वोत्कृष्ट गीत","contestant":{"voting_id":"1E","name":"अर्जुनरत्न भिकारी "},"vote_count":1,"created_on":"2019-11-15T07:37:10.127047+05:45"},{"idx":"BNSe7vh2s3jctuz4AD7Ro3","contest":"Mechi Singing Star","episode":"Mechi Rising Star","category":null,"contestant":{"voting_id":"20","name":"Rojal Shrestha"},"vote_count":1,"created_on":"2019-11-14T21:41:01.897029+05:45"},{"idx":"XmqsPgmiWqCTuU8VUCsqx7","contest":"Mechi Singing Star","episode":"Mechi Rising Star","category":null,"contestant":{"voting_id":"20","name":"Rojal Shrestha"},"vote_count":1,"created_on":"2019-11-14T20:53:14.442119+05:45"},{"idx":"JJv3P9ZPvnrLDvgaS8rAG6","contest":"Bindabasini Music Awards 2076","episode":null,"category":"सर्वोत्कृष्ट गीत","contestant":{"voting_id":"1A","name":"प्रदिप चापागाई"},"vote_count":1,"created_on":"2019-11-14T20:05:24.544641+05:45"},{"idx":"ECvmiUrZD5nWQtQahaXy7V","contest":"Bindabasini Music Awards 2076","episode":null,"category":"सर्वोत्कृष्ट गीत","contestant":{"voting_id":"1C","name":"आनन्दराज खनाल"},"vote_count":1,"created_on":"2019-11-14T19:57:35.169998+05:45"},{"idx":"i7nfp8zVTXAwa4bttMhp2H","contest":"Bindabasini Music Awards 2076","episode":null,"category":"सर्वोत्कृष्ट मोडल भिडियोतर्फ आधुनिक","contestant":{"voting_id":"18C","name":"बिनु शाक्य र सनम कठायत"},"vote_count":1,"created_on":"2019-11-14T17:57:10.617362+05:45"},{"idx":"uyukqFtwX3pY5PSyiDsFuk","contest":"Mechi Singing Star","episode":"Mechi Rising Star","category":null,"contestant":{"voting_id":"03","name":"Prachi Subedi"},"vote_count":1,"created_on":"2019-11-14T15:21:43.765436+05:45"},{"idx":"VHfojYR5KK582UTuQ3Mnfk","contest":"Bindabasini Music Awards 2076","episode":null,"category":"सर्वोत्कृष्ट पप संगीत","contestant":{"voting_id":"11C","name":"अर्जुन पोखरेल"},"vote_count":1,"created_on":"2019-11-14T12:52:31.086488+05:45"},{"idx":"qvN2vBgG9AASrC68sd3HfN","contest":"Bindabasini Music Awards 2076","episode":null,"category":"सर्वोत्कृष्ट पप गायन महिला","contestant":{"voting_id":"10C","name":"सम्बृद्धि राई"},"vote_count":1,"created_on":"2019-11-14T12:52:16.449855+05:45"},{"idx":"AxvQZsrXHoJ97XRd98H2dn","contest":"Bindabasini Music Awards 2076","episode":null,"category":"सर्वोत्कृष्ट पप गायन पुरुष","contestant":{"voting_id":"9B","name":"प्रताप दास"},"vote_count":1,"created_on":"2019-11-14T12:51:43.981337+05:45"},{"idx":"ekHrxZZ8kLAwUbcGbumQUM","contest":"Bindabasini Music Awards 2076","episode":null,"category":"सर्वोत्कृष्ट गायन सुगम संगीत पुरुष","contestant":{"voting_id":"2C","name":"राज सिग्देल"},"vote_count":1,"created_on":"2019-11-14T12:51:25.802708+05:45"},{"idx":"6cbDZ8c9FRp2TD86Rc8iSj","contest":"Bindabasini Music Awards 2076","episode":null,"category":"सर्वोत्कृष्ट गीत","contestant":{"voting_id":"1A","name":"प्रदिप चापागाई"},"vote_count":1,"created_on":"2019-11-14T12:51:08.700496+05:45"},{"idx":"h8U7N8bgnXQ8wLCiSnhnpX","contest":"Bindabasini Music Awards 2076","episode":null,"category":"सर्वोत्कृष्ट गायन सुगम संगीत महिला","contestant":{"voting_id":"3E","name":"जुनु रिजाल काफ्ले"},"vote_count":1,"created_on":"2019-11-14T12:50:46.517380+05:45"},{"idx":"SQbSxbKkupQ4H2nAXsrQpk","contest":"Bindabasini Music Awards 2076","episode":null,"category":"सर्वोत्कृष्ट नवप्रतिभा लोकदोहोरी","contestant":{"voting_id":"29A","name":"शीव कार्की"},"vote_count":1,"created_on":"2019-11-14T12:26:57.923328+05:45"},{"idx":"EYqnCfAQZFkVoyTeTabWFi","contest":"Bindabasini Music Awards 2076","episode":null,"category":"सर्वोत्कृष्ट मोडल भिडियोतर्फ आधुनिक","contestant":{"voting_id":"18A","name":"प्रेम ब. खड्का र सविना कार्की"},"vote_count":1,"created_on":"2019-11-14T12:17:28.110116+05:45"},{"idx":"jKgyxwintcfVQmgcbmsYNa","contest":"Bindabasini Music Awards 2076","episode":null,"category":"सर्वोत्कृष्ट म्यूजिक भिडियो निर्देशक आधुनिक","contestant":{"voting_id":"25B","name":"जनक सिंह"},"vote_count":1,"created_on":"2019-11-14T11:32:37.853501+05:45"},{"idx":"w3YKjhDf38dFZGMj6TDGYQ","contest":"Bindabasini Music Awards 2076","episode":null,"category":"सर्वोत्कृष्ट पप गायन महिला","contestant":{"voting_id":"10E","name":"प्रविशा अधिकारी"},"vote_count":1,"created_on":"2019-11-14T11:18:42.301085+05:45"},{"idx":"qFgYfRWHLLFUaKCvafsjqK","contest":"Bindabasini Music Awards 2076","episode":null,"category":"सर्वोत्कृष्ट गायन सुगम संगीत पुरुष","contestant":{"voting_id":"2C","name":"राज सिग्देल"},"vote_count":1,"created_on":"2019-11-14T11:18:16.933868+05:45"},{"idx":"7jcwtGvhtWvJjGKqcaFnV2","contest":"Bindabasini Music Awards 2076","episode":null,"category":"सर्वोत्कृष्ट भिडियो सम्पादन","contestant":{"voting_id":"27A","name":"दिपक विष्ट"},"vote_count":5,"created_on":"2019-11-14T00:22:21.401499+05:45"},{"idx":"euw5Pybp9HWJw5zjwtqhzK","contest":"Bindabasini Music Awards 2076","episode":null,"category":"सर्वोत्कृष्ट रचना सुगम संगीत","contestant":{"voting_id":"5D","name":"एकनारायण भण्डारी"},"vote_count":1,"created_on":"2019-11-14T00:21:14.312702+05:45"},{"idx":"jqfAPhN6NRt6edBqo8kPKW","contest":"Bindabasini Music Awards 2076","episode":null,"category":"सर्वोत्कृष्ट म्युजिक कम्पनी","contestant":{"voting_id":"30C","name":"प्रियसी म्यूजिक कम्पनी"},"vote_count":1,"created_on":"2019-11-14T00:20:46.235740+05:45"},{"idx":"yfog6zktmGwAb4XdEZeuF5","contest":"Bindabasini Music Awards 2076","episode":null,"category":"सर्वोत्कृष्ट राष्ट्रिय भावनाले ओतप्रोत गीत","contestant":{"voting_id":"23A","name":"रमेश दाहाल"},"vote_count":1,"created_on":"2019-11-13T20:04:05.994227+05:45"},{"idx":"jrks8mHaQ4jdC3dyyMLStg","contest":"Mechi Singing Star","episode":"Mechi Rising Star","category":null,"contestant":{"voting_id":"20","name":"Rojal Shrestha"},"vote_count":1,"created_on":"2019-11-13T16:54:59.801388+05:45"},{"idx":"bjsDoFeTVmuE8FGWiwdFJh","contest":"Mechi Singing Star","episode":"Mechi Rising Star","category":null,"contestant":{"voting_id":"02","name":"Rachana Rimal"},"vote_count":1,"created_on":"2019-11-13T16:40:50.532977+05:45"}]}