{"total_pages":275,"total_records":13721,"next":"https://khalti.com/api/v2/vuservote/?page=252","previous":"https://khalti.com/api/v2/vuservote/?page=250","record_range":[12501,12550],"current_page":251,"records":[{"idx":"Y8fVEPDVGrG7XZP85PHbqg","contest":"Bindabasini Music Awards 2076","episode":null,"category":"सर्वोत्कृष्ट गीत","contestant":{"voting_id":"1E","name":"अर्जुनरत्न भिकारी "},"vote_count":1,"created_on":"2019-11-13T16:09:45.761245+05:45"},{"idx":"FJNmkTvmsAMjuKYTc5wSXP","contest":"Mechi Singing Star","episode":"Mechi Rising Star","category":null,"contestant":{"voting_id":"10","name":"Samikshya Bista"},"vote_count":1,"created_on":"2019-11-13T16:08:53.070645+05:45"},{"idx":"AnyZzCLnnP39iJ8L8UVfEd","contest":"Bindabasini Music Awards 2076","episode":null,"category":"सर्वोत्कृष्ट रचना सुगम संगीत","contestant":{"voting_id":"5E","name":"बिरेन्द्र पाठक"},"vote_count":1,"created_on":"2019-11-13T15:33:45.446545+05:45"},{"idx":"r3jdbRP8bnJ5L4qjvjZRk2","contest":"Mechi Singing Star","episode":"Mechi Rising Star","category":null,"contestant":{"voting_id":"02","name":"Rachana Rimal"},"vote_count":1,"created_on":"2019-11-13T15:33:12.840360+05:45"},{"idx":"bE92ZMyyCnBMv57Ev6YWmg","contest":"Bindabasini Music Awards 2076","episode":null,"category":"सर्वोत्कृष्ट म्युजिक कम्पनी","contestant":{"voting_id":"30A","name":"भावना म्यूजिक सोलुशन"},"vote_count":1,"created_on":"2019-11-13T15:22:01.154379+05:45"},{"idx":"5Qszm3GAzif7y68hyjTu9d","contest":"Mechi Singing Star","episode":"Mechi Rising Star","category":null,"contestant":{"voting_id":"01","name":"Anushka Malla"},"vote_count":1,"created_on":"2019-11-13T15:21:30.331958+05:45"},{"idx":"5jbfGEkfNbjsAAvJjd6Npa","contest":"Bindabasini Music Awards 2076","episode":null,"category":"सर्वोत्कृष्ट भिडियो सम्पादन","contestant":{"voting_id":"27D","name":"नविन घर्ती मगर"},"vote_count":1,"created_on":"2019-11-13T15:20:25.208359+05:45"},{"idx":"xqZyshfDdDMgKnTxoHHbtK","contest":"Bindabasini Music Awards 2076","episode":null,"category":"सर्वोत्कृष्ट नवप्रतिभा लोकदोहोरी","contestant":{"voting_id":"29A","name":"शीव कार्की"},"vote_count":1,"created_on":"2019-11-13T14:58:42.817830+05:45"},{"idx":"RFt3pA9fvweB5oePokgDXa","contest":"Bindabasini Music Awards 2076","episode":null,"category":"सर्वोत्कृष्ट गीत","contestant":{"voting_id":"1A","name":"प्रदिप चापागाई"},"vote_count":1,"created_on":"2019-11-13T13:10:52.212024+05:45"},{"idx":"4qtESvzCCHkTSHdhdGhjtd","contest":"Bindabasini Music Awards 2076","episode":null,"category":"सर्वोत्कृष्ट राष्ट्रिय भावनाले ओतप्रोत गीत","contestant":{"voting_id":"23C","name":"ऋषि अधिकारी"},"vote_count":1,"created_on":"2019-11-13T12:38:37.286584+05:45"},{"idx":"fDuNq8CLrFCG8AkFjQg6MF","contest":"Bindabasini Music Awards 2076","episode":null,"category":"सर्वोत्कृष्ट भिडियो सम्पादन","contestant":{"voting_id":"27C","name":"बिनोद बम"},"vote_count":1,"created_on":"2019-11-13T12:36:43.363591+05:45"},{"idx":"dp7CXMRzEkfSY7tdFXPu3U","contest":"Bindabasini Music Awards 2076","episode":null,"category":"सर्वोत्कृष्ट गीत","contestant":{"voting_id":"1B","name":"दिलिप योञ्जन तामाङ"},"vote_count":1,"created_on":"2019-11-13T10:53:23.223870+05:45"},{"idx":"R9WK7DbKnz9JsovWmBK7SN","contest":"Mechi Singing Star","episode":"Mechi Rising Star","category":null,"contestant":{"voting_id":"01","name":"Anushka Malla"},"vote_count":1,"created_on":"2019-11-13T10:52:43.575748+05:45"},{"idx":"GcVJ9PwxkdxBfzjcJoRCva","contest":"Mechi Singing Star","episode":"Mechi Rising Star","category":null,"contestant":{"voting_id":"01","name":"Anushka Malla"},"vote_count":1,"created_on":"2019-11-13T04:59:06.398315+05:45"},{"idx":"RXY9duZYsY4Cb9dNGf4eVQ","contest":"Mechi Singing Star","episode":"Mechi Rising Star","category":null,"contestant":{"voting_id":"14","name":"Anuja Giri"},"vote_count":1,"created_on":"2019-11-12T22:20:21.413154+05:45"},{"idx":"g3hFidKJu3nmirnJ4hdGMU","contest":"Bindabasini Music Awards 2076","episode":null,"category":"सर्वोत्कृष्ट पप गायन पुरुष","contestant":{"voting_id":"9E","name":"समिर आचार्य"},"vote_count":1,"created_on":"2019-11-12T20:27:18.957006+05:45"},{"idx":"h44AVHB9S6x4bRZJxdyBAG","contest":"Bindabasini Music Awards 2076","episode":null,"category":"सर्वोत्कृष्ट संगीत सुगम संगीत","contestant":{"voting_id":"4C","name":"राजकुमार बगर"},"vote_count":1,"created_on":"2019-11-12T19:43:12.290429+05:45"},{"idx":"h6SvxHPsJvVRH4mzbChPFe","contest":"Bindabasini Music Awards 2076","episode":null,"category":"सर्वोत्कृष्ट गायन सुगम संगीत महिला","contestant":{"voting_id":"3E","name":"जुनु रिजाल काफ्ले"},"vote_count":1,"created_on":"2019-11-12T19:41:29.465468+05:45"},{"idx":"oJVLkea3AMp5zP5Cy9iQWF","contest":"Bindabasini Music Awards 2076","episode":null,"category":"सर्वोत्कृष्ट गायन सुगम संगीत पुरुष","contestant":{"voting_id":"2C","name":"राज सिग्देल"},"vote_count":1,"created_on":"2019-11-12T19:09:39.195970+05:45"},{"idx":"xgMNHA95uBNfixAQkQpXje","contest":"Bindabasini Music Awards 2076","episode":null,"category":"सर्वोत्कृष्ट गीत","contestant":{"voting_id":"1A","name":"प्रदिप चापागाई"},"vote_count":1,"created_on":"2019-11-12T19:08:46.085709+05:45"},{"idx":"eFp9EYpwWXbuPGmaYfBWS6","contest":"Bindabasini Music Awards 2076","episode":null,"category":"सर्वोत्कृष्ट युगल गायन","contestant":{"voting_id":"12C","name":"पे्रम प्रकाश ओली र मेलिना राई"},"vote_count":1,"created_on":"2019-11-12T18:15:55.273516+05:45"},{"idx":"rxCRhnkMtv7CZFyKohRRP9","contest":"Mechi Singing Star","episode":"Mechi Rising Star","category":null,"contestant":{"voting_id":"07","name":"Rosha Phuyal"},"vote_count":1,"created_on":"2019-11-12T18:13:30.565186+05:45"},{"idx":"WgEyGCN2PbEjvjrJrRc254","contest":"Bindabasini Music Awards 2076","episode":null,"category":"सर्वोत्कृष्ट नवप्रतिभा आधुनिक, पप","contestant":{"voting_id":"28B","name":"सुविन्द्र केसी."},"vote_count":1,"created_on":"2019-11-12T16:18:34.968150+05:45"},{"idx":"Cpw4Re2sAtMUsQXS9pVM3S","contest":"Bindabasini Music Awards 2076","episode":null,"category":"सर्वोत्कृष्ट पाश्र्व गायन महिला","contestant":{"voting_id":"21C","name":"स्मिता दाहाल"},"vote_count":1,"created_on":"2019-11-12T14:12:00.831656+05:45"},{"idx":"Kpin8tk8Kp2QtzXhUfxtfX","contest":"Bindabasini Music Awards 2076","episode":null,"category":"सर्वोत्कृष्ट एल्बम सुगम संगीत","contestant":{"voting_id":"7A","name":"सुविन्द्र केसी"},"vote_count":1,"created_on":"2019-11-12T13:37:42.859300+05:45"},{"idx":"QoWVFxP3NekWgjP7bZgjFd","contest":"Bindabasini Music Awards 2076","episode":null,"category":"सर्वोत्कृष्ट नवप्रतिभा आधुनिक, पप","contestant":{"voting_id":"28B","name":"सुविन्द्र केसी."},"vote_count":1,"created_on":"2019-11-12T13:36:50.829978+05:45"},{"idx":"KpQCrGq23MLkfqKnDsE62m","contest":"Bindabasini Music Awards 2076","episode":null,"category":"सर्वोत्कृष्ट लोकदोहोरी गीत","contestant":{"voting_id":"17B","name":"प्रकाश सपुत"},"vote_count":1,"created_on":"2019-11-12T11:48:51.532028+05:45"},{"idx":"jTsC75FsoUa3uPNF86XhdV","contest":"Bindabasini Music Awards 2076","episode":null,"category":"सर्वोत्कृष्ट गायन सुगम संगीत महिला","contestant":{"voting_id":"3B","name":"निशा देसार"},"vote_count":1,"created_on":"2019-11-12T11:17:53.862103+05:45"},{"idx":"v9ZWCGnmuYW5yDdjoqMUdH","contest":"Bindabasini Music Awards 2076","episode":null,"category":"सर्वोत्कृष्ट पप गायन पुरुष","contestant":{"voting_id":"9C","name":"बिक्रम बराल"},"vote_count":1,"created_on":"2019-11-11T22:19:13.824240+05:45"},{"idx":"zgJK8MPbtz6DiCgTARX6s2","contest":"Bindabasini Music Awards 2076","episode":null,"category":"सर्वोत्कृष्ट एल्बम सुगम संगीत","contestant":{"voting_id":"7E","name":"सुवास चन्द्र ढुङ्गेल"},"vote_count":1,"created_on":"2019-11-11T22:18:16.725054+05:45"},{"idx":"mCcmby4KRQwabQzt29SnN6","contest":"Bindabasini Music Awards 2076","episode":null,"category":"सर्वोत्कृष्ट महिला गीतकार","contestant":{"voting_id":"6E","name":"अम्बिका गुरुङ"},"vote_count":1,"created_on":"2019-11-11T22:17:48.316449+05:45"},{"idx":"H2QQqK6mHjJxJntE5azbv2","contest":"Bindabasini Music Awards 2076","episode":null,"category":"सर्वोत्कृष्ट रचना सुगम संगीत","contestant":{"voting_id":"5A","name":"सुवाश संगम राई"},"vote_count":1,"created_on":"2019-11-11T22:17:27.614233+05:45"},{"idx":"2qSPcCCTzKDjCZ7JXd7mmT","contest":"Bindabasini Music Awards 2076","episode":null,"category":"सर्वोत्कृष्ट संगीत सुगम संगीत","contestant":{"voting_id":"4B","name":"श्रीकृष्ण बममल्ल"},"vote_count":1,"created_on":"2019-11-11T22:16:56.106865+05:45"},{"idx":"BRQvkLAS2FUUsjTNd8KhNR","contest":"Bindabasini Music Awards 2076","episode":null,"category":"सर्वोत्कृष्ट गायन सुगम संगीत महिला","contestant":{"voting_id":"3E","name":"जुनु रिजाल काफ्ले"},"vote_count":1,"created_on":"2019-11-11T22:16:12.379440+05:45"},{"idx":"ADecx5SWBQURM3GCq6aGbc","contest":"Bindabasini Music Awards 2076","episode":null,"category":"सर्वोत्कृष्ट गायन सुगम संगीत पुरुष","contestant":{"voting_id":"2C","name":"राज सिग्देल"},"vote_count":1,"created_on":"2019-11-11T22:15:21.919793+05:45"},{"idx":"Ht8sRJUZbwvMEubW8toH7C","contest":"Bindabasini Music Awards 2076","episode":null,"category":"सर्वोत्कृष्ट गीत","contestant":{"voting_id":"1D","name":"वि. पाण्डे"},"vote_count":1,"created_on":"2019-11-11T22:14:35.909965+05:45"},{"idx":"HLNKS8nYPVVWVVcjgerHij","contest":"Mechi Singing Star","episode":"Mechi Rising Star","category":null,"contestant":{"voting_id":"13","name":"Sristi Sharma"},"vote_count":1,"created_on":"2019-11-11T21:12:07.774777+05:45"},{"idx":"gbWJarjtHwFSJwULck4igW","contest":"Mechi Singing Star","episode":"Mechi Rising Star","category":null,"contestant":{"voting_id":"01","name":"Anushka Malla"},"vote_count":1,"created_on":"2019-11-11T21:04:43.929554+05:45"},{"idx":"cWNHZnsyfPx6zwxV6V7CDh","contest":"Bindabasini Music Awards 2076","episode":null,"category":"सर्वोत्कृष्ट लोकदोहोरी गायक","contestant":{"voting_id":"13C","name":"सन्दिप न्यौपाने"},"vote_count":1,"created_on":"2019-11-11T19:56:50.795784+05:45"},{"idx":"BvrZsYc8bmjYisp9m64Fon","contest":"Bindabasini Music Awards 2076","episode":null,"category":"सर्वोत्कृष्ट संगीत चलचित्र","contestant":{"voting_id":"22C","name":"अर्जुन पोखरेल"},"vote_count":1,"created_on":"2019-11-11T19:45:17.435031+05:45"},{"idx":"5W6P4oyGoWMJzcAayjP7CV","contest":"Mechi Singing Star","episode":"Mechi Rising Star","category":null,"contestant":{"voting_id":"02","name":"Rachana Rimal"},"vote_count":1,"created_on":"2019-11-11T19:36:36.179770+05:45"},{"idx":"LvgEX3bM6TDTRTbE3h9u3T","contest":"Bindabasini Music Awards 2076","episode":null,"category":"सर्वोत्कृष्ट गीत","contestant":{"voting_id":"1E","name":"अर्जुनरत्न भिकारी "},"vote_count":1,"created_on":"2019-11-11T18:29:09.806357+05:45"},{"idx":"L3BKMABHqETJLEEw52dwyR","contest":"Mechi Singing Star","episode":"Mechi Rising Star","category":null,"contestant":{"voting_id":"01","name":"Anushka Malla"},"vote_count":1,"created_on":"2019-11-11T18:17:08.776736+05:45"},{"idx":"LfdDhThkCBJFwgKwXURp4c","contest":"Bindabasini Music Awards 2076","episode":null,"category":"सर्वोत्कृष्ट लोकदोहोरी गीत","contestant":{"voting_id":"17E","name":"एक नारायण भण्डारी "},"vote_count":1,"created_on":"2019-11-11T15:38:35.542397+05:45"},{"idx":"kztycvm5QQFisDcbN8BUPc","contest":"Bindabasini Music Awards 2076","episode":null,"category":"सर्वोत्कृष्ट म्यूजिक भिडियो निर्देशक लोकदोहोरी","contestant":{"voting_id":"24C","name":"प्रकाश भट्ट"},"vote_count":1,"created_on":"2019-11-11T15:37:48.278973+05:45"},{"idx":"XogxuJ9GMPGqUzQkpdCZWo","contest":"Bindabasini Music Awards 2076","episode":null,"category":"सर्वोत्कृष्ट लोकदोहोरी गायिका","contestant":{"voting_id":"14A","name":"देवी घर्र्ती मगर"},"vote_count":1,"created_on":"2019-11-11T15:36:52.114433+05:45"},{"idx":"ByKonUSEg8ZqJW5FrL3GjS","contest":"Bindabasini Music Awards 2076","episode":null,"category":"सर्वोत्कृष्ट लोकदोहोरी गायक","contestant":{"voting_id":"13E","name":"कुलेन्द्र विश्वकर्मा"},"vote_count":1,"created_on":"2019-11-11T15:36:13.032943+05:45"},{"idx":"rzSmVpMmoPyfAbQMXPKii6","contest":"Bindabasini Music Awards 2076","episode":null,"category":"सर्वोत्कृष्ट गायन सुगम संगीत पुरुष","contestant":{"voting_id":"2E","name":"सुमन कुमार श्रेष्ठ"},"vote_count":1,"created_on":"2019-11-11T15:35:40.768257+05:45"},{"idx":"e5FfwYd4JKVFNuUj2j43cU","contest":"Mechi Singing Star","episode":"Mechi Rising Star","category":null,"contestant":{"voting_id":"01","name":"Anushka Malla"},"vote_count":1,"created_on":"2019-11-11T14:57:38.445676+05:45"},{"idx":"kujyUaybWqpYi4bgQZRrw2","contest":"Mechi Singing Star","episode":"Mechi Rising Star","category":null,"contestant":{"voting_id":"08","name":"Yogesh Siwakoti"},"vote_count":1,"created_on":"2019-11-11T14:46:47.739810+05:45"}]}