{"total_pages":275,"total_records":13721,"next":"https://khalti.com/api/v2/vuservote/?page=253","previous":"https://khalti.com/api/v2/vuservote/?page=251","record_range":[12551,12600],"current_page":252,"records":[{"idx":"f7ZNnJBrJvxAE5JSx3RizD","contest":"Mechi Singing Star","episode":"Mechi Rising Star","category":null,"contestant":{"voting_id":"03","name":"Prachi Subedi"},"vote_count":1,"created_on":"2019-11-11T12:17:02.492396+05:45"},{"idx":"4MjHTwXin44HYJanCpYrPG","contest":"Mechi Singing Star","episode":"Mechi Rising Star","category":null,"contestant":{"voting_id":"01","name":"Anushka Malla"},"vote_count":1,"created_on":"2019-11-11T11:25:33.482713+05:45"},{"idx":"d92tL8tEi5Lmwr9iiXrX5K","contest":"Mechi Singing Star","episode":"Mechi Rising Star","category":null,"contestant":{"voting_id":"01","name":"Anushka Malla"},"vote_count":1,"created_on":"2019-11-10T18:30:00.125749+05:45"},{"idx":"NhYK92wnuvMWW9WuocL7Zj","contest":"Mechi Singing Star","episode":"Mechi Rising Star","category":null,"contestant":{"voting_id":"07","name":"Rosha Phuyal"},"vote_count":1,"created_on":"2019-11-10T17:58:14.572468+05:45"},{"idx":"RTAAY6wp74UHJr4RjGXD7P","contest":"Mechi Singing Star","episode":"Mechi Rising Star","category":null,"contestant":{"voting_id":"04","name":"Biraj Prasai"},"vote_count":1,"created_on":"2019-11-10T17:03:39.064118+05:45"},{"idx":"ZXs9RTtr55KvjcG6yJJHFT","contest":"Mechi Singing Star","episode":"Mechi Rising Star","category":null,"contestant":{"voting_id":"03","name":"Prachi Subedi"},"vote_count":1,"created_on":"2019-11-10T13:42:39.089613+05:45"},{"idx":"Lgdvk4JhzeHQWYopTHQ9UH","contest":"Mechi Singing Star","episode":"Mechi Rising Star","category":null,"contestant":{"voting_id":"01","name":"Anushka Malla"},"vote_count":1,"created_on":"2019-11-10T13:41:17.686098+05:45"},{"idx":"f76e2vrhPkUcYX6suN3cWP","contest":"Mechi Singing Star","episode":"Mechi Rising Star","category":null,"contestant":{"voting_id":"10","name":"Samikshya Bista"},"vote_count":1,"created_on":"2019-11-10T12:34:27.809186+05:45"},{"idx":"Mk3vaQRadkmWakVZnMZoFE","contest":"Mechi Singing Star","episode":"Mechi Rising Star","category":null,"contestant":{"voting_id":"11","name":"Roshni Gahatraj"},"vote_count":1,"created_on":"2019-11-10T10:49:48.666636+05:45"},{"idx":"FwCyghtG6hERcwFg82UBBV","contest":"Mechi Singing Star","episode":"Mechi Rising Star","category":null,"contestant":{"voting_id":"07","name":"Rosha Phuyal"},"vote_count":1,"created_on":"2019-11-10T09:05:12.743228+05:45"},{"idx":"95YnJCBmQxpNXEEuJG4UrF","contest":"Mechi Singing Star","episode":"Mechi Rising Star","category":null,"contestant":{"voting_id":"01","name":"Anushka Malla"},"vote_count":1,"created_on":"2019-11-09T21:18:26.314564+05:45"},{"idx":"RxpqP4f8gTETPLwmzSXTB2","contest":"Mechi Singing Star","episode":"Mechi Rising Star","category":null,"contestant":{"voting_id":"13","name":"Sristi Sharma"},"vote_count":1,"created_on":"2019-11-09T19:59:17.041083+05:45"},{"idx":"pgnhsEwCTBF9MChQsNRZsL","contest":"Mechi Singing Star","episode":"Mechi Rising Star","category":null,"contestant":{"voting_id":"01","name":"Anushka Malla"},"vote_count":1,"created_on":"2019-11-09T19:27:02.406873+05:45"},{"idx":"XJgbWQzQcfuGMSYogXkw2B","contest":"Mechi Singing Star","episode":"Mechi Rising Star","category":null,"contestant":{"voting_id":"01","name":"Anushka Malla"},"vote_count":1,"created_on":"2019-11-09T17:36:13.369352+05:45"},{"idx":"HZZP3wEnTyHfXFd5YGh8zU","contest":"Mechi Singing Star","episode":"Mechi Rising Star","category":null,"contestant":{"voting_id":"01","name":"Anushka Malla"},"vote_count":1,"created_on":"2019-11-09T12:23:12.755574+05:45"},{"idx":"ac7HEWBnrVeqtBgxU45Lq4","contest":"Mechi Singing Star","episode":"Mechi Rising Star","category":null,"contestant":{"voting_id":"02","name":"Rachana Rimal"},"vote_count":1,"created_on":"2019-11-09T11:26:43.381889+05:45"},{"idx":"FA8XAUbLgT77YMbD7xLtxc","contest":"Mechi Singing Star","episode":"Mechi Rising Star","category":null,"contestant":{"voting_id":"03","name":"Prachi Subedi"},"vote_count":1,"created_on":"2019-11-09T07:11:43.459120+05:45"},{"idx":"Gdnd7xWC9SKRn97VvznddG","contest":"Mechi Singing Star","episode":"Mechi Rising Star","category":null,"contestant":{"voting_id":"03","name":"Prachi Subedi"},"vote_count":1,"created_on":"2019-11-09T07:09:51.113204+05:45"},{"idx":"kYiq6fey2WeBPVCxRWboC4","contest":"Mechi Singing Star","episode":"Mechi Rising Star","category":null,"contestant":{"voting_id":"03","name":"Prachi Subedi"},"vote_count":1,"created_on":"2019-11-09T07:06:57.729341+05:45"},{"idx":"D4MLFtuAStMfFJnzaF4QhJ","contest":"Mechi Singing Star","episode":"Mechi Rising Star","category":null,"contestant":{"voting_id":"13","name":"Sristi Sharma"},"vote_count":1,"created_on":"2019-11-08T22:56:29.121462+05:45"},{"idx":"XiMYCiboGMGER4iDicj9Hi","contest":"Mechi Singing Star","episode":"Mechi Rising Star","category":null,"contestant":{"voting_id":"02","name":"Rachana Rimal"},"vote_count":1,"created_on":"2019-11-08T21:07:39.495637+05:45"},{"idx":"EiJB3beNwoSdoJEaVWvPP3","contest":"Mechi Singing Star","episode":"Mechi Rising Star","category":null,"contestant":{"voting_id":"02","name":"Rachana Rimal"},"vote_count":1,"created_on":"2019-11-08T17:42:58.626354+05:45"},{"idx":"2wLXnhfXB9uvNqHWEnqTJW","contest":"Mechi Singing Star","episode":"Mechi Rising Star","category":null,"contestant":{"voting_id":"10","name":"Samikshya Bista"},"vote_count":1,"created_on":"2019-11-08T14:33:46.858887+05:45"},{"idx":"7VdqkhuJmrQsPk4dBpdBfT","contest":"Mechi Singing Star","episode":"Mechi Rising Star","category":null,"contestant":{"voting_id":"01","name":"Anushka Malla"},"vote_count":1,"created_on":"2019-11-08T12:52:52.342739+05:45"},{"idx":"BGnQvxbtoMkvgZuzAtk62M","contest":"Mechi Singing Star","episode":"Mechi Rising Star","category":null,"contestant":{"voting_id":"10","name":"Samikshya Bista"},"vote_count":1,"created_on":"2019-11-08T12:48:34.352873+05:45"},{"idx":"ySjXaSGBHM5BRbk9LhWx9U","contest":"Mechi Singing Star","episode":"Mechi Rising Star","category":null,"contestant":{"voting_id":"01","name":"Anushka Malla"},"vote_count":1,"created_on":"2019-11-08T12:35:07.907219+05:45"},{"idx":"3apK5Bj9A2V9ugeRRxvyh4","contest":"Mechi Singing Star","episode":"Mechi Rising Star","category":null,"contestant":{"voting_id":"01","name":"Anushka Malla"},"vote_count":1,"created_on":"2019-11-08T01:57:18.631986+05:45"},{"idx":"aU474d8j6E4maRUKnjC4Bk","contest":"Mechi Singing Star","episode":"Mechi Rising Star","category":null,"contestant":{"voting_id":"01","name":"Anushka Malla"},"vote_count":1,"created_on":"2019-11-07T20:12:31.097708+05:45"},{"idx":"vTUpuvyoepTuooJDFB5a5m","contest":"Mechi Singing Star","episode":"Mechi Rising Star","category":null,"contestant":{"voting_id":"20","name":"Rojal Shrestha"},"vote_count":1,"created_on":"2019-11-07T20:11:04.381150+05:45"},{"idx":"p5xzgzkYNsEvCG93KgQj7m","contest":"Mechi Singing Star","episode":"Mechi Rising Star","category":null,"contestant":{"voting_id":"02","name":"Rachana Rimal"},"vote_count":1,"created_on":"2019-11-07T00:12:37.068321+05:45"},{"idx":"GL8VdyrAdjMdhAiC5BPKrM","contest":"Mechi Singing Star","episode":"Mechi Rising Star","category":null,"contestant":{"voting_id":"07","name":"Rosha Phuyal"},"vote_count":5,"created_on":"2019-11-06T19:34:07.618617+05:45"},{"idx":"xgTAMwpYDXZPgqpqNu8quP","contest":"Mechi Singing Star","episode":"Mechi Rising Star","category":null,"contestant":{"voting_id":"03","name":"Prachi Subedi"},"vote_count":1,"created_on":"2019-11-06T19:29:37.341048+05:45"},{"idx":"oqSDGEhxmGnmDJWV5xhpQi","contest":"Mechi Singing Star","episode":"Mechi Rising Star","category":null,"contestant":{"voting_id":"03","name":"Prachi Subedi"},"vote_count":1,"created_on":"2019-11-06T19:28:48.099577+05:45"},{"idx":"DumiqLW5YKN9RxG3dJqzZ7","contest":"Mechi Singing Star","episode":"Mechi Rising Star","category":null,"contestant":{"voting_id":"10","name":"Samikshya Bista"},"vote_count":1,"created_on":"2019-11-06T14:17:20.087199+05:45"},{"idx":"wnfcVcWWCsbfqkQUbyCzTb","contest":"Mechi Singing Star","episode":"Mechi Rising Star","category":null,"contestant":{"voting_id":"11","name":"Roshni Gahatraj"},"vote_count":1,"created_on":"2019-11-06T09:52:09.107387+05:45"},{"idx":"EM66CRvnj8yU4sAsESj2fh","contest":"Mechi Singing Star","episode":"Mechi Rising Star","category":null,"contestant":{"voting_id":"01","name":"Anushka Malla"},"vote_count":1,"created_on":"2019-11-06T08:03:21.519663+05:45"},{"idx":"CoTN3ZnmRppzJQah7LFceH","contest":"Mechi Singing Star","episode":"Mechi Rising Star","category":null,"contestant":{"voting_id":"01","name":"Anushka Malla"},"vote_count":1,"created_on":"2019-11-06T07:38:14.662707+05:45"},{"idx":"TxJwVzwU75qJ6E2PTTmwcL","contest":"Mechi Singing Star","episode":"Mechi Rising Star","category":null,"contestant":{"voting_id":"09","name":"Samir Rasaily"},"vote_count":1,"created_on":"2019-11-06T04:57:10.112605+05:45"},{"idx":"HU4ksMqUuiHkkYoLQYjmPC","contest":"Mechi Singing Star","episode":"Mechi Rising Star","category":null,"contestant":{"voting_id":"19","name":"Prenija Dhakal"},"vote_count":1,"created_on":"2019-11-05T14:48:05.740647+05:45"},{"idx":"4ihdvEUtcD3AKZgZo3mL4J","contest":"Mechi Singing Star","episode":"Mechi Rising Star","category":null,"contestant":{"voting_id":"07","name":"Rosha Phuyal"},"vote_count":1,"created_on":"2019-11-05T13:16:01.559298+05:45"},{"idx":"oaJMyXXgWFWwpDDxccPi4T","contest":"Mechi Singing Star","episode":"Mechi Rising Star","category":null,"contestant":{"voting_id":"01","name":"Anushka Malla"},"vote_count":1,"created_on":"2019-11-05T09:59:27.867595+05:45"},{"idx":"NPjWT5ZAsqasctjQ5mkmsL","contest":"Mechi Singing Star","episode":"Mechi Rising Star","category":null,"contestant":{"voting_id":"07","name":"Rosha Phuyal"},"vote_count":1,"created_on":"2019-11-05T07:59:17.913460+05:45"},{"idx":"ewSeLx5wqBYued7yTyj5ui","contest":"Mechi Singing Star","episode":"Mechi Rising Star","category":null,"contestant":{"voting_id":"06","name":"Samjhana Pradhan"},"vote_count":1,"created_on":"2019-11-04T20:33:47.995279+05:45"},{"idx":"3XrsVWcA33k6B2grxWMqSQ","contest":"Mechi Singing Star","episode":"Mechi Rising Star","category":null,"contestant":{"voting_id":"19","name":"Prenija Dhakal"},"vote_count":1,"created_on":"2019-11-04T19:00:00.869155+05:45"},{"idx":"H4AiG3t6LfQXFDcZUTVQ2F","contest":"Mechi Singing Star","episode":"Mechi Rising Star","category":null,"contestant":{"voting_id":"01","name":"Anushka Malla"},"vote_count":1,"created_on":"2019-11-04T18:58:57.007869+05:45"},{"idx":"PS5kusGe6maavCzCWVzicG","contest":"Mechi Singing Star","episode":"Mechi Rising Star","category":null,"contestant":{"voting_id":"01","name":"Anushka Malla"},"vote_count":1,"created_on":"2019-11-04T18:55:15.541031+05:45"},{"idx":"urEAkFjr6yLMqdBZhcq3SY","contest":"Mechi Singing Star","episode":"Mechi Rising Star","category":null,"contestant":{"voting_id":"02","name":"Rachana Rimal"},"vote_count":1,"created_on":"2019-11-04T18:07:16.384685+05:45"},{"idx":"yyJz6bPDGXrPV4JLAjjFgn","contest":"Mechi Singing Star","episode":"Mechi Rising Star","category":null,"contestant":{"voting_id":"01","name":"Anushka Malla"},"vote_count":1,"created_on":"2019-11-04T17:57:27.776170+05:45"},{"idx":"JRDjdi5fNuYfPzdRaQAJZJ","contest":"Mechi Singing Star","episode":"Mechi Rising Star","category":null,"contestant":{"voting_id":"02","name":"Rachana Rimal"},"vote_count":1,"created_on":"2019-11-04T16:33:04.428050+05:45"},{"idx":"mT6qKWYRXmFKfDX6AHF7WN","contest":"Mechi Singing Star","episode":"Mechi Rising Star","category":null,"contestant":{"voting_id":"01","name":"Anushka Malla"},"vote_count":1,"created_on":"2019-11-04T15:08:41.389423+05:45"}]}