{"total_pages":275,"total_records":13721,"next":"https://khalti.com/api/v2/vuservote/?page=254","previous":"https://khalti.com/api/v2/vuservote/?page=252","record_range":[12601,12650],"current_page":253,"records":[{"idx":"YEYvCB2pHPBbE3oW4nkVEW","contest":"Mechi Singing Star","episode":"Mechi Rising Star","category":null,"contestant":{"voting_id":"13","name":"Sristi Sharma"},"vote_count":1,"created_on":"2019-11-04T13:22:08.791420+05:45"},{"idx":"BgUqxdTnekfNPiDe8svhfC","contest":"Mechi Singing Star","episode":"Mechi Rising Star","category":null,"contestant":{"voting_id":"01","name":"Anushka Malla"},"vote_count":1,"created_on":"2019-11-03T14:58:52.052226+05:45"},{"idx":"9dCfXnWGU9A4cbpjYmydrL","contest":"Mechi Singing Star","episode":"Mechi Rising Star","category":null,"contestant":{"voting_id":"02","name":"Rachana Rimal"},"vote_count":1,"created_on":"2019-11-03T13:53:47.410348+05:45"},{"idx":"WKHZbQzDs72NhiRjwpDi33","contest":"Mechi Singing Star","episode":"Mechi Rising Star","category":null,"contestant":{"voting_id":"04","name":"Biraj Prasai"},"vote_count":1,"created_on":"2019-11-03T08:38:18.895448+05:45"},{"idx":"uCBiQSwC3puT6PH2pMDfXd","contest":"Mechi Singing Star","episode":"Mechi Rising Star","category":null,"contestant":{"voting_id":"06","name":"Samjhana Pradhan"},"vote_count":1,"created_on":"2019-11-03T06:16:22.922714+05:45"},{"idx":"z8DGLuRDCjba6XFKLz8tdb","contest":"Mechi Singing Star","episode":"Mechi Rising Star","category":null,"contestant":{"voting_id":"01","name":"Anushka Malla"},"vote_count":1,"created_on":"2019-11-02T22:09:06.386272+05:45"},{"idx":"Wq2SaWEdrJ9nLMXUnJTzkL","contest":"Mechi Singing Star","episode":"Mechi Rising Star","category":null,"contestant":{"voting_id":"02","name":"Rachana Rimal"},"vote_count":1,"created_on":"2019-11-02T20:55:33.428513+05:45"},{"idx":"DLfjiVNqGb7Pc9ErGSZwZm","contest":"Mechi Singing Star","episode":"Mechi Rising Star","category":null,"contestant":{"voting_id":"08","name":"Yogesh Siwakoti"},"vote_count":1,"created_on":"2019-11-02T16:29:40.491308+05:45"},{"idx":"3zjz8EFK3L8TQ4s7duYWKD","contest":"Mechi Singing Star","episode":"Mechi Rising Star","category":null,"contestant":{"voting_id":"20","name":"Rojal Shrestha"},"vote_count":1,"created_on":"2019-11-02T11:09:56.549639+05:45"},{"idx":"oKjqcJrfpN7cNQj4koRDZR","contest":"Mechi Singing Star","episode":"Mechi Rising Star","category":null,"contestant":{"voting_id":"10","name":"Samikshya Bista"},"vote_count":1,"created_on":"2019-11-02T10:16:01.856977+05:45"},{"idx":"ZRREApFiQpN4a5nZnAXGAf","contest":"Mechi Singing Star","episode":"Mechi Rising Star","category":null,"contestant":{"voting_id":"13","name":"Sristi Sharma"},"vote_count":1,"created_on":"2019-11-02T08:52:28.243894+05:45"},{"idx":"e3y6LquQ89RrM7A7eoPcbA","contest":"Mechi Singing Star","episode":"Mechi Rising Star","category":null,"contestant":{"voting_id":"07","name":"Rosha Phuyal"},"vote_count":1,"created_on":"2019-11-01T23:47:44.710645+05:45"},{"idx":"uFiCFcfyeeuXWvbmgmSKbc","contest":"Mechi Singing Star","episode":"Mechi Rising Star","category":null,"contestant":{"voting_id":"01","name":"Anushka Malla"},"vote_count":1,"created_on":"2019-11-01T23:46:13.049016+05:45"},{"idx":"D3SAex6qyWHu27kWJeVxmm","contest":"Mechi Singing Star","episode":"Mechi Rising Star","category":null,"contestant":{"voting_id":"13","name":"Sristi Sharma"},"vote_count":1,"created_on":"2019-11-01T23:17:51.006288+05:45"},{"idx":"rTTieTVeRdFg72WVG7LBGK","contest":"Mechi Singing Star","episode":"Mechi Rising Star","category":null,"contestant":{"voting_id":"02","name":"Rachana Rimal"},"vote_count":1,"created_on":"2019-11-01T19:19:04.016035+05:45"},{"idx":"3SQoBEhyqCT8E8fCMoNNMT","contest":"Mechi Singing Star","episode":"Mechi Rising Star","category":null,"contestant":{"voting_id":"01","name":"Anushka Malla"},"vote_count":1,"created_on":"2019-11-01T18:10:39.052972+05:45"},{"idx":"AenG3HB83xrMSjWBVUVU78","contest":"Mechi Singing Star","episode":"Mechi Rising Star","category":null,"contestant":{"voting_id":"01","name":"Anushka Malla"},"vote_count":1,"created_on":"2019-11-01T17:46:36.327379+05:45"},{"idx":"aNunRBxatEvCS4P8ZCLqpG","contest":"Mechi Singing Star","episode":"Mechi Rising Star","category":null,"contestant":{"voting_id":"08","name":"Yogesh Siwakoti"},"vote_count":1,"created_on":"2019-11-01T15:13:18.064677+05:45"},{"idx":"DE5XCQ4nR6FYT2C2sYU2pU","contest":"Mechi Singing Star","episode":"Mechi Rising Star","category":null,"contestant":{"voting_id":"01","name":"Anushka Malla"},"vote_count":1,"created_on":"2019-11-01T14:45:37.670755+05:45"},{"idx":"XVq4PosRam4W5wCxN5LBXF","contest":"Mechi Singing Star","episode":"Mechi Rising Star","category":null,"contestant":{"voting_id":"03","name":"Prachi Subedi"},"vote_count":1,"created_on":"2019-11-01T13:47:29.899690+05:45"},{"idx":"KcDGkeLM3wJUyXN9PxfPVd","contest":"Mechi Singing Star","episode":"Mechi Rising Star","category":null,"contestant":{"voting_id":"06","name":"Samjhana Pradhan"},"vote_count":1,"created_on":"2019-11-01T12:12:44.290221+05:45"},{"idx":"pYNtG6smM2yAVG5vLB8YAo","contest":"Mechi Singing Star","episode":"Mechi Rising Star","category":null,"contestant":{"voting_id":"01","name":"Anushka Malla"},"vote_count":1,"created_on":"2019-11-01T11:00:27.106768+05:45"},{"idx":"dH7BJXXSomDcHUgCV3fHGo","contest":"Mechi Singing Star","episode":"Mechi Rising Star","category":null,"contestant":{"voting_id":"01","name":"Anushka Malla"},"vote_count":1,"created_on":"2019-11-01T10:29:03.723469+05:45"},{"idx":"mvvozog29DA9LTH7GaamWb","contest":"Mechi Singing Star","episode":"Mechi Rising Star","category":null,"contestant":{"voting_id":"02","name":"Rachana Rimal"},"vote_count":1,"created_on":"2019-11-01T09:07:49.731680+05:45"},{"idx":"RBWaTgRniMo8KFXzcAHNzX","contest":"Mechi Singing Star","episode":"Mechi Rising Star","category":null,"contestant":{"voting_id":"07","name":"Rosha Phuyal"},"vote_count":1,"created_on":"2019-11-01T07:53:30.618264+05:45"},{"idx":"f5AXMSEPHd8MzcdxRBR3oR","contest":"Mechi Singing Star","episode":"Mechi Rising Star","category":null,"contestant":{"voting_id":"18","name":"Ritu Rai"},"vote_count":1,"created_on":"2019-10-31T14:51:39.555968+05:45"},{"idx":"qCoeXFtRgmNuPNEEHqNTZi","contest":"Mechi Singing Star","episode":"Mechi Rising Star","category":null,"contestant":{"voting_id":"01","name":"Anushka Malla"},"vote_count":1,"created_on":"2019-10-31T14:34:55.583856+05:45"},{"idx":"3Rjg6p55VYtZL3q9TzVSVH","contest":"Mechi Singing Star","episode":"Mechi Rising Star","category":null,"contestant":{"voting_id":"18","name":"Ritu Rai"},"vote_count":1,"created_on":"2019-10-31T11:24:19.074545+05:45"},{"idx":"fMgHgECzLXzLWZWfy5cL8A","contest":"Mechi Singing Star","episode":"Mechi Rising Star","category":null,"contestant":{"voting_id":"10","name":"Samikshya Bista"},"vote_count":1,"created_on":"2019-10-31T09:32:39.235955+05:45"},{"idx":"6p4TZhXhno2SSwTiUeLn5S","contest":"Mechi Singing Star","episode":"Mechi Rising Star","category":null,"contestant":{"voting_id":"01","name":"Anushka Malla"},"vote_count":1,"created_on":"2019-10-31T07:00:07.843663+05:45"},{"idx":"QqgRKsNFfpCRNJdoK4GZHA","contest":"Mechi Singing Star","episode":"Mechi Rising Star","category":null,"contestant":{"voting_id":"03","name":"Prachi Subedi"},"vote_count":1,"created_on":"2019-10-30T21:50:42.604569+05:45"},{"idx":"7V7dpirwzZ9AaXxStcGybV","contest":"Mechi Singing Star","episode":"Mechi Rising Star","category":null,"contestant":{"voting_id":"04","name":"Biraj Prasai"},"vote_count":1,"created_on":"2019-10-30T18:33:57.466228+05:45"},{"idx":"UQKBoV9rZahQKQGZqYVpb9","contest":"Mechi Singing Star","episode":"Mechi Rising Star","category":null,"contestant":{"voting_id":"01","name":"Anushka Malla"},"vote_count":1,"created_on":"2019-10-30T16:24:33.803086+05:45"},{"idx":"kX27HKBvaSXNfYokrE95um","contest":"Mechi Singing Star","episode":"Mechi Rising Star","category":null,"contestant":{"voting_id":"01","name":"Anushka Malla"},"vote_count":1,"created_on":"2019-10-30T11:19:17.558113+05:45"},{"idx":"ZqYjmAWdohqpCEc2vDnkM7","contest":"Mechi Singing Star","episode":"Mechi Rising Star","category":null,"contestant":{"voting_id":"10","name":"Samikshya Bista"},"vote_count":1,"created_on":"2019-10-30T05:25:03.397882+05:45"},{"idx":"DJg2zumkLP4RMWG2Xj4jZk","contest":"Mechi Singing Star","episode":"Mechi Rising Star","category":null,"contestant":{"voting_id":"01","name":"Anushka Malla"},"vote_count":1,"created_on":"2019-10-30T04:22:02.289306+05:45"},{"idx":"HpLesyt4vX5ggXb6Nyi9DT","contest":"Mechi Singing Star","episode":"Mechi Rising Star","category":null,"contestant":{"voting_id":"18","name":"Ritu Rai"},"vote_count":1,"created_on":"2019-10-28T11:58:26.999020+05:45"},{"idx":"6ry9MRXxqct7TukRe6ijSL","contest":"Mechi Singing Star","episode":"Mechi Rising Star","category":null,"contestant":{"voting_id":"10","name":"Samikshya Bista"},"vote_count":1,"created_on":"2019-10-28T11:24:35.016855+05:45"},{"idx":"6twnbmWC5jQ2cqLK7BzccM","contest":"Mechi Singing Star","episode":"Mechi Rising Star","category":null,"contestant":{"voting_id":"01","name":"Anushka Malla"},"vote_count":1,"created_on":"2019-10-28T09:11:40.621615+05:45"},{"idx":"UZjZs8fRMdjJsGERmiwvPH","contest":"Mechi Singing Star","episode":"Mechi Rising Star","category":null,"contestant":{"voting_id":"01","name":"Anushka Malla"},"vote_count":1,"created_on":"2019-10-27T22:05:41.862912+05:45"},{"idx":"ihNxBgVGDmFBU8BHz9quu7","contest":"Mechi Singing Star","episode":"Mechi Rising Star","category":null,"contestant":{"voting_id":"04","name":"Biraj Prasai"},"vote_count":1,"created_on":"2019-10-27T12:27:52.997219+05:45"},{"idx":"iLjo9f9bHGLrPi5EDP8HcK","contest":"Mechi Singing Star","episode":"Mechi Rising Star","category":null,"contestant":{"voting_id":"10","name":"Samikshya Bista"},"vote_count":1,"created_on":"2019-10-27T10:00:11.144384+05:45"},{"idx":"V98oofThu8KwQhJDUzfkz6","contest":"Mechi Singing Star","episode":"Mechi Rising Star","category":null,"contestant":{"voting_id":"10","name":"Samikshya Bista"},"vote_count":1,"created_on":"2019-10-26T14:30:32.201049+05:45"},{"idx":"B9EWgNtdUtsu5Vz3zZxMNC","contest":"Mechi Singing Star","episode":"Mechi Rising Star","category":null,"contestant":{"voting_id":"01","name":"Anushka Malla"},"vote_count":1,"created_on":"2019-10-26T13:36:03.925888+05:45"},{"idx":"Qj6c9P9GxxnbxJdncHZyYg","contest":"Mechi Singing Star","episode":"Mechi Rising Star","category":null,"contestant":{"voting_id":"13","name":"Sristi Sharma"},"vote_count":1,"created_on":"2019-10-26T11:50:25.010126+05:45"},{"idx":"cMXXiHLVxTddjxHLznf9Zh","contest":"Mechi Singing Star","episode":"Mechi Rising Star","category":null,"contestant":{"voting_id":"03","name":"Prachi Subedi"},"vote_count":1,"created_on":"2019-10-26T09:18:10.155766+05:45"},{"idx":"btFptRDPypqQoQJ4sxDJCG","contest":"Mechi Singing Star","episode":"Mechi Rising Star","category":null,"contestant":{"voting_id":"07","name":"Rosha Phuyal"},"vote_count":1,"created_on":"2019-10-26T08:49:25.176597+05:45"},{"idx":"JxoTZLBdz3LNHpgkrRDVoR","contest":"Mechi Singing Star","episode":"Mechi Rising Star","category":null,"contestant":{"voting_id":"19","name":"Prenija Dhakal"},"vote_count":1,"created_on":"2019-10-26T07:44:04.064224+05:45"},{"idx":"fpwXaaQ8wQA4CT39FVrE5d","contest":"Mechi Singing Star","episode":"Mechi Rising Star","category":null,"contestant":{"voting_id":"12","name":"Axix Ruchal"},"vote_count":1,"created_on":"2019-10-26T06:07:04.870689+05:45"},{"idx":"7e3EJ7iYMwEFDXYein7Vig","contest":"Mechi Singing Star","episode":"Mechi Rising Star","category":null,"contestant":{"voting_id":"15","name":"Ashika Kuwar"},"vote_count":1,"created_on":"2019-10-25T18:45:50.545620+05:45"}]}