{"total_pages":275,"total_records":13721,"next":"https://khalti.com/api/v2/vuservote/?page=255","previous":"https://khalti.com/api/v2/vuservote/?page=253","record_range":[12651,12700],"current_page":254,"records":[{"idx":"eEyWQLSfUYqQCURH9iaRG7","contest":"Mechi Singing Star","episode":"Mechi Rising Star","category":null,"contestant":{"voting_id":"01","name":"Anushka Malla"},"vote_count":1,"created_on":"2019-10-25T15:04:16.885639+05:45"},{"idx":"45mNsZwBKuzQgZ22PwRgsG","contest":"Mechi Singing Star","episode":"Mechi Rising Star","category":null,"contestant":{"voting_id":"03","name":"Prachi Subedi"},"vote_count":1,"created_on":"2019-10-25T13:04:11.171758+05:45"},{"idx":"9Mw2oGzwsi6K9eynywReyP","contest":"Mechi Singing Star","episode":"Mechi Rising Star","category":null,"contestant":{"voting_id":"14","name":"Anuja Giri"},"vote_count":1,"created_on":"2019-10-25T13:01:47.958494+05:45"},{"idx":"7jy39AEDafcps4AoxwftrU","contest":"Mechi Singing Star","episode":"Mechi Rising Star","category":null,"contestant":{"voting_id":"09","name":"Samir Rasaily"},"vote_count":1,"created_on":"2019-10-25T09:02:24.463495+05:45"},{"idx":"6XrE9Kkuh3T9NHJMkyE6TE","contest":"Mechi Singing Star","episode":"Mechi Rising Star","category":null,"contestant":{"voting_id":"02","name":"Rachana Rimal"},"vote_count":1,"created_on":"2019-10-24T22:17:01.590837+05:45"},{"idx":"UumhJRvVQCcMzi8CQpNfrT","contest":"Mechi Singing Star","episode":"Mechi Rising Star","category":null,"contestant":{"voting_id":"07","name":"Rosha Phuyal"},"vote_count":1,"created_on":"2019-10-24T21:51:31.935725+05:45"},{"idx":"AqZj2xAHUbsswBdR8CypY2","contest":"Mechi Singing Star","episode":"Mechi Rising Star","category":null,"contestant":{"voting_id":"01","name":"Anushka Malla"},"vote_count":1,"created_on":"2019-10-24T21:48:04.811490+05:45"},{"idx":"qRgk6SBDtHWy4oMMwJrULT","contest":"Mechi Singing Star","episode":"Mechi Rising Star","category":null,"contestant":{"voting_id":"01","name":"Anushka Malla"},"vote_count":1,"created_on":"2019-10-24T19:36:28.140391+05:45"},{"idx":"rCWuvMotTucKxn5C8SYuXQ","contest":"Mechi Singing Star","episode":"Mechi Rising Star","category":null,"contestant":{"voting_id":"01","name":"Anushka Malla"},"vote_count":1,"created_on":"2019-10-24T15:41:22.559238+05:45"},{"idx":"de7UvGiisyhSnuDmKxCkwE","contest":"Mechi Singing Star","episode":"Mechi Rising Star","category":null,"contestant":{"voting_id":"04","name":"Biraj Prasai"},"vote_count":1,"created_on":"2019-10-23T22:03:05.928754+05:45"},{"idx":"CipzZZtjyDkWfBfwMSYDb7","contest":"Mechi Singing Star","episode":"Mechi Rising Star","category":null,"contestant":{"voting_id":"19","name":"Prenija Dhakal"},"vote_count":1,"created_on":"2019-10-23T20:56:58.196491+05:45"},{"idx":"GSebSDGNTZWMW7Lnrry7xP","contest":"Mechi Singing Star","episode":"Mechi Rising Star","category":null,"contestant":{"voting_id":"19","name":"Prenija Dhakal"},"vote_count":1,"created_on":"2019-10-23T19:54:09.690525+05:45"},{"idx":"6AK3A5ZxkViQa9es6EfdJC","contest":"Mechi Singing Star","episode":"Mechi Rising Star","category":null,"contestant":{"voting_id":"20","name":"Rojal Shrestha"},"vote_count":1,"created_on":"2019-10-23T13:24:38.083169+05:45"},{"idx":"ug6hBo37aJPrCYbRh3Kts2","contest":"Mechi Singing Star","episode":"Mechi Rising Star","category":null,"contestant":{"voting_id":"20","name":"Rojal Shrestha"},"vote_count":1,"created_on":"2019-10-23T13:13:54.685377+05:45"},{"idx":"6ir3ErGELL7oX98F8iJPLg","contest":"Mechi Singing Star","episode":"Mechi Rising Star","category":null,"contestant":{"voting_id":"01","name":"Anushka Malla"},"vote_count":1,"created_on":"2019-10-23T07:08:29.545386+05:45"},{"idx":"aU2ur9AxHpJm88UVhTRFCn","contest":"Mechi Singing Star","episode":"Mechi Rising Star","category":null,"contestant":{"voting_id":"03","name":"Prachi Subedi"},"vote_count":1,"created_on":"2019-10-22T22:11:01.836724+05:45"},{"idx":"zoLWSmhyaoaaLCyekepRyB","contest":"Mechi Singing Star","episode":"Mechi Rising Star","category":null,"contestant":{"voting_id":"05","name":"Pawan Dhakal"},"vote_count":1,"created_on":"2019-10-22T20:46:29.338180+05:45"},{"idx":"5S8DsNAZ54XDHx5MJbzomY","contest":"Mechi Singing Star","episode":"Mechi Rising Star","category":null,"contestant":{"voting_id":"01","name":"Anushka Malla"},"vote_count":1,"created_on":"2019-10-22T14:52:59.227407+05:45"},{"idx":"NCnuJ2kzpuioUe9hPmThEE","contest":"Mechi Singing Star","episode":"Mechi Rising Star","category":null,"contestant":{"voting_id":"01","name":"Anushka Malla"},"vote_count":1,"created_on":"2019-10-22T13:48:58.946640+05:45"},{"idx":"vGCDhc6V9QvU2sjWCcR8PW","contest":"Mechi Singing Star","episode":"Mechi Rising Star","category":null,"contestant":{"voting_id":"02","name":"Rachana Rimal"},"vote_count":1,"created_on":"2019-10-22T11:22:46.488947+05:45"},{"idx":"gfEyCgFHbNLR8vGVsPwTPX","contest":"Mechi Singing Star","episode":"Mechi Rising Star","category":null,"contestant":{"voting_id":"07","name":"Rosha Phuyal"},"vote_count":1,"created_on":"2019-10-22T09:18:49.893034+05:45"},{"idx":"xDLw8VTgwckdc5DT4jU25j","contest":"Mechi Singing Star","episode":"Mechi Rising Star","category":null,"contestant":{"voting_id":"07","name":"Rosha Phuyal"},"vote_count":1,"created_on":"2019-10-22T09:01:06.403532+05:45"},{"idx":"v93sbab4MWoRfJDRHxFXAj","contest":"Mechi Singing Star","episode":"Mechi Rising Star","category":null,"contestant":{"voting_id":"01","name":"Anushka Malla"},"vote_count":1,"created_on":"2019-10-22T00:43:00.269714+05:45"},{"idx":"vFahXdbod8u2AyU8JFB8RF","contest":"OS Nepal Music Award 2076","episode":null,"category":"BEST ALBUM","contestant":{"voting_id":"58E","name":"KIRAN MICHEAL"},"vote_count":100,"created_on":"2019-10-21T23:53:46.790385+05:45"},{"idx":"fkkEzbG7xWYXDb6rPfHRtN","contest":"OS Nepal Music Award 2076","episode":null,"category":"BEST ALBUM","contestant":{"voting_id":"58E","name":"KIRAN MICHEAL"},"vote_count":500,"created_on":"2019-10-21T23:53:26.687236+05:45"},{"idx":"yGXBHo4t2gV2t3Wdhy3FET","contest":"OS Nepal Music Award 2076","episode":null,"category":"BEST KATHYA LOK   MALE SINGER","contestant":{"voting_id":"53B","name":"PRAKASH KATUWAL"},"vote_count":25,"created_on":"2019-10-21T23:51:56.928444+05:45"},{"idx":"tSpHAEwuoAMVyehjNf4pfK","contest":"OS Nepal Music Award 2076","episode":null,"category":"BEST KATHYA LOK  FEMALE SINGER","contestant":{"voting_id":"52A","name":"RADHIKA HAMAL"},"vote_count":25,"created_on":"2019-10-21T23:51:00.783367+05:45"},{"idx":"kocWM7zEP6FhXKvxfiLDkK","contest":"OS Nepal Music Award 2076","episode":null,"category":"BEST MODERN/ POP CINEMATOGRAPHER","contestant":{"voting_id":"41A","name":"GANENDRA SHARMA HUMGAI"},"vote_count":25,"created_on":"2019-10-21T23:49:35.579107+05:45"},{"idx":"ceyaN2TEcm24zofXwLDKLG","contest":"OS Nepal Music Award 2076","episode":null,"category":"BEST LOKDOHORI CINEMATOGRAPHER","contestant":{"voting_id":"8A","name":"RAJESH GHIMIRE"},"vote_count":25,"created_on":"2019-10-21T23:48:12.739937+05:45"},{"idx":"vw455i8znjUAQa8qLskdDg","contest":"OS Nepal Music Award 2076","episode":null,"category":" BEST LOK SONG","contestant":{"voting_id":"17B","name":"SURAJ THAPA"},"vote_count":50,"created_on":"2019-10-21T23:41:22.082136+05:45"},{"idx":"fCji7DPQSpCkPJquTxxhTf","contest":"OS Nepal Music Award 2076","episode":null,"category":"BEST LOKDOHORI MUSICIAN","contestant":{"voting_id":"3E","name":"SAHADEV KOIRALA"},"vote_count":25,"created_on":"2019-10-21T23:39:07.731247+05:45"},{"idx":"XaVRtXtLU2aQFVCVAQY2HX","contest":"OS Nepal Music Award 2076","episode":null,"category":"BEST LOKDOHORI MUSICIAN","contestant":{"voting_id":"3E","name":"SAHADEV KOIRALA"},"vote_count":5,"created_on":"2019-10-21T23:38:14.910206+05:45"},{"idx":"kKgqU4gkdaHVCUkdMciL9F","contest":"OS Nepal Music Award 2076","episode":null,"category":"BEST LOKDOHORI MUSICIAN","contestant":{"voting_id":"3E","name":"SAHADEV KOIRALA"},"vote_count":25,"created_on":"2019-10-21T23:37:34.990077+05:45"},{"idx":"i7rKKmL4ZcHJyHf2iKxrxi","contest":"OS Nepal Music Award 2076","episode":null,"category":"BEST LOKDOHORI MUSICIAN","contestant":{"voting_id":"3E","name":"SAHADEV KOIRALA"},"vote_count":5,"created_on":"2019-10-21T23:36:43.431477+05:45"},{"idx":"y2ZM5NaUkhMh2peP53rD8M","contest":"OS Nepal Music Award 2076","episode":null,"category":"BEST LOKDOHORI FEMALE SINGER","contestant":{"voting_id":"16D","name":"SANJU NEUPANE"},"vote_count":100,"created_on":"2019-10-21T23:35:41.332166+05:45"},{"idx":"QG9NWykHTMCz4wmKSWgpuh","contest":"OS Nepal Music Award 2076","episode":null,"category":"BEST LOKDOHORI FEMALE SINGER (NEW)","contestant":{"voting_id":"13C","name":"NIRU GURUNG"},"vote_count":50,"created_on":"2019-10-21T23:29:47.048711+05:45"},{"idx":"myBVK6A8FY8s9NYjNkHuU7","contest":"OS Nepal Music Award 2076","episode":null,"category":"BEST LOK DOHARI","contestant":{"voting_id":"1B","name":"SAMBHU KUNWAR"},"vote_count":100,"created_on":"2019-10-21T23:28:24.553640+05:45"},{"idx":"hoJx8aYsWBWsinRVk8S6i6","contest":"OS Nepal Music Award 2076","episode":null,"category":"BEST LOKDOHORI MALE SINGER (NEW)","contestant":{"voting_id":"14E","name":"KUSHAL BISHWOKARMA"},"vote_count":100,"created_on":"2019-10-21T23:28:01.378982+05:45"},{"idx":"pRmFZ9qmPfdkonxrxyGCUo","contest":"OS Nepal Music Award 2076","episode":null,"category":"BEST LOKDOHORI FEMALE SINGER (NEW)","contestant":{"voting_id":"13C","name":"NIRU GURUNG"},"vote_count":100,"created_on":"2019-10-21T23:27:39.829188+05:45"},{"idx":"LDALz92LnvkX2f6SkgPWLn","contest":"OS Nepal Music Award 2076","episode":null,"category":"BEST LOKDOHORI FEMALE SINGER (NEW)","contestant":{"voting_id":"13C","name":"NIRU GURUNG"},"vote_count":100,"created_on":"2019-10-21T23:27:01.345916+05:45"},{"idx":"MLEAWrHx3PwEzgvB5WzHUc","contest":"OS Nepal Music Award 2076","episode":null,"category":"BEST ADHUNIK MALE MODEL ","contestant":{"voting_id":"36E","name":"SURAJ SHRESTHA"},"vote_count":5,"created_on":"2019-10-21T22:37:07.170216+05:45"},{"idx":"HVb9cLHpXDwAypZ9yXMGCJ","contest":"OS Nepal Music Award 2076","episode":null,"category":"BEST ADHUNIK MALE MODEL ","contestant":{"voting_id":"36E","name":"SURAJ SHRESTHA"},"vote_count":5,"created_on":"2019-10-21T22:36:12.008201+05:45"},{"idx":"PM25sJTWPoAbFQPt5tY4gd","contest":"OS Nepal Music Award 2076","episode":null,"category":"BEST ADHUNIK MALE MODEL ","contestant":{"voting_id":"36E","name":"SURAJ SHRESTHA"},"vote_count":25,"created_on":"2019-10-21T22:22:25.314526+05:45"},{"idx":"ypQsCKNmLvJUkw92Ar6PG6","contest":"OS Nepal Music Award 2076","episode":null,"category":"BEST ADHUNIK MALE MODEL ","contestant":{"voting_id":"36E","name":"SURAJ SHRESTHA"},"vote_count":5,"created_on":"2019-10-21T22:21:33.678166+05:45"},{"idx":"jQt78ctS8bPnKEPFqup68H","contest":"OS Nepal Music Award 2076","episode":null,"category":"BEST ADHUNIK ARRANGER","contestant":{"voting_id":"33B","name":"DINESH SHRESTHA"},"vote_count":100,"created_on":"2019-10-21T22:20:12.612055+05:45"},{"idx":"mNhEjCRVKSMz54ivGPcyNN","contest":"OS Nepal Music Award 2076","episode":null,"category":"BEST ADHUNIK ARRANGER","contestant":{"voting_id":"33B","name":"DINESH SHRESTHA"},"vote_count":100,"created_on":"2019-10-21T22:19:42.339737+05:45"},{"idx":"LvLLiSY5pJQtKvxwGd3CVk","contest":"OS Nepal Music Award 2076","episode":null,"category":"BEST ADHUNIK ARRANGER","contestant":{"voting_id":"33B","name":"DINESH SHRESTHA"},"vote_count":500,"created_on":"2019-10-21T22:18:42.564461+05:45"},{"idx":"ikB2CcYpoaKHdSBLxmfJA7","contest":"OS Nepal Music Award 2076","episode":null,"category":"BEST ADHUNIK ARRANGER","contestant":{"voting_id":"33B","name":"DINESH SHRESTHA"},"vote_count":500,"created_on":"2019-10-21T22:18:15.424847+05:45"},{"idx":"EGiUSMU6WbXZowWVS6ztih","contest":"OS Nepal Music Award 2076","episode":null,"category":"BEST ADHUNIK SONG","contestant":{"voting_id":"30A","name":"NARAYAN BABU KOIRALA"},"vote_count":100,"created_on":"2019-10-21T22:17:30.148563+05:45"},{"idx":"NfTEjUsDS2adNes4nqKhMc","contest":"OS Nepal Music Award 2076","episode":null,"category":"BEST ADHUNIK MALE MODEL ","contestant":{"voting_id":"36E","name":"SURAJ SHRESTHA"},"vote_count":5,"created_on":"2019-10-21T22:14:18.429518+05:45"}]}