{"total_pages":275,"total_records":13721,"next":"https://khalti.com/api/v2/vuservote/?page=256","previous":"https://khalti.com/api/v2/vuservote/?page=254","record_range":[12701,12750],"current_page":255,"records":[{"idx":"gDQ6UictgMn7iEes4WtaY8","contest":"OS Nepal Music Award 2076","episode":null,"category":"BEST LOKDOHORI VIDEO DIRECTOR (Dance)","contestant":{"voting_id":"6D","name":"KAJISH SHRESTHA"},"vote_count":100,"created_on":"2019-10-21T22:13:16.676344+05:45"},{"idx":"2D8XiExad3hcjhPXSU7xW2","contest":"OS Nepal Music Award 2076","episode":null,"category":"BEST LOKDOHORI VIDEO DIRECTOR (Dance)","contestant":{"voting_id":"6D","name":"KAJISH SHRESTHA"},"vote_count":100,"created_on":"2019-10-21T22:12:47.315801+05:45"},{"idx":"SakNBFTxKHXUfqg2QVbDYC","contest":"OS Nepal Music Award 2076","episode":null,"category":"BEST LOKDOHORI VIDEO DIRECTOR (Dance)","contestant":{"voting_id":"6D","name":"KAJISH SHRESTHA"},"vote_count":100,"created_on":"2019-10-21T22:12:25.389144+05:45"},{"idx":"j8m82KguBEQyW5zCrpC4vA","contest":"OS Nepal Music Award 2076","episode":null,"category":"BEST LOKDOHORI VIDEO DIRECTOR (Dance)","contestant":{"voting_id":"6D","name":"KAJISH SHRESTHA"},"vote_count":100,"created_on":"2019-10-21T22:12:03.157837+05:45"},{"idx":"pTTbEG9SLY2RUik7Qfk3EP","contest":"OS Nepal Music Award 2076","episode":null,"category":"BEST LOKDOHORI VIDEO DIRECTOR (Dance)","contestant":{"voting_id":"6D","name":"KAJISH SHRESTHA"},"vote_count":500,"created_on":"2019-10-21T22:11:12.417663+05:45"},{"idx":"me2XYLoWqHbtCT7SbJe2JZ","contest":"OS Nepal Music Award 2076","episode":null,"category":"BEST LOKDOHORI VIDEO DIRECTOR (Dance)","contestant":{"voting_id":"6D","name":"KAJISH SHRESTHA"},"vote_count":500,"created_on":"2019-10-21T22:10:48.756393+05:45"},{"idx":"A2HNdsnjuMAz68n3Zmv8U8","contest":"OS Nepal Music Award 2076","episode":null,"category":"BEST LOKDOHORI VIDEO DIRECTOR (Dance)","contestant":{"voting_id":"6D","name":"KAJISH SHRESTHA"},"vote_count":500,"created_on":"2019-10-21T22:10:07.627922+05:45"},{"idx":"PMuSkeyie6VbVVyLMYa38o","contest":"OS Nepal Music Award 2076","episode":null,"category":"BEST LOKDOHORI VIDEO DIRECTOR (Dance)","contestant":{"voting_id":"6D","name":"KAJISH SHRESTHA"},"vote_count":500,"created_on":"2019-10-21T22:09:30.781404+05:45"},{"idx":"RX3uCyCjpwtQA9kN5iKDu9","contest":"OS Nepal Music Award 2076","episode":null,"category":"BEST ADHUNIK SONG","contestant":{"voting_id":"30A","name":"NARAYAN BABU KOIRALA"},"vote_count":1,"created_on":"2019-10-21T22:07:38.068462+05:45"},{"idx":"e35YNDg54KBfqQzVqiAgj9","contest":"OS Nepal Music Award 2076","episode":null,"category":"BEST ADHUNIK ARRANGER","contestant":{"voting_id":"33B","name":"DINESH SHRESTHA"},"vote_count":500,"created_on":"2019-10-21T22:05:45.254447+05:45"},{"idx":"k4WwkVb87bPuMxEeuL2bgT","contest":"OS Nepal Music Award 2076","episode":null,"category":"BEST ADHUNIK ARRANGER","contestant":{"voting_id":"33B","name":"DINESH SHRESTHA"},"vote_count":500,"created_on":"2019-10-21T22:05:19.959249+05:45"},{"idx":"wDY8LGYXQvqnUM2qSSicfh","contest":"OS Nepal Music Award 2076","episode":null,"category":"BEST ADHUNIK SONG","contestant":{"voting_id":"30A","name":"NARAYAN BABU KOIRALA"},"vote_count":500,"created_on":"2019-10-21T22:02:52.639755+05:45"},{"idx":"sfKcq56kJZXqWz52LQHL73","contest":"OS Nepal Music Award 2076","episode":null,"category":"BEST ADHUNIK SONG","contestant":{"voting_id":"30A","name":"NARAYAN BABU KOIRALA"},"vote_count":500,"created_on":"2019-10-21T22:02:02.417570+05:45"},{"idx":"usGWdcrvUbbHZqyiKA2kgF","contest":"OS Nepal Music Award 2076","episode":null,"category":"BEST SELO MALE SINGER","contestant":{"voting_id":"55D","name":"ANIL LAMA"},"vote_count":5,"created_on":"2019-10-21T22:02:01.903763+05:45"},{"idx":"2QdWZr7pGdzunPsE6uAdiT","contest":"OS Nepal Music Award 2076","episode":null,"category":"BEST ADHUNIK SONG","contestant":{"voting_id":"30A","name":"NARAYAN BABU KOIRALA"},"vote_count":500,"created_on":"2019-10-21T22:01:28.571269+05:45"},{"idx":"mSXRUvQEiMeFRtaw5tJyAQ","contest":"OS Nepal Music Award 2076","episode":null,"category":"BEST SELO MALE SINGER","contestant":{"voting_id":"55D","name":"ANIL LAMA"},"vote_count":25,"created_on":"2019-10-21T22:01:05.466264+05:45"},{"idx":"QDcPbsN6HyXQBTEZCTQgmY","contest":"OS Nepal Music Award 2076","episode":null,"category":"BEST ADHUNIK SONG","contestant":{"voting_id":"30A","name":"NARAYAN BABU KOIRALA"},"vote_count":500,"created_on":"2019-10-21T22:00:34.144703+05:45"},{"idx":"FTgT5hy7bwzSaYCpNsbDwb","contest":"OS Nepal Music Award 2076","episode":null,"category":"BEST ADHUNIK SONG","contestant":{"voting_id":"30A","name":"NARAYAN BABU KOIRALA"},"vote_count":500,"created_on":"2019-10-21T21:59:58.390453+05:45"},{"idx":"jpF2vZM5z284NKouDN5gh8","contest":"OS Nepal Music Award 2076","episode":null,"category":"BEST ADHUNIK SONG","contestant":{"voting_id":"30A","name":"NARAYAN BABU KOIRALA"},"vote_count":500,"created_on":"2019-10-21T21:59:23.384229+05:45"},{"idx":"3DeAmn5zucJhBSoGgpvSgT","contest":"OS Nepal Music Award 2076","episode":null,"category":"BEST ADHUNIK SONG","contestant":{"voting_id":"30A","name":"NARAYAN BABU KOIRALA"},"vote_count":500,"created_on":"2019-10-21T21:58:42.762398+05:45"},{"idx":"XauNrupp3DsJi2JW9mu6nG","contest":"OS Nepal Music Award 2076","episode":null,"category":"BEST ADHUNIK MALE MODEL ","contestant":{"voting_id":"36E","name":"SURAJ SHRESTHA"},"vote_count":50,"created_on":"2019-10-21T21:55:26.265453+05:45"},{"idx":"gPegBstiyT4GMPVKoYnoMV","contest":"OS Nepal Music Award 2076","episode":null,"category":"BEST POP NEW MALE SINGER ","contestant":{"voting_id":"26A","name":"PRADIP K. GLAN"},"vote_count":100,"created_on":"2019-10-21T21:37:06.268289+05:45"},{"idx":"35FU4mgsMvgwHUGtfte8kA","contest":"OS Nepal Music Award 2076","episode":null,"category":"BEST POP LYRICIST ","contestant":{"voting_id":"20A","name":"RAMESH DAHAL"},"vote_count":5,"created_on":"2019-10-21T21:17:38.729352+05:45"},{"idx":"nNwKjTPA5JKSBk38dtxLkF","contest":"OS Nepal Music Award 2076","episode":null,"category":"BEST POP FEMALE SINGER","contestant":{"voting_id":"29A","name":"ANGELA SHRESTHA"},"vote_count":1,"created_on":"2019-10-21T21:06:44.998535+05:45"},{"idx":"ECjXWsoDmbDTZXmskrXY5i","contest":"OS Nepal Music Award 2076","episode":null,"category":"BEST SELO MALE SINGER","contestant":{"voting_id":"55D","name":"ANIL LAMA"},"vote_count":50,"created_on":"2019-10-21T20:40:18.362308+05:45"},{"idx":"4yMnXe46J22TsNt5xiMyqA","contest":"OS Nepal Music Award 2076","episode":null,"category":"BEST SELO MALE SINGER","contestant":{"voting_id":"55D","name":"ANIL LAMA"},"vote_count":100,"created_on":"2019-10-21T20:39:02.545208+05:45"},{"idx":"Dwq4G6kRqdKKuoreiNTYCa","contest":"OS Nepal Music Award 2076","episode":null,"category":"BEST MODERN VIDEO EDITOR","contestant":{"voting_id":"43A","name":"CHANDAN DUTTA"},"vote_count":500,"created_on":"2019-10-21T20:38:59.561092+05:45"},{"idx":"x3CQ7FFYcwiWhPMxjWG9pZ","contest":"OS Nepal Music Award 2076","episode":null,"category":"BEST MODERN VIDEO EDITOR","contestant":{"voting_id":"43A","name":"CHANDAN DUTTA"},"vote_count":500,"created_on":"2019-10-21T20:38:33.524691+05:45"},{"idx":"RutZ2YSb6pTXqoAvSfPmfG","contest":"OS Nepal Music Award 2076","episode":null,"category":"BEST ADHUNIK MALE MODEL ","contestant":{"voting_id":"36E","name":"SURAJ SHRESTHA"},"vote_count":100,"created_on":"2019-10-21T20:18:14.304740+05:45"},{"idx":"VAu3bPpfCUyTcfEiJzdc2C","contest":"OS Nepal Music Award 2076","episode":null,"category":"BEST LOKDOHORI VIDEO DIRECTOR (Dance)","contestant":{"voting_id":"6D","name":"KAJISH SHRESTHA"},"vote_count":1,"created_on":"2019-10-21T20:09:58.619573+05:45"},{"idx":"5VGtGjPcMTZxMXmu8ZcWrg","contest":"OS Nepal Music Award 2076","episode":null,"category":"BEST POP NEW MALE SINGER ","contestant":{"voting_id":"26A","name":"PRADIP K. GLAN"},"vote_count":100,"created_on":"2019-10-21T20:09:32.471316+05:45"},{"idx":"twuM7BrRdcpRhG2bjH3iuA","contest":"OS Nepal Music Award 2076","episode":null,"category":"BEST MODERN VIDEO EDITOR","contestant":{"voting_id":"43A","name":"CHANDAN DUTTA"},"vote_count":500,"created_on":"2019-10-21T20:03:45.642677+05:45"},{"idx":"4DHZiCrXrC2DyrLf8aDLhX","contest":"OS Nepal Music Award 2076","episode":null,"category":"BEST MODERN VIDEO EDITOR","contestant":{"voting_id":"43A","name":"CHANDAN DUTTA"},"vote_count":500,"created_on":"2019-10-21T20:02:53.271089+05:45"},{"idx":"kPRDaMKDMv7tmrTaz5RmhH","contest":"OS Nepal Music Award 2076","episode":null,"category":"BEST MODERN VIDEO EDITOR","contestant":{"voting_id":"43A","name":"CHANDAN DUTTA"},"vote_count":500,"created_on":"2019-10-21T19:58:12.116648+05:45"},{"idx":"82qmN8FfCDmLqNiK4FxkfP","contest":"OS Nepal Music Award 2076","episode":null,"category":"BEST LOK POP","contestant":{"voting_id":"19B","name":"BIRENDRA SHRESHTA"},"vote_count":500,"created_on":"2019-10-21T19:57:49.377925+05:45"},{"idx":"Sn8sHh4WLgegankwrRScRk","contest":"OS Nepal Music Award 2076","episode":null,"category":"BEST MODERN VIDEO EDITOR","contestant":{"voting_id":"43A","name":"CHANDAN DUTTA"},"vote_count":500,"created_on":"2019-10-21T19:56:10.138203+05:45"},{"idx":"k43bRpKJLhdEHNNMKVkPym","contest":"OS Nepal Music Award 2076","episode":null,"category":"BEST MODERN VIDEO EDITOR","contestant":{"voting_id":"43A","name":"CHANDAN DUTTA"},"vote_count":1,"created_on":"2019-10-21T19:49:08.851255+05:45"},{"idx":"xaEYXm4484sGCPQkRG2GxG","contest":"OS Nepal Music Award 2076","episode":null,"category":"BEST SELO MALE SINGER","contestant":{"voting_id":"55D","name":"ANIL LAMA"},"vote_count":50,"created_on":"2019-10-21T19:48:37.090040+05:45"},{"idx":"JYUJAaDtGG5vhM8VDUGsBW","contest":"OS Nepal Music Award 2076","episode":null,"category":"BEST LOKDOHORI CINEMATOGRAPHER","contestant":{"voting_id":"8B","name":"AJAY REGMI"},"vote_count":1,"created_on":"2019-10-21T19:47:42.259833+05:45"},{"idx":"YdzqZgdk7fUQo6jGTSnbEo","contest":"OS Nepal Music Award 2076","episode":null,"category":"BEST MODERN/ POP CINEMATOGRAPHER","contestant":{"voting_id":"41E","name":"AJAY REGMI"},"vote_count":1,"created_on":"2019-10-21T19:46:35.966353+05:45"},{"idx":"SxSbvJMuWfeVTCsnSewLPV","contest":"OS Nepal Music Award 2076","episode":null,"category":"BEST LOKDOHORI VIDEO EDITOR ","contestant":{"voting_id":"5A","name":"DEEPAK VISTA"},"vote_count":5,"created_on":"2019-10-21T19:45:44.044591+05:45"},{"idx":"tCK5GPdhX589qWy6kRN8nY","contest":"OS Nepal Music Award 2076","episode":null,"category":"BEST LOKDOHORI VIDEO EDITOR ","contestant":{"voting_id":"5A","name":"DEEPAK VISTA"},"vote_count":5,"created_on":"2019-10-21T19:45:08.909437+05:45"},{"idx":"ehcspYEbm7EPBJjwnep2Li","contest":"OS Nepal Music Award 2076","episode":null,"category":"BEST LOKDOHORI VIDEO EDITOR ","contestant":{"voting_id":"5A","name":"DEEPAK VISTA"},"vote_count":5,"created_on":"2019-10-21T19:44:03.680650+05:45"},{"idx":"p6rL6MqpfSewLX6NrPPJaa","contest":"OS Nepal Music Award 2076","episode":null,"category":"BEST LOKDOHORI VIDEO EDITOR ","contestant":{"voting_id":"5A","name":"DEEPAK VISTA"},"vote_count":5,"created_on":"2019-10-21T19:43:17.427102+05:45"},{"idx":"kLECzYweJF8DW3EFYzadJg","contest":"OS Nepal Music Award 2076","episode":null,"category":"BEST LOKDOHORI MALE MODEL DANCE","contestant":{"voting_id":"10C","name":"MAHENDRA GAUTAM"},"vote_count":1,"created_on":"2019-10-21T19:43:14.818999+05:45"},{"idx":"jf2fuVui96RfUmFLgLwJF7","contest":"OS Nepal Music Award 2076","episode":null,"category":"BEST LOKDOHORI VIDEO EDITOR ","contestant":{"voting_id":"5A","name":"DEEPAK VISTA"},"vote_count":1,"created_on":"2019-10-21T19:42:04.926512+05:45"},{"idx":"7tV6rtr6jpcLiHrvdVhwtn","contest":"OS Nepal Music Award 2076","episode":null,"category":"BEST LOKDOHORI VIDEO EDITOR ","contestant":{"voting_id":"5A","name":"DEEPAK VISTA"},"vote_count":100,"created_on":"2019-10-21T19:42:04.170026+05:45"},{"idx":"GiGRvx6wLMxsZBh7ggNWjA","contest":"OS Nepal Music Award 2076","episode":null,"category":"BEST MODERN/ POP CINEMATOGRAPHER","contestant":{"voting_id":"41E","name":"AJAY REGMI"},"vote_count":1,"created_on":"2019-10-21T19:40:27.936849+05:45"},{"idx":"g2HEWkMQ2PRFknEjxNcEZf","contest":"OS Nepal Music Award 2076","episode":null,"category":"BEST LOKDOHORI VIDEO EDITOR ","contestant":{"voting_id":"5A","name":"DEEPAK VISTA"},"vote_count":1,"created_on":"2019-10-21T19:39:41.464762+05:45"},{"idx":"MNuDzjoV94GypZiDewKjsP","contest":"OS Nepal Music Award 2076","episode":null,"category":"BEST LOKDOHORI CINEMATOGRAPHER","contestant":{"voting_id":"8B","name":"AJAY REGMI"},"vote_count":1,"created_on":"2019-10-21T19:38:45.289496+05:45"}]}