{"total_pages":275,"total_records":13721,"next":"https://khalti.com/api/v2/vuservote/?page=257","previous":"https://khalti.com/api/v2/vuservote/?page=255","record_range":[12751,12800],"current_page":256,"records":[{"idx":"ikbzfWqx9NKHBvME5WFVGJ","contest":"OS Nepal Music Award 2076","episode":null,"category":"BEST POP FEMALE SINGER","contestant":{"voting_id":"29B","name":"SRIJANA KHATRI"},"vote_count":100,"created_on":"2019-10-21T19:28:54.432532+05:45"},{"idx":"TdDpnxs8Q7X4XbKPucPiyG","contest":"OS Nepal Music Award 2076","episode":null,"category":"BEST DEUDA FEMALE SINGER","contestant":{"voting_id":"46A","name":"SOBHA THAPA"},"vote_count":1,"created_on":"2019-10-21T19:09:39.472700+05:45"},{"idx":"nXg8ZFxHTSg8AQdJsosiEG","contest":"OS Nepal Music Award 2076","episode":null,"category":"BEST LOK POP","contestant":{"voting_id":"19B","name":"BIRENDRA SHRESHTA"},"vote_count":100,"created_on":"2019-10-21T19:07:13.435058+05:45"},{"idx":"AB7yiP5oFPRTZ3FawP8z7i","contest":"OS Nepal Music Award 2076","episode":null,"category":"BEST DUET SONG ","contestant":{"voting_id":"44C","name":"GUNRAJ SHRESTHA & TIKA PRASAIN"},"vote_count":25,"created_on":"2019-10-21T19:06:08.019327+05:45"},{"idx":"XuEMwuLEKJNgCa8snToAwk","contest":"OS Nepal Music Award 2076","episode":null,"category":"BEST POP NEW MALE SINGER ","contestant":{"voting_id":"26A","name":"PRADIP K. GLAN"},"vote_count":25,"created_on":"2019-10-21T18:58:56.352742+05:45"},{"idx":"FUmohHPk5LzXuoEDk3zSen","contest":"OS Nepal Music Award 2076","episode":null,"category":"BEST LOK DOHARI","contestant":{"voting_id":"1E","name":"SHIVA KARKI"},"vote_count":1,"created_on":"2019-10-21T18:50:14.384387+05:45"},{"idx":"ZQWUxNk3mhfaznNeBeNnsC","contest":"OS Nepal Music Award 2076","episode":null,"category":" BEST POP SONG","contestant":{"voting_id":"18A","name":"SUNIL KATWAL"},"vote_count":500,"created_on":"2019-10-21T18:49:53.020908+05:45"},{"idx":"wxWxCFrb33GTVsRyZgbixD","contest":"OS Nepal Music Award 2076","episode":null,"category":"BEST LOKDOHORI FEMALE SINGER","contestant":{"voting_id":"16D","name":"SANJU NEUPANE"},"vote_count":100,"created_on":"2019-10-21T18:37:28.697389+05:45"},{"idx":"yWRxajd5td7nK7rsW86H9b","contest":"OS Nepal Music Award 2076","episode":null,"category":"BEST SELO MALE SINGER","contestant":{"voting_id":"55D","name":"ANIL LAMA"},"vote_count":25,"created_on":"2019-10-21T18:36:40.273445+05:45"},{"idx":"o3JvqqQHqqNkcdboUX3GwY","contest":"OS Nepal Music Award 2076","episode":null,"category":"BEST LOKDOHORI FEMALE SINGER","contestant":{"voting_id":"16D","name":"SANJU NEUPANE"},"vote_count":100,"created_on":"2019-10-21T18:36:04.433109+05:45"},{"idx":"6TERbdH5R353Ae4NDJfkmD","contest":"OS Nepal Music Award 2076","episode":null,"category":"BEST LOK POP","contestant":{"voting_id":"19B","name":"BIRENDRA SHRESHTA"},"vote_count":25,"created_on":"2019-10-21T18:23:09.903594+05:45"},{"idx":"a6dbJhBDfByewQ8KhvhTMB","contest":"OS Nepal Music Award 2076","episode":null,"category":"BEST POP VIDEO EDITOR","contestant":{"voting_id":"42A","name":"BIKASH GYAWALI"},"vote_count":500,"created_on":"2019-10-21T18:11:14.058057+05:45"},{"idx":"NiYznDq4rLaJy7CSJeBSpE","contest":"OS Nepal Music Award 2076","episode":null,"category":"BEST POP LYRICIST ","contestant":{"voting_id":"20D","name":"DP KHANAL"},"vote_count":500,"created_on":"2019-10-21T18:10:43.318825+05:45"},{"idx":"mWTmKgDpPmKsvHUFZEQmwN","contest":"OS Nepal Music Award 2076","episode":null,"category":"BEST POP LYRICIST ","contestant":{"voting_id":"20D","name":"DP KHANAL"},"vote_count":500,"created_on":"2019-10-21T18:10:21.801639+05:45"},{"idx":"w42BYVDmHXirS2VgpK7woP","contest":"OS Nepal Music Award 2076","episode":null,"category":" BEST ADHUNIK MUSIC ","contestant":{"voting_id":"32D","name":"SHANKAR THAPA"},"vote_count":500,"created_on":"2019-10-21T18:09:49.265473+05:45"},{"idx":"qsRBXSNnAfh6sUdAfCx7W9","contest":"OS Nepal Music Award 2076","episode":null,"category":" BEST ADHUNIK MUSIC ","contestant":{"voting_id":"32D","name":"SHANKAR THAPA"},"vote_count":500,"created_on":"2019-10-21T18:09:09.968103+05:45"},{"idx":"pJJUBaLFQ5QPuTYbHbKmW5","contest":"OS Nepal Music Award 2076","episode":null,"category":"BEST SELO MALE SINGER","contestant":{"voting_id":"55D","name":"ANIL LAMA"},"vote_count":100,"created_on":"2019-10-21T18:06:01.117218+05:45"},{"idx":"SLJwFSz8rEzgXGjLmbufkH","contest":"OS Nepal Music Award 2076","episode":null,"category":"BEST LOKDOHORI FEMALE SINGER","contestant":{"voting_id":"16D","name":"SANJU NEUPANE"},"vote_count":50,"created_on":"2019-10-21T17:58:16.288391+05:45"},{"idx":"fTuLyzbfaSsbW99XLuNNU6","contest":"OS Nepal Music Award 2076","episode":null,"category":"BEST ADHUNIK MALE MODEL ","contestant":{"voting_id":"36E","name":"SURAJ SHRESTHA"},"vote_count":25,"created_on":"2019-10-21T17:57:43.867115+05:45"},{"idx":"dKfDJagRAQiJqLJ5n9KKPX","contest":"OS Nepal Music Award 2076","episode":null,"category":"BEST LOKDOHORI FEMALE SINGER","contestant":{"voting_id":"16D","name":"SANJU NEUPANE"},"vote_count":100,"created_on":"2019-10-21T17:56:57.432711+05:45"},{"idx":"rnaJXyjBZG3L6Fggzp4gAg","contest":"OS Nepal Music Award 2076","episode":null,"category":"BEST MODERN VIDEO EDITOR","contestant":{"voting_id":"43A","name":"CHANDAN DUTTA"},"vote_count":1,"created_on":"2019-10-21T17:35:20.534979+05:45"},{"idx":"zwUEVW5y3Yo9QWkABgLm8G","contest":"OS Nepal Music Award 2076","episode":null,"category":"BEST POP NEW MALE SINGER ","contestant":{"voting_id":"26A","name":"PRADIP K. GLAN"},"vote_count":25,"created_on":"2019-10-21T17:05:34.037597+05:45"},{"idx":"LkxBiRJsy9weXH9rk6d3SL","contest":"OS Nepal Music Award 2076","episode":null,"category":"BEST DEUDA FEMALE SINGER","contestant":{"voting_id":"46A","name":"SOBHA THAPA"},"vote_count":1,"created_on":"2019-10-21T16:58:15.188488+05:45"},{"idx":"kzpZjhLsZsYrzymo8KTv3Y","contest":"OS Nepal Music Award 2076","episode":null,"category":" BEST POP SONG","contestant":{"voting_id":"18A","name":"SUNIL KATWAL"},"vote_count":500,"created_on":"2019-10-21T16:36:39.773249+05:45"},{"idx":"uJJYLawhcUXbuTSku2h3dk","contest":"OS Nepal Music Award 2076","episode":null,"category":" BEST POP SONG","contestant":{"voting_id":"18A","name":"SUNIL KATWAL"},"vote_count":500,"created_on":"2019-10-21T16:35:56.583341+05:45"},{"idx":"oCkc2zenBeLFewFpwkkyNT","contest":"OS Nepal Music Award 2076","episode":null,"category":"BEST NATIONAL SONG","contestant":{"voting_id":"56E","name":"UDESH SHRESHTA"},"vote_count":1,"created_on":"2019-10-21T16:22:20.214032+05:45"},{"idx":"q35T57qqaoBfYLMSATZ98Q","contest":"OS Nepal Music Award 2076","episode":null,"category":"BEST LOKDOHORI FEMALE SINGER","contestant":{"voting_id":"16D","name":"SANJU NEUPANE"},"vote_count":500,"created_on":"2019-10-21T16:20:33.306119+05:45"},{"idx":"44zU6pDQZH5V3ESyNX8Asj","contest":"OS Nepal Music Award 2076","episode":null,"category":" BEST POP SONG","contestant":{"voting_id":"18A","name":"SUNIL KATWAL"},"vote_count":500,"created_on":"2019-10-21T16:14:24.747720+05:45"},{"idx":"3kWBAHKCgqoB2jNYexqnSb","contest":"OS Nepal Music Award 2076","episode":null,"category":" BEST POP SONG","contestant":{"voting_id":"18A","name":"SUNIL KATWAL"},"vote_count":500,"created_on":"2019-10-21T16:14:11.625337+05:45"},{"idx":"3ht6cJBa2gq9fhnzUQQdfH","contest":"OS Nepal Music Award 2076","episode":null,"category":"BEST SELO MALE SINGER","contestant":{"voting_id":"55D","name":"ANIL LAMA"},"vote_count":100,"created_on":"2019-10-21T16:13:22.163328+05:45"},{"idx":"bAdNb4rab8nVruzCZQVCYV","contest":"OS Nepal Music Award 2076","episode":null,"category":" BEST POP SONG","contestant":{"voting_id":"18A","name":"SUNIL KATWAL"},"vote_count":500,"created_on":"2019-10-21T16:13:05.317802+05:45"},{"idx":"wzhm3KEgQiBvmykCTJiGti","contest":"OS Nepal Music Award 2076","episode":null,"category":"BEST LOK DOHARI","contestant":{"voting_id":"1C","name":"RAMILA NEUPANE"},"vote_count":1,"created_on":"2019-10-21T16:11:38.873390+05:45"},{"idx":"HLe4eDdSKvAtdZxuy3YiQ8","contest":"Mechi Singing Star","episode":"Mechi Rising Star","category":null,"contestant":{"voting_id":"01","name":"Anushka Malla"},"vote_count":1,"created_on":"2019-10-21T16:10:07.887463+05:45"},{"idx":"g8AfHGqm4wexp84LNTucXX","contest":"Mechi Singing Star","episode":"Mechi Rising Star","category":null,"contestant":{"voting_id":"01","name":"Anushka Malla"},"vote_count":1,"created_on":"2019-10-21T16:06:33.025229+05:45"},{"idx":"xttCXyvEGR4rCtna2tGWV6","contest":"OS Nepal Music Award 2076","episode":null,"category":" BEST POP SONG","contestant":{"voting_id":"18E","name":"SACHIN RAUNIYAR"},"vote_count":1,"created_on":"2019-10-21T16:06:22.058008+05:45"},{"idx":"7CC7ceW9jZn2jReFY8S3iG","contest":"OS Nepal Music Award 2076","episode":null,"category":"BEST NATIONAL LYRICIST","contestant":{"voting_id":"57D","name":"UDESH SHRESHTA"},"vote_count":1,"created_on":"2019-10-21T16:04:41.380730+05:45"},{"idx":"GNCs4R3zLhHSdfdKTpP86E","contest":"OS Nepal Music Award 2076","episode":null,"category":"BEST NATIONAL LYRICIST","contestant":{"voting_id":"57A","name":"GOVINDA LUITEL"},"vote_count":1,"created_on":"2019-10-21T15:57:20.385407+05:45"},{"idx":"h86e93yJXYAyKViMzqQsaS","contest":"OS Nepal Music Award 2076","episode":null,"category":"BEST ALBUM","contestant":{"voting_id":"58B","name":"SURESH WAGLE"},"vote_count":1,"created_on":"2019-10-21T15:56:45.721125+05:45"},{"idx":"xye3v7fiZDKMFzQAiyQCg9","contest":"OS Nepal Music Award 2076","episode":null,"category":"BEST NATIONAL SONG","contestant":{"voting_id":"56B","name":"BALKRISHNA NEUPANEY"},"vote_count":1,"created_on":"2019-10-21T15:56:02.183704+05:45"},{"idx":"ZrCwyHpTuzsjSwCXz7MyDj","contest":"Mechi Singing Star","episode":"Mechi Rising Star","category":null,"contestant":{"voting_id":"18","name":"Ritu Rai"},"vote_count":1,"created_on":"2019-10-21T15:55:22.842063+05:45"},{"idx":"8KejiJgpRK5Hn95Ayynw3i","contest":"OS Nepal Music Award 2076","episode":null,"category":"BEST POP NEW MALE SINGER ","contestant":{"voting_id":"26A","name":"PRADIP K. GLAN"},"vote_count":25,"created_on":"2019-10-21T15:54:44.021407+05:45"},{"idx":"tPVxUKX99xVBr4kqMxjABL","contest":"OS Nepal Music Award 2076","episode":null,"category":"BEST ADHUNIK MALE MODEL ","contestant":{"voting_id":"36E","name":"SURAJ SHRESTHA"},"vote_count":100,"created_on":"2019-10-21T15:20:15.106004+05:45"},{"idx":"XPBfuYRp9gvQcWuKQCPnxd","contest":"OS Nepal Music Award 2076","episode":null,"category":"BEST SELO MALE SINGER","contestant":{"voting_id":"55D","name":"ANIL LAMA"},"vote_count":500,"created_on":"2019-10-21T15:00:32.373366+05:45"},{"idx":"hCdvFpDWqbLSgzvnSbVySb","contest":"OS Nepal Music Award 2076","episode":null,"category":" BEST POP NEW FEMALE SINGER","contestant":{"voting_id":"27C","name":"BABITA RAI"},"vote_count":1,"created_on":"2019-10-21T14:55:54.413646+05:45"},{"idx":"jkKkJNJNbYzbBUP56Nde73","contest":"OS Nepal Music Award 2076","episode":null,"category":"BEST POP NEW MALE SINGER ","contestant":{"voting_id":"26A","name":"PRADIP K. GLAN"},"vote_count":1,"created_on":"2019-10-21T14:50:35.184216+05:45"},{"idx":"qurTL4MZcLSjNm7KXuo8s4","contest":"OS Nepal Music Award 2076","episode":null,"category":"BEST LOKDOHORI VIDEO DIRECTOR (SAD)","contestant":{"voting_id":"7E","name":"D.R SUJAN"},"vote_count":50,"created_on":"2019-10-21T14:13:06.277057+05:45"},{"idx":"YVb2CuxwtdCGsfFEWrQbCP","contest":"OS Nepal Music Award 2076","episode":null,"category":"BEST LOKDOHORI VIDEO DIRECTOR (SAD)","contestant":{"voting_id":"7E","name":"D.R SUJAN"},"vote_count":50,"created_on":"2019-10-21T14:12:43.058771+05:45"},{"idx":"iVYTXDY835u8v3UxbazGpL","contest":"OS Nepal Music Award 2076","episode":null,"category":"BEST LOKDOHORI VIDEO DIRECTOR (SAD)","contestant":{"voting_id":"7E","name":"D.R SUJAN"},"vote_count":100,"created_on":"2019-10-21T14:11:29.326794+05:45"},{"idx":"F4KBdPRdraabRS57E5pr2j","contest":"OS Nepal Music Award 2076","episode":null,"category":"BEST LOKDOHORI VIDEO DIRECTOR (SAD)","contestant":{"voting_id":"7E","name":"D.R SUJAN"},"vote_count":50,"created_on":"2019-10-21T14:10:50.859962+05:45"},{"idx":"pu7NCr5GsHRHSGMwvpCk7d","contest":"OS Nepal Music Award 2076","episode":null,"category":"BEST MODERN VIDEO EDITOR","contestant":{"voting_id":"43A","name":"CHANDAN DUTTA"},"vote_count":100,"created_on":"2019-10-21T14:10:25.794136+05:45"}]}