{"total_pages":275,"total_records":13721,"next":"https://khalti.com/api/v2/vuservote/?page=258","previous":"https://khalti.com/api/v2/vuservote/?page=256","record_range":[12801,12850],"current_page":257,"records":[{"idx":"CHFZ6tXWh2nUFe75fYSUb9","contest":"OS Nepal Music Award 2076","episode":null,"category":"BEST LOKDOHORI VIDEO DIRECTOR (SAD)","contestant":{"voting_id":"7E","name":"D.R SUJAN"},"vote_count":50,"created_on":"2019-10-21T14:10:19.153646+05:45"},{"idx":"mjawtZGna5MPXMe799aiv7","contest":"OS Nepal Music Award 2076","episode":null,"category":"BEST LOKDOHORI VIDEO DIRECTOR (SAD)","contestant":{"voting_id":"7E","name":"D.R SUJAN"},"vote_count":100,"created_on":"2019-10-21T14:09:04.286062+05:45"},{"idx":"yT9TPRcBs7hiMzMAGSnSXP","contest":"OS Nepal Music Award 2076","episode":null,"category":"BEST LOKDOHORI VIDEO DIRECTOR (SAD)","contestant":{"voting_id":"7E","name":"D.R SUJAN"},"vote_count":500,"created_on":"2019-10-21T14:08:27.159679+05:45"},{"idx":"aZF45u2urt8DfrKttodSLi","contest":"OS Nepal Music Award 2076","episode":null,"category":"BEST LOKDOHORI VIDEO DIRECTOR (SAD)","contestant":{"voting_id":"7E","name":"D.R SUJAN"},"vote_count":500,"created_on":"2019-10-21T14:08:02.157577+05:45"},{"idx":"9BvzYK2L7xtUEc3rpMt84N","contest":"OS Nepal Music Award 2076","episode":null,"category":"BEST LOKDOHORI VIDEO DIRECTOR (SAD)","contestant":{"voting_id":"7E","name":"D.R SUJAN"},"vote_count":500,"created_on":"2019-10-21T14:07:26.591638+05:45"},{"idx":"VSDcnmRMJ44YUVauJR39gM","contest":"OS Nepal Music Award 2076","episode":null,"category":"BEST LOKDOHORI VIDEO DIRECTOR (SAD)","contestant":{"voting_id":"7E","name":"D.R SUJAN"},"vote_count":500,"created_on":"2019-10-21T14:06:11.836293+05:45"},{"idx":"8aqzAqQA4KMHythPwpRCRB","contest":"OS Nepal Music Award 2076","episode":null,"category":"BEST LOKDOHORI VIDEO DIRECTOR (SAD)","contestant":{"voting_id":"7E","name":"D.R SUJAN"},"vote_count":500,"created_on":"2019-10-21T14:05:34.978341+05:45"},{"idx":"TEVHYP2kgmU28rQRmCsHjE","contest":"OS Nepal Music Award 2076","episode":null,"category":"BEST LOKDOHORI VIDEO DIRECTOR (SAD)","contestant":{"voting_id":"7E","name":"D.R SUJAN"},"vote_count":500,"created_on":"2019-10-21T14:05:06.989981+05:45"},{"idx":"VN2gTysMeaXs5KfRGLXXWc","contest":"OS Nepal Music Award 2076","episode":null,"category":"BEST LOKDOHORI VIDEO DIRECTOR (SAD)","contestant":{"voting_id":"7E","name":"D.R SUJAN"},"vote_count":500,"created_on":"2019-10-21T14:04:30.787748+05:45"},{"idx":"P4XHzJyvytNpoiL8mnWzKR","contest":"OS Nepal Music Award 2076","episode":null,"category":"BEST LOKDOHORI VIDEO DIRECTOR (SAD)","contestant":{"voting_id":"7E","name":"D.R SUJAN"},"vote_count":500,"created_on":"2019-10-21T14:04:01.373829+05:45"},{"idx":"S3T2hgLrK4RdS3S6kJbahW","contest":"OS Nepal Music Award 2076","episode":null,"category":"BEST LOKDOHORI VIDEO DIRECTOR (SAD)","contestant":{"voting_id":"7E","name":"D.R SUJAN"},"vote_count":500,"created_on":"2019-10-21T14:03:41.846193+05:45"},{"idx":"QwkRaepUCDACgkm9LNPHfU","contest":"OS Nepal Music Award 2076","episode":null,"category":"BEST LOKDOHORI VIDEO DIRECTOR (SAD)","contestant":{"voting_id":"7E","name":"D.R SUJAN"},"vote_count":500,"created_on":"2019-10-21T14:03:22.485520+05:45"},{"idx":"KxbriyQkdtRWMh5vzZ5VNT","contest":"OS Nepal Music Award 2076","episode":null,"category":" BEST POP SONG","contestant":{"voting_id":"18A","name":"SUNIL KATWAL"},"vote_count":100,"created_on":"2019-10-21T13:51:02.503168+05:45"},{"idx":"6RW5N77B2oMGGEHc8rvLvj","contest":"OS Nepal Music Award 2076","episode":null,"category":" BEST POP SONG","contestant":{"voting_id":"18A","name":"SUNIL KATWAL"},"vote_count":100,"created_on":"2019-10-21T13:50:45.873597+05:45"},{"idx":"u4Yxq7ihn5err9sXmR3at6","contest":"OS Nepal Music Award 2076","episode":null,"category":" BEST POP SONG","contestant":{"voting_id":"18A","name":"SUNIL KATWAL"},"vote_count":100,"created_on":"2019-10-21T13:50:28.132043+05:45"},{"idx":"XnexCjomY8bhnHL5ZEKixU","contest":"OS Nepal Music Award 2076","episode":null,"category":" BEST POP SONG","contestant":{"voting_id":"18A","name":"SUNIL KATWAL"},"vote_count":500,"created_on":"2019-10-21T13:49:56.034544+05:45"},{"idx":"tQc3z7ZEQ5NUE2RmzMWhdG","contest":"OS Nepal Music Award 2076","episode":null,"category":" BEST POP SONG","contestant":{"voting_id":"18A","name":"SUNIL KATWAL"},"vote_count":500,"created_on":"2019-10-21T13:49:43.551345+05:45"},{"idx":"8ecvaUbGg4q7uQM6ucudSe","contest":"OS Nepal Music Award 2076","episode":null,"category":" BEST POP SONG","contestant":{"voting_id":"18A","name":"SUNIL KATWAL"},"vote_count":500,"created_on":"2019-10-21T13:49:14.792563+05:45"},{"idx":"ufNPvSuMaAACVkv34p7kQi","contest":"OS Nepal Music Award 2076","episode":null,"category":" BEST POP SONG","contestant":{"voting_id":"18A","name":"SUNIL KATWAL"},"vote_count":500,"created_on":"2019-10-21T13:48:55.334398+05:45"},{"idx":"ZjqQCmvNTWsgxqoof3DJZ8","contest":"OS Nepal Music Award 2076","episode":null,"category":" BEST POP SONG","contestant":{"voting_id":"18A","name":"SUNIL KATWAL"},"vote_count":500,"created_on":"2019-10-21T13:48:38.189125+05:45"},{"idx":"zKGVnWo2AJ8vE4GFit4c5M","contest":"OS Nepal Music Award 2076","episode":null,"category":" BEST POP SONG","contestant":{"voting_id":"18A","name":"SUNIL KATWAL"},"vote_count":500,"created_on":"2019-10-21T13:48:23.272894+05:45"},{"idx":"e5wKpewkwpEyAVWnsY34si","contest":"OS Nepal Music Award 2076","episode":null,"category":" BEST POP SONG","contestant":{"voting_id":"18A","name":"SUNIL KATWAL"},"vote_count":500,"created_on":"2019-10-21T13:48:05.302009+05:45"},{"idx":"Sg3dAcD9P6FkhtQ7XnkmGg","contest":"OS Nepal Music Award 2076","episode":null,"category":" BEST POP SONG","contestant":{"voting_id":"18A","name":"SUNIL KATWAL"},"vote_count":500,"created_on":"2019-10-21T13:47:40.757046+05:45"},{"idx":"CqgGgiwX2TngvQut7NSDo4","contest":"OS Nepal Music Award 2076","episode":null,"category":" BEST POP SONG","contestant":{"voting_id":"18A","name":"SUNIL KATWAL"},"vote_count":500,"created_on":"2019-10-21T13:47:17.658604+05:45"},{"idx":"C4ub9TXHMXupiHLxLQC7X9","contest":"OS Nepal Music Award 2076","episode":null,"category":" BEST POP SONG","contestant":{"voting_id":"18A","name":"SUNIL KATWAL"},"vote_count":500,"created_on":"2019-10-21T13:47:00.765622+05:45"},{"idx":"qsq45iquBoZr6SDCTokaC8","contest":"OS Nepal Music Award 2076","episode":null,"category":" BEST POP SONG","contestant":{"voting_id":"18A","name":"SUNIL KATWAL"},"vote_count":500,"created_on":"2019-10-21T13:46:43.859899+05:45"},{"idx":"xwTCrCFEHGh5WSMxLsKRNK","contest":"OS Nepal Music Award 2076","episode":null,"category":" BEST POP SONG","contestant":{"voting_id":"18A","name":"SUNIL KATWAL"},"vote_count":500,"created_on":"2019-10-21T13:46:22.826957+05:45"},{"idx":"tRPEnq6AmrWzGsWQmDQsRf","contest":"OS Nepal Music Award 2076","episode":null,"category":" BEST POP SONG","contestant":{"voting_id":"18A","name":"SUNIL KATWAL"},"vote_count":500,"created_on":"2019-10-21T13:46:05.911252+05:45"},{"idx":"qa8Dm29Xcoq99GnWQFsqMg","contest":"OS Nepal Music Award 2076","episode":null,"category":" BEST POP SONG","contestant":{"voting_id":"18A","name":"SUNIL KATWAL"},"vote_count":500,"created_on":"2019-10-21T13:45:50.858773+05:45"},{"idx":"J3t5fNSE2XopScQD3J87VZ","contest":"OS Nepal Music Award 2076","episode":null,"category":" BEST POP SONG","contestant":{"voting_id":"18A","name":"SUNIL KATWAL"},"vote_count":500,"created_on":"2019-10-21T13:45:34.429797+05:45"},{"idx":"APigRtAW7wiM3AePfaefXe","contest":"OS Nepal Music Award 2076","episode":null,"category":" BEST POP SONG","contestant":{"voting_id":"18A","name":"SUNIL KATWAL"},"vote_count":500,"created_on":"2019-10-21T13:45:16.913533+05:45"},{"idx":"hgtTKrCxitVhrYLaqaZeaR","contest":"OS Nepal Music Award 2076","episode":null,"category":" BEST POP SONG","contestant":{"voting_id":"18A","name":"SUNIL KATWAL"},"vote_count":500,"created_on":"2019-10-21T13:45:02.013340+05:45"},{"idx":"E7tRZVPNsEgdSuZJqMkwrJ","contest":"OS Nepal Music Award 2076","episode":null,"category":"BEST ADHUNIK MALE MODEL ","contestant":{"voting_id":"36E","name":"SURAJ SHRESTHA"},"vote_count":25,"created_on":"2019-10-21T13:43:10.923032+05:45"},{"idx":"YZATs2tZAbTPQj8ds272NS","contest":"OS Nepal Music Award 2076","episode":null,"category":"BEST ADHUNIK MALE MODEL ","contestant":{"voting_id":"36E","name":"SURAJ SHRESTHA"},"vote_count":50,"created_on":"2019-10-21T13:09:50.631602+05:45"},{"idx":"qN5mS9gwJeX2mkToEGgFBM","contest":"OS Nepal Music Award 2076","episode":null,"category":"BEST DUET SONG ","contestant":{"voting_id":"44C","name":"GUNRAJ SHRESTHA & TIKA PRASAIN"},"vote_count":50,"created_on":"2019-10-21T13:06:49.356181+05:45"},{"idx":"zdV4zeN2ExaPq9Dfj9UYpm","contest":"OS Nepal Music Award 2076","episode":null,"category":"BEST ADHUNIK MALE MODEL ","contestant":{"voting_id":"36C","name":"DEVENDRA CHHETRI"},"vote_count":1,"created_on":"2019-10-21T12:37:04.468198+05:45"},{"idx":"dM2MoQKeZohoyWobjpTsXZ","contest":"OS Nepal Music Award 2076","episode":null,"category":"BEST ADHUNIK FEMALE SINGER ","contestant":{"voting_id":"39A","name":"TIKA PRASAIN"},"vote_count":1,"created_on":"2019-10-21T12:36:12.331842+05:45"},{"idx":"BYTT8y9UJpXAT5Z6AUFVbJ","contest":"OS Nepal Music Award 2076","episode":null,"category":"BEST POP MALE SINGER ","contestant":{"voting_id":"28A","name":"BABU BOGATI"},"vote_count":500,"created_on":"2019-10-21T12:30:22.581818+05:45"},{"idx":"9QzjUiV5CrhzfovdL8DTXT","contest":"OS Nepal Music Award 2076","episode":null,"category":"BEST POP NEW MALE SINGER ","contestant":{"voting_id":"26A","name":"PRADIP K. GLAN"},"vote_count":25,"created_on":"2019-10-21T12:15:17.676849+05:45"},{"idx":"osvfFkkwRLW7rxtzHQjXwC","contest":"OS Nepal Music Award 2076","episode":null,"category":"BEST LOK DOHARI","contestant":{"voting_id":"1B","name":"SAMBHU KUNWAR"},"vote_count":1,"created_on":"2019-10-21T11:55:29.423352+05:45"},{"idx":"z5LRmqH8x9SFqULRpgoPdb","contest":"OS Nepal Music Award 2076","episode":null,"category":" BEST POP SONG","contestant":{"voting_id":"18A","name":"SUNIL KATWAL"},"vote_count":500,"created_on":"2019-10-21T11:37:45.605396+05:45"},{"idx":"C8PCRQqyqNbEWwftiBCu77","contest":"OS Nepal Music Award 2076","episode":null,"category":" BEST POP SONG","contestant":{"voting_id":"18A","name":"SUNIL KATWAL"},"vote_count":100,"created_on":"2019-10-21T11:37:08.961137+05:45"},{"idx":"vMjmnaCbVosEGUnSTokK7Q","contest":"OS Nepal Music Award 2076","episode":null,"category":" BEST POP SONG","contestant":{"voting_id":"18A","name":"SUNIL KATWAL"},"vote_count":500,"created_on":"2019-10-21T11:35:30.391054+05:45"},{"idx":"qwZUYFK2PxiBd67TJKaPv3","contest":"OS Nepal Music Award 2076","episode":null,"category":" BEST POP SONG","contestant":{"voting_id":"18A","name":"SUNIL KATWAL"},"vote_count":100,"created_on":"2019-10-21T11:34:56.267888+05:45"},{"idx":"HqqZjUueYeS33oRouJqMZX","contest":"OS Nepal Music Award 2076","episode":null,"category":"BEST LOKDOHORI LYRICIST","contestant":{"voting_id":"2E","name":"GANESH CHAULAGAI"},"vote_count":1,"created_on":"2019-10-21T11:08:49.496859+05:45"},{"idx":"trM8DcV8kDtbaafLNMqxoZ","contest":"OS Nepal Music Award 2076","episode":null,"category":"BEST POP ARRANGER","contestant":{"voting_id":"22D","name":"HARI SHARAN SAYAMU"},"vote_count":100,"created_on":"2019-10-21T10:39:09.233437+05:45"},{"idx":"UhGBwm8pHntnUhjRXZKuwM","contest":"OS Nepal Music Award 2076","episode":null,"category":"BEST POP ARRANGER","contestant":{"voting_id":"22D","name":"HARI SHARAN SAYAMU"},"vote_count":500,"created_on":"2019-10-21T10:38:47.123501+05:45"},{"idx":"FnVQqsz36MhMXc5GAFFK8j","contest":"OS Nepal Music Award 2076","episode":null,"category":"BEST POP ARRANGER","contestant":{"voting_id":"22D","name":"HARI SHARAN SAYAMU"},"vote_count":500,"created_on":"2019-10-21T10:35:42.350741+05:45"},{"idx":"W3rGRqU2qqqgvdjYmg8bxi","contest":"OS Nepal Music Award 2076","episode":null,"category":" BEST POP SONG","contestant":{"voting_id":"18C","name":"KRISHNA BHAKTA MAHARJAN"},"vote_count":500,"created_on":"2019-10-21T10:34:53.043288+05:45"},{"idx":"Y3VTgMDCogj8hBaA6BF7CN","contest":"OS Nepal Music Award 2076","episode":null,"category":" BEST POP SONG","contestant":{"voting_id":"18C","name":"KRISHNA BHAKTA MAHARJAN"},"vote_count":500,"created_on":"2019-10-21T10:34:08.112019+05:45"}]}