{"total_pages":275,"total_records":13721,"next":"https://khalti.com/api/v2/vuservote/?page=259","previous":"https://khalti.com/api/v2/vuservote/?page=257","record_range":[12851,12900],"current_page":258,"records":[{"idx":"oRCpPKYSp5YtHMVc9xdZpf","contest":"OS Nepal Music Award 2076","episode":null,"category":" BEST POP SONG","contestant":{"voting_id":"18C","name":"KRISHNA BHAKTA MAHARJAN"},"vote_count":500,"created_on":"2019-10-21T10:33:19.174393+05:45"},{"idx":"RdTLckpcwgQzrg2NQkTEN5","contest":"OS Nepal Music Award 2076","episode":null,"category":" BEST POP SONG","contestant":{"voting_id":"18C","name":"KRISHNA BHAKTA MAHARJAN"},"vote_count":500,"created_on":"2019-10-21T10:32:47.605607+05:45"},{"idx":"F5uHNNSG3kKWHtX5kftfbc","contest":"OS Nepal Music Award 2076","episode":null,"category":"BEST ADHUNIK MALE MODEL ","contestant":{"voting_id":"36E","name":"SURAJ SHRESTHA"},"vote_count":25,"created_on":"2019-10-21T10:16:16.100517+05:45"},{"idx":"ftMwohNspHSeN38w99C6sb","contest":"OS Nepal Music Award 2076","episode":null,"category":"BEST SUNUWAR FEMALE SINGER","contestant":{"voting_id":"50B","name":"PUJA SUNUWAR"},"vote_count":100,"created_on":"2019-10-21T10:07:48.826155+05:45"},{"idx":"rZr6DycXik4C9sYDeXkjjc","contest":"OS Nepal Music Award 2076","episode":null,"category":"BEST NATIONAL SONG","contestant":{"voting_id":"56D","name":"PREM SEN"},"vote_count":1,"created_on":"2019-10-21T08:56:23.700538+05:45"},{"idx":"YGhFHXdhnwusiaAKU2PYh2","contest":"OS Nepal Music Award 2076","episode":null,"category":"BEST DEUDA FEMALE SINGER","contestant":{"voting_id":"46A","name":"SOBHA THAPA"},"vote_count":1,"created_on":"2019-10-21T08:55:27.919961+05:45"},{"idx":"F96wjsmHurbFBa7sbwBEck","contest":"OS Nepal Music Award 2076","episode":null,"category":"BEST ADHUNIK SONG","contestant":{"voting_id":"30D","name":"RB KHADKA"},"vote_count":1,"created_on":"2019-10-21T08:54:38.765950+05:45"},{"idx":"W8rprfBAkHFNwPRNW6an43","contest":"OS Nepal Music Award 2076","episode":null,"category":"BEST LOK POP","contestant":{"voting_id":"19C","name":"SHREEDHARA ADHIKARI"},"vote_count":1,"created_on":"2019-10-21T08:53:49.594044+05:45"},{"idx":"nrqHB5Ahk8EZs3GSe3q4S8","contest":"OS Nepal Music Award 2076","episode":null,"category":"BEST ADHUNIK MALE MODEL ","contestant":{"voting_id":"36E","name":"SURAJ SHRESTHA"},"vote_count":50,"created_on":"2019-10-21T08:53:27.413242+05:45"},{"idx":"26ipwkC2hCXLFUTz2DFir5","contest":"OS Nepal Music Award 2076","episode":null,"category":" BEST POP SONG","contestant":{"voting_id":"18C","name":"KRISHNA BHAKTA MAHARJAN"},"vote_count":1,"created_on":"2019-10-21T08:53:19.635566+05:45"},{"idx":"Ed7wiqEgDQyFECMAY2C5RE","contest":"OS Nepal Music Award 2076","episode":null,"category":" BEST LOKDOHORI FEMALE MODEL DANCE","contestant":{"voting_id":"9E","name":"ARUSHI MAGAR"},"vote_count":1,"created_on":"2019-10-21T08:52:30.542211+05:45"},{"idx":"ozC2owTsBRztjmtRNhWoc5","contest":"OS Nepal Music Award 2076","episode":null,"category":"BEST LOKDOHORI MALE MODEL DANCE","contestant":{"voting_id":"10A","name":"SHANKAR B.C"},"vote_count":1,"created_on":"2019-10-21T08:52:12.251026+05:45"},{"idx":"8eRkNHvRzT6BEkq92Z66Tc","contest":"OS Nepal Music Award 2076","episode":null,"category":"BEST LOKDOHORI MUSICIAN","contestant":{"voting_id":"3E","name":"SAHADEV KOIRALA"},"vote_count":1,"created_on":"2019-10-21T08:51:33.076339+05:45"},{"idx":"AcUMXCjNHMsYbDemLqwM58","contest":"OS Nepal Music Award 2076","episode":null,"category":"BEST LOK DOHARI","contestant":{"voting_id":"1C","name":"RAMILA NEUPANE"},"vote_count":1,"created_on":"2019-10-21T08:51:22.898950+05:45"},{"idx":"59DcgszNFh2cUziJ8To4U4","contest":"OS Nepal Music Award 2076","episode":null,"category":"BEST LOKDOHORI LYRICIST","contestant":{"voting_id":"2C","name":"KAMAL SARGAM"},"vote_count":1,"created_on":"2019-10-21T08:50:59.500782+05:45"},{"idx":"DskCiMdoEE3KuozgZHCxAf","contest":"OS Nepal Music Award 2076","episode":null,"category":"BEST LOK DOHARI","contestant":{"voting_id":"1C","name":"RAMILA NEUPANE"},"vote_count":1,"created_on":"2019-10-21T08:50:25.328290+05:45"},{"idx":"W9Nq7HxxVdvFffq5qNXs4Q","contest":"OS Nepal Music Award 2076","episode":null,"category":"BEST ADHUNIK MALE SINGER ","contestant":{"voting_id":"40E","name":"PURUSHOTTAM SUBEDI"},"vote_count":5,"created_on":"2019-10-21T08:43:56.027342+05:45"},{"idx":"NhUDs2dB8vik99XwVHN5EH","contest":"OS Nepal Music Award 2076","episode":null,"category":"BEST POP NEW MALE SINGER ","contestant":{"voting_id":"26A","name":"PRADIP K. GLAN"},"vote_count":5,"created_on":"2019-10-21T08:43:09.304576+05:45"},{"idx":"DPUcos2GZ7mPUzuBeTvbnH","contest":"OS Nepal Music Award 2076","episode":null,"category":"BEST LOKDOHORI VIDEO DIRECTOR (SAD)","contestant":{"voting_id":"7E","name":"D.R SUJAN"},"vote_count":500,"created_on":"2019-10-21T08:41:57.193775+05:45"},{"idx":"aQ8ociK6E3nbMLo8fdTfm9","contest":"OS Nepal Music Award 2076","episode":null,"category":"BEST LOKDOHORI VIDEO DIRECTOR (SAD)","contestant":{"voting_id":"7E","name":"D.R SUJAN"},"vote_count":100,"created_on":"2019-10-21T08:38:36.240951+05:45"},{"idx":"HNYW3FxqRtacjBqkJaFjaK","contest":"OS Nepal Music Award 2076","episode":null,"category":" BEST LOKDOHORI FEMALE MODEL DANCE","contestant":{"voting_id":"9A","name":"REENA THAPA MAGAR"},"vote_count":1,"created_on":"2019-10-21T08:37:21.484818+05:45"},{"idx":"8zMnbd63GzAZFVpEWrKrtL","contest":"OS Nepal Music Award 2076","episode":null,"category":"BEST LOK DOHARI","contestant":{"voting_id":"1C","name":"RAMILA NEUPANE"},"vote_count":1,"created_on":"2019-10-21T08:34:12.066018+05:45"},{"idx":"LR4DyWBr49Nge6PWeF5W6f","contest":"OS Nepal Music Award 2076","episode":null,"category":" BEST LOKDOHORI FEMALE MODEL DANCE","contestant":{"voting_id":"9E","name":"ARUSHI MAGAR"},"vote_count":1,"created_on":"2019-10-21T08:26:13.450882+05:45"},{"idx":"NQp3FtqiiNLBHCF9ixZy24","contest":"OS Nepal Music Award 2076","episode":null,"category":"BEST ADHUNIK NEW MALE SINGER","contestant":{"voting_id":"38B","name":"TULSI SIWAKOTI"},"vote_count":1,"created_on":"2019-10-21T07:57:43.585373+05:45"},{"idx":"QXbhGWdBTMAJmqiQtaTgjk","contest":"OS Nepal Music Award 2076","episode":null,"category":"BEST ADHUNIK MALE MODEL ","contestant":{"voting_id":"36E","name":"SURAJ SHRESTHA"},"vote_count":50,"created_on":"2019-10-21T07:52:03.587887+05:45"},{"idx":"dtFQGCSuaMY47YfG2kuFCM","contest":"OS Nepal Music Award 2076","episode":null,"category":"BEST ADHUNIK NEW MALE SINGER","contestant":{"voting_id":"38B","name":"TULSI SIWAKOTI"},"vote_count":1,"created_on":"2019-10-21T03:10:52.583839+05:45"},{"idx":"WyqYEtsMTF9jjgcpZpS6ui","contest":"OS Nepal Music Award 2076","episode":null,"category":"BEST LOKDOHORI FEMALE SINGER (NEW)","contestant":{"voting_id":"13B","name":"RUPA GHARTI MAGAR"},"vote_count":5,"created_on":"2019-10-21T00:11:18.874166+05:45"},{"idx":"JXBXT5M9H87WZp7PrnajSS","contest":"OS Nepal Music Award 2076","episode":null,"category":"BEST ADHUNIK MALE MODEL ","contestant":{"voting_id":"36E","name":"SURAJ SHRESTHA"},"vote_count":100,"created_on":"2019-10-20T23:29:58.963479+05:45"},{"idx":"rW2M4ay7a2hggkKyavGdam","contest":"OS Nepal Music Award 2076","episode":null,"category":"BEST ADHUNIK MALE MODEL ","contestant":{"voting_id":"36E","name":"SURAJ SHRESTHA"},"vote_count":25,"created_on":"2019-10-20T23:14:35.589245+05:45"},{"idx":"rTKix6ZpoR9AGYnhwt8h4H","contest":"OS Nepal Music Award 2076","episode":null,"category":"BEST ADHUNIK MALE MODEL ","contestant":{"voting_id":"36E","name":"SURAJ SHRESTHA"},"vote_count":50,"created_on":"2019-10-20T22:40:34.494184+05:45"},{"idx":"4faHDmTzpw4oG2YThGDPkf","contest":"OS Nepal Music Award 2076","episode":null,"category":"BEST LOK POP","contestant":{"voting_id":"19B","name":"BIRENDRA SHRESHTA"},"vote_count":25,"created_on":"2019-10-20T22:29:00.131036+05:45"},{"idx":"kwTCBaCcQbzJrRM6ih7hN8","contest":"OS Nepal Music Award 2076","episode":null,"category":"BEST LOK POP","contestant":{"voting_id":"19B","name":"BIRENDRA SHRESHTA"},"vote_count":100,"created_on":"2019-10-20T22:13:11.604791+05:45"},{"idx":"pCqhMkgHGaLYxwSWgF8r3P","contest":"OS Nepal Music Award 2076","episode":null,"category":"BEST ADHUNIK MALE MODEL ","contestant":{"voting_id":"36E","name":"SURAJ SHRESTHA"},"vote_count":100,"created_on":"2019-10-20T22:07:59.628503+05:45"},{"idx":"5xFKU8NdTR5Pa4X4sgx2AA","contest":"OS Nepal Music Award 2076","episode":null,"category":"BEST POP NEW MALE SINGER ","contestant":{"voting_id":"26A","name":"PRADIP K. GLAN"},"vote_count":25,"created_on":"2019-10-20T21:57:28.727071+05:45"},{"idx":"EF9kHUopQoCLJ4PPac2bH6","contest":"OS Nepal Music Award 2076","episode":null,"category":"BEST ADHUNIK MALE MODEL ","contestant":{"voting_id":"36E","name":"SURAJ SHRESTHA"},"vote_count":50,"created_on":"2019-10-20T21:37:35.337948+05:45"},{"idx":"Cr7bQwoGELbUPQQo8MCfYg","contest":"OS Nepal Music Award 2076","episode":null,"category":"BEST ADHUNIK MALE MODEL ","contestant":{"voting_id":"36E","name":"SURAJ SHRESTHA"},"vote_count":5,"created_on":"2019-10-20T21:28:04.579878+05:45"},{"idx":"ur7YVg5xwE4Ym9tZLvxySa","contest":"OS Nepal Music Award 2076","episode":null,"category":"BEST ADHUNIK MALE MODEL ","contestant":{"voting_id":"36E","name":"SURAJ SHRESTHA"},"vote_count":25,"created_on":"2019-10-20T21:22:44.109568+05:45"},{"idx":"vYVBoR73Y54s6hUztJPvvd","contest":"OS Nepal Music Award 2076","episode":null,"category":"BEST POP NEW MALE SINGER ","contestant":{"voting_id":"26A","name":"PRADIP K. GLAN"},"vote_count":100,"created_on":"2019-10-20T21:16:43.396296+05:45"},{"idx":"Hu49REh8qh9pbfW5RcmZre","contest":"OS Nepal Music Award 2076","episode":null,"category":"BEST POP FEMALE MODEL ","contestant":{"voting_id":"24C","name":"SHRISTI KHADKA"},"vote_count":1,"created_on":"2019-10-20T21:10:27.567000+05:45"},{"idx":"zKgudeU9pULokeEwGr3kZn","contest":"OS Nepal Music Award 2076","episode":null,"category":"BEST DUET SONG ","contestant":{"voting_id":"44C","name":"GUNRAJ SHRESTHA & TIKA PRASAIN"},"vote_count":1,"created_on":"2019-10-20T21:09:02.724118+05:45"},{"idx":"CmZWcJVFbeG8Zea2YVtx5E","contest":"OS Nepal Music Award 2076","episode":null,"category":" BEST LOKDOHORI FEMALE MODEL DANCE","contestant":{"voting_id":"9C","name":"SHRISTI KHADKA"},"vote_count":1,"created_on":"2019-10-20T21:07:57.785895+05:45"},{"idx":"ocWEVgATNdXAYo7knooYYa","contest":"OS Nepal Music Award 2076","episode":null,"category":"BEST ADHUNIK MALE MODEL ","contestant":{"voting_id":"36C","name":"DEVENDRA CHHETRI"},"vote_count":1,"created_on":"2019-10-20T20:56:47.286532+05:45"},{"idx":"aaSjaKd3TMHmbdkHGK7DJi","contest":"OS Nepal Music Award 2076","episode":null,"category":"BEST POP NEW MALE SINGER ","contestant":{"voting_id":"26A","name":"PRADIP K. GLAN"},"vote_count":100,"created_on":"2019-10-20T20:56:05.335222+05:45"},{"idx":"bM67mbASjc9VME5smG3edB","contest":"OS Nepal Music Award 2076","episode":null,"category":"BEST ADHUNIK MALE MODEL ","contestant":{"voting_id":"36E","name":"SURAJ SHRESTHA"},"vote_count":25,"created_on":"2019-10-20T20:54:33.446030+05:45"},{"idx":"PhEdRRVfbraFWjQCQosEpa","contest":"OS Nepal Music Award 2076","episode":null,"category":"BEST POP NEW MALE SINGER ","contestant":{"voting_id":"26A","name":"PRADIP K. GLAN"},"vote_count":100,"created_on":"2019-10-20T20:54:08.928747+05:45"},{"idx":"GJ65qWdhotGrLVTwkhWc6g","contest":"OS Nepal Music Award 2076","episode":null,"category":"BEST DUET SONG ","contestant":{"voting_id":"44C","name":"GUNRAJ SHRESTHA & TIKA PRASAIN"},"vote_count":100,"created_on":"2019-10-20T20:53:47.370836+05:45"},{"idx":"Xcs4ETVrJFT2AtGLwg3Kv8","contest":"OS Nepal Music Award 2076","episode":null,"category":"BEST SELO FEMALE SINGER","contestant":{"voting_id":"54B","name":"RESHMA BOMJAN"},"vote_count":1,"created_on":"2019-10-20T20:53:43.699643+05:45"},{"idx":"K4aAM6KAUFHPHBXNTFUgoY","contest":"OS Nepal Music Award 2076","episode":null,"category":" BEST ADHUNIK NEW FEMALE SINGER","contestant":{"voting_id":"37B","name":"PURNIMA LAMA"},"vote_count":1,"created_on":"2019-10-20T20:52:43.297377+05:45"},{"idx":"YgRJ8sxj5ZWdmkyKULD8TS","contest":"OS Nepal Music Award 2076","episode":null,"category":"BEST DUET SONG ","contestant":{"voting_id":"44C","name":"GUNRAJ SHRESTHA & TIKA PRASAIN"},"vote_count":100,"created_on":"2019-10-20T20:52:40.796291+05:45"},{"idx":"yVo5Wq2gUSC5r8cxXyZbY5","contest":"OS Nepal Music Award 2076","episode":null,"category":"BEST DUET SONG ","contestant":{"voting_id":"44C","name":"GUNRAJ SHRESTHA & TIKA PRASAIN"},"vote_count":100,"created_on":"2019-10-20T20:51:40.819502+05:45"}]}