{"total_pages":275,"total_records":13721,"next":"https://khalti.com/api/v2/vuservote/?page=260","previous":"https://khalti.com/api/v2/vuservote/?page=258","record_range":[12901,12950],"current_page":259,"records":[{"idx":"tqB49eugMUkkfMLrmNfBbU","contest":"OS Nepal Music Award 2076","episode":null,"category":" BEST ADHUNIK NEW FEMALE SINGER","contestant":{"voting_id":"37D","name":"NIJA PAUDEL"},"vote_count":1,"created_on":"2019-10-20T20:51:27.682212+05:45"},{"idx":"6dndPjtKtqYfTPMYsT5ZFJ","contest":"OS Nepal Music Award 2076","episode":null,"category":"BEST DUET SONG ","contestant":{"voting_id":"44C","name":"GUNRAJ SHRESTHA & TIKA PRASAIN"},"vote_count":100,"created_on":"2019-10-20T20:51:06.214446+05:45"},{"idx":"iEDdfkmR84VEjoGqLBaFPH","contest":"OS Nepal Music Award 2076","episode":null,"category":"BEST DUET SONG ","contestant":{"voting_id":"44C","name":"GUNRAJ SHRESTHA & TIKA PRASAIN"},"vote_count":500,"created_on":"2019-10-20T20:49:01.325643+05:45"},{"idx":"kEJAGALhAeVFZq4bsq2BhE","contest":"OS Nepal Music Award 2076","episode":null,"category":"BEST ADHUNIK MALE MODEL ","contestant":{"voting_id":"36E","name":"SURAJ SHRESTHA"},"vote_count":100,"created_on":"2019-10-20T20:48:48.353461+05:45"},{"idx":"aPUabYD77soriXp6y9PH8R","contest":"OS Nepal Music Award 2076","episode":null,"category":"BEST POP NEW MALE SINGER ","contestant":{"voting_id":"26A","name":"PRADIP K. GLAN"},"vote_count":100,"created_on":"2019-10-20T20:48:12.221005+05:45"},{"idx":"ahLBGirtHFknLoe7psY9vB","contest":"OS Nepal Music Award 2076","episode":null,"category":"BEST POP NEW MALE SINGER ","contestant":{"voting_id":"26A","name":"PRADIP K. GLAN"},"vote_count":500,"created_on":"2019-10-20T20:47:39.927271+05:45"},{"idx":"3tCPDKM2uw7QtpYVA9p5oW","contest":"OS Nepal Music Award 2076","episode":null,"category":"BEST POP MALE MODEL ","contestant":{"voting_id":"25C","name":"SHISHRI BHANDARI"},"vote_count":1,"created_on":"2019-10-20T20:17:36.798216+05:45"},{"idx":"t8kahiK7TthgXre7SnCyki","contest":"OS Nepal Music Award 2076","episode":null,"category":" BEST POP SONG","contestant":{"voting_id":"18D","name":"SHISHIR BHANDARI"},"vote_count":1,"created_on":"2019-10-20T20:16:08.915369+05:45"},{"idx":"Db4jjHPRVheu6C9kWMqozR","contest":"OS Nepal Music Award 2076","episode":null,"category":"BEST LOK POP","contestant":{"voting_id":"19B","name":"BIRENDRA SHRESHTA"},"vote_count":100,"created_on":"2019-10-20T20:03:54.876908+05:45"},{"idx":"af76rJe9KwBDig9yAdvBVF","contest":"OS Nepal Music Award 2076","episode":null,"category":"BEST LOKDOHORI FEMALE SINGER (NEW)","contestant":{"voting_id":"13B","name":"RUPA GHARTI MAGAR"},"vote_count":25,"created_on":"2019-10-20T19:18:45.250378+05:45"},{"idx":"sKDCq2EwvXCL2Ciiad2mje","contest":"OS Nepal Music Award 2076","episode":null,"category":"BEST POP NEW MALE SINGER ","contestant":{"voting_id":"26A","name":"PRADIP K. GLAN"},"vote_count":50,"created_on":"2019-10-20T19:17:31.381197+05:45"},{"idx":"eFeM7SJs7bAmDkp5VjzJKY","contest":"OS Nepal Music Award 2076","episode":null,"category":"BEST LOKDOHORI FEMALE SINGER (NEW)","contestant":{"voting_id":"13B","name":"RUPA GHARTI MAGAR"},"vote_count":100,"created_on":"2019-10-20T18:56:53.579325+05:45"},{"idx":"YkqF37tn7wYpLXJiRRzvxZ","contest":"OS Nepal Music Award 2076","episode":null,"category":"BEST LOKDOHORI FEMALE SINGER (NEW)","contestant":{"voting_id":"13B","name":"RUPA GHARTI MAGAR"},"vote_count":100,"created_on":"2019-10-20T18:55:21.842721+05:45"},{"idx":"q6EEGAeqUbJmjYWLWiHwya","contest":"OS Nepal Music Award 2076","episode":null,"category":"BEST LOKDOHORI FEMALE SINGER (NEW)","contestant":{"voting_id":"13B","name":"RUPA GHARTI MAGAR"},"vote_count":100,"created_on":"2019-10-20T18:54:05.963929+05:45"},{"idx":"Avw9kPRhkitjYsuPQiqwwb","contest":"OS Nepal Music Award 2076","episode":null,"category":"BEST LOKDOHORI FEMALE SINGER (NEW)","contestant":{"voting_id":"13B","name":"RUPA GHARTI MAGAR"},"vote_count":100,"created_on":"2019-10-20T18:52:24.751803+05:45"},{"idx":"P6eE9sEL7MfX285XxK9nZ5","contest":"OS Nepal Music Award 2076","episode":null,"category":"BEST SUNUWAR FEMALE SINGER","contestant":{"voting_id":"50B","name":"PUJA SUNUWAR"},"vote_count":1,"created_on":"2019-10-20T18:51:19.267151+05:45"},{"idx":"yefZYGt8mmqfE6gVRTJiTN","contest":"OS Nepal Music Award 2076","episode":null,"category":"BEST SUNUWAR FEMALE SINGER","contestant":{"voting_id":"50B","name":"PUJA SUNUWAR"},"vote_count":100,"created_on":"2019-10-20T18:49:58.279565+05:45"},{"idx":"Qk3ri8oGaUiAeAeYcp94uL","contest":"OS Nepal Music Award 2076","episode":null,"category":"BEST LOKDOHORI FEMALE SINGER (NEW)","contestant":{"voting_id":"13B","name":"RUPA GHARTI MAGAR"},"vote_count":100,"created_on":"2019-10-20T18:47:56.297697+05:45"},{"idx":"pCBr9aSXHK8Eny8SEfPv2E","contest":"OS Nepal Music Award 2076","episode":null,"category":"BEST SELO MALE SINGER","contestant":{"voting_id":"55D","name":"ANIL LAMA"},"vote_count":50,"created_on":"2019-10-20T18:36:58.503562+05:45"},{"idx":"Xpzyp4jFqZgJvudcXkzfeU","contest":"OS Nepal Music Award 2076","episode":null,"category":"BEST SELO MALE SINGER","contestant":{"voting_id":"55D","name":"ANIL LAMA"},"vote_count":50,"created_on":"2019-10-20T18:36:19.736252+05:45"},{"idx":"zLA7sDAuBZX8MZvK846sTK","contest":"OS Nepal Music Award 2076","episode":null,"category":" BEST ADHUNIK NEW FEMALE SINGER","contestant":{"voting_id":"37D","name":"NIJA PAUDEL"},"vote_count":5,"created_on":"2019-10-20T18:34:18.391463+05:45"},{"idx":"55i4NQDyYxVAPPfg65fNzS","contest":"OS Nepal Music Award 2076","episode":null,"category":"BEST POP MALE SINGER ","contestant":{"voting_id":"28B","name":"NABIN KHADKA"},"vote_count":100,"created_on":"2019-10-20T18:32:11.102713+05:45"},{"idx":"5N4rwAQjGqjxuUQwa7NHre","contest":"OS Nepal Music Award 2076","episode":null,"category":" BEST ADHUNIK NEW FEMALE SINGER","contestant":{"voting_id":"37D","name":"NIJA PAUDEL"},"vote_count":500,"created_on":"2019-10-20T18:31:48.364063+05:45"},{"idx":"h3orMFKVaWwTZoYzJDP67K","contest":"OS Nepal Music Award 2076","episode":null,"category":" BEST ADHUNIK NEW FEMALE SINGER","contestant":{"voting_id":"37D","name":"NIJA PAUDEL"},"vote_count":500,"created_on":"2019-10-20T18:31:25.027369+05:45"},{"idx":"UXC8oFQizoh9ZCfhknrHtF","contest":"OS Nepal Music Award 2076","episode":null,"category":" BEST ADHUNIK NEW FEMALE SINGER","contestant":{"voting_id":"37D","name":"NIJA PAUDEL"},"vote_count":500,"created_on":"2019-10-20T18:31:05.368048+05:45"},{"idx":"4FTikBzgWLbfnEfoAB9UGA","contest":"OS Nepal Music Award 2076","episode":null,"category":" BEST ADHUNIK NEW FEMALE SINGER","contestant":{"voting_id":"37D","name":"NIJA PAUDEL"},"vote_count":500,"created_on":"2019-10-20T18:30:43.067858+05:45"},{"idx":"HUpc3Yb8MRXdXJpZquThVP","contest":"OS Nepal Music Award 2076","episode":null,"category":" BEST ADHUNIK NEW FEMALE SINGER","contestant":{"voting_id":"37D","name":"NIJA PAUDEL"},"vote_count":500,"created_on":"2019-10-20T18:30:13.592186+05:45"},{"idx":"YYc9ErpTynR3qN7ijhofmD","contest":"OS Nepal Music Award 2076","episode":null,"category":" BEST ADHUNIK NEW FEMALE SINGER","contestant":{"voting_id":"37D","name":"NIJA PAUDEL"},"vote_count":500,"created_on":"2019-10-20T18:29:38.086972+05:45"},{"idx":"jAZ97hkFfcFCFGmRrgAUP8","contest":"OS Nepal Music Award 2076","episode":null,"category":"BEST POP MALE SINGER ","contestant":{"voting_id":"28B","name":"NABIN KHADKA"},"vote_count":1,"created_on":"2019-10-20T18:22:27.012268+05:45"},{"idx":"jbVbpzeeLEJkhKkHQkWcWT","contest":"OS Nepal Music Award 2076","episode":null,"category":"BEST LOKDOHORI VIDEO DIRECTOR (SAD)","contestant":{"voting_id":"7E","name":"D.R SUJAN"},"vote_count":1,"created_on":"2019-10-20T18:16:15.633522+05:45"},{"idx":"LDJroRAKoMNF43rpUUy9Fd","contest":"OS Nepal Music Award 2076","episode":null,"category":"BEST NATIONAL LYRICIST","contestant":{"voting_id":"57D","name":"UDESH SHRESHTA"},"vote_count":1,"created_on":"2019-10-20T18:15:55.134685+05:45"},{"idx":"bXdAT57NNRwSPww7paM3bF","contest":"OS Nepal Music Award 2076","episode":null,"category":"BEST POP MALE SINGER ","contestant":{"voting_id":"28B","name":"NABIN KHADKA"},"vote_count":100,"created_on":"2019-10-20T18:15:44.835328+05:45"},{"idx":"gb6zywsG4dkiBuLrhWtveF","contest":"OS Nepal Music Award 2076","episode":null,"category":"BEST LOKDOHORI MALE MODEL (SAD)","contestant":{"voting_id":"12B","name":"BIMAL ADHIKARI"},"vote_count":1,"created_on":"2019-10-20T18:15:23.594312+05:45"},{"idx":"y8y8dPcps35BUV4Dbh4uCa","contest":"OS Nepal Music Award 2076","episode":null,"category":" BEST LOKDOHORI FEMALE MODEL DANCE","contestant":{"voting_id":"9D","name":"ANJU NIRAULA"},"vote_count":1,"created_on":"2019-10-20T18:14:51.788814+05:45"},{"idx":"5YndDH4hqfY8DMDo5mHBM3","contest":"OS Nepal Music Award 2076","episode":null,"category":"BEST LOK DOHARI","contestant":{"voting_id":"1C","name":"RAMILA NEUPANE"},"vote_count":1,"created_on":"2019-10-20T18:14:23.436145+05:45"},{"idx":"AFeSZxDxQNXE9qLZwxCtZm","contest":"OS Nepal Music Award 2076","episode":null,"category":"BEST ALBUM","contestant":{"voting_id":"58C","name":"SINCHURY SURESH GHAMAL"},"vote_count":1,"created_on":"2019-10-20T18:13:58.012945+05:45"},{"idx":"7Jfxi3uLaeLavLkeKZhmND","contest":"OS Nepal Music Award 2076","episode":null,"category":" BEST POP SONG","contestant":{"voting_id":"18D","name":"SHISHIR BHANDARI"},"vote_count":1,"created_on":"2019-10-20T18:10:40.623837+05:45"},{"idx":"H2i5AMTgsqoMaW6AxNvK6V","contest":"OS Nepal Music Award 2076","episode":null,"category":"BEST LOKDOHORI MUSICIAN","contestant":{"voting_id":"3B","name":"RAMU KHADKA"},"vote_count":1,"created_on":"2019-10-20T18:01:00.834443+05:45"},{"idx":"n2aTjt9LobhAgbxVpPPrNn","contest":"OS Nepal Music Award 2076","episode":null,"category":"BEST LOKDOHORI FEMALE SINGER","contestant":{"voting_id":"16E","name":"SARITA KARKI"},"vote_count":1,"created_on":"2019-10-20T17:51:35.581999+05:45"},{"idx":"xkfDfUvHfEfzPuKSnSPCGU","contest":"OS Nepal Music Award 2076","episode":null,"category":"BEST MODERN VIDEO EDITOR","contestant":{"voting_id":"43B","name":"PRAKASH DHAMALA"},"vote_count":500,"created_on":"2019-10-20T17:46:16.204797+05:45"},{"idx":"Dsv2PmxmqALuNcF86WdRjN","contest":"OS Nepal Music Award 2076","episode":null,"category":"BEST SUNUWAR FEMALE SINGER","contestant":{"voting_id":"50B","name":"PUJA SUNUWAR"},"vote_count":1,"created_on":"2019-10-20T17:32:32.641334+05:45"},{"idx":"Nhv8enK27ZNBUK2x4eWcSG","contest":"OS Nepal Music Award 2076","episode":null,"category":"BEST SELO MALE SINGER","contestant":{"voting_id":"55D","name":"ANIL LAMA"},"vote_count":50,"created_on":"2019-10-20T16:59:42.426080+05:45"},{"idx":"FYrRTaFPHA65NdrVohLwmE","contest":"OS Nepal Music Award 2076","episode":null,"category":"BEST SELO MALE SINGER","contestant":{"voting_id":"55D","name":"ANIL LAMA"},"vote_count":100,"created_on":"2019-10-20T16:57:26.431993+05:45"},{"idx":"h2duKKWD2VRmJMyKhw9Sb4","contest":"OS Nepal Music Award 2076","episode":null,"category":"BEST POP NEW MALE SINGER ","contestant":{"voting_id":"26A","name":"PRADIP K. GLAN"},"vote_count":1,"created_on":"2019-10-20T16:56:07.445603+05:45"},{"idx":"PaLdBPym6pHnaJkncEowpj","contest":"OS Nepal Music Award 2076","episode":null,"category":"BEST SELO FEMALE SINGER","contestant":{"voting_id":"54B","name":"RESHMA BOMJAN"},"vote_count":1,"created_on":"2019-10-20T16:54:42.126333+05:45"},{"idx":"J55H2Zki3RLCpTMC3xhsaZ","contest":"OS Nepal Music Award 2076","episode":null,"category":"BEST TAMANG MALE SINGER","contestant":{"voting_id":"49B","name":"PRADIP K.GLAN"},"vote_count":1,"created_on":"2019-10-20T16:49:48.521393+05:45"},{"idx":"vMiKWCtRgADEXw8zZ29yfh","contest":"OS Nepal Music Award 2076","episode":null,"category":"BEST SELO MALE SINGER","contestant":{"voting_id":"55D","name":"ANIL LAMA"},"vote_count":50,"created_on":"2019-10-20T16:48:31.356294+05:45"},{"idx":"9TLzF7FhMR65DXV2kV2nb5","contest":"OS Nepal Music Award 2076","episode":null,"category":"BEST POP FEMALE SINGER","contestant":{"voting_id":"29B","name":"SRIJANA KHATRI"},"vote_count":100,"created_on":"2019-10-20T16:47:30.687767+05:45"},{"idx":"LoNpcgCG88qYVDhoHGysEe","contest":"OS Nepal Music Award 2076","episode":null,"category":"BEST POP FEMALE SINGER","contestant":{"voting_id":"29B","name":"SRIJANA KHATRI"},"vote_count":100,"created_on":"2019-10-20T16:46:28.808084+05:45"},{"idx":"sAzV3PWGef5PWsneNMMtYH","contest":"OS Nepal Music Award 2076","episode":null,"category":"BEST POP FEMALE SINGER","contestant":{"voting_id":"29B","name":"SRIJANA KHATRI"},"vote_count":100,"created_on":"2019-10-20T16:45:19.946005+05:45"}]}