{"total_pages":275,"total_records":13717,"next":"https://khalti.com/api/v2/vuservote/?page=27","previous":"https://khalti.com/api/v2/vuservote/?page=25","record_range":[1251,1300],"current_page":26,"records":[{"idx":"wL5Bwbrdh5QEwrZBSzfRtV","contest":"Music Eve 2020","episode":"Music Eve 2020 IOE","category":null,"contestant":{"voting_id":"23","name":"The Acoustic Aero"},"vote_count":1,"created_on":"2020-01-30T12:29:16.100282+05:45"},{"idx":"WqJQ3LisyfWPUUBzr3yudT","contest":"Music Eve 2020","episode":"Music Eve 2020 IOE","category":null,"contestant":{"voting_id":"06","name":"Bishal shakya"},"vote_count":1,"created_on":"2020-01-30T12:28:21.640714+05:45"},{"idx":"jGsthiXmYsUyrKpB3ekgjA","contest":"Music Eve 2020","episode":"Music Eve 2020 IOE","category":null,"contestant":{"voting_id":"23","name":"The Acoustic Aero"},"vote_count":1,"created_on":"2020-01-30T12:26:07.312075+05:45"},{"idx":"gTBg9PRffHSk8NqvfLGnFk","contest":"Music Eve 2020","episode":"Music Eve 2020 IOE","category":null,"contestant":{"voting_id":"07","name":"Chemical Latch"},"vote_count":5,"created_on":"2020-01-30T12:25:36.514187+05:45"},{"idx":"568C4uo7SFWBkUk5vBGH6g","contest":"Music Eve 2020","episode":"Music Eve 2020 IOE","category":null,"contestant":{"voting_id":"07","name":"Chemical Latch"},"vote_count":5,"created_on":"2020-01-30T12:25:22.484547+05:45"},{"idx":"XJuw8P9bJS9ue3F74X8VkF","contest":"Music Eve 2020","episode":"Music Eve 2020 IOE","category":null,"contestant":{"voting_id":"07","name":"Chemical Latch"},"vote_count":5,"created_on":"2020-01-30T12:25:09.204123+05:45"},{"idx":"CxGSZaXxiHxUn8v95KgmMT","contest":"Model Superstar","episode":"Model Superstar Finale","category":null,"contestant":{"voting_id":"21","name":"Padam Bahadur Ranamagar"},"vote_count":1,"created_on":"2020-01-30T12:24:57.696753+05:45"},{"idx":"2Ny8z2ZP3C4PDyWXYzvFmC","contest":"Music Eve 2020","episode":"Music Eve 2020 IOE","category":null,"contestant":{"voting_id":"07","name":"Chemical Latch"},"vote_count":5,"created_on":"2020-01-30T12:24:54.369812+05:45"},{"idx":"MvJCQQsLC2iyg5efi98JbV","contest":"Music Eve 2020","episode":"Music Eve 2020 IOE","category":null,"contestant":{"voting_id":"16","name":"saahil duo"},"vote_count":1,"created_on":"2020-01-30T12:21:54.603941+05:45"},{"idx":"Z97KAk6VLuvoZuwbinLQNN","contest":"Music Eve 2020","episode":"Music Eve 2020 IOE","category":null,"contestant":{"voting_id":"02","name":"abinash acharya"},"vote_count":1,"created_on":"2020-01-30T12:09:28.354378+05:45"},{"idx":"Qchwf53dF3fgLJWsRL6rc2","contest":"Music Eve 2020","episode":"Music Eve 2020 IOE","category":null,"contestant":{"voting_id":"02","name":"abinash acharya"},"vote_count":1,"created_on":"2020-01-30T12:08:52.265257+05:45"},{"idx":"LnFGNZ7WiUVVC6Z5M8nEh5","contest":"Model Superstar","episode":"Model Superstar Finale","category":null,"contestant":{"voting_id":"11","name":"Rachana Karki"},"vote_count":1,"created_on":"2020-01-30T12:04:22.732006+05:45"},{"idx":"cFDZ574NLvsLBU8dVutxs9","contest":"Model Superstar","episode":"Model Superstar Finale","category":null,"contestant":{"voting_id":"11","name":"Rachana Karki"},"vote_count":1,"created_on":"2020-01-30T12:02:46.278908+05:45"},{"idx":"PDCGVKsjQegt4nYvT7TwYN","contest":"Model Superstar","episode":"Model Superstar Finale","category":null,"contestant":{"voting_id":"04","name":"Sabita Maharjan"},"vote_count":1,"created_on":"2020-01-30T11:57:59.275505+05:45"},{"idx":"WKdfHXar29CXBHFiBa7PPL","contest":"Model Superstar","episode":"Model Superstar Finale","category":null,"contestant":{"voting_id":"04","name":"Sabita Maharjan"},"vote_count":1,"created_on":"2020-01-30T11:57:40.037110+05:45"},{"idx":"pkHcC5YPmeoDAtJPsfFZr8","contest":"Model Superstar","episode":"Model Superstar Finale","category":null,"contestant":{"voting_id":"32","name":"Ichhya Adhikari"},"vote_count":1,"created_on":"2020-01-30T11:32:53.785108+05:45"},{"idx":"joyrjrL27RZRx9ATu6uCn9","contest":"Model Superstar","episode":"Model Superstar Finale","category":null,"contestant":{"voting_id":"04","name":"Sabita Maharjan"},"vote_count":1,"created_on":"2020-01-30T11:28:14.532100+05:45"},{"idx":"VC2st4vQFxA5pYUuNVXaUW","contest":"Model Superstar","episode":"Model Superstar Finale","category":null,"contestant":{"voting_id":"12","name":"Rabin Ghising"},"vote_count":1,"created_on":"2020-01-30T11:20:16.481922+05:45"},{"idx":"2qWLGiRVGvDsmeJ4uqfQSY","contest":"Music Eve 2020","episode":"Music Eve 2020 IOE","category":null,"contestant":{"voting_id":"08","name":"Kshitiz Basnet"},"vote_count":1,"created_on":"2020-01-30T11:15:25.266966+05:45"},{"idx":"naGbc9N5P2SQKneXQMPnbA","contest":"Music Eve 2020","episode":"Music Eve 2020 IOE","category":null,"contestant":{"voting_id":"06","name":"Bishal shakya"},"vote_count":1,"created_on":"2020-01-30T11:11:40.359641+05:45"},{"idx":"6ySAVmtPeEaE9AqhjLzP92","contest":"Music Eve 2020","episode":"Music Eve 2020 IOE","category":null,"contestant":{"voting_id":"23","name":"The Acoustic Aero"},"vote_count":1,"created_on":"2020-01-30T11:08:51.397167+05:45"},{"idx":"C4Lw24uvLJUvxUiwRDoRk4","contest":"Model Superstar","episode":"Model Superstar Finale","category":null,"contestant":{"voting_id":"14","name":"Ashish Shakya"},"vote_count":1,"created_on":"2020-01-30T10:49:52.357365+05:45"},{"idx":"8LrBtMGcaym2NGpPEurahL","contest":"Music Eve 2020","episode":"Music Eve 2020 IOE","category":null,"contestant":{"voting_id":"06","name":"Bishal shakya"},"vote_count":1,"created_on":"2020-01-30T10:20:03.627865+05:45"},{"idx":"rnemRXXXYC7HVnnJSikDSd","contest":"Music Eve 2020","episode":"Music Eve 2020 IOE","category":null,"contestant":{"voting_id":"07","name":"Chemical Latch"},"vote_count":1,"created_on":"2020-01-30T10:12:59.154669+05:45"},{"idx":"xEHLvHbRm6qArht7pnLduj","contest":"Music Eve 2020","episode":"Music Eve 2020 IOE","category":null,"contestant":{"voting_id":"11","name":"Nitesh subedi"},"vote_count":1,"created_on":"2020-01-30T10:10:38.927414+05:45"},{"idx":"xHCpTAdXjZBBRqiV3gEM6h","contest":"Music Eve 2020","episode":"Music Eve 2020 IOE","category":null,"contestant":{"voting_id":"02","name":"abinash acharya"},"vote_count":1,"created_on":"2020-01-30T10:08:19.704504+05:45"},{"idx":"MeWNLdzVUvKpqtMvkhSNnV","contest":"Music Eve 2020","episode":"Music Eve 2020 IOE","category":null,"contestant":{"voting_id":"11","name":"Nitesh subedi"},"vote_count":1,"created_on":"2020-01-30T10:07:04.792487+05:45"},{"idx":"jUt4HTWZDsicaza5BnTBC6","contest":"Music Eve 2020","episode":"Music Eve 2020 IOE","category":null,"contestant":{"voting_id":"06","name":"Bishal shakya"},"vote_count":1,"created_on":"2020-01-30T10:06:04.465264+05:45"},{"idx":"xbKBWmGog9ZZvjxUfWPQ63","contest":"Music Eve 2020","episode":"Music Eve 2020 IOE","category":null,"contestant":{"voting_id":"06","name":"Bishal shakya"},"vote_count":1,"created_on":"2020-01-30T09:43:46.258222+05:45"},{"idx":"buYSderpzB9xiGcZFseQWk","contest":"Music Eve 2020","episode":"Music Eve 2020 IOE","category":null,"contestant":{"voting_id":"06","name":"Bishal shakya"},"vote_count":1,"created_on":"2020-01-30T09:41:09.078790+05:45"},{"idx":"bb4CLxTvbiWfyYqVMso39n","contest":"Music Eve 2020","episode":"Music Eve 2020 IOE","category":null,"contestant":{"voting_id":"07","name":"Chemical Latch"},"vote_count":1,"created_on":"2020-01-30T09:34:39.037355+05:45"},{"idx":"rzdj3EQxAtedJ7pKz8B6Zf","contest":"Music Eve 2020","episode":"Music Eve 2020 IOE","category":null,"contestant":{"voting_id":"03","name":"Abishek Aryal"},"vote_count":1,"created_on":"2020-01-30T09:31:00.468378+05:45"},{"idx":"D9GKpLgNxyvBqJFyos3QPb","contest":"Music Eve 2020","episode":"Music Eve 2020 IOE","category":null,"contestant":{"voting_id":"07","name":"Chemical Latch"},"vote_count":1,"created_on":"2020-01-30T09:27:45.495918+05:45"},{"idx":"ZxpfJxQRLzp9S9kWVojTnf","contest":"Music Eve 2020","episode":"Music Eve 2020 IOE","category":null,"contestant":{"voting_id":"06","name":"Bishal shakya"},"vote_count":1,"created_on":"2020-01-30T09:19:37.594118+05:45"},{"idx":"XaoQGqsjQz6VsMzP8Ahm8E","contest":"Music Eve 2020","episode":"Music Eve 2020 IOE","category":null,"contestant":{"voting_id":"06","name":"Bishal shakya"},"vote_count":1,"created_on":"2020-01-30T09:19:23.251828+05:45"},{"idx":"k2CtQaXfphVthrsAbP2766","contest":"Music Eve 2020","episode":"Music Eve 2020 IOE","category":null,"contestant":{"voting_id":"06","name":"Bishal shakya"},"vote_count":1,"created_on":"2020-01-30T09:13:15.487923+05:45"},{"idx":"Q8RXBANetHmcEdFV2SpHfB","contest":"Music Eve 2020","episode":"Music Eve 2020 IOE","category":null,"contestant":{"voting_id":"06","name":"Bishal shakya"},"vote_count":1,"created_on":"2020-01-30T09:02:39.042652+05:45"},{"idx":"Jjq87oi7BP4AF6qQWVrJob","contest":"Music Eve 2020","episode":"Music Eve 2020 IOE","category":null,"contestant":{"voting_id":"06","name":"Bishal shakya"},"vote_count":1,"created_on":"2020-01-30T09:02:03.893924+05:45"},{"idx":"zoBzhh7JfXe6tCKCgnnGt9","contest":"Music Eve 2020","episode":"Music Eve 2020 IOE","category":null,"contestant":{"voting_id":"06","name":"Bishal shakya"},"vote_count":1,"created_on":"2020-01-30T09:00:37.410754+05:45"},{"idx":"gWMF6ASsUMyhdK23kqcwz7","contest":"Music Eve 2020","episode":"Music Eve 2020 IOE","category":null,"contestant":{"voting_id":"06","name":"Bishal shakya"},"vote_count":1,"created_on":"2020-01-30T08:56:03.043690+05:45"},{"idx":"QkVKUcBmQosriCcTj5Lvzn","contest":"Music Eve 2020","episode":"Music Eve 2020 IOE","category":null,"contestant":{"voting_id":"06","name":"Bishal shakya"},"vote_count":1,"created_on":"2020-01-30T08:50:29.538663+05:45"},{"idx":"2WX4q4bTKY8R5RaV23DxFF","contest":"Model Superstar","episode":"Model Superstar Finale","category":null,"contestant":{"voting_id":"12","name":"Rabin Ghising"},"vote_count":1,"created_on":"2020-01-30T08:38:10.992038+05:45"},{"idx":"CLEcyUojZLxsWgC7dBpoxU","contest":"Music Eve 2020","episode":"Music Eve 2020 IOE","category":null,"contestant":{"voting_id":"06","name":"Bishal shakya"},"vote_count":1,"created_on":"2020-01-30T08:36:57.957033+05:45"},{"idx":"fFNFartNDaMLAzKk8iz8K2","contest":"Music Eve 2020","episode":"Music Eve 2020 IOE","category":null,"contestant":{"voting_id":"06","name":"Bishal shakya"},"vote_count":1,"created_on":"2020-01-30T08:30:10.482241+05:45"},{"idx":"SVgLYj56zPajHqTsg8gYBX","contest":"Music Eve 2020","episode":"Music Eve 2020 IOE","category":null,"contestant":{"voting_id":"06","name":"Bishal shakya"},"vote_count":1,"created_on":"2020-01-30T08:26:23.717846+05:45"},{"idx":"5qqwrt5mZAWpspW5NhKyzG","contest":"Music Eve 2020","episode":"Music Eve 2020 IOE","category":null,"contestant":{"voting_id":"06","name":"Bishal shakya"},"vote_count":1,"created_on":"2020-01-30T08:23:40.540880+05:45"},{"idx":"notFaYvnjsQ43CjaaQWWJP","contest":"Music Eve 2020","episode":"Music Eve 2020 IOE","category":null,"contestant":{"voting_id":"06","name":"Bishal shakya"},"vote_count":1,"created_on":"2020-01-30T08:12:41.121840+05:45"},{"idx":"Y2MF8eHmygUPqVpUBq35oZ","contest":"Music Eve 2020","episode":"Music Eve 2020 IOE","category":null,"contestant":{"voting_id":"07","name":"Chemical Latch"},"vote_count":1,"created_on":"2020-01-30T07:53:06.700227+05:45"},{"idx":"GG2DVTkkBLsKuEQCSBXmjD","contest":"Music Eve 2020","episode":"Music Eve 2020 IOE","category":null,"contestant":{"voting_id":"06","name":"Bishal shakya"},"vote_count":1,"created_on":"2020-01-30T07:42:23.841627+05:45"},{"idx":"V7k2ChYdpTY3MzHaWtyRDN","contest":"Model Superstar","episode":"Model Superstar Finale","category":null,"contestant":{"voting_id":"31","name":"Aakriti Subedi"},"vote_count":1,"created_on":"2020-01-30T07:32:30.289833+05:45"}]}