{"total_pages":275,"total_records":13721,"next":"https://khalti.com/api/v2/vuservote/?page=261","previous":"https://khalti.com/api/v2/vuservote/?page=259","record_range":[12951,13000],"current_page":260,"records":[{"idx":"UeCJT9t8m2naWnkakZbKdT","contest":"OS Nepal Music Award 2076","episode":null,"category":"BEST SELO MALE SINGER","contestant":{"voting_id":"55D","name":"ANIL LAMA"},"vote_count":100,"created_on":"2019-10-20T16:44:48.070732+05:45"},{"idx":"VikcDah9XBGX8cpPrWAKhY","contest":"OS Nepal Music Award 2076","episode":null,"category":"BEST POP FEMALE SINGER","contestant":{"voting_id":"29B","name":"SRIJANA KHATRI"},"vote_count":100,"created_on":"2019-10-20T16:43:57.656477+05:45"},{"idx":"bvvbitQkqAfNjZYG7y3fvE","contest":"OS Nepal Music Award 2076","episode":null,"category":"BEST LOKDOHORI VIDEO DIRECTOR (SAD)","contestant":{"voting_id":"7A","name":"SMRITI TIMILSINA"},"vote_count":500,"created_on":"2019-10-20T15:35:20.398235+05:45"},{"idx":"7yC7hFQufP5PXLyDmZ7rKc","contest":"OS Nepal Music Award 2076","episode":null,"category":"BEST LOKDOHORI VIDEO DIRECTOR (SAD)","contestant":{"voting_id":"7A","name":"SMRITI TIMILSINA"},"vote_count":500,"created_on":"2019-10-20T15:34:16.177541+05:45"},{"idx":"7yfqcxdq66asEf5KNKVS8d","contest":"OS Nepal Music Award 2076","episode":null,"category":"BEST SELO MALE SINGER","contestant":{"voting_id":"55E","name":"YOGESH LAMA"},"vote_count":1,"created_on":"2019-10-20T15:29:40.566963+05:45"},{"idx":"8PSXKYKDPTZNJCYNzCnPsT","contest":"OS Nepal Music Award 2076","episode":null,"category":"BEST TAMANG FEMALE SINGER","contestant":{"voting_id":"48D","name":"NIRMALA GHISING"},"vote_count":1,"created_on":"2019-10-20T15:28:15.926547+05:45"},{"idx":"ybGf3sWC7GMA6arer8qTZ7","contest":"OS Nepal Music Award 2076","episode":null,"category":"BEST POP MALE MODEL ","contestant":{"voting_id":"25E","name":"RAVI SING"},"vote_count":500,"created_on":"2019-10-20T15:27:10.069019+05:45"},{"idx":"RX8a6Vc7URTdJuW6npuTcW","contest":"OS Nepal Music Award 2076","episode":null,"category":"BEST SELO FEMALE SINGER","contestant":{"voting_id":"54C","name":"MINGS LAMA"},"vote_count":100,"created_on":"2019-10-20T15:26:32.465951+05:45"},{"idx":"aqCnjmGksdV2W2dxoSfM23","contest":"OS Nepal Music Award 2076","episode":null,"category":"BEST SELO FEMALE SINGER","contestant":{"voting_id":"54C","name":"MINGS LAMA"},"vote_count":100,"created_on":"2019-10-20T15:26:08.669810+05:45"},{"idx":"LAWXpmaxbShkFGXZLZ6xqj","contest":"OS Nepal Music Award 2076","episode":null,"category":"BEST SELO FEMALE SINGER","contestant":{"voting_id":"54C","name":"MINGS LAMA"},"vote_count":100,"created_on":"2019-10-20T15:25:25.274079+05:45"},{"idx":"z5U2DyWiLgW5wgFG67FWtd","contest":"OS Nepal Music Award 2076","episode":null,"category":"BEST SELO FEMALE SINGER","contestant":{"voting_id":"54C","name":"MINGS LAMA"},"vote_count":500,"created_on":"2019-10-20T15:24:35.971865+05:45"},{"idx":"Naz7ai2XupcNjpedqWzpxF","contest":"OS Nepal Music Award 2076","episode":null,"category":"BEST SELO FEMALE SINGER","contestant":{"voting_id":"54C","name":"MINGS LAMA"},"vote_count":500,"created_on":"2019-10-20T15:23:44.411501+05:45"},{"idx":"VtwFvQHCJiPKfJNfjaUHUQ","contest":"OS Nepal Music Award 2076","episode":null,"category":"BEST SELO FEMALE SINGER","contestant":{"voting_id":"54C","name":"MINGS LAMA"},"vote_count":500,"created_on":"2019-10-20T15:22:57.515402+05:45"},{"idx":"na7vqXSxUNaiRvJFXDdszQ","contest":"OS Nepal Music Award 2076","episode":null,"category":"BEST SELO FEMALE SINGER","contestant":{"voting_id":"54C","name":"MINGS LAMA"},"vote_count":500,"created_on":"2019-10-20T15:22:13.554007+05:45"},{"idx":"Qv8Pq7t7Ddbbi7nBoSaRee","contest":"OS Nepal Music Award 2076","episode":null,"category":"BEST SELO FEMALE SINGER","contestant":{"voting_id":"54C","name":"MINGS LAMA"},"vote_count":500,"created_on":"2019-10-20T15:21:39.668542+05:45"},{"idx":"wB7EycAqqoLRSZwJWUQiV9","contest":"OS Nepal Music Award 2076","episode":null,"category":"BEST ADHUNIK MALE MODEL ","contestant":{"voting_id":"36E","name":"SURAJ SHRESTHA"},"vote_count":500,"created_on":"2019-10-20T14:51:47.866907+05:45"},{"idx":"XoEGzD76mGWozdyoyHojW4","contest":"OS Nepal Music Award 2076","episode":null,"category":" BEST ADHUNIK NEW FEMALE SINGER","contestant":{"voting_id":"37D","name":"NIJA PAUDEL"},"vote_count":5,"created_on":"2019-10-20T14:42:54.136903+05:45"},{"idx":"zLCthoSTcWDYyZ3gzh68FJ","contest":"OS Nepal Music Award 2076","episode":null,"category":"BEST SUNUWAR FEMALE SINGER","contestant":{"voting_id":"50B","name":"PUJA SUNUWAR"},"vote_count":1,"created_on":"2019-10-20T14:38:16.363008+05:45"},{"idx":"BYvKdaDqvcd7kyPqHA6SkA","contest":"OS Nepal Music Award 2076","episode":null,"category":"BEST SELO MALE SINGER","contestant":{"voting_id":"55A","name":"SUNIL THAPA MAGAR"},"vote_count":1,"created_on":"2019-10-20T14:01:15.440540+05:45"},{"idx":"uKSs5MtH8qckNhghTTvBLC","contest":"OS Nepal Music Award 2076","episode":null,"category":"BEST SELO FEMALE SINGER","contestant":{"voting_id":"54D","name":"BIMALA THING"},"vote_count":1,"created_on":"2019-10-20T14:00:38.966003+05:45"},{"idx":"rQYvQbV6jETvBfbYLKG6v2","contest":"OS Nepal Music Award 2076","episode":null,"category":"BEST SUNUWAR FEMALE SINGER","contestant":{"voting_id":"50D","name":"NISHU SUNUWAR"},"vote_count":1,"created_on":"2019-10-20T14:00:09.774230+05:45"},{"idx":"MymRXvbgr2PrKoEy9P9JQ5","contest":"OS Nepal Music Award 2076","episode":null,"category":"BEST TAMANG MALE SINGER","contestant":{"voting_id":"49B","name":"PRADIP K.GLAN"},"vote_count":1,"created_on":"2019-10-20T13:59:26.853019+05:45"},{"idx":"S8HXEspsmJG5ZWzmpa9A3Y","contest":"OS Nepal Music Award 2076","episode":null,"category":"BEST MODERN VIDEO EDITOR","contestant":{"voting_id":"43D","name":"NABIN GHARTI MAGAR"},"vote_count":1,"created_on":"2019-10-20T13:59:05.064659+05:45"},{"idx":"c2vo5ELDQMxTCfSAJVnhG6","contest":"OS Nepal Music Award 2076","episode":null,"category":" BEST POP SONG","contestant":{"voting_id":"18D","name":"SHISHIR BHANDARI"},"vote_count":1,"created_on":"2019-10-20T13:58:28.758780+05:45"},{"idx":"aatRUgEPsZ4nmEsYG9B9cW","contest":"OS Nepal Music Award 2076","episode":null,"category":"BEST LOKDOHORI MALE SINGER","contestant":{"voting_id":"15B","name":"SURYA KHADKA"},"vote_count":1,"created_on":"2019-10-20T13:58:12.878308+05:45"},{"idx":"YT2Z94SwWrjifhfM7W2WxV","contest":"OS Nepal Music Award 2076","episode":null,"category":"BEST ADHUNIK SONG","contestant":{"voting_id":"30E","name":"KIRAN GAJMER"},"vote_count":1,"created_on":"2019-10-20T13:57:54.336304+05:45"},{"idx":"f9tWKzAunY5pZECLB9XQdd","contest":"OS Nepal Music Award 2076","episode":null,"category":"BEST TAMANG FEMALE SINGER","contestant":{"voting_id":"48C","name":"SRIJANA TAMANG"},"vote_count":1,"created_on":"2019-10-20T13:57:35.150074+05:45"},{"idx":"tEzhK5hwtCHkqRCUpSTVm3","contest":"OS Nepal Music Award 2076","episode":null,"category":" BEST ADHUNIK NEW FEMALE SINGER","contestant":{"voting_id":"37D","name":"NIJA PAUDEL"},"vote_count":5,"created_on":"2019-10-20T13:53:34.286033+05:45"},{"idx":"A3UuYFh2PJLpDFhvhVQJ3g","contest":"OS Nepal Music Award 2076","episode":null,"category":"BEST POP VIDEO DIRECTOR ","contestant":{"voting_id":"23C","name":"MANOJ BISTA"},"vote_count":100,"created_on":"2019-10-20T12:49:28.959290+05:45"},{"idx":"YLMZNQw7cdu7a9BafN7aeB","contest":"OS Nepal Music Award 2076","episode":null,"category":"BEST POP VIDEO DIRECTOR ","contestant":{"voting_id":"23C","name":"MANOJ BISTA"},"vote_count":500,"created_on":"2019-10-20T12:47:10.765892+05:45"},{"idx":"waZxmqzgZ2fF4AQfF2gufF","contest":"OS Nepal Music Award 2076","episode":null,"category":"BEST ADHUNIK MALE MODEL ","contestant":{"voting_id":"36E","name":"SURAJ SHRESTHA"},"vote_count":500,"created_on":"2019-10-20T12:38:21.716021+05:45"},{"idx":"fiyJnXEVsSN9XQtjvaSPND","contest":"OS Nepal Music Award 2076","episode":null,"category":" BEST ADHUNIK NEW FEMALE SINGER","contestant":{"voting_id":"37D","name":"NIJA PAUDEL"},"vote_count":1,"created_on":"2019-10-20T12:25:40.980659+05:45"},{"idx":"4RbmLwdTpUohAwhTgTJK2k","contest":"OS Nepal Music Award 2076","episode":null,"category":" BEST ADHUNIK NEW FEMALE SINGER","contestant":{"voting_id":"37D","name":"NIJA PAUDEL"},"vote_count":1,"created_on":"2019-10-20T12:22:50.721661+05:45"},{"idx":"FvBThGZMsPPPWWEu6i6HyN","contest":"OS Nepal Music Award 2076","episode":null,"category":"BEST LOK POP","contestant":{"voting_id":"19B","name":"BIRENDRA SHRESHTA"},"vote_count":5,"created_on":"2019-10-20T11:40:31.970674+05:45"},{"idx":"bqgbMRQTiJN9jTtpCr6Amf","contest":"OS Nepal Music Award 2076","episode":null,"category":"BEST LOK POP","contestant":{"voting_id":"19B","name":"BIRENDRA SHRESHTA"},"vote_count":5,"created_on":"2019-10-20T11:39:02.471143+05:45"},{"idx":"cPKReAuyB2SdvYvGFLDJyX","contest":"OS Nepal Music Award 2076","episode":null,"category":"BEST LOK POP","contestant":{"voting_id":"19B","name":"BIRENDRA SHRESHTA"},"vote_count":5,"created_on":"2019-10-20T11:38:36.741675+05:45"},{"idx":"QGRTK6i2LeGzp3LHhUqKE5","contest":"OS Nepal Music Award 2076","episode":null,"category":"BEST LOK POP","contestant":{"voting_id":"19B","name":"BIRENDRA SHRESHTA"},"vote_count":5,"created_on":"2019-10-20T11:38:17.752577+05:45"},{"idx":"myPh5T97yda9EWrDxjmVhC","contest":"OS Nepal Music Award 2076","episode":null,"category":"BEST LOK POP","contestant":{"voting_id":"19B","name":"BIRENDRA SHRESHTA"},"vote_count":25,"created_on":"2019-10-20T11:37:42.725690+05:45"},{"idx":"t35PzzbE27C5oSH5vLLpce","contest":"OS Nepal Music Award 2076","episode":null,"category":"BEST LOKDOHORI MALE MODEL DANCE","contestant":{"voting_id":"10C","name":"MAHENDRA GAUTAM"},"vote_count":1,"created_on":"2019-10-20T10:42:34.084882+05:45"},{"idx":"U5vgroHmiuZuH2B5yHJBhS","contest":"OS Nepal Music Award 2076","episode":null,"category":"BEST ADHUNIK MALE SINGER ","contestant":{"voting_id":"40E","name":"PURUSHOTTAM SUBEDI"},"vote_count":5,"created_on":"2019-10-20T10:41:30.057399+05:45"},{"idx":"EtN5ADenGAEz54WD9bA22M","contest":"OS Nepal Music Award 2076","episode":null,"category":"BEST ADHUNIK MALE SINGER ","contestant":{"voting_id":"40E","name":"PURUSHOTTAM SUBEDI"},"vote_count":5,"created_on":"2019-10-20T10:41:10.074777+05:45"},{"idx":"2LAJs9gNDxtCwtRLfibfK5","contest":"OS Nepal Music Award 2076","episode":null,"category":"BEST LOK POP","contestant":{"voting_id":"19B","name":"BIRENDRA SHRESHTA"},"vote_count":50,"created_on":"2019-10-20T10:22:25.797286+05:45"},{"idx":"hKYzXhPBbdBnXzAds4whfe","contest":"OS Nepal Music Award 2076","episode":null,"category":"BEST LOK POP","contestant":{"voting_id":"19B","name":"BIRENDRA SHRESHTA"},"vote_count":500,"created_on":"2019-10-20T10:20:57.014332+05:45"},{"idx":"vGAgMoDFfW6KGY9wPKtVik","contest":"OS Nepal Music Award 2076","episode":null,"category":"BEST ADHUNIK VIDEO DIRECTOR ","contestant":{"voting_id":"34C","name":"JIWAN SHAHI"},"vote_count":25,"created_on":"2019-10-20T10:06:48.000376+05:45"},{"idx":"Td2QJX7Xy4C8yCeAc9R6LC","contest":"OS Nepal Music Award 2076","episode":null,"category":"BEST POP LYRICIST ","contestant":{"voting_id":"20A","name":"RAMESH DAHAL"},"vote_count":50,"created_on":"2019-10-20T09:50:51.646336+05:45"},{"idx":"5oizSxEQPNzThpgkz3aTzB","contest":"OS Nepal Music Award 2076","episode":null,"category":"BEST LOKDOHORI CINEMATOGRAPHER","contestant":{"voting_id":"8C","name":"SAGAR GAUTAM"},"vote_count":1,"created_on":"2019-10-20T09:18:46.791857+05:45"},{"idx":"9GXvXsM2UsLCoVmzBhNkMo","contest":"OS Nepal Music Award 2076","episode":null,"category":" BEST POP SONG","contestant":{"voting_id":"18E","name":"SACHIN RAUNIYAR"},"vote_count":1,"created_on":"2019-10-20T09:04:58.557000+05:45"},{"idx":"yLnzGXMQ8xbdVDPwJ6nCMM","contest":"OS Nepal Music Award 2076","episode":null,"category":"BEST TAMANG MALE SINGER","contestant":{"voting_id":"49D","name":"BIJAYA THOKAR"},"vote_count":1,"created_on":"2019-10-20T08:54:03.208234+05:45"},{"idx":"w47MqrwiWc8mABkYGwCVnF","contest":"OS Nepal Music Award 2076","episode":null,"category":"BEST ADHUNIK VIDEO DIRECTOR ","contestant":{"voting_id":"34C","name":"JIWAN SHAHI"},"vote_count":25,"created_on":"2019-10-20T07:34:20.496407+05:45"},{"idx":"wbd5ytcvCAbeodxzAvL3de","contest":"OS Nepal Music Award 2076","episode":null,"category":"BEST LOK POP","contestant":{"voting_id":"19B","name":"BIRENDRA SHRESHTA"},"vote_count":100,"created_on":"2019-10-19T21:31:26.874438+05:45"}]}