{"total_pages":275,"total_records":13721,"next":"https://khalti.com/api/v2/vuservote/?page=262","previous":"https://khalti.com/api/v2/vuservote/?page=260","record_range":[13001,13050],"current_page":261,"records":[{"idx":"iLwru5EajNzznLd5tbVBgS","contest":"OS Nepal Music Award 2076","episode":null,"category":"BEST ADHUNIK VIDEO DIRECTOR ","contestant":{"voting_id":"34A","name":"DIPAK ACHARYA"},"vote_count":500,"created_on":"2019-10-19T21:28:01.090060+05:45"},{"idx":"yERMrzzjnJxVnMBiAk42Mc","contest":"OS Nepal Music Award 2076","episode":null,"category":"BEST TAMANG MALE SINGER","contestant":{"voting_id":"49B","name":"PRADIP K.GLAN"},"vote_count":500,"created_on":"2019-10-19T21:15:58.732158+05:45"},{"idx":"ZrkYzJLeVtCyU6zGeckpij","contest":"OS Nepal Music Award 2076","episode":null,"category":"BEST LOK DOHARI","contestant":{"voting_id":"1E","name":"SHIVA KARKI"},"vote_count":1,"created_on":"2019-10-19T20:46:18.517000+05:45"},{"idx":"BoDfP7qcyfi2N4RQYovVNi","contest":"OS Nepal Music Award 2076","episode":null,"category":" BEST LOK SONG","contestant":{"voting_id":"17B","name":"SURAJ THAPA"},"vote_count":1,"created_on":"2019-10-19T20:46:02.315136+05:45"},{"idx":"jiHsXVnwUfVxpqQhFoWjMm","contest":"OS Nepal Music Award 2076","episode":null,"category":"BEST LOKDOHORI VIDEO EDITOR ","contestant":{"voting_id":"5E","name":"MANOJ KARKI"},"vote_count":1,"created_on":"2019-10-19T20:45:41.913170+05:45"},{"idx":"fK65RpfUNWhSuPtSQr9m5Q","contest":"OS Nepal Music Award 2076","episode":null,"category":"BEST POP ARRANGER","contestant":{"voting_id":"22D","name":"HARI SHARAN SAYAMU"},"vote_count":500,"created_on":"2019-10-19T20:18:31.976095+05:45"},{"idx":"95cJShYSCzviHXZ35z5JNb","contest":"OS Nepal Music Award 2076","episode":null,"category":"BEST POP ARRANGER","contestant":{"voting_id":"22D","name":"HARI SHARAN SAYAMU"},"vote_count":500,"created_on":"2019-10-19T20:16:21.550118+05:45"},{"idx":"mNMbPZWe2khnh8vXZ2Zu6H","contest":"OS Nepal Music Award 2076","episode":null,"category":"BEST POP MALE SINGER ","contestant":{"voting_id":"28B","name":"NABIN KHADKA"},"vote_count":1,"created_on":"2019-10-19T19:56:07.847460+05:45"},{"idx":"vemSvosTZN7A76eXAk2qT5","contest":"OS Nepal Music Award 2076","episode":null,"category":"BEST POP MALE MODEL ","contestant":{"voting_id":"25D","name":"HERUKA LAMA"},"vote_count":50,"created_on":"2019-10-19T19:45:42.122599+05:45"},{"idx":"Tqtuv9rBv8o7u5pmNEPoPJ","contest":"OS Nepal Music Award 2076","episode":null,"category":"BEST TAMANG MALE SINGER","contestant":{"voting_id":"49B","name":"PRADIP K.GLAN"},"vote_count":5,"created_on":"2019-10-19T19:10:31.186527+05:45"},{"idx":"GwizuZHgC4kdGBsemuT4L2","contest":"OS Nepal Music Award 2076","episode":null,"category":"BEST TAMANG MALE SINGER","contestant":{"voting_id":"49B","name":"PRADIP K.GLAN"},"vote_count":5,"created_on":"2019-10-19T19:08:27.113032+05:45"},{"idx":"oQNkQWUsdvf9w9TAkkR6U8","contest":"OS Nepal Music Award 2076","episode":null,"category":"BEST SELO MALE SINGER","contestant":{"voting_id":"55D","name":"ANIL LAMA"},"vote_count":1,"created_on":"2019-10-19T19:08:00.695816+05:45"},{"idx":"MVGTZnghHfBkrb63LmU9YP","contest":"OS Nepal Music Award 2076","episode":null,"category":"BEST TAMANG MALE SINGER","contestant":{"voting_id":"49B","name":"PRADIP K.GLAN"},"vote_count":5,"created_on":"2019-10-19T19:07:32.070160+05:45"},{"idx":"uePA3fy9DPcWQDSFTLGuUR","contest":"OS Nepal Music Award 2076","episode":null,"category":"BEST POP NEW MALE SINGER ","contestant":{"voting_id":"26A","name":"PRADIP K. GLAN"},"vote_count":5,"created_on":"2019-10-19T19:06:09.546520+05:45"},{"idx":"WQsV4aQWPSHstwHqgMGaY2","contest":"OS Nepal Music Award 2076","episode":null,"category":"BEST LOKDOHORI LYRICIST","contestant":{"voting_id":"2C","name":"KAMAL SARGAM"},"vote_count":1,"created_on":"2019-10-19T18:53:44.293306+05:45"},{"idx":"82zXCHZsGGPCNE3efd6uUP","contest":"OS Nepal Music Award 2076","episode":null,"category":"BEST SUNUWAR FEMALE SINGER","contestant":{"voting_id":"50B","name":"PUJA SUNUWAR"},"vote_count":1,"created_on":"2019-10-19T17:55:33.491092+05:45"},{"idx":"vUZ5bCAdoSQRDxnowSy3BV","contest":"OS Nepal Music Award 2076","episode":null,"category":"BEST SUNUWAR FEMALE SINGER","contestant":{"voting_id":"50B","name":"PUJA SUNUWAR"},"vote_count":1,"created_on":"2019-10-19T17:53:03.093797+05:45"},{"idx":"tRNwrkdB7KF8HMm9QQRBeM","contest":"OS Nepal Music Award 2076","episode":null,"category":"BEST SELO MALE SINGER","contestant":{"voting_id":"55A","name":"SUNIL THAPA MAGAR"},"vote_count":1,"created_on":"2019-10-19T16:40:00.473994+05:45"},{"idx":"aFsLZUvef3k5EYG96vc3q7","contest":"OS Nepal Music Award 2076","episode":null,"category":"BEST SUNUWAR FEMALE SINGER","contestant":{"voting_id":"50E","name":"PUJA SUNUWAR"},"vote_count":1,"created_on":"2019-10-19T16:29:55.100134+05:45"},{"idx":"b5hFnmrJA3biixiJ3AZLzR","contest":"OS Nepal Music Award 2076","episode":null,"category":"BEST POP MALE MODEL ","contestant":{"voting_id":"25E","name":"RAVI SING"},"vote_count":1,"created_on":"2019-10-19T15:16:15.846568+05:45"},{"idx":"PXEi3FtnTUJ9bgSthX5jWn","contest":"OS Nepal Music Award 2076","episode":null,"category":"BEST SELO FEMALE SINGER","contestant":{"voting_id":"54C","name":"MINGS LAMA"},"vote_count":1,"created_on":"2019-10-19T14:56:13.762660+05:45"},{"idx":"eg9e7Rsp4msuaJbC7tbp2T","contest":"OS Nepal Music Award 2076","episode":null,"category":"BEST POP VIDEO DIRECTOR ","contestant":{"voting_id":"23A","name":"DILIP SAMAN"},"vote_count":500,"created_on":"2019-10-19T14:43:00.746111+05:45"},{"idx":"T4pzygvQWWJgdbjyqcRZyB","contest":"OS Nepal Music Award 2076","episode":null,"category":"BEST POP FEMALE SINGER","contestant":{"voting_id":"29B","name":"SRIJANA KHATRI"},"vote_count":1,"created_on":"2019-10-19T14:09:27.451598+05:45"},{"idx":"v9BrHtB5H3EErUaZ9GVzpF","contest":"OS Nepal Music Award 2076","episode":null,"category":"BEST SUNUWAR MALE SINGER","contestant":{"voting_id":"51D","name":"PUSHKAR SUNUWAR"},"vote_count":100,"created_on":"2019-10-19T14:08:46.929519+05:45"},{"idx":"2GPNGdWyg5sMFtoGdqqwzR","contest":"OS Nepal Music Award 2076","episode":null,"category":"BEST LOKDOHORI FEMALE SINGER (NEW)","contestant":{"voting_id":"13B","name":"RUPA GHARTI MAGAR"},"vote_count":1,"created_on":"2019-10-19T14:03:51.736876+05:45"},{"idx":"rpoEawCntXSUJrDAEtKNi9","contest":"OS Nepal Music Award 2076","episode":null,"category":"BEST POP FEMALE SINGER","contestant":{"voting_id":"29B","name":"SRIJANA KHATRI"},"vote_count":1,"created_on":"2019-10-19T14:00:52.882816+05:45"},{"idx":"LXonm2zC72KLKERRxz5pjK","contest":"OS Nepal Music Award 2076","episode":null,"category":"BEST SUNUWAR MALE SINGER","contestant":{"voting_id":"51D","name":"PUSHKAR SUNUWAR"},"vote_count":100,"created_on":"2019-10-19T13:43:46.966654+05:45"},{"idx":"bSkR494UP93F2ApBgGqcGJ","contest":"OS Nepal Music Award 2076","episode":null,"category":"BEST SUNUWAR MALE SINGER","contestant":{"voting_id":"51D","name":"PUSHKAR SUNUWAR"},"vote_count":500,"created_on":"2019-10-19T13:43:01.446809+05:45"},{"idx":"2fzQHLiTWGZKH5yQbBM5YZ","contest":"OS Nepal Music Award 2076","episode":null,"category":"BEST ADHUNIK VIDEO DIRECTOR ","contestant":{"voting_id":"34C","name":"JIWAN SHAHI"},"vote_count":25,"created_on":"2019-10-19T12:57:35.993788+05:45"},{"idx":"4CUPdtf4uUqU4ahE38VZjD","contest":"OS Nepal Music Award 2076","episode":null,"category":"BEST LOKDOHORI VIDEO DIRECTOR (Dance)","contestant":{"voting_id":"6D","name":"KAJISH SHRESTHA"},"vote_count":25,"created_on":"2019-10-19T11:48:30.362031+05:45"},{"idx":"wf7snWSRt6gAwaAKQDmcWU","contest":"OS Nepal Music Award 2076","episode":null,"category":"BEST POP VIDEO DIRECTOR ","contestant":{"voting_id":"23A","name":"DILIP SAMAN"},"vote_count":1,"created_on":"2019-10-19T10:41:49.925434+05:45"},{"idx":"fcTqVWcsWU6RCJzCyH3d2a","contest":"OS Nepal Music Award 2076","episode":null,"category":"BEST LOKDOHORI VIDEO DIRECTOR (Dance)","contestant":{"voting_id":"6D","name":"KAJISH SHRESTHA"},"vote_count":5,"created_on":"2019-10-19T10:41:30.230480+05:45"},{"idx":"kLvh94335MBobb8FFzMWpT","contest":"OS Nepal Music Award 2076","episode":null,"category":"BEST SELO MALE SINGER","contestant":{"voting_id":"55D","name":"ANIL LAMA"},"vote_count":5,"created_on":"2019-10-19T10:40:54.563988+05:45"},{"idx":"tsgYVkvpeg94AJ9wKM7YAh","contest":"OS Nepal Music Award 2076","episode":null,"category":"BEST LOKDOHORI VIDEO DIRECTOR (Dance)","contestant":{"voting_id":"6D","name":"KAJISH SHRESTHA"},"vote_count":5,"created_on":"2019-10-19T10:40:41.777740+05:45"},{"idx":"DnjHnZFs3GJ5ZsLJtREWFV","contest":"OS Nepal Music Award 2076","episode":null,"category":"BEST SELO MALE SINGER","contestant":{"voting_id":"55D","name":"ANIL LAMA"},"vote_count":25,"created_on":"2019-10-19T10:39:52.288263+05:45"},{"idx":"xeouaHBtnnDagw7mAgxLbm","contest":"OS Nepal Music Award 2076","episode":null,"category":"BEST SELO MALE SINGER","contestant":{"voting_id":"55D","name":"ANIL LAMA"},"vote_count":50,"created_on":"2019-10-19T10:39:26.987831+05:45"},{"idx":"xGzuXnMz3uFQVmXbKvMQaF","contest":"OS Nepal Music Award 2076","episode":null,"category":"BEST ADHUNIK VIDEO DIRECTOR ","contestant":{"voting_id":"34C","name":"JIWAN SHAHI"},"vote_count":5,"created_on":"2019-10-19T09:56:30.000398+05:45"},{"idx":"L8fJwCciyVdUZTSbLfWZye","contest":"OS Nepal Music Award 2076","episode":null,"category":"BEST ADHUNIK VIDEO DIRECTOR ","contestant":{"voting_id":"34C","name":"JIWAN SHAHI"},"vote_count":5,"created_on":"2019-10-19T09:55:44.156496+05:45"},{"idx":"GUC3AvT2nmu7DbaM7K9wXS","contest":"OS Nepal Music Award 2076","episode":null,"category":"BEST ADHUNIK VIDEO DIRECTOR ","contestant":{"voting_id":"34C","name":"JIWAN SHAHI"},"vote_count":5,"created_on":"2019-10-19T09:54:06.440550+05:45"},{"idx":"T5aKDZoNu3r8GTRoHTtXok","contest":"OS Nepal Music Award 2076","episode":null,"category":"BEST ADHUNIK VIDEO DIRECTOR ","contestant":{"voting_id":"34C","name":"JIWAN SHAHI"},"vote_count":5,"created_on":"2019-10-19T09:52:58.866673+05:45"},{"idx":"H89z2Wfu6dENsx9XujJW5J","contest":"OS Nepal Music Award 2076","episode":null,"category":"BEST ADHUNIK MALE SINGER ","contestant":{"voting_id":"40E","name":"PURUSHOTTAM SUBEDI"},"vote_count":25,"created_on":"2019-10-19T09:16:16.619366+05:45"},{"idx":"t2rU8x6naugsPkZD44uTHR","contest":"OS Nepal Music Award 2076","episode":null,"category":" BEST ADHUNIK NEW FEMALE SINGER","contestant":{"voting_id":"37E","name":"SITA POUDEL"},"vote_count":1,"created_on":"2019-10-19T08:01:03.300937+05:45"},{"idx":"TRF8pNLvzhrh3e9MfeR4Me","contest":"OS Nepal Music Award 2076","episode":null,"category":"BEST SELO MALE SINGER","contestant":{"voting_id":"55D","name":"ANIL LAMA"},"vote_count":25,"created_on":"2019-10-19T07:50:35.029747+05:45"},{"idx":"V2zuNmg7rpgsLBrZouCz9D","contest":"OS Nepal Music Award 2076","episode":null,"category":"BEST SELO MALE SINGER","contestant":{"voting_id":"55D","name":"ANIL LAMA"},"vote_count":5,"created_on":"2019-10-19T07:50:08.369666+05:45"},{"idx":"Vyz9Pd4eb7vXChEY6ApfGV","contest":"OS Nepal Music Award 2076","episode":null,"category":"BEST SELO MALE SINGER","contestant":{"voting_id":"55D","name":"ANIL LAMA"},"vote_count":25,"created_on":"2019-10-19T07:49:45.268095+05:45"},{"idx":"tZXeUcfZ64jdeLPMoU4ZhY","contest":"OS Nepal Music Award 2076","episode":null,"category":"BEST LOKDOHORI VIDEO DIRECTOR (Dance)","contestant":{"voting_id":"6D","name":"KAJISH SHRESTHA"},"vote_count":1,"created_on":"2019-10-19T00:11:09.252709+05:45"},{"idx":"tyczwp8GNuMRr9FG2SozpH","contest":"OS Nepal Music Award 2076","episode":null,"category":" BEST POP SONG","contestant":{"voting_id":"18D","name":"SHISHIR BHANDARI"},"vote_count":5,"created_on":"2019-10-18T23:56:15.134642+05:45"},{"idx":"XkiSdTfxdtXCauBTtHDFPL","contest":"OS Nepal Music Award 2076","episode":null,"category":"BEST DUET SONG ","contestant":{"voting_id":"44B","name":"RAVI OAD & PRABHISHA ADHIKARI"},"vote_count":1,"created_on":"2019-10-18T23:52:43.423911+05:45"},{"idx":"hVJBRos5HXU3yLhziBWijS","contest":"OS Nepal Music Award 2076","episode":null,"category":"BEST LOK POP","contestant":{"voting_id":"19B","name":"BIRENDRA SHRESHTA"},"vote_count":500,"created_on":"2019-10-18T23:51:35.123994+05:45"},{"idx":"VSnFX8fQEy25hMsc83cgsd","contest":"OS Nepal Music Award 2076","episode":null,"category":"BEST POP VIDEO DIRECTOR ","contestant":{"voting_id":"23E","name":"PRAKASH DHITAL"},"vote_count":1,"created_on":"2019-10-18T23:47:49.685134+05:45"}]}