{"total_pages":275,"total_records":13721,"next":"https://khalti.com/api/v2/vuservote/?page=263","previous":"https://khalti.com/api/v2/vuservote/?page=261","record_range":[13051,13100],"current_page":262,"records":[{"idx":"BKfSNuH3b9tEY6dp8wPpuJ","contest":"OS Nepal Music Award 2076","episode":null,"category":" BEST POP SONG","contestant":{"voting_id":"18D","name":"SHISHIR BHANDARI"},"vote_count":1,"created_on":"2019-10-18T23:34:24.086429+05:45"},{"idx":"xHRuRNEyHQREvtFnCJzUTJ","contest":"OS Nepal Music Award 2076","episode":null,"category":"BEST ADHUNIK VIDEO DIRECTOR ","contestant":{"voting_id":"34C","name":"JIWAN SHAHI"},"vote_count":5,"created_on":"2019-10-18T23:32:42.588379+05:45"},{"idx":"TS8Lw3MBtCsMn3F2ToaKai","contest":"OS Nepal Music Award 2076","episode":null,"category":"BEST LOK POP","contestant":{"voting_id":"19B","name":"BIRENDRA SHRESHTA"},"vote_count":100,"created_on":"2019-10-18T22:26:58.478092+05:45"},{"idx":"dHGdTV7BXH8bCtbfvAmGii","contest":"OS Nepal Music Award 2076","episode":null,"category":"BEST LOKDOHORI VIDEO DIRECTOR (Dance)","contestant":{"voting_id":"6D","name":"KAJISH SHRESTHA"},"vote_count":25,"created_on":"2019-10-18T21:49:01.210082+05:45"},{"idx":"DSRoK2MtKaJHcYvfqXjweC","contest":"OS Nepal Music Award 2076","episode":null,"category":"BEST LOKDOHORI VIDEO DIRECTOR (Dance)","contestant":{"voting_id":"6D","name":"KAJISH SHRESTHA"},"vote_count":1,"created_on":"2019-10-18T21:36:07.949300+05:45"},{"idx":"cvpPb26s64HqUJLtuWw86J","contest":"OS Nepal Music Award 2076","episode":null,"category":"BEST TAMANG MALE SINGER","contestant":{"voting_id":"49A","name":"SANJOK YONJAN"},"vote_count":5,"created_on":"2019-10-18T20:29:03.460731+05:45"},{"idx":"Cdz7takMPJBcUfzQ3wgLe8","contest":"OS Nepal Music Award 2076","episode":null,"category":"BEST POP MALE SINGER ","contestant":{"voting_id":"28B","name":"NABIN KHADKA"},"vote_count":50,"created_on":"2019-10-18T19:06:56.168934+05:45"},{"idx":"zVKyPctjvvBXdSzZdbdn2c","contest":"OS Nepal Music Award 2076","episode":null,"category":"BEST POP MALE SINGER ","contestant":{"voting_id":"28B","name":"NABIN KHADKA"},"vote_count":1,"created_on":"2019-10-18T19:05:47.188187+05:45"},{"idx":"SatmUHUrhzjq9jzMzLU35d","contest":"OS Nepal Music Award 2076","episode":null,"category":"BEST POP LYRICIST ","contestant":{"voting_id":"20A","name":"RAMESH DAHAL"},"vote_count":5,"created_on":"2019-10-18T18:20:43.212693+05:45"},{"idx":"T4QUvyxEL2XZMvJMcaRRNk","contest":"OS Nepal Music Award 2076","episode":null,"category":"BEST POP LYRICIST ","contestant":{"voting_id":"20A","name":"RAMESH DAHAL"},"vote_count":50,"created_on":"2019-10-18T18:19:38.922037+05:45"},{"idx":"q89vt5wrRjrEYxUCgvPvg7","contest":"OS Nepal Music Award 2076","episode":null,"category":"BEST POP LYRICIST ","contestant":{"voting_id":"20A","name":"RAMESH DAHAL"},"vote_count":100,"created_on":"2019-10-18T18:18:47.669004+05:45"},{"idx":"PFuScjrvCdHwjcCTeLceEe","contest":"OS Nepal Music Award 2076","episode":null,"category":"BEST POP LYRICIST ","contestant":{"voting_id":"20E","name":"KIRAN MICHEAL"},"vote_count":1,"created_on":"2019-10-18T18:07:12.407328+05:45"},{"idx":"3yuXn3ApV3Mivt9WrusX6M","contest":"OS Nepal Music Award 2076","episode":null,"category":"BEST POP LYRICIST ","contestant":{"voting_id":"20A","name":"RAMESH DAHAL"},"vote_count":1,"created_on":"2019-10-18T18:00:06.295756+05:45"},{"idx":"Stt3mbAbiddDGyCS7ufa5Q","contest":"OS Nepal Music Award 2076","episode":null,"category":"BEST ALBUM","contestant":{"voting_id":"58E","name":"KIRAN MICHEAL"},"vote_count":1,"created_on":"2019-10-18T17:49:25.205087+05:45"},{"idx":"e93V2UbaJEeeEekoKx7FmE","contest":"OS Nepal Music Award 2076","episode":null,"category":"BEST ADHUNIK MALE SINGER ","contestant":{"voting_id":"40B","name":"RAMBHAKTA JOJIJU"},"vote_count":1,"created_on":"2019-10-18T17:46:45.264278+05:45"},{"idx":"ZqZrGnciw9rHoiBRiYRVWK","contest":"OS Nepal Music Award 2076","episode":null,"category":"BEST POP VIDEO DIRECTOR ","contestant":{"voting_id":"23D","name":"GAMVIR BISTA"},"vote_count":1,"created_on":"2019-10-18T17:45:51.663123+05:45"},{"idx":"LexA44vwXf5ywqfvZYtWJk","contest":"OS Nepal Music Award 2076","episode":null,"category":"BEST POP ARRANGER","contestant":{"voting_id":"22B","name":"GOPAL RASAILY"},"vote_count":1,"created_on":"2019-10-18T17:44:56.418924+05:45"},{"idx":"6CsLVFbnUy8B92k4Vm6wBX","contest":"OS Nepal Music Award 2076","episode":null,"category":"BEST ADHUNIK LYRICIST ","contestant":{"voting_id":"31D","name":"ROSHAN SHRESTHA"},"vote_count":1,"created_on":"2019-10-18T17:43:06.065089+05:45"},{"idx":"5fA4Ae8XXbkoJuXhJriZod","contest":"OS Nepal Music Award 2076","episode":null,"category":" BEST ADHUNIK MUSIC ","contestant":{"voting_id":"32B","name":"KALYAN SINGH"},"vote_count":1,"created_on":"2019-10-18T17:42:30.170579+05:45"},{"idx":"LVrAvhoUHiv6cbYMDbjYhT","contest":"OS Nepal Music Award 2076","episode":null,"category":"BEST ADHUNIK ARRANGER","contestant":{"voting_id":"33B","name":"DINESH SHRESTHA"},"vote_count":1,"created_on":"2019-10-18T17:41:52.062107+05:45"},{"idx":"r6amB6CuCoeXQmcGWVteSe","contest":"OS Nepal Music Award 2076","episode":null,"category":"BEST ADHUNIK SONG","contestant":{"voting_id":"30A","name":"NARAYAN BABU KOIRALA"},"vote_count":1,"created_on":"2019-10-18T17:41:05.917256+05:45"},{"idx":"W5STWntNhCdtKhKoJV9Wcm","contest":"OS Nepal Music Award 2076","episode":null,"category":"BEST ADHUNIK VIDEO DIRECTOR ","contestant":{"voting_id":"34C","name":"JIWAN SHAHI"},"vote_count":1,"created_on":"2019-10-18T17:40:20.336134+05:45"},{"idx":"VuPhYbRAGiNTWL9pi6ZuBE","contest":"OS Nepal Music Award 2076","episode":null,"category":" BEST LOK SONG","contestant":{"voting_id":"17C","name":"SURYA KHADKA"},"vote_count":1,"created_on":"2019-10-18T17:12:23.137096+05:45"},{"idx":"7NVifReWDDaA4aWgmstGf7","contest":"OS Nepal Music Award 2076","episode":null,"category":"BEST LOKDOHORI MALE SINGER","contestant":{"voting_id":"15B","name":"SURYA KHADKA"},"vote_count":1,"created_on":"2019-10-18T17:09:55.882157+05:45"},{"idx":"bQPyzkhUUWCZdmgpRuTNYL","contest":"OS Nepal Music Award 2076","episode":null,"category":"BEST LOKDOHORI CINEMATOGRAPHER","contestant":{"voting_id":"8A","name":"RAJESH GHIMIRE"},"vote_count":1,"created_on":"2019-10-18T17:08:44.127522+05:45"},{"idx":"fUFBYwnjUfuvQRLgp9g6mN","contest":"OS Nepal Music Award 2076","episode":null,"category":"BEST LOKDOHORI VIDEO DIRECTOR (SAD)","contestant":{"voting_id":"7A","name":"SMRITI TIMILSINA"},"vote_count":1,"created_on":"2019-10-18T17:07:50.524673+05:45"},{"idx":"JeHjtQJ4FDq7KELrCmo3yX","contest":"OS Nepal Music Award 2076","episode":null,"category":"BEST LOKDOHORI VIDEO EDITOR ","contestant":{"voting_id":"5D","name":"BISHNU SHARMA"},"vote_count":1,"created_on":"2019-10-18T17:06:59.922704+05:45"},{"idx":"QCa6tuNLUZv58gdMpU2NyH","contest":"OS Nepal Music Award 2076","episode":null,"category":"BEST LOKDOHORI ARRANGER ","contestant":{"voting_id":"4A","name":"TARANATH ACHARYA"},"vote_count":1,"created_on":"2019-10-18T17:05:53.667886+05:45"},{"idx":"wKwbZmd5Sy3kdCHnSTrkAN","contest":"OS Nepal Music Award 2076","episode":null,"category":"BEST LOKDOHORI LYRICIST","contestant":{"voting_id":"2C","name":"KAMAL SARGAM"},"vote_count":1,"created_on":"2019-10-18T17:04:07.754613+05:45"},{"idx":"8qGobqSeVbj7PKDXLFwvUg","contest":"OS Nepal Music Award 2076","episode":null,"category":"BEST SELO MALE SINGER","contestant":{"voting_id":"55D","name":"ANIL LAMA"},"vote_count":5,"created_on":"2019-10-18T16:07:02.584841+05:45"},{"idx":"naNc58uAFn94Pn96rockcD","contest":"OS Nepal Music Award 2076","episode":null,"category":"BEST POP NEW MALE SINGER ","contestant":{"voting_id":"26A","name":"PRADIP K. GLAN"},"vote_count":5,"created_on":"2019-10-18T16:06:44.317612+05:45"},{"idx":"SsQDYh5FRy6SaeDZNjoKDk","contest":"OS Nepal Music Award 2076","episode":null,"category":"BEST TAMANG MALE SINGER","contestant":{"voting_id":"49B","name":"PRADIP K.GLAN"},"vote_count":25,"created_on":"2019-10-18T16:04:43.174458+05:45"},{"idx":"8AFA7B8uzVczYnmEa7QDgH","contest":"OS Nepal Music Award 2076","episode":null,"category":"BEST ADHUNIK VIDEO DIRECTOR ","contestant":{"voting_id":"34C","name":"JIWAN SHAHI"},"vote_count":1,"created_on":"2019-10-18T15:21:53.461540+05:45"},{"idx":"QDtkVtLcGofaDiTZHVS8dT","contest":"OS Nepal Music Award 2076","episode":null,"category":" BEST ADHUNIK NEW FEMALE SINGER","contestant":{"voting_id":"37E","name":"SITA POUDEL"},"vote_count":1,"created_on":"2019-10-18T15:15:33.110833+05:45"},{"idx":"G2aD8SitssG2RNaZQePWtE","contest":"OS Nepal Music Award 2076","episode":null,"category":"BEST LOK DOHARI","contestant":{"voting_id":"1A","name":"DINESH CHHETRI                                                              "},"vote_count":1,"created_on":"2019-10-18T15:07:55.881235+05:45"},{"idx":"fWbbogj9CL5EFgB2zMxibK","contest":"OS Nepal Music Award 2076","episode":null,"category":"BEST POP LYRICIST ","contestant":{"voting_id":"20A","name":"RAMESH DAHAL"},"vote_count":1,"created_on":"2019-10-18T14:57:58.895982+05:45"},{"idx":"RqggSfMGuCp2pyGKEvqGs2","contest":"OS Nepal Music Award 2076","episode":null,"category":"BEST ADHUNIK NEW MALE SINGER","contestant":{"voting_id":"38A","name":"ROSHAN SUBEDI"},"vote_count":1,"created_on":"2019-10-18T14:57:42.265635+05:45"},{"idx":"oEdp88Wg4PgC9qYavfHD5o","contest":"OS Nepal Music Award 2076","episode":null,"category":" BEST ADHUNIK NEW FEMALE SINGER","contestant":{"voting_id":"37E","name":"SITA POUDEL"},"vote_count":1,"created_on":"2019-10-18T14:55:23.673775+05:45"},{"idx":"sD6vbbtwpYMySmti9Ea5nF","contest":"OS Nepal Music Award 2076","episode":null,"category":"BEST LOK POP","contestant":{"voting_id":"19B","name":"BIRENDRA SHRESHTA"},"vote_count":100,"created_on":"2019-10-18T14:23:23.281783+05:45"},{"idx":"8mssXgPH4ZyETHsbUpzf7c","contest":"OS Nepal Music Award 2076","episode":null,"category":"BEST LOK POP","contestant":{"voting_id":"19B","name":"BIRENDRA SHRESHTA"},"vote_count":100,"created_on":"2019-10-18T14:22:28.180000+05:45"},{"idx":"UHRuF7Gf3CrM4kS77eba9i","contest":"OS Nepal Music Award 2076","episode":null,"category":"BEST ADHUNIK VIDEO DIRECTOR ","contestant":{"voting_id":"34C","name":"JIWAN SHAHI"},"vote_count":25,"created_on":"2019-10-18T13:18:56.077170+05:45"},{"idx":"vKDb8NSDUC3Pwxjcwj6Lzh","contest":"OS Nepal Music Award 2076","episode":null,"category":"BEST LOK POP","contestant":{"voting_id":"19C","name":"SHREEDHARA ADHIKARI"},"vote_count":1,"created_on":"2019-10-18T13:13:45.493118+05:45"},{"idx":"dzLV6DQ3CCw5PJZw6kj7FF","contest":"OS Nepal Music Award 2076","episode":null,"category":"BEST POP MALE SINGER ","contestant":{"voting_id":"28C","name":"SACHIN RAUNIYAR"},"vote_count":1,"created_on":"2019-10-18T13:07:02.848302+05:45"},{"idx":"TXCT8zATGVehYofsbTpRJh","contest":"OS Nepal Music Award 2076","episode":null,"category":" BEST POP SONG","contestant":{"voting_id":"18E","name":"SACHIN RAUNIYAR"},"vote_count":1,"created_on":"2019-10-18T13:06:20.938221+05:45"},{"idx":"V8jBwXqoVLEBziJtj4dqRi","contest":"OS Nepal Music Award 2076","episode":null,"category":"BEST SELO MALE SINGER","contestant":{"voting_id":"55D","name":"ANIL LAMA"},"vote_count":100,"created_on":"2019-10-18T13:01:24.108359+05:45"},{"idx":"kiT4cHk4hxd8ihBVHafMob","contest":"OS Nepal Music Award 2076","episode":null,"category":"BEST LOKDOHORI MALE MODEL (SAD)","contestant":{"voting_id":"12D","name":"AASHIR PRATAP JUNG"},"vote_count":1,"created_on":"2019-10-18T13:01:17.510407+05:45"},{"idx":"bpXCy8DGfXWPuxewzqgsTF","contest":"OS Nepal Music Award 2076","episode":null,"category":"BEST POP MALE SINGER ","contestant":{"voting_id":"28C","name":"SACHIN RAUNIYAR"},"vote_count":1,"created_on":"2019-10-18T13:00:28.450213+05:45"},{"idx":"5FLTgprooA8QWnySpCyLNL","contest":"OS Nepal Music Award 2076","episode":null,"category":" BEST POP SONG","contestant":{"voting_id":"18E","name":"SACHIN RAUNIYAR"},"vote_count":1,"created_on":"2019-10-18T12:59:42.299984+05:45"},{"idx":"j4vxf6rL2sg5mkA3TniCLA","contest":"OS Nepal Music Award 2076","episode":null,"category":"BEST SELO MALE SINGER","contestant":{"voting_id":"55D","name":"ANIL LAMA"},"vote_count":50,"created_on":"2019-10-18T12:58:17.988753+05:45"},{"idx":"B3QKxT38HjajxyeQndQcvc","contest":"OS Nepal Music Award 2076","episode":null,"category":"BEST SELO MALE SINGER","contestant":{"voting_id":"55D","name":"ANIL LAMA"},"vote_count":100,"created_on":"2019-10-18T12:57:35.351817+05:45"}]}