{"total_pages":275,"total_records":13721,"next":"https://khalti.com/api/v2/vuservote/?page=264","previous":"https://khalti.com/api/v2/vuservote/?page=262","record_range":[13101,13150],"current_page":263,"records":[{"idx":"GbHEorhW9ss468a8JGQZcG","contest":"OS Nepal Music Award 2076","episode":null,"category":"BEST SELO MALE SINGER","contestant":{"voting_id":"55D","name":"ANIL LAMA"},"vote_count":100,"created_on":"2019-10-18T12:56:31.119039+05:45"},{"idx":"LwuF4Y384Vx83yV99PMuAR","contest":"OS Nepal Music Award 2076","episode":null,"category":"BEST SELO MALE SINGER","contestant":{"voting_id":"55D","name":"ANIL LAMA"},"vote_count":100,"created_on":"2019-10-18T12:55:52.997261+05:45"},{"idx":"tePqHYk4N27uvYQ4hbnHdd","contest":"OS Nepal Music Award 2076","episode":null,"category":"BEST LOK POP","contestant":{"voting_id":"19B","name":"BIRENDRA SHRESHTA"},"vote_count":50,"created_on":"2019-10-18T12:48:11.748962+05:45"},{"idx":"XUcDQm74aGoJbcAxDRZSMb","contest":"OS Nepal Music Award 2076","episode":null,"category":"BEST SELO MALE SINGER","contestant":{"voting_id":"55D","name":"ANIL LAMA"},"vote_count":5,"created_on":"2019-10-18T12:37:05.037135+05:45"},{"idx":"zdEAuSUE73LQzX46sGdwrf","contest":"OS Nepal Music Award 2076","episode":null,"category":"BEST SELO FEMALE SINGER","contestant":{"voting_id":"54B","name":"RESHMA BOMJAN"},"vote_count":1,"created_on":"2019-10-18T12:19:59.301679+05:45"},{"idx":"uTJJEXY3G64mM2n5azwdEk","contest":"OS Nepal Music Award 2076","episode":null,"category":"BEST LOKDOHORI FEMALE SINGER (NEW)","contestant":{"voting_id":"13C","name":"NIRU GURUNG"},"vote_count":500,"created_on":"2019-10-18T12:15:20.898946+05:45"},{"idx":"H54Ua8HMAxhCe6kgCCjQWj","contest":"OS Nepal Music Award 2076","episode":null,"category":"BEST MODERN VIDEO EDITOR","contestant":{"voting_id":"43B","name":"PRAKASH DHAMALA"},"vote_count":1,"created_on":"2019-10-18T12:02:32.503638+05:45"},{"idx":"FfjjjhVKQTd5LQkaQpuoB9","contest":"OS Nepal Music Award 2076","episode":null,"category":"BEST ADHUNIK VIDEO DIRECTOR ","contestant":{"voting_id":"34C","name":"JIWAN SHAHI"},"vote_count":25,"created_on":"2019-10-18T11:42:20.995184+05:45"},{"idx":"XgQhStgeVm4nkV9ZePadi2","contest":"OS Nepal Music Award 2076","episode":null,"category":"BEST SELO MALE SINGER","contestant":{"voting_id":"55D","name":"ANIL LAMA"},"vote_count":100,"created_on":"2019-10-18T11:25:22.007244+05:45"},{"idx":"bZzum4jMeF6UuMC8hfWXa4","contest":"OS Nepal Music Award 2076","episode":null,"category":"BEST SELO MALE SINGER","contestant":{"voting_id":"55D","name":"ANIL LAMA"},"vote_count":100,"created_on":"2019-10-18T11:15:13.669956+05:45"},{"idx":"xvYVQcCDqmvA5NJYj5v6LT","contest":"OS Nepal Music Award 2076","episode":null,"category":"BEST SELO MALE SINGER","contestant":{"voting_id":"55D","name":"ANIL LAMA"},"vote_count":500,"created_on":"2019-10-18T11:14:02.765518+05:45"},{"idx":"m7h4Fz76sEpusTmfkDdyf7","contest":"OS Nepal Music Award 2076","episode":null,"category":"BEST SELO MALE SINGER","contestant":{"voting_id":"55D","name":"ANIL LAMA"},"vote_count":100,"created_on":"2019-10-18T11:11:57.621852+05:45"},{"idx":"wPWaJnTbCf5xQUspZVyQSJ","contest":"OS Nepal Music Award 2076","episode":null,"category":"BEST SELO MALE SINGER","contestant":{"voting_id":"55D","name":"ANIL LAMA"},"vote_count":5,"created_on":"2019-10-18T11:09:48.224927+05:45"},{"idx":"KRNQtpWAKTwudYxL7s2QV4","contest":"OS Nepal Music Award 2076","episode":null,"category":"BEST TAMANG MALE SINGER","contestant":{"voting_id":"49E","name":"ABHISHEK TAMANG"},"vote_count":1,"created_on":"2019-10-18T11:09:45.535597+05:45"},{"idx":"gJhxiuBp3CvLZPQtkHnzQ2","contest":"OS Nepal Music Award 2076","episode":null,"category":"BEST LOK DOHARI","contestant":{"voting_id":"1A","name":"DINESH CHHETRI                                                              "},"vote_count":1,"created_on":"2019-10-18T11:07:41.196426+05:45"},{"idx":"7d5Cf4g9ikTkF8GGVBji3e","contest":"OS Nepal Music Award 2076","episode":null,"category":"BEST ADHUNIK MALE MODEL ","contestant":{"voting_id":"36E","name":"SURAJ SHRESTHA"},"vote_count":5,"created_on":"2019-10-18T10:36:08.471396+05:45"},{"idx":"xU7VPxqCTYUgVxiBV5akMG","contest":"OS Nepal Music Award 2076","episode":null,"category":"BEST ADHUNIK MALE SINGER ","contestant":{"voting_id":"40E","name":"PURUSHOTTAM SUBEDI"},"vote_count":5,"created_on":"2019-10-18T10:29:45.341886+05:45"},{"idx":"ZoYLonvymdrUrQNUF2EaPa","contest":"OS Nepal Music Award 2076","episode":null,"category":"BEST POP FEMALE MODEL ","contestant":{"voting_id":"24C","name":"SHRISTI KHADKA"},"vote_count":1,"created_on":"2019-10-18T10:01:38.596481+05:45"},{"idx":"33pNY4nMzscuhy9uJjM7Sh","contest":"OS Nepal Music Award 2076","episode":null,"category":"BEST SELO FEMALE SINGER","contestant":{"voting_id":"54A","name":"SHASHI KALA MOKTAN"},"vote_count":1,"created_on":"2019-10-18T09:53:44.066191+05:45"},{"idx":"mupL5ZMwzvyYjcenccrCkG","contest":"OS Nepal Music Award 2076","episode":null,"category":"BEST TAMANG MALE SINGER","contestant":{"voting_id":"49A","name":"SANJOK YONJAN"},"vote_count":1,"created_on":"2019-10-18T09:53:17.103874+05:45"},{"idx":"ECtoyzWtMfLB3Bgezdfc3k","contest":"OS Nepal Music Award 2076","episode":null,"category":"BEST ADHUNIK SONG","contestant":{"voting_id":"30B","name":"SURESH WAGLE"},"vote_count":1,"created_on":"2019-10-18T09:52:53.371809+05:45"},{"idx":"skd6RP7FBUchCDVZwZRZhY","contest":"OS Nepal Music Award 2076","episode":null,"category":"BEST TAMANG FEMALE SINGER","contestant":{"voting_id":"48C","name":"SRIJANA TAMANG"},"vote_count":1,"created_on":"2019-10-18T09:52:32.928175+05:45"},{"idx":"ceufzUrrmQ88VzyroVV46d","contest":"OS Nepal Music Award 2076","episode":null,"category":"BEST POP LYRICIST ","contestant":{"voting_id":"20A","name":"RAMESH DAHAL"},"vote_count":1,"created_on":"2019-10-18T09:50:55.074423+05:45"},{"idx":"domiJeWgudAQMxZpdxaT7H","contest":"OS Nepal Music Award 2076","episode":null,"category":"BEST NATIONAL SONG","contestant":{"voting_id":"56A","name":"CHRISTINA SHRESHTA"},"vote_count":1,"created_on":"2019-10-18T09:47:40.447891+05:45"},{"idx":"GaKxgFBA7fPbRULQ9JLyQh","contest":"OS Nepal Music Award 2076","episode":null,"category":"BEST SELO MALE SINGER","contestant":{"voting_id":"55D","name":"ANIL LAMA"},"vote_count":1,"created_on":"2019-10-18T09:47:12.056554+05:45"},{"idx":"JNuUWE7CgV7yHyshY9ehAi","contest":"OS Nepal Music Award 2076","episode":null,"category":"BEST TAMANG FEMALE SINGER","contestant":{"voting_id":"48E","name":"JITU LOPCHAN"},"vote_count":1,"created_on":"2019-10-18T09:46:34.437018+05:45"},{"idx":"86VeNe4BiKFzY3rEdbiMoV","contest":"OS Nepal Music Award 2076","episode":null,"category":"BEST TAMANG MALE SINGER","contestant":{"voting_id":"49C","name":"RAJKUMAR TAMANG"},"vote_count":1,"created_on":"2019-10-18T09:45:07.836717+05:45"},{"idx":"CFC26FGZbRhMMiYpMfLnFm","contest":"OS Nepal Music Award 2076","episode":null,"category":"BEST ADHUNIK FEMALE SINGER ","contestant":{"voting_id":"39A","name":"TIKA PRASAIN"},"vote_count":1,"created_on":"2019-10-18T09:44:25.088047+05:45"},{"idx":"T8QfDGTaTfao4QMYoJgQ4b","contest":"OS Nepal Music Award 2076","episode":null,"category":"BEST LOK POP","contestant":{"voting_id":"19A","name":"BABU BOGATI"},"vote_count":1,"created_on":"2019-10-18T09:43:16.029957+05:45"},{"idx":"Zx2V3xTZAUT7Whz77aGFvM","contest":"OS Nepal Music Award 2076","episode":null,"category":" BEST POP SONG","contestant":{"voting_id":"18D","name":"SHISHIR BHANDARI"},"vote_count":1,"created_on":"2019-10-18T09:42:23.358983+05:45"},{"idx":"RhEqvQi7SrDA4EPwpAhhqk","contest":"OS Nepal Music Award 2076","episode":null,"category":"BEST ADHUNIK VIDEO DIRECTOR ","contestant":{"voting_id":"34A","name":"DIPAK ACHARYA"},"vote_count":500,"created_on":"2019-10-18T09:34:53.273515+05:45"},{"idx":"78XeN3GLUtYdhSanuiwsB2","contest":"OS Nepal Music Award 2076","episode":null,"category":"BEST TAMANG MALE SINGER","contestant":{"voting_id":"49B","name":"PRADIP K.GLAN"},"vote_count":5,"created_on":"2019-10-18T09:05:23.388292+05:45"},{"idx":"Bf7RML3UeSUmMhLsTREE77","contest":"OS Nepal Music Award 2076","episode":null,"category":"BEST TAMANG MALE SINGER","contestant":{"voting_id":"49B","name":"PRADIP K.GLAN"},"vote_count":5,"created_on":"2019-10-18T09:04:07.120959+05:45"},{"idx":"8PryXt79NHU5EK5KFURqpM","contest":"OS Nepal Music Award 2076","episode":null,"category":"BEST TAMANG MALE SINGER","contestant":{"voting_id":"49B","name":"PRADIP K.GLAN"},"vote_count":5,"created_on":"2019-10-18T09:03:19.034275+05:45"},{"idx":"Wj8K6yChMfT8bFeg4w2BB4","contest":"OS Nepal Music Award 2076","episode":null,"category":"BEST TAMANG MALE SINGER","contestant":{"voting_id":"49B","name":"PRADIP K.GLAN"},"vote_count":100,"created_on":"2019-10-18T09:01:28.725507+05:45"},{"idx":"WwWUgGzzSzRxVXovNV55SC","contest":"OS Nepal Music Award 2076","episode":null,"category":"BEST LOK POP","contestant":{"voting_id":"19B","name":"BIRENDRA SHRESHTA"},"vote_count":25,"created_on":"2019-10-18T08:47:46.429214+05:45"},{"idx":"EZKatnBhW7PSKgv66FNJJE","contest":"OS Nepal Music Award 2076","episode":null,"category":" BEST ADHUNIK MUSIC ","contestant":{"voting_id":"32B","name":"KALYAN SINGH"},"vote_count":1,"created_on":"2019-10-18T08:38:32.544702+05:45"},{"idx":"TUtvUoUNLPXPT74R5nu7G2","contest":"OS Nepal Music Award 2076","episode":null,"category":"BEST ADHUNIK ARRANGER","contestant":{"voting_id":"33B","name":"DINESH SHRESTHA"},"vote_count":1,"created_on":"2019-10-18T08:37:42.388465+05:45"},{"idx":"uDqM8jgPGapiBHT266Vrtj","contest":"OS Nepal Music Award 2076","episode":null,"category":"BEST ADHUNIK LYRICIST ","contestant":{"voting_id":"31D","name":"ROSHAN SHRESTHA"},"vote_count":1,"created_on":"2019-10-18T08:36:42.661673+05:45"},{"idx":"k7GEQT2sN3p6d4Ndb84cMS","contest":"OS Nepal Music Award 2076","episode":null,"category":"BEST ADHUNIK VIDEO DIRECTOR ","contestant":{"voting_id":"34C","name":"JIWAN SHAHI"},"vote_count":25,"created_on":"2019-10-18T08:36:00.092386+05:45"},{"idx":"5PDhadGc6TZtYVMhSqUJ9B","contest":"OS Nepal Music Award 2076","episode":null,"category":"BEST ADHUNIK VIDEO DIRECTOR ","contestant":{"voting_id":"34A","name":"DIPAK ACHARYA"},"vote_count":500,"created_on":"2019-10-18T08:26:55.592650+05:45"},{"idx":"imjd8DD5RqqpkRmFQ7hT2W","contest":"OS Nepal Music Award 2076","episode":null,"category":"BEST ADHUNIK VIDEO DIRECTOR ","contestant":{"voting_id":"34A","name":"DIPAK ACHARYA"},"vote_count":500,"created_on":"2019-10-18T08:26:05.033433+05:45"},{"idx":"YYekHyi52T8YWphipFMHwR","contest":"OS Nepal Music Award 2076","episode":null,"category":" BEST ADHUNIK NEW FEMALE SINGER","contestant":{"voting_id":"37E","name":"SITA POUDEL"},"vote_count":1,"created_on":"2019-10-18T08:11:34.528946+05:45"},{"idx":"vMGxc5hbtHkKR9457eFkp2","contest":"OS Nepal Music Award 2076","episode":null,"category":"BEST LOK POP","contestant":{"voting_id":"19D","name":"BINOD DHAKAL"},"vote_count":1,"created_on":"2019-10-18T04:22:48.776984+05:45"},{"idx":"ZmuFZHxFfMWdNU6sW7nzBg","contest":"OS Nepal Music Award 2076","episode":null,"category":"BEST ADHUNIK VIDEO DIRECTOR ","contestant":{"voting_id":"34C","name":"JIWAN SHAHI"},"vote_count":25,"created_on":"2019-10-18T00:27:42.519118+05:45"},{"idx":"8xBkbntyQD8jCFsBxBXhNi","contest":"OS Nepal Music Award 2076","episode":null,"category":"BEST ADHUNIK MALE MODEL ","contestant":{"voting_id":"36E","name":"SURAJ SHRESTHA"},"vote_count":5,"created_on":"2019-10-17T23:29:16.662106+05:45"},{"idx":"uLGhfwQE2zae9kjzjvHBKZ","contest":"OS Nepal Music Award 2076","episode":null,"category":"BEST ADHUNIK MALE MODEL ","contestant":{"voting_id":"36E","name":"SURAJ SHRESTHA"},"vote_count":5,"created_on":"2019-10-17T23:27:37.770479+05:45"},{"idx":"Voo8MKTkHM33pBSjDMnSRa","contest":"OS Nepal Music Award 2076","episode":null,"category":"BEST ADHUNIK MALE MODEL ","contestant":{"voting_id":"36E","name":"SURAJ SHRESTHA"},"vote_count":5,"created_on":"2019-10-17T22:14:03.360323+05:45"},{"idx":"utabQRsdDPzFA9hLMPoCMV","contest":"OS Nepal Music Award 2076","episode":null,"category":"BEST ADHUNIK MALE MODEL ","contestant":{"voting_id":"36E","name":"SURAJ SHRESTHA"},"vote_count":25,"created_on":"2019-10-17T22:12:19.851431+05:45"},{"idx":"TCW4bjw7cpa8sLpXPxwWGZ","contest":"OS Nepal Music Award 2076","episode":null,"category":"BEST ADHUNIK MALE MODEL ","contestant":{"voting_id":"36E","name":"SURAJ SHRESTHA"},"vote_count":5,"created_on":"2019-10-17T22:09:11.487352+05:45"}]}