{"total_pages":275,"total_records":13721,"next":"https://khalti.com/api/v2/vuservote/?page=265","previous":"https://khalti.com/api/v2/vuservote/?page=263","record_range":[13151,13200],"current_page":264,"records":[{"idx":"8hNSzrWQhPRwiC9rGu76EA","contest":"OS Nepal Music Award 2076","episode":null,"category":"BEST ADHUNIK MALE MODEL ","contestant":{"voting_id":"36E","name":"SURAJ SHRESTHA"},"vote_count":25,"created_on":"2019-10-17T22:07:07.873333+05:45"},{"idx":"T9fFDBvrSFvLfRkboxnpUh","contest":"OS Nepal Music Award 2076","episode":null,"category":"BEST ADHUNIK MALE MODEL ","contestant":{"voting_id":"36E","name":"SURAJ SHRESTHA"},"vote_count":100,"created_on":"2019-10-17T22:00:02.571704+05:45"},{"idx":"TYGvUPHMxeeEnUHv9XZwzi","contest":"OS Nepal Music Award 2076","episode":null,"category":"BEST POP MALE MODEL ","contestant":{"voting_id":"25D","name":"HERUKA LAMA"},"vote_count":5,"created_on":"2019-10-17T21:14:16.252543+05:45"},{"idx":"qQK99nMPowxFL8Ma27NEr9","contest":"OS Nepal Music Award 2076","episode":null,"category":"BEST LOK POP","contestant":{"voting_id":"19B","name":"BIRENDRA SHRESHTA"},"vote_count":1,"created_on":"2019-10-17T20:09:53.146845+05:45"},{"idx":"DNraCvjveWFyjvGRdRRTNh","contest":"OS Nepal Music Award 2076","episode":null,"category":"BEST POP LYRICIST ","contestant":{"voting_id":"20A","name":"RAMESH DAHAL"},"vote_count":100,"created_on":"2019-10-17T17:40:51.303440+05:45"},{"idx":"75CEuSYrCNkwwa5p4vTTm5","contest":"OS Nepal Music Award 2076","episode":null,"category":"BEST TAMANG FEMALE SINGER","contestant":{"voting_id":"48D","name":"NIRMALA GHISING"},"vote_count":1,"created_on":"2019-10-17T17:20:08.854052+05:45"},{"idx":"8BML8AyuUBFHxgtE9PLUYk","contest":"OS Nepal Music Award 2076","episode":null,"category":"BEST ADHUNIK MALE MODEL ","contestant":{"voting_id":"36E","name":"SURAJ SHRESTHA"},"vote_count":50,"created_on":"2019-10-17T17:08:38.818525+05:45"},{"idx":"dijwZ2DgXF4sf6Xxrtu97m","contest":"OS Nepal Music Award 2076","episode":null,"category":"BEST ADHUNIK MALE MODEL ","contestant":{"voting_id":"36E","name":"SURAJ SHRESTHA"},"vote_count":100,"created_on":"2019-10-17T17:07:12.939733+05:45"},{"idx":"tmo8RqpQCcWbS4jbQzPrb5","contest":"OS Nepal Music Award 2076","episode":null,"category":"BEST POP FEMALE SINGER","contestant":{"voting_id":"29A","name":"ANGELA SHRESTHA"},"vote_count":100,"created_on":"2019-10-17T16:51:56.634979+05:45"},{"idx":"hHHJiWHR3RhCLXfuCpdWcR","contest":"OS Nepal Music Award 2076","episode":null,"category":"BEST POP LYRICIST ","contestant":{"voting_id":"20A","name":"RAMESH DAHAL"},"vote_count":1,"created_on":"2019-10-17T16:49:41.053747+05:45"},{"idx":"ALKyviZGzYS7UupZmGdGmP","contest":"OS Nepal Music Award 2076","episode":null,"category":"BEST LOK DOHARI","contestant":{"voting_id":"1B","name":"SAMBHU KUNWAR"},"vote_count":500,"created_on":"2019-10-17T16:18:08.615937+05:45"},{"idx":"qVg9oGyxyZ9ytyUwFLYNrE","contest":"OS Nepal Music Award 2076","episode":null,"category":"BEST SELO FEMALE SINGER","contestant":{"voting_id":"54B","name":"RESHMA BOMJAN"},"vote_count":1,"created_on":"2019-10-17T15:49:45.953680+05:45"},{"idx":"UXLMB9ThJUPuf5mFGK2Yaf","contest":"OS Nepal Music Award 2076","episode":null,"category":"BEST POP VIDEO EDITOR","contestant":{"voting_id":"42C","name":"PRAKASH DHAMALA"},"vote_count":1,"created_on":"2019-10-17T15:43:03.957851+05:45"},{"idx":"Pk8txevLvUBY5KTQhocREC","contest":"OS Nepal Music Award 2076","episode":null,"category":"BEST LOK POP","contestant":{"voting_id":"19D","name":"BINOD DHAKAL"},"vote_count":1,"created_on":"2019-10-17T15:41:39.831823+05:45"},{"idx":"nzGVezPz67iRT9bfqyYERQ","contest":"OS Nepal Music Award 2076","episode":null,"category":"BEST DEUDA FEMALE SINGER","contestant":{"voting_id":"46C","name":"REKHA JOSHI"},"vote_count":1,"created_on":"2019-10-17T15:41:04.392573+05:45"},{"idx":"XWEmgGbJCrE9R2sRhHwxXX","contest":"OS Nepal Music Award 2076","episode":null,"category":"BEST ADHUNIK MALE MODEL ","contestant":{"voting_id":"36E","name":"SURAJ SHRESTHA"},"vote_count":100,"created_on":"2019-10-17T14:46:38.000773+05:45"},{"idx":"zVvnfwoJGKZm6tyoKe2yvY","contest":"OS Nepal Music Award 2076","episode":null,"category":"BEST DEUDA MALE SINGER","contestant":{"voting_id":"45E","name":"SURYA BIRAHI SAUD"},"vote_count":1,"created_on":"2019-10-17T14:30:31.104512+05:45"},{"idx":"tcmyG9npFzxu2wTqdnApxK","contest":"OS Nepal Music Award 2076","episode":null,"category":"BEST ADHUNIK MALE MODEL ","contestant":{"voting_id":"36E","name":"SURAJ SHRESTHA"},"vote_count":25,"created_on":"2019-10-17T14:22:10.397768+05:45"},{"idx":"fQWnaafmSr2HdtHgzJ2KKi","contest":"OS Nepal Music Award 2076","episode":null,"category":"BEST ADHUNIK MALE MODEL ","contestant":{"voting_id":"36E","name":"SURAJ SHRESTHA"},"vote_count":25,"created_on":"2019-10-17T14:17:43.023686+05:45"},{"idx":"TPfAfPRxokWbAGsdWCqLfT","contest":"OS Nepal Music Award 2076","episode":null,"category":"BEST ADHUNIK LYRICIST ","contestant":{"voting_id":"31D","name":"ROSHAN SHRESTHA"},"vote_count":1,"created_on":"2019-10-17T13:59:06.035135+05:45"},{"idx":"jKR2efrUoBUE8sKHrshWY4","contest":"OS Nepal Music Award 2076","episode":null,"category":"BEST ADHUNIK ARRANGER","contestant":{"voting_id":"33B","name":"DINESH SHRESTHA"},"vote_count":1,"created_on":"2019-10-17T13:56:35.254990+05:45"},{"idx":"BTkTKWSeab4e966oenhZjh","contest":"OS Nepal Music Award 2076","episode":null,"category":"BEST TAMANG MALE SINGER","contestant":{"voting_id":"49B","name":"PRADIP K.GLAN"},"vote_count":25,"created_on":"2019-10-17T13:55:11.512745+05:45"},{"idx":"yyvr8Gg5uqFTceYuhjnx7W","contest":"OS Nepal Music Award 2076","episode":null,"category":"BEST ADHUNIK VIDEO DIRECTOR ","contestant":{"voting_id":"34C","name":"JIWAN SHAHI"},"vote_count":1,"created_on":"2019-10-17T13:55:04.530148+05:45"},{"idx":"XscArMr6zFcoztUExcTFNf","contest":"OS Nepal Music Award 2076","episode":null,"category":"BEST ADHUNIK SONG","contestant":{"voting_id":"30A","name":"NARAYAN BABU KOIRALA"},"vote_count":1,"created_on":"2019-10-17T13:53:50.152875+05:45"},{"idx":"SJgiNm4dz2w8ptKntDYt3h","contest":"OS Nepal Music Award 2076","episode":null,"category":"BEST ADHUNIK MALE MODEL ","contestant":{"voting_id":"36E","name":"SURAJ SHRESTHA"},"vote_count":500,"created_on":"2019-10-17T13:53:13.479736+05:45"},{"idx":"LCp44fxqn9GdcU45QVv9zW","contest":"OS Nepal Music Award 2076","episode":null,"category":"BEST LOKDOHORI FEMALE SINGER","contestant":{"voting_id":"16D","name":"SANJU NEUPANE"},"vote_count":1,"created_on":"2019-10-17T13:17:26.737858+05:45"},{"idx":"7yxPkxSeWYpmBZ2JCrpomR","contest":"OS Nepal Music Award 2076","episode":null,"category":"BEST LOKDOHORI VIDEO EDITOR ","contestant":{"voting_id":"5E","name":"MANOJ KARKI"},"vote_count":1,"created_on":"2019-10-17T12:53:47.172064+05:45"},{"idx":"AsgvTi98DaJVDfYQwKB3CX","contest":"OS Nepal Music Award 2076","episode":null,"category":"BEST POP FEMALE SINGER","contestant":{"voting_id":"29A","name":"ANGELA SHRESTHA"},"vote_count":100,"created_on":"2019-10-17T11:20:21.738740+05:45"},{"idx":"zpqRVJVxZ57EQFGjtFJwfa","contest":"OS Nepal Music Award 2076","episode":null,"category":"BEST LOK DOHARI","contestant":{"voting_id":"1D","name":"DHARMARAJ POKHAREL"},"vote_count":1,"created_on":"2019-10-17T10:46:53.450600+05:45"},{"idx":"GAGD9bdcGg7hkmECjhvRsX","contest":"OS Nepal Music Award 2076","episode":null,"category":"BEST LOK POP","contestant":{"voting_id":"19B","name":"BIRENDRA SHRESHTA"},"vote_count":1,"created_on":"2019-10-17T10:31:55.797432+05:45"},{"idx":"8fYWPF8gS5r7nw79Xup95m","contest":"OS Nepal Music Award 2076","episode":null,"category":"BEST POP NEW MALE SINGER ","contestant":{"voting_id":"26A","name":"PRADIP K. GLAN"},"vote_count":5,"created_on":"2019-10-17T10:05:31.210406+05:45"},{"idx":"odNdD6xGkL7em8qJC4wj59","contest":"OS Nepal Music Award 2076","episode":null,"category":"BEST TAMANG MALE SINGER","contestant":{"voting_id":"49B","name":"PRADIP K.GLAN"},"vote_count":25,"created_on":"2019-10-17T10:04:09.311217+05:45"},{"idx":"TU5J3tc94XyEHwuq99ABGX","contest":"OS Nepal Music Award 2076","episode":null,"category":"BEST LOK POP","contestant":{"voting_id":"19B","name":"BIRENDRA SHRESHTA"},"vote_count":1,"created_on":"2019-10-17T09:34:37.516210+05:45"},{"idx":"xCTZRAbhx6EeCSWNSA3gEj","contest":"OS Nepal Music Award 2076","episode":null,"category":"BEST LOKDOHORI VIDEO DIRECTOR (SAD)","contestant":{"voting_id":"7D","name":"DHURBA HIMALI"},"vote_count":1,"created_on":"2019-10-17T08:41:57.135511+05:45"},{"idx":"rQoLoqh4f3e2svAjpJcsU9","contest":"OS Nepal Music Award 2076","episode":null,"category":"BEST LOKDOHORI MALE SINGER","contestant":{"voting_id":"15A","name":"PUSKAL SHARMA"},"vote_count":1,"created_on":"2019-10-17T08:39:11.974497+05:45"},{"idx":"EA32C8aySNcqXaSLMpF29e","contest":"OS Nepal Music Award 2076","episode":null,"category":"BEST LOK POP","contestant":{"voting_id":"19B","name":"BIRENDRA SHRESHTA"},"vote_count":25,"created_on":"2019-10-17T08:10:01.960289+05:45"},{"idx":"7fNwCwzDGcSkbkzTXtn6oG","contest":"OS Nepal Music Award 2076","episode":null,"category":"BEST POP VIDEO DIRECTOR ","contestant":{"voting_id":"23E","name":"PRAKASH DHITAL"},"vote_count":1,"created_on":"2019-10-17T07:37:07.417619+05:45"},{"idx":"URmPaFssWPkZDJdDcXfnfR","contest":"OS Nepal Music Award 2076","episode":null,"category":" BEST LOK SONG","contestant":{"voting_id":"17C","name":"SURYA KHADKA"},"vote_count":1,"created_on":"2019-10-17T02:50:37.233086+05:45"},{"idx":"JjeG6mg2NjVormsAzrWcmm","contest":"OS Nepal Music Award 2076","episode":null,"category":"BEST LOKDOHORI MALE MODEL DANCE","contestant":{"voting_id":"10E","name":"NIRMAL CHHETRI"},"vote_count":1,"created_on":"2019-10-17T02:50:02.314476+05:45"},{"idx":"ZGxBaYwbTCjBmP4Y29cxq6","contest":"OS Nepal Music Award 2076","episode":null,"category":" BEST LOKDOHORI FEMALE MODEL (SAD)","contestant":{"voting_id":"11B","name":"SAYA BHANDARI"},"vote_count":1,"created_on":"2019-10-17T02:49:32.910978+05:45"},{"idx":"V8skSXfgZmFeQ9rknMrDsX","contest":"OS Nepal Music Award 2076","episode":null,"category":"BEST LOKDOHORI VIDEO DIRECTOR (SAD)","contestant":{"voting_id":"7E","name":"D.R SUJAN"},"vote_count":1,"created_on":"2019-10-17T02:48:41.775024+05:45"},{"idx":"XfUnDdBt82w3diFfv7Ef5i","contest":"OS Nepal Music Award 2076","episode":null,"category":"BEST LOKDOHORI VIDEO EDITOR ","contestant":{"voting_id":"5B","name":"PRAKASH DHAMALA"},"vote_count":1,"created_on":"2019-10-17T02:48:20.320466+05:45"},{"idx":"b5p3Q2k8fTnRmS3HH2gKQF","contest":"OS Nepal Music Award 2076","episode":null,"category":"BEST LOKDOHORI MUSICIAN","contestant":{"voting_id":"3C","name":"RISHI KHADKA"},"vote_count":1,"created_on":"2019-10-17T02:47:44.650150+05:45"},{"idx":"8dEfAAtEgACdHhC6cwqj9B","contest":"OS Nepal Music Award 2076","episode":null,"category":"BEST LOKDOHORI LYRICIST","contestant":{"voting_id":"2B","name":"SHIVA HAMAL              "},"vote_count":1,"created_on":"2019-10-17T02:47:07.931344+05:45"},{"idx":"mpGuzjvhomypZbY7xyWMcc","contest":"OS Nepal Music Award 2076","episode":null,"category":"BEST LOK DOHARI","contestant":{"voting_id":"1B","name":"SAMBHU KUNWAR"},"vote_count":1,"created_on":"2019-10-17T02:46:11.393944+05:45"},{"idx":"FMhMDibEhJ4UydQZrdWKGb","contest":"OS Nepal Music Award 2076","episode":null,"category":"BEST LOKDOHORI ARRANGER ","contestant":{"voting_id":"4A","name":"TARANATH ACHARYA"},"vote_count":1,"created_on":"2019-10-17T02:44:46.309307+05:45"},{"idx":"Ve6VeitawpZeHSUnegsAg2","contest":"OS Nepal Music Award 2076","episode":null,"category":"BEST LOK DOHARI","contestant":{"voting_id":"1D","name":"DHARMARAJ POKHAREL"},"vote_count":1,"created_on":"2019-10-17T02:05:50.089818+05:45"},{"idx":"2m63uSZJDLBKRJ4bBbCMkh","contest":"OS Nepal Music Award 2076","episode":null,"category":"BEST POP MALE MODEL ","contestant":{"voting_id":"25D","name":"HERUKA LAMA"},"vote_count":1,"created_on":"2019-10-16T23:28:31.269037+05:45"},{"idx":"9ZJxrrRh5cx5Wj535D7bHJ","contest":"OS Nepal Music Award 2076","episode":null,"category":"BEST POP MALE MODEL ","contestant":{"voting_id":"25D","name":"HERUKA LAMA"},"vote_count":1,"created_on":"2019-10-16T19:07:07.155748+05:45"},{"idx":"jeZqXfk843P2fZZ86Jakdh","contest":"OS Nepal Music Award 2076","episode":null,"category":"BEST ADHUNIK NEW MALE SINGER","contestant":{"voting_id":"38A","name":"ROSHAN SUBEDI"},"vote_count":5,"created_on":"2019-10-16T18:42:10.809515+05:45"}]}