{"total_pages":275,"total_records":13721,"next":"https://khalti.com/api/v2/vuservote/?page=266","previous":"https://khalti.com/api/v2/vuservote/?page=264","record_range":[13201,13250],"current_page":265,"records":[{"idx":"8LXPTZSnmX9Z9EsTsNfMFV","contest":"OS Nepal Music Award 2076","episode":null,"category":"BEST ADHUNIK NEW MALE SINGER","contestant":{"voting_id":"38A","name":"ROSHAN SUBEDI"},"vote_count":25,"created_on":"2019-10-16T18:31:30.117012+05:45"},{"idx":"wvYYbjPJeQj7xNutyFSeVJ","contest":"OS Nepal Music Award 2076","episode":null,"category":"BEST ADHUNIK NEW MALE SINGER","contestant":{"voting_id":"38A","name":"ROSHAN SUBEDI"},"vote_count":50,"created_on":"2019-10-16T18:29:17.648482+05:45"},{"idx":"sBQuyuBnNnqD75P66mUpUA","contest":"OS Nepal Music Award 2076","episode":null,"category":"BEST POP NEW MALE SINGER ","contestant":{"voting_id":"26A","name":"PRADIP K. GLAN"},"vote_count":1,"created_on":"2019-10-16T18:16:08.363606+05:45"},{"idx":"rUnXC2DVyKic39pj3Exrxh","contest":"OS Nepal Music Award 2076","episode":null,"category":"BEST TAMANG MALE SINGER","contestant":{"voting_id":"49B","name":"PRADIP K.GLAN"},"vote_count":1,"created_on":"2019-10-16T18:14:13.430338+05:45"},{"idx":"45cguNVwtJ2ScL4dF9vpr6","contest":"OS Nepal Music Award 2076","episode":null,"category":"BEST ADHUNIK MALE SINGER ","contestant":{"voting_id":"40E","name":"PURUSHOTTAM SUBEDI"},"vote_count":50,"created_on":"2019-10-16T18:05:52.274377+05:45"},{"idx":"eWvLor8YsfAHNxiL4cjBtK","contest":"OS Nepal Music Award 2076","episode":null,"category":"BEST LOKDOHORI VIDEO DIRECTOR (SAD)","contestant":{"voting_id":"7E","name":"D.R SUJAN"},"vote_count":1,"created_on":"2019-10-16T16:19:18.460472+05:45"},{"idx":"4VbojmPXmL7iz4pWuobAX6","contest":"OS Nepal Music Award 2076","episode":null,"category":"BEST NATIONAL LYRICIST","contestant":{"voting_id":"57E","name":"DAWA LAMA"},"vote_count":1,"created_on":"2019-10-16T16:04:55.349892+05:45"},{"idx":"GsRQPRmZMAGNigupLXP2jg","contest":"OS Nepal Music Award 2076","episode":null,"category":"BEST LOKDOHORI VIDEO DIRECTOR (SAD)","contestant":{"voting_id":"7E","name":"D.R SUJAN"},"vote_count":1,"created_on":"2019-10-16T15:57:09.942191+05:45"},{"idx":"874yHNJBaGD7RxHAkhmuwV","contest":"OS Nepal Music Award 2076","episode":null,"category":"BEST LOK DOHARI","contestant":{"voting_id":"1B","name":"SAMBHU KUNWAR"},"vote_count":500,"created_on":"2019-10-16T15:55:05.835715+05:45"},{"idx":"46tivX9LPp9ULT9BmvLocD","contest":"OS Nepal Music Award 2076","episode":null,"category":"BEST LOKDOHORI VIDEO DIRECTOR (SAD)","contestant":{"voting_id":"7D","name":"DHURBA HIMALI"},"vote_count":1,"created_on":"2019-10-16T15:25:50.203277+05:45"},{"idx":"qRVtp6m8gLoQMBPyCj9DMD","contest":"OS Nepal Music Award 2076","episode":null,"category":"BEST LOKDOHORI VIDEO DIRECTOR (SAD)","contestant":{"voting_id":"7A","name":"SMRITI TIMILSINA"},"vote_count":1,"created_on":"2019-10-16T14:30:12.187975+05:45"},{"idx":"dZL4L2nBVQHMcfU82FTkBB","contest":"OS Nepal Music Award 2076","episode":null,"category":"BEST LOK POP","contestant":{"voting_id":"19D","name":"BINOD DHAKAL"},"vote_count":1,"created_on":"2019-10-16T13:31:28.830374+05:45"},{"idx":"tSFyzXG3mc9KxqwETaD3rh","contest":"OS Nepal Music Award 2076","episode":null,"category":"BEST LOKDOHORI LYRICIST","contestant":{"voting_id":"2A","name":"GANESH ADHIKARI   "},"vote_count":1,"created_on":"2019-10-16T13:11:52.560676+05:45"},{"idx":"vHHtX7McMfvmCeDc3ERsA8","contest":"OS Nepal Music Award 2076","episode":null,"category":"BEST LOK DOHARI","contestant":{"voting_id":"1C","name":"RAMILA NEUPANE"},"vote_count":1,"created_on":"2019-10-16T13:11:26.758404+05:45"},{"idx":"eTbtAo2rUY9tsrkHDP3pnj","contest":"OS Nepal Music Award 2076","episode":null,"category":"BEST ADHUNIK SONG","contestant":{"voting_id":"30D","name":"RB KHADKA"},"vote_count":1,"created_on":"2019-10-16T12:55:46.349282+05:45"},{"idx":"eHV735RaquGLbqYhMFNEvN","contest":"OS Nepal Music Award 2076","episode":null,"category":"BEST POP FEMALE MODEL ","contestant":{"voting_id":"24E","name":"SMRITY SHRESTHA"},"vote_count":1,"created_on":"2019-10-16T12:55:07.084620+05:45"},{"idx":"27H3oGuqH4H53LE3mRna4C","contest":"OS Nepal Music Award 2076","episode":null,"category":"BEST POP MALE MODEL ","contestant":{"voting_id":"25D","name":"HERUKA LAMA"},"vote_count":1,"created_on":"2019-10-16T12:54:26.161787+05:45"},{"idx":"LGRrQvfW9D9KWEgR4MUf9Q","contest":"OS Nepal Music Award 2076","episode":null,"category":" BEST LOKDOHORI FEMALE MODEL (SAD)","contestant":{"voting_id":"11D","name":"ANJALI ADHIKARI"},"vote_count":1,"created_on":"2019-10-16T12:53:30.274798+05:45"},{"idx":"uwkhKyqn4JrrxSUsE6vW4M","contest":"OS Nepal Music Award 2076","episode":null,"category":"BEST POP NEW MALE SINGER ","contestant":{"voting_id":"26A","name":"PRADIP K. GLAN"},"vote_count":1,"created_on":"2019-10-16T12:47:01.514854+05:45"},{"idx":"Uy9b4ZEygjh5uT5FJXhGjm","contest":"OS Nepal Music Award 2076","episode":null,"category":"BEST DEUDA FEMALE SINGER","contestant":{"voting_id":"46E","name":"ANITA CHALAUNE"},"vote_count":1,"created_on":"2019-10-16T12:02:52.675257+05:45"},{"idx":"zm7kPsnepsbW9ifZ6Mad93","contest":"OS Nepal Music Award 2076","episode":null,"category":"BEST DEUDA FEMALE SINGER","contestant":{"voting_id":"46E","name":"ANITA CHALAUNE"},"vote_count":1,"created_on":"2019-10-16T11:59:32.500703+05:45"},{"idx":"mDmEUFLGpuMLRwUoKmAhYH","contest":"OS Nepal Music Award 2076","episode":null,"category":"BEST POP MALE MODEL ","contestant":{"voting_id":"25D","name":"HERUKA LAMA"},"vote_count":1,"created_on":"2019-10-16T11:32:46.859983+05:45"},{"idx":"cGbgFibw9u94zosyJh5a3k","contest":"OS Nepal Music Award 2076","episode":null,"category":"BEST LOKDOHORI FEMALE SINGER (NEW)","contestant":{"voting_id":"13C","name":"NIRU GURUNG"},"vote_count":1,"created_on":"2019-10-16T10:31:16.465168+05:45"},{"idx":"BVEoRyKAoQU66QZ6KpGCwL","contest":"OS Nepal Music Award 2076","episode":null,"category":"BEST POP FEMALE MODEL ","contestant":{"voting_id":"24C","name":"SHRISTI KHADKA"},"vote_count":1,"created_on":"2019-10-16T10:30:15.879287+05:45"},{"idx":"HJVkuoHfjmhxRMJ8VDYaPG","contest":"OS Nepal Music Award 2076","episode":null,"category":"BEST LOKDOHORI MUSICIAN","contestant":{"voting_id":"3A","name":"KUMAR KARKI"},"vote_count":1,"created_on":"2019-10-16T09:38:48.980455+05:45"},{"idx":"AdhTqpzpzYxrCSVuW3TMc5","contest":"OS Nepal Music Award 2076","episode":null,"category":"BEST POP MALE SINGER ","contestant":{"voting_id":"28B","name":"NABIN KHADKA"},"vote_count":1,"created_on":"2019-10-15T23:49:03.755731+05:45"},{"idx":"hQyC8obMcR2cjgQ6oiwgWD","contest":"OS Nepal Music Award 2076","episode":null,"category":"BEST LOK POP","contestant":{"voting_id":"19B","name":"BIRENDRA SHRESHTA"},"vote_count":100,"created_on":"2019-10-15T23:42:02.701290+05:45"},{"idx":"MxkgqDvPwgZgmg77v733MC","contest":"OS Nepal Music Award 2076","episode":null,"category":"BEST LOK POP","contestant":{"voting_id":"19B","name":"BIRENDRA SHRESHTA"},"vote_count":1,"created_on":"2019-10-15T23:41:29.169284+05:45"},{"idx":"ME8Gab8WvU7WjiKY6Yi7Bd","contest":"OS Nepal Music Award 2076","episode":null,"category":"BEST LOK POP","contestant":{"voting_id":"19B","name":"BIRENDRA SHRESHTA"},"vote_count":100,"created_on":"2019-10-15T23:40:16.158784+05:45"},{"idx":"6fLwPDxrpFjBVCcFH6nF8c","contest":"OS Nepal Music Award 2076","episode":null,"category":"BEST LOKDOHORI CINEMATOGRAPHER","contestant":{"voting_id":"8E","name":"BIRENDRA BHATTA"},"vote_count":1,"created_on":"2019-10-15T22:46:41.894257+05:45"},{"idx":"3WhqShkmkKbLjrCBXP2jUD","contest":"OS Nepal Music Award 2076","episode":null,"category":"BEST LOKDOHORI VIDEO DIRECTOR (Dance)","contestant":{"voting_id":"6E","name":"DIPENDRA TIMALSINA"},"vote_count":1,"created_on":"2019-10-15T22:42:43.613787+05:45"},{"idx":"Q4NS3DuA349SYGmHVJzX9Y","contest":"OS Nepal Music Award 2076","episode":null,"category":"BEST SELO MALE SINGER","contestant":{"voting_id":"55B","name":"AGNI BOMJAN"},"vote_count":1,"created_on":"2019-10-15T22:41:14.915130+05:45"},{"idx":"MzCYsdVis9razNLm55r6Qm","contest":"OS Nepal Music Award 2076","episode":null,"category":"BEST POP MALE MODEL ","contestant":{"voting_id":"25D","name":"HERUKA LAMA"},"vote_count":100,"created_on":"2019-10-15T22:39:52.989335+05:45"},{"idx":"VcUiWw23c9VyNct8r3A2j5","contest":"OS Nepal Music Award 2076","episode":null,"category":"BEST LOK POP","contestant":{"voting_id":"19B","name":"BIRENDRA SHRESHTA"},"vote_count":50,"created_on":"2019-10-15T22:07:16.318807+05:45"},{"idx":"HvxQ924e7ZhUPKRk9drwvh","contest":"OS Nepal Music Award 2076","episode":null,"category":"BEST LOK POP","contestant":{"voting_id":"19B","name":"BIRENDRA SHRESHTA"},"vote_count":5,"created_on":"2019-10-15T21:40:08.164381+05:45"},{"idx":"KcM9LtyWtkTqKVefzghciQ","contest":"OS Nepal Music Award 2076","episode":null,"category":"BEST LOK POP","contestant":{"voting_id":"19B","name":"BIRENDRA SHRESHTA"},"vote_count":1,"created_on":"2019-10-15T21:31:21.835428+05:45"},{"idx":"DNTcMQurGTDyKhf2JpTjA3","contest":"OS Nepal Music Award 2076","episode":null,"category":"BEST LOK DOHARI","contestant":{"voting_id":"1A","name":"DINESH CHHETRI                                                              "},"vote_count":1,"created_on":"2019-10-15T21:02:23.225592+05:45"},{"idx":"R4mCMQ5q9xuEy2XKoEtiLb","contest":"OS Nepal Music Award 2076","episode":null,"category":" BEST POP SONG","contestant":{"voting_id":"18C","name":"KRISHNA BHAKTA MAHARJAN"},"vote_count":1,"created_on":"2019-10-15T20:51:50.445316+05:45"},{"idx":"5AgcdMPR8sHs37mkLYqLPM","contest":"OS Nepal Music Award 2076","episode":null,"category":"BEST POP ARRANGER","contestant":{"voting_id":"22D","name":"HARI SHARAN SAYAMU"},"vote_count":1,"created_on":"2019-10-15T20:51:15.538474+05:45"},{"idx":"vwzL7rmVUN4rot2dEM2rHo","contest":"OS Nepal Music Award 2076","episode":null,"category":" BEST POP NEW FEMALE SINGER","contestant":{"voting_id":"27E","name":"s"},"vote_count":1,"created_on":"2019-10-15T20:27:04.994028+05:45"},{"idx":"ENihKjaaP2DGvwkCM3Dj8U","contest":"OS Nepal Music Award 2076","episode":null,"category":"BEST LOK DOHARI","contestant":{"voting_id":"1C","name":"RAMILA NEUPANE"},"vote_count":1,"created_on":"2019-10-15T19:06:22.593534+05:45"},{"idx":"9HcAndYH3reYWS9GVvHqhj","contest":"OS Nepal Music Award 2076","episode":null,"category":" BEST LOKDOHORI FEMALE MODEL DANCE","contestant":{"voting_id":"9C","name":"SHRISTI KHADKA"},"vote_count":1,"created_on":"2019-10-15T17:54:02.167030+05:45"},{"idx":"BLTbpX57DvxhYZDHkgLHRX","contest":"OS Nepal Music Award 2076","episode":null,"category":"BEST LOKDOHORI VIDEO DIRECTOR (SAD)","contestant":{"voting_id":"7E","name":"D.R SUJAN"},"vote_count":1,"created_on":"2019-10-15T17:47:32.638709+05:45"},{"idx":"WEqPqwoS7xdndfkoHXLGSH","contest":"OS Nepal Music Award 2076","episode":null,"category":"BEST DEUDA FEMALE SINGER","contestant":{"voting_id":"46E","name":"ANITA CHALAUNE"},"vote_count":1,"created_on":"2019-10-15T16:41:16.430058+05:45"},{"idx":"zck2ArHGcvPNjvPx4fstbk","contest":"OS Nepal Music Award 2076","episode":null,"category":"BEST LOKDOHORI FEMALE SINGER (NEW)","contestant":{"voting_id":"13C","name":"NIRU GURUNG"},"vote_count":1,"created_on":"2019-10-15T16:22:24.520939+05:45"},{"idx":"dukrt8sceZsnmcce2sfA63","contest":"OS Nepal Music Award 2076","episode":null,"category":"BEST POP MALE MODEL ","contestant":{"voting_id":"25A","name":"DURGESH THAPA"},"vote_count":1,"created_on":"2019-10-15T15:00:07.346981+05:45"},{"idx":"4pbMnntEf8qX27mDqqJs5j","contest":"OS Nepal Music Award 2076","episode":null,"category":"BEST ADHUNIK NEW MALE SINGER","contestant":{"voting_id":"38A","name":"ROSHAN SUBEDI"},"vote_count":1,"created_on":"2019-10-15T14:55:59.654807+05:45"},{"idx":"HTjDKVNnNHhkP45iuKbsBD","contest":"OS Nepal Music Award 2076","episode":null,"category":"BEST ADHUNIK MALE SINGER ","contestant":{"voting_id":"40E","name":"PURUSHOTTAM SUBEDI"},"vote_count":50,"created_on":"2019-10-15T13:28:00.931980+05:45"},{"idx":"Ng784sD8GkU8rz4zwWrnLY","contest":"OS Nepal Music Award 2076","episode":null,"category":" BEST POP SONG","contestant":{"voting_id":"18D","name":"SHISHIR BHANDARI"},"vote_count":1,"created_on":"2019-10-15T13:10:32.956484+05:45"},{"idx":"4QzNeoTqfLqKcbQbankGWf","contest":"OS Nepal Music Award 2076","episode":null,"category":"BEST ADHUNIK VIDEO DIRECTOR ","contestant":{"voting_id":"34C","name":"JIWAN SHAHI"},"vote_count":1,"created_on":"2019-10-15T12:47:03.436184+05:45"}]}