{"total_pages":275,"total_records":13721,"next":"https://khalti.com/api/v2/vuservote/?page=267","previous":"https://khalti.com/api/v2/vuservote/?page=265","record_range":[13251,13300],"current_page":266,"records":[{"idx":"brqyvJU3y3aPJyJaWR7qQ5","contest":"OS Nepal Music Award 2076","episode":null,"category":"BEST POP LYRICIST ","contestant":{"voting_id":"20A","name":"RAMESH DAHAL"},"vote_count":1,"created_on":"2019-10-15T09:06:53.698563+05:45"},{"idx":"FJ3YNvqnFB2kfbxV2y3dce","contest":"OS Nepal Music Award 2076","episode":null,"category":"BEST ADHUNIK LYRICIST ","contestant":{"voting_id":"31C","name":"SURESH WAGLE"},"vote_count":5,"created_on":"2019-10-15T08:52:46.315362+05:45"},{"idx":"zoimX4ZbRv8u49wgDaB9k6","contest":"OS Nepal Music Award 2076","episode":null,"category":"BEST ADHUNIK VIDEO DIRECTOR ","contestant":{"voting_id":"34C","name":"JIWAN SHAHI"},"vote_count":1,"created_on":"2019-10-15T08:29:15.218690+05:45"},{"idx":"Xk8HSiyVsD8oZLjJfvNrFA","contest":"OS Nepal Music Award 2076","episode":null,"category":" BEST LOKDOHORI FEMALE MODEL (SAD)","contestant":{"voting_id":"11E","name":"SANCHITA SHAHI"},"vote_count":1,"created_on":"2019-10-15T08:21:18.098777+05:45"},{"idx":"JfG8fercmbuw4LvKcFYVsL","contest":"OS Nepal Music Award 2076","episode":null,"category":"BEST POP LYRICIST ","contestant":{"voting_id":"20A","name":"RAMESH DAHAL"},"vote_count":5,"created_on":"2019-10-15T08:20:51.535314+05:45"},{"idx":"CbTyvWAyjYGp5TUxyvmR8G","contest":"OS Nepal Music Award 2076","episode":null,"category":"BEST POP LYRICIST ","contestant":{"voting_id":"20A","name":"RAMESH DAHAL"},"vote_count":5,"created_on":"2019-10-15T08:19:56.924265+05:45"},{"idx":"hzd4ZA63Jjmff5x9FwGPCi","contest":"OS Nepal Music Award 2076","episode":null,"category":"BEST POP LYRICIST ","contestant":{"voting_id":"20A","name":"RAMESH DAHAL"},"vote_count":5,"created_on":"2019-10-15T08:18:41.768709+05:45"},{"idx":"nU6nw97qZqyurzjYFkUcRi","contest":"OS Nepal Music Award 2076","episode":null,"category":"BEST TAMANG MALE SINGER","contestant":{"voting_id":"49B","name":"PRADIP K.GLAN"},"vote_count":5,"created_on":"2019-10-15T06:24:06.189621+05:45"},{"idx":"GVExWbbj5iAx3zvQr6wkDm","contest":"OS Nepal Music Award 2076","episode":null,"category":"BEST POP NEW MALE SINGER ","contestant":{"voting_id":"26A","name":"PRADIP K. GLAN"},"vote_count":5,"created_on":"2019-10-15T06:23:12.941455+05:45"},{"idx":"ByvfY2coFjLfDKbygLPsSj","contest":"OS Nepal Music Award 2076","episode":null,"category":"BEST LOKDOHORI MUSICIAN","contestant":{"voting_id":"3E","name":"SAHADEV KOIRALA"},"vote_count":1,"created_on":"2019-10-14T21:16:07.171689+05:45"},{"idx":"6rGiKBKe9zi6zeB7TgaVcR","contest":"OS Nepal Music Award 2076","episode":null,"category":" BEST POP SONG","contestant":{"voting_id":"18C","name":"KRISHNA BHAKTA MAHARJAN"},"vote_count":1,"created_on":"2019-10-14T20:52:21.903412+05:45"},{"idx":"s7NJncmqw4uc4KAqGwmLeW","contest":"OS Nepal Music Award 2076","episode":null,"category":"BEST POP ARRANGER","contestant":{"voting_id":"22D","name":"HARI SHARAN SAYAMU"},"vote_count":1,"created_on":"2019-10-14T20:51:42.060612+05:45"},{"idx":"hRM7ocomoMTiWcy4kKK4UV","contest":"OS Nepal Music Award 2076","episode":null,"category":"BEST ADHUNIK ARRANGER","contestant":{"voting_id":"33E","name":"PURUSHOTTAM SUBEDI"},"vote_count":1,"created_on":"2019-10-14T20:39:34.045109+05:45"},{"idx":"Pz6Daq8Hmqvnpw4X2PLF2e","contest":"OS Nepal Music Award 2076","episode":null,"category":"BEST POP ARRANGER","contestant":{"voting_id":"22A","name":"PURSHOTTAM SUBEDI"},"vote_count":1,"created_on":"2019-10-14T20:39:13.692975+05:45"},{"idx":"jRYHTeATSpWmQpMnXo8DbL","contest":"OS Nepal Music Award 2076","episode":null,"category":"BEST ADHUNIK MALE SINGER ","contestant":{"voting_id":"40E","name":"PURUSHOTTAM SUBEDI"},"vote_count":1,"created_on":"2019-10-14T20:38:57.859740+05:45"},{"idx":"oSeXdxpKoWUVC5MaLhUGRm","contest":"OS Nepal Music Award 2076","episode":null,"category":"BEST ADHUNIK ARRANGER","contestant":{"voting_id":"33E","name":"PURUSHOTTAM SUBEDI"},"vote_count":1,"created_on":"2019-10-14T20:34:03.421010+05:45"},{"idx":"EdMbJ3i8uUvu344RRbqEam","contest":"OS Nepal Music Award 2076","episode":null,"category":"BEST POP ARRANGER","contestant":{"voting_id":"22A","name":"PURSHOTTAM SUBEDI"},"vote_count":1,"created_on":"2019-10-14T20:33:49.053974+05:45"},{"idx":"sXCDtFPbsPd3KXBwpvuTCM","contest":"OS Nepal Music Award 2076","episode":null,"category":"BEST ADHUNIK MALE SINGER ","contestant":{"voting_id":"40E","name":"PURUSHOTTAM SUBEDI"},"vote_count":1,"created_on":"2019-10-14T20:33:31.453680+05:45"},{"idx":"9Hrf7pU267eVwiRSVmn8QL","contest":"OS Nepal Music Award 2076","episode":null,"category":"BEST ADHUNIK ARRANGER","contestant":{"voting_id":"33E","name":"PURUSHOTTAM SUBEDI"},"vote_count":1,"created_on":"2019-10-14T16:58:17.145255+05:45"},{"idx":"H6zY5yYFLRaPGU5ZoVqTTf","contest":"OS Nepal Music Award 2076","episode":null,"category":"BEST POP ARRANGER","contestant":{"voting_id":"22A","name":"PURSHOTTAM SUBEDI"},"vote_count":1,"created_on":"2019-10-14T16:58:02.733307+05:45"},{"idx":"ibnoxhLHKYCgZ3Lj5EqfVf","contest":"OS Nepal Music Award 2076","episode":null,"category":"BEST ADHUNIK MALE SINGER ","contestant":{"voting_id":"40E","name":"PURUSHOTTAM SUBEDI"},"vote_count":1,"created_on":"2019-10-14T16:57:46.312434+05:45"},{"idx":"HQRWxdDeKaQhsKsxRpnqej","contest":"OS Nepal Music Award 2076","episode":null,"category":"BEST ADHUNIK ARRANGER","contestant":{"voting_id":"33E","name":"PURUSHOTTAM SUBEDI"},"vote_count":1,"created_on":"2019-10-14T16:54:30.194667+05:45"},{"idx":"n9HYWxWwGM3Nyx7tcTTEHW","contest":"OS Nepal Music Award 2076","episode":null,"category":"BEST POP ARRANGER","contestant":{"voting_id":"22A","name":"PURSHOTTAM SUBEDI"},"vote_count":1,"created_on":"2019-10-14T16:54:11.050925+05:45"},{"idx":"XrqFExXkjkRu4WcoMTnBEY","contest":"OS Nepal Music Award 2076","episode":null,"category":"BEST ADHUNIK MALE SINGER ","contestant":{"voting_id":"40E","name":"PURUSHOTTAM SUBEDI"},"vote_count":1,"created_on":"2019-10-14T16:53:51.551473+05:45"},{"idx":"JeVmkNRm6BzMQoaxYJAYMW","contest":"OS Nepal Music Award 2076","episode":null,"category":"BEST POP NEW MALE SINGER ","contestant":{"voting_id":"26A","name":"PRADIP K. GLAN"},"vote_count":1,"created_on":"2019-10-14T16:38:30.561970+05:45"},{"idx":"VTvg26GRapote62Humz5YW","contest":"OS Nepal Music Award 2076","episode":null,"category":"BEST POP MALE SINGER ","contestant":{"voting_id":"28A","name":"BABU BOGATI"},"vote_count":1,"created_on":"2019-10-14T16:34:05.939322+05:45"},{"idx":"a24TpmT6Cy6L3sFJraq2DY","contest":"OS Nepal Music Award 2076","episode":null,"category":"BEST POP NEW MALE SINGER ","contestant":{"voting_id":"26A","name":"PRADIP K. GLAN"},"vote_count":1,"created_on":"2019-10-14T16:33:30.286254+05:45"},{"idx":"sPAUK2d2pNgDKXLCNcxpPK","contest":"OS Nepal Music Award 2076","episode":null,"category":"BEST LOK POP","contestant":{"voting_id":"19A","name":"BABU BOGATI"},"vote_count":1,"created_on":"2019-10-14T16:32:18.010574+05:45"},{"idx":"S7gZ8e9gSYGyuPeP7cyQNa","contest":"OS Nepal Music Award 2076","episode":null,"category":"BEST POP MALE SINGER ","contestant":{"voting_id":"28A","name":"BABU BOGATI"},"vote_count":1,"created_on":"2019-10-14T16:31:26.468295+05:45"},{"idx":"szvfiAMZRaxCpDQHtok6dJ","contest":"OS Nepal Music Award 2076","episode":null,"category":" BEST LOK SONG","contestant":{"voting_id":"17D","name":"PRASAD KHAPTARI MAGAR"},"vote_count":1,"created_on":"2019-10-14T16:27:59.302977+05:45"},{"idx":"hvqwYr3diVMaJkZ657YQbX","contest":"OS Nepal Music Award 2076","episode":null,"category":"BEST LOKDOHORI MUSICIAN","contestant":{"voting_id":"3A","name":"KUMAR KARKI"},"vote_count":1,"created_on":"2019-10-14T16:27:04.067091+05:45"},{"idx":"QGFZEQAYg2tSQUTTTCwaT8","contest":"OS Nepal Music Award 2076","episode":null,"category":"BEST ADHUNIK VIDEO DIRECTOR ","contestant":{"voting_id":"34C","name":"JIWAN SHAHI"},"vote_count":1,"created_on":"2019-10-14T16:24:19.681216+05:45"},{"idx":"W4cJUJb8R5TQ2NAR4thjGG","contest":"OS Nepal Music Award 2076","episode":null,"category":"BEST LOK POP","contestant":{"voting_id":"19A","name":"BABU BOGATI"},"vote_count":1,"created_on":"2019-10-14T16:23:22.507418+05:45"},{"idx":"kngpm5czfbxZsmDSEuTUTZ","contest":"OS Nepal Music Award 2076","episode":null,"category":"BEST ADHUNIK ARRANGER","contestant":{"voting_id":"33E","name":"PURUSHOTTAM SUBEDI"},"vote_count":1,"created_on":"2019-10-14T16:22:19.828340+05:45"},{"idx":"ve6hnZnQYiWqXMm7wr3Aij","contest":"OS Nepal Music Award 2076","episode":null,"category":"BEST POP ARRANGER","contestant":{"voting_id":"22A","name":"PURSHOTTAM SUBEDI"},"vote_count":1,"created_on":"2019-10-14T16:21:59.830265+05:45"},{"idx":"dWtHWJ8XCTxnZNcDPXRDQc","contest":"OS Nepal Music Award 2076","episode":null,"category":"BEST ADHUNIK MALE SINGER ","contestant":{"voting_id":"40E","name":"PURUSHOTTAM SUBEDI"},"vote_count":1,"created_on":"2019-10-14T16:21:39.663016+05:45"},{"idx":"ECx8iRgT3udT4EWW6vFcif","contest":"OS Nepal Music Award 2076","episode":null,"category":"BEST NATIONAL SONG","contestant":{"voting_id":"56E","name":"UDESH SHRESHTA"},"vote_count":1,"created_on":"2019-10-14T16:13:31.259241+05:45"},{"idx":"zPPfLXuWhw9ivySnbjYWFF","contest":"OS Nepal Music Award 2076","episode":null,"category":"BEST POP MALE SINGER ","contestant":{"voting_id":"28E","name":"RAKESH RAI"},"vote_count":1,"created_on":"2019-10-14T16:10:23.553477+05:45"},{"idx":"9MVa9fNRpF8E6HexY8udbj","contest":"OS Nepal Music Award 2076","episode":null,"category":"BEST ADHUNIK MALE SINGER ","contestant":{"voting_id":"40C","name":"PUNYAM PRADHAN"},"vote_count":1,"created_on":"2019-10-14T16:09:47.551652+05:45"},{"idx":"eCMp4Wt5mASS3K9C9eikbc","contest":"OS Nepal Music Award 2076","episode":null,"category":"BEST ADHUNIK FEMALE SINGER ","contestant":{"voting_id":"39D","name":"RITA KC"},"vote_count":1,"created_on":"2019-10-14T16:09:02.236503+05:45"},{"idx":"WnokXzQiLERiZzYVHU94nQ","contest":"OS Nepal Music Award 2076","episode":null,"category":"BEST POP NEW MALE SINGER ","contestant":{"voting_id":"26B","name":"DIPAK CHAULAGAIN"},"vote_count":1,"created_on":"2019-10-14T16:08:03.139512+05:45"},{"idx":"yBUQyRVSkeDznWKkdmSpAn","contest":"OS Nepal Music Award 2076","episode":null,"category":"BEST POP MALE MODEL ","contestant":{"voting_id":"25A","name":"DURGESH THAPA"},"vote_count":1,"created_on":"2019-10-14T16:07:32.736503+05:45"},{"idx":"VCfnceBVRYp5ZeMwzppqmh","contest":"OS Nepal Music Award 2076","episode":null,"category":"BEST ADHUNIK FEMALE MODEL","contestant":{"voting_id":"35A","name":"SHRISTI KHADKA"},"vote_count":1,"created_on":"2019-10-14T16:06:58.696679+05:45"},{"idx":"dkUse8TTEeSW6Qj5c7AcW7","contest":"OS Nepal Music Award 2076","episode":null,"category":"BEST POP VIDEO DIRECTOR ","contestant":{"voting_id":"23D","name":"GAMVIR BISTA"},"vote_count":1,"created_on":"2019-10-14T16:06:17.341939+05:45"},{"idx":"qj4iUJh6Spw4rd9LiWMtL7","contest":"OS Nepal Music Award 2076","episode":null,"category":"BEST POP ARRANGER","contestant":{"voting_id":"22B","name":"GOPAL RASAILY"},"vote_count":1,"created_on":"2019-10-14T16:05:58.628914+05:45"},{"idx":"86t7ntbohKfYFZmRMdVyAm","contest":"OS Nepal Music Award 2076","episode":null,"category":"BEST ADHUNIK SONG","contestant":{"voting_id":"30B","name":"SURESH WAGLE"},"vote_count":1,"created_on":"2019-10-14T16:05:32.352884+05:45"},{"idx":"47n9D9dZaQfMgf393Dhy7E","contest":"OS Nepal Music Award 2076","episode":null,"category":"BEST SUNUWAR MALE SINGER","contestant":{"voting_id":"51E","name":"TANKA SUNUWAR"},"vote_count":1,"created_on":"2019-10-14T16:05:09.617011+05:45"},{"idx":"6HhP2KTUEhHuJwvqwy3ZLK","contest":"OS Nepal Music Award 2076","episode":null,"category":"BEST SUNUWAR FEMALE SINGER","contestant":{"voting_id":"50E","name":"PUJA SUNUWAR"},"vote_count":1,"created_on":"2019-10-14T16:04:48.576161+05:45"},{"idx":"KfjdX96TtBZF9bgvhQgSZZ","contest":"OS Nepal Music Award 2076","episode":null,"category":"BEST SELO FEMALE SINGER","contestant":{"voting_id":"54A","name":"SHASHI KALA MOKTAN"},"vote_count":1,"created_on":"2019-10-14T16:04:10.136982+05:45"},{"idx":"L8nGMjie3ssCZXxaaM34To","contest":"OS Nepal Music Award 2076","episode":null,"category":"BEST POP MUSIC","contestant":{"voting_id":"21C","name":"KAMAL ADHIKARI"},"vote_count":1,"created_on":"2019-10-14T16:03:35.618136+05:45"}]}