{"total_pages":275,"total_records":13721,"next":"https://khalti.com/api/v2/vuservote/?page=268","previous":"https://khalti.com/api/v2/vuservote/?page=266","record_range":[13301,13350],"current_page":267,"records":[{"idx":"pZxqewiVFM4PRv3UndSNDj","contest":"OS Nepal Music Award 2076","episode":null,"category":"BEST LOKDOHORI FEMALE SINGER (NEW)","contestant":{"voting_id":"13B","name":"RUPA GHARTI MAGAR"},"vote_count":1,"created_on":"2019-10-14T16:02:47.742396+05:45"},{"idx":"CmZyNd8ru8q4AjeUmCRYr4","contest":"OS Nepal Music Award 2076","episode":null,"category":"BEST SELO MALE SINGER","contestant":{"voting_id":"55E","name":"YOGESH LAMA"},"vote_count":1,"created_on":"2019-10-14T16:02:29.744637+05:45"},{"idx":"XjrTCVHTBxjQaFmCGTaiY6","contest":"OS Nepal Music Award 2076","episode":null,"category":"BEST NATIONAL SONG","contestant":{"voting_id":"56A","name":"CHRISTINA SHRESHTA"},"vote_count":1,"created_on":"2019-10-14T16:01:50.916754+05:45"},{"idx":"fcBriQ6nEZRLWLAi6csvoY","contest":"OS Nepal Music Award 2076","episode":null,"category":"BEST ALBUM","contestant":{"voting_id":"58A","name":"ANISH SHRESTHA"},"vote_count":1,"created_on":"2019-10-14T16:01:26.985097+05:45"},{"idx":"H3ojPuAtyw8vzVfofy6Bkg","contest":"OS Nepal Music Award 2076","episode":null,"category":"BEST LOK DOHARI","contestant":{"voting_id":"1E","name":"SHIVA KARKI"},"vote_count":1,"created_on":"2019-10-14T16:01:16.426677+05:45"},{"idx":"hP6Z5YYNjVnopteCNVS9iS","contest":"OS Nepal Music Award 2076","episode":null,"category":"BEST NATIONAL SONG","contestant":{"voting_id":"56A","name":"CHRISTINA SHRESHTA"},"vote_count":1,"created_on":"2019-10-14T16:01:04.168647+05:45"},{"idx":"gKKQUMtvJpyofEi92R6EQJ","contest":"OS Nepal Music Award 2076","episode":null,"category":"BEST POP LYRICIST ","contestant":{"voting_id":"20D","name":"DP KHANAL"},"vote_count":1,"created_on":"2019-10-14T16:01:02.720921+05:45"},{"idx":"JCKeDMHiNgRWjzXSaqDx9K","contest":"OS Nepal Music Award 2076","episode":null,"category":"BEST LOK POP","contestant":{"voting_id":"19A","name":"BABU BOGATI"},"vote_count":1,"created_on":"2019-10-14T16:00:38.723543+05:45"},{"idx":"PAvdVpYR3m5JDSTAQSgKPk","contest":"OS Nepal Music Award 2076","episode":null,"category":" BEST POP SONG","contestant":{"voting_id":"18D","name":"SHISHIR BHANDARI"},"vote_count":1,"created_on":"2019-10-14T16:00:16.988874+05:45"},{"idx":"hHu5Szj9YxkLuvM89TScCn","contest":"OS Nepal Music Award 2076","episode":null,"category":"BEST LOKDOHORI VIDEO DIRECTOR (SAD)","contestant":{"voting_id":"7D","name":"DHURBA HIMALI"},"vote_count":1,"created_on":"2019-10-14T15:59:36.682971+05:45"},{"idx":"mNnpkH4HY3ZrqRJuyfPfW6","contest":"OS Nepal Music Award 2076","episode":null,"category":"BEST LOKDOHORI LYRICIST","contestant":{"voting_id":"2B","name":"SHIVA HAMAL              "},"vote_count":1,"created_on":"2019-10-14T15:59:05.962342+05:45"},{"idx":"eDixXcpcKTh5TtDJNgkf2F","contest":"OS Nepal Music Award 2076","episode":null,"category":"BEST LOK DOHARI","contestant":{"voting_id":"1C","name":"RAMILA NEUPANE"},"vote_count":1,"created_on":"2019-10-14T15:58:25.533985+05:45"},{"idx":"GEeavxuGWctQ2gFVriLRDW","contest":"OS Nepal Music Award 2076","episode":null,"category":"BEST NATIONAL SONG","contestant":{"voting_id":"56E","name":"UDESH SHRESHTA"},"vote_count":1,"created_on":"2019-10-14T15:23:14.686346+05:45"},{"idx":"gkvyQ9gsAscUNSzTCGcHRg","contest":"OS Nepal Music Award 2076","episode":null,"category":"BEST LOK DOHARI","contestant":{"voting_id":"1C","name":"RAMILA NEUPANE"},"vote_count":1,"created_on":"2019-10-14T15:22:20.975107+05:45"},{"idx":"yLwrT6MjLJ2CMpVBfGZQ95","contest":"OS Nepal Music Award 2076","episode":null,"category":"BEST DEUDA MALE SINGER","contestant":{"voting_id":"45E","name":"SURYA BIRAHI SAUD"},"vote_count":1,"created_on":"2019-10-14T14:18:21.827088+05:45"},{"idx":"aXYgLk4eoz3WzWwugVbJ3W","contest":"OS Nepal Music Award 2076","episode":null,"category":"BEST MODERN VIDEO EDITOR","contestant":{"voting_id":"43E","name":"BISHNU KHADKA"},"vote_count":1,"created_on":"2019-10-14T14:02:48.756957+05:45"},{"idx":"zTcTnwUFjR8HXsGGEzVwo8","contest":"OS Nepal Music Award 2076","episode":null,"category":"BEST ADHUNIK ARRANGER","contestant":{"voting_id":"33E","name":"PURUSHOTTAM SUBEDI"},"vote_count":1,"created_on":"2019-10-14T13:56:55.392156+05:45"},{"idx":"uHyRzeBV3HJoxLXHDZUHm8","contest":"OS Nepal Music Award 2076","episode":null,"category":"BEST POP ARRANGER","contestant":{"voting_id":"22A","name":"PURSHOTTAM SUBEDI"},"vote_count":1,"created_on":"2019-10-14T13:56:31.571574+05:45"},{"idx":"SSE2fNYCab5oNidqmVLPUk","contest":"OS Nepal Music Award 2076","episode":null,"category":"BEST ADHUNIK MALE SINGER ","contestant":{"voting_id":"40E","name":"PURUSHOTTAM SUBEDI"},"vote_count":1,"created_on":"2019-10-14T13:56:11.316060+05:45"},{"idx":"e3F5VvEhtGncHtfbrdjuDo","contest":"OS Nepal Music Award 2076","episode":null,"category":"BEST SUNUWAR MALE SINGER","contestant":{"voting_id":"51D","name":"PUSHKAR SUNUWAR"},"vote_count":1,"created_on":"2019-10-14T13:51:44.934636+05:45"},{"idx":"dRJJpfGmTmkiJn9PCKFEKe","contest":"OS Nepal Music Award 2076","episode":null,"category":" BEST LOKDOHORI FEMALE MODEL DANCE","contestant":{"voting_id":"9B","name":"KARISHMA DHAKAL"},"vote_count":1,"created_on":"2019-10-14T13:37:58.159625+05:45"},{"idx":"7hpwP8bwqMdF4UC7wMrmzA","contest":"OS Nepal Music Award 2076","episode":null,"category":"BEST POP ARRANGER","contestant":{"voting_id":"22A","name":"PURSHOTTAM SUBEDI"},"vote_count":1,"created_on":"2019-10-14T13:36:11.988490+05:45"},{"idx":"erjAfAf4AR9iJV5ASkYcMk","contest":"OS Nepal Music Award 2076","episode":null,"category":"BEST ADHUNIK ARRANGER","contestant":{"voting_id":"33E","name":"PURUSHOTTAM SUBEDI"},"vote_count":1,"created_on":"2019-10-14T13:35:10.561385+05:45"},{"idx":"PCVTsKWiwHnjte44B5Ef2Y","contest":"OS Nepal Music Award 2076","episode":null,"category":"BEST ADHUNIK MALE SINGER ","contestant":{"voting_id":"40E","name":"PURUSHOTTAM SUBEDI"},"vote_count":1,"created_on":"2019-10-14T13:34:20.503563+05:45"},{"idx":"NJc3zhjABWCvZyPbgV6Xrj","contest":"OS Nepal Music Award 2076","episode":null,"category":"BEST LOKDOHORI VIDEO EDITOR ","contestant":{"voting_id":"5E","name":"MANOJ KARKI"},"vote_count":1,"created_on":"2019-10-14T13:33:04.526263+05:45"},{"idx":"zyjyAWZp3vdwKzQsXNwefG","contest":"OS Nepal Music Award 2076","episode":null,"category":"BEST ADHUNIK ARRANGER","contestant":{"voting_id":"33E","name":"PURUSHOTTAM SUBEDI"},"vote_count":1,"created_on":"2019-10-14T13:25:35.138540+05:45"},{"idx":"Do9bRN9t352GgHi52fudH8","contest":"OS Nepal Music Award 2076","episode":null,"category":"BEST POP ARRANGER","contestant":{"voting_id":"22A","name":"PURSHOTTAM SUBEDI"},"vote_count":1,"created_on":"2019-10-14T13:25:13.285159+05:45"},{"idx":"XitoGAEcy4gfnyzf3uC2i9","contest":"OS Nepal Music Award 2076","episode":null,"category":"BEST ADHUNIK MALE SINGER ","contestant":{"voting_id":"40E","name":"PURUSHOTTAM SUBEDI"},"vote_count":1,"created_on":"2019-10-14T13:24:28.303348+05:45"},{"idx":"cAd9qDGiEgdaaDUJAbKQnP","contest":"OS Nepal Music Award 2076","episode":null,"category":"BEST LOK DOHARI","contestant":{"voting_id":"1C","name":"RAMILA NEUPANE"},"vote_count":1,"created_on":"2019-10-14T12:19:19.199560+05:45"},{"idx":"2za3sfAyJECPmVLNQbm5ei","contest":"OS Nepal Music Award 2076","episode":null,"category":"BEST LOK POP","contestant":{"voting_id":"19B","name":"BIRENDRA SHRESHTA"},"vote_count":25,"created_on":"2019-10-14T11:29:57.273839+05:45"},{"idx":"zUW2pMGCeWhhB3X7jfVzB3","contest":"OS Nepal Music Award 2076","episode":null,"category":"BEST LOKDOHORI LYRICIST","contestant":{"voting_id":"2B","name":"SHIVA HAMAL              "},"vote_count":1,"created_on":"2019-10-13T20:12:58.174166+05:45"},{"idx":"P8dfCABZshoWrDtPNkfGCg","contest":"OS Nepal Music Award 2076","episode":null,"category":"BEST POP FEMALE SINGER","contestant":{"voting_id":"29A","name":"ANGELA SHRESTHA"},"vote_count":1,"created_on":"2019-10-13T19:11:49.466449+05:45"},{"idx":"PtpgqMursZM6MLPkShUZgn","contest":"OS Nepal Music Award 2076","episode":null,"category":" BEST LOK SONG","contestant":{"voting_id":"17C","name":"SURYA KHADKA"},"vote_count":1,"created_on":"2019-10-13T18:30:15.289907+05:45"},{"idx":"UNUNM3VgRH3hGxKNMaieJA","contest":"OS Nepal Music Award 2076","episode":null,"category":"BEST LOKDOHORI LYRICIST","contestant":{"voting_id":"2E","name":"GANESH CHAULAGAI"},"vote_count":1,"created_on":"2019-10-13T17:06:25.548937+05:45"},{"idx":"LuKcYJCfTkSpsAELTcC385","contest":"OS Nepal Music Award 2076","episode":null,"category":"BEST POP VIDEO EDITOR","contestant":{"voting_id":"42A","name":"BIKASH GYAWALI"},"vote_count":1,"created_on":"2019-10-13T15:40:50.887823+05:45"},{"idx":"8LybGTWxkYGX8opHFh5LCF","contest":"OS Nepal Music Award 2076","episode":null,"category":"BEST POP VIDEO EDITOR","contestant":{"voting_id":"42A","name":"BIKASH GYAWALI"},"vote_count":1,"created_on":"2019-10-13T15:40:42.573653+05:45"},{"idx":"pFVoxS3eVanHipFhq2wj5e","contest":"OS Nepal Music Award 2076","episode":null,"category":" BEST POP NEW FEMALE SINGER","contestant":{"voting_id":"27C","name":"BABITA RAI"},"vote_count":1,"created_on":"2019-10-13T15:34:02.577818+05:45"},{"idx":"37TNVDFYSiDyRoJxMbjrG9","contest":"OS Nepal Music Award 2076","episode":null,"category":"BEST LOKDOHORI VIDEO DIRECTOR (SAD)","contestant":{"voting_id":"7E","name":"D.R SUJAN"},"vote_count":1,"created_on":"2019-10-13T15:04:50.878464+05:45"},{"idx":"8aorMsPSuZSBdTMgXy5FjE","contest":"OS Nepal Music Award 2076","episode":null,"category":"BEST LOKDOHORI VIDEO DIRECTOR (SAD)","contestant":{"voting_id":"7E","name":"D.R SUJAN"},"vote_count":1,"created_on":"2019-10-13T14:52:11.923836+05:45"},{"idx":"EY9r54oebd2sYAyqBhGsXd","contest":"OS Nepal Music Award 2076","episode":null,"category":"BEST DEUDA MALE SINGER","contestant":{"voting_id":"45C","name":"RAM SILWAL"},"vote_count":1,"created_on":"2019-10-13T14:49:01.927399+05:45"},{"idx":"Huf8JWzBEAZf3z9eEg79wH","contest":"OS Nepal Music Award 2076","episode":null,"category":"BEST LOKDOHORI VIDEO DIRECTOR (SAD)","contestant":{"voting_id":"7E","name":"D.R SUJAN"},"vote_count":1,"created_on":"2019-10-13T14:48:12.598496+05:45"},{"idx":"y4xfhAnVGcYctZPo56jAhM","contest":"OS Nepal Music Award 2076","episode":null,"category":"BEST LOKDOHORI VIDEO DIRECTOR (SAD)","contestant":{"voting_id":"7E","name":"D.R SUJAN"},"vote_count":1,"created_on":"2019-10-13T14:42:11.977552+05:45"},{"idx":"DSKtvq2APrcJWbbRpcTtue","contest":"OS Nepal Music Award 2076","episode":null,"category":"BEST DEUDA FEMALE SINGER","contestant":{"voting_id":"46A","name":"SOBHA THAPA"},"vote_count":1,"created_on":"2019-10-13T14:39:57.012724+05:45"},{"idx":"K7BkkBURfTt5haLcUBX4mb","contest":"OS Nepal Music Award 2076","episode":null,"category":"BEST LOK DOHARI","contestant":{"voting_id":"1C","name":"RAMILA NEUPANE"},"vote_count":1,"created_on":"2019-10-13T14:12:19.048373+05:45"},{"idx":"yq5X6AwPYtE6rfQvVLsva7","contest":"OS Nepal Music Award 2076","episode":null,"category":"BEST MODERN VIDEO EDITOR","contestant":{"voting_id":"43A","name":"CHANDAN DUTTA"},"vote_count":1,"created_on":"2019-10-13T13:10:02.322168+05:45"},{"idx":"h6k35hnoYfhmuj8i2TcewK","contest":"OS Nepal Music Award 2076","episode":null,"category":"BEST LOKDOHORI MALE MODEL DANCE","contestant":{"voting_id":"10D","name":"SUMAN THAPA"},"vote_count":1,"created_on":"2019-10-13T11:45:45.958315+05:45"},{"idx":"gXL2m3moj24mCn6rYuKMhF","contest":"OS Nepal Music Award 2076","episode":null,"category":" BEST LOKDOHORI FEMALE MODEL DANCE","contestant":{"voting_id":"9D","name":"ANJU NIRAULA"},"vote_count":1,"created_on":"2019-10-13T11:00:22.118120+05:45"},{"idx":"zNtE5PmAMp8JrNoSfeyzff","contest":"OS Nepal Music Award 2076","episode":null,"category":"BEST DEUDA MALE SINGER","contestant":{"voting_id":"45A","name":"TANKA TIMALSINA"},"vote_count":1,"created_on":"2019-10-12T18:15:36.521102+05:45"},{"idx":"tPkFyGnaYq4ZTABnVoVvzX","contest":"OS Nepal Music Award 2076","episode":null,"category":" BEST ADHUNIK NEW FEMALE SINGER","contestant":{"voting_id":"37B","name":"PURNIMA LAMA"},"vote_count":1,"created_on":"2019-10-12T18:10:59.989758+05:45"},{"idx":"VWzbFTC6Fmeaiygexb7k4d","contest":"OS Nepal Music Award 2076","episode":null,"category":"BEST LOKDOHORI VIDEO DIRECTOR (Dance)","contestant":{"voting_id":"6D","name":"KAJISH SHRESTHA"},"vote_count":1,"created_on":"2019-10-12T18:10:26.558040+05:45"}]}