{"total_pages":275,"total_records":13721,"next":"https://khalti.com/api/v2/vuservote/?page=269","previous":"https://khalti.com/api/v2/vuservote/?page=267","record_range":[13351,13400],"current_page":268,"records":[{"idx":"s6i9d4uiRmEd6VjgYvNGhc","contest":"OS Nepal Music Award 2076","episode":null,"category":"BEST LOKDOHORI MALE SINGER (NEW)","contestant":{"voting_id":"14E","name":"KUSHAL BISHWOKARMA"},"vote_count":1,"created_on":"2019-10-12T18:10:00.161503+05:45"},{"idx":"FjUpWgasiquBRPFTuDDKfP","contest":"OS Nepal Music Award 2076","episode":null,"category":"BEST LOKDOHORI ARRANGER ","contestant":{"voting_id":"4A","name":"TARANATH ACHARYA"},"vote_count":1,"created_on":"2019-10-12T18:09:32.001597+05:45"},{"idx":"wPagZxm5LAHALJz8NTn2vi","contest":"OS Nepal Music Award 2076","episode":null,"category":"BEST LOKDOHORI FEMALE SINGER (NEW)","contestant":{"voting_id":"13C","name":"NIRU GURUNG"},"vote_count":1,"created_on":"2019-10-12T18:08:33.058971+05:45"},{"idx":"WTBc658zxuFfu7hTkoMeTA","contest":"OS Nepal Music Award 2076","episode":null,"category":"BEST DEUDA FEMALE SINGER","contestant":{"voting_id":"46A","name":"SOBHA THAPA"},"vote_count":1,"created_on":"2019-10-12T17:57:53.845984+05:45"},{"idx":"F48AttfzMMHgPRjzsHg3TB","contest":"OS Nepal Music Award 2076","episode":null,"category":"BEST DEUDA FEMALE SINGER","contestant":{"voting_id":"46A","name":"SOBHA THAPA"},"vote_count":1,"created_on":"2019-10-12T17:51:20.119691+05:45"},{"idx":"X3C5RGfucm5ggDfqxtwo69","contest":"OS Nepal Music Award 2076","episode":null,"category":"BEST LOK DOHARI","contestant":{"voting_id":"1B","name":"SAMBHU KUNWAR"},"vote_count":100,"created_on":"2019-10-12T17:40:27.389450+05:45"},{"idx":"twAVhoE5YLDfxrpb9ptnNE","contest":"OS Nepal Music Award 2076","episode":null,"category":"BEST LOKDOHORI VIDEO DIRECTOR (SAD)","contestant":{"voting_id":"7E","name":"D.R SUJAN"},"vote_count":1,"created_on":"2019-10-12T15:54:33.194379+05:45"},{"idx":"hsbTLngHsnVp53V9JqcFzN","contest":"OS Nepal Music Award 2076","episode":null,"category":"BEST ALBUM","contestant":{"voting_id":"58D","name":"SUREN GAUTAM"},"vote_count":1,"created_on":"2019-10-12T15:13:30.383445+05:45"},{"idx":"oPzjb3yPfxfmLBDsMTKCuF","contest":"OS Nepal Music Award 2076","episode":null,"category":" BEST LOKDOHORI FEMALE MODEL (SAD)","contestant":{"voting_id":"11C","name":"MANJITA K.C"},"vote_count":50,"created_on":"2019-10-12T12:00:37.031333+05:45"},{"idx":"fewVDesHouJh5uMoRB4LNe","contest":"OS Nepal Music Award 2076","episode":null,"category":"BEST SELO MALE SINGER","contestant":{"voting_id":"55D","name":"ANIL LAMA"},"vote_count":1,"created_on":"2019-10-12T10:42:22.229882+05:45"},{"idx":"cZujuVm6tAzuiJzoquRWbN","contest":"OS Nepal Music Award 2076","episode":null,"category":"BEST LOK DOHARI","contestant":{"voting_id":"1E","name":"SHIVA KARKI"},"vote_count":1,"created_on":"2019-10-12T10:23:09.395050+05:45"},{"idx":"L9QYVygfzDSMNwdJE9WKwm","contest":"OS Nepal Music Award 2076","episode":null,"category":"BEST NATIONAL LYRICIST","contestant":{"voting_id":"57D","name":"UDESH SHRESHTA"},"vote_count":1,"created_on":"2019-10-12T10:11:33.964529+05:45"},{"idx":"6DKhiXkqyVJtDarhpUEzYe","contest":"OS Nepal Music Award 2076","episode":null,"category":"BEST ALBUM","contestant":{"voting_id":"58A","name":"ANISH SHRESTHA"},"vote_count":1,"created_on":"2019-10-12T10:10:20.457962+05:45"},{"idx":"2kuVPnTzW5USbX6nTjh9WW","contest":"OS Nepal Music Award 2076","episode":null,"category":"BEST LOKDOHORI VIDEO DIRECTOR (Dance)","contestant":{"voting_id":"6D","name":"KAJISH SHRESTHA"},"vote_count":1,"created_on":"2019-10-12T10:09:55.220848+05:45"},{"idx":"a9qZtMNcMAA9bekaGuMHTX","contest":"OS Nepal Music Award 2076","episode":null,"category":" BEST LOK SONG","contestant":{"voting_id":"17D","name":"PRASAD KHAPTARI MAGAR"},"vote_count":1,"created_on":"2019-10-12T10:09:31.490045+05:45"},{"idx":"mrmjRve6RxJdaJUDLnouhh","contest":"OS Nepal Music Award 2076","episode":null,"category":"BEST LOKDOHORI FEMALE SINGER","contestant":{"voting_id":"16B","name":"AMRITA LUNGELI MAGAR"},"vote_count":1,"created_on":"2019-10-12T10:09:05.039162+05:45"},{"idx":"TMh9HhUKLzyWUWvUSqef2G","contest":"OS Nepal Music Award 2076","episode":null,"category":"BEST LOKDOHORI MALE SINGER (NEW)","contestant":{"voting_id":"14B","name":"YUBARAJ MAGAR"},"vote_count":1,"created_on":"2019-10-12T10:08:13.637259+05:45"},{"idx":"GDdXSy6BpJZkf4NZYqsVUN","contest":"OS Nepal Music Award 2076","episode":null,"category":"BEST LOKDOHORI FEMALE SINGER (NEW)","contestant":{"voting_id":"13B","name":"RUPA GHARTI MAGAR"},"vote_count":1,"created_on":"2019-10-12T10:07:45.349015+05:45"},{"idx":"YuCSyci8FJT3eywzkAhodd","contest":"OS Nepal Music Award 2076","episode":null,"category":"BEST LOKDOHORI MALE MODEL (SAD)","contestant":{"voting_id":"12C","name":"DHURBA HIMALI"},"vote_count":1,"created_on":"2019-10-12T10:07:25.273902+05:45"},{"idx":"eVcjE54vDbRNpjyj527YMc","contest":"OS Nepal Music Award 2076","episode":null,"category":" BEST LOKDOHORI FEMALE MODEL (SAD)","contestant":{"voting_id":"11A","name":"SARIKA K.C"},"vote_count":1,"created_on":"2019-10-12T10:06:54.081177+05:45"},{"idx":"XT8jRUW6LCd8PvCRKLNSf6","contest":"OS Nepal Music Award 2076","episode":null,"category":"BEST LOKDOHORI MALE MODEL DANCE","contestant":{"voting_id":"10D","name":"SUMAN THAPA"},"vote_count":1,"created_on":"2019-10-12T10:06:34.543020+05:45"},{"idx":"KZCM2cTraan49Nt6YAoBaG","contest":"OS Nepal Music Award 2076","episode":null,"category":" BEST LOKDOHORI FEMALE MODEL DANCE","contestant":{"voting_id":"9D","name":"ANJU NIRAULA"},"vote_count":1,"created_on":"2019-10-12T10:06:15.280548+05:45"},{"idx":"PGwZEYxZQZHt77wT57FKcf","contest":"OS Nepal Music Award 2076","episode":null,"category":"BEST LOKDOHORI CINEMATOGRAPHER","contestant":{"voting_id":"8D","name":"BASU BARAL"},"vote_count":1,"created_on":"2019-10-12T10:05:49.292411+05:45"},{"idx":"cA8wnXVRKwMCGmazUYLERJ","contest":"OS Nepal Music Award 2076","episode":null,"category":"BEST LOKDOHORI VIDEO DIRECTOR (SAD)","contestant":{"voting_id":"7D","name":"DHURBA HIMALI"},"vote_count":1,"created_on":"2019-10-12T10:05:24.237401+05:45"},{"idx":"Lk8DJwchTaraLLQQGJbvG8","contest":"OS Nepal Music Award 2076","episode":null,"category":"BEST LOKDOHORI VIDEO EDITOR ","contestant":{"voting_id":"5E","name":"MANOJ KARKI"},"vote_count":1,"created_on":"2019-10-12T10:05:07.522089+05:45"},{"idx":"tuDSeVDGsmZ2MXqBEDPcym","contest":"OS Nepal Music Award 2076","episode":null,"category":"BEST LOKDOHORI ARRANGER ","contestant":{"voting_id":"4C","name":"HEMANT SHISHIR"},"vote_count":1,"created_on":"2019-10-12T10:04:44.728354+05:45"},{"idx":"SggJZ6bJrB6VyxGkNJibri","contest":"OS Nepal Music Award 2076","episode":null,"category":"BEST LOKDOHORI MUSICIAN","contestant":{"voting_id":"3D","name":"AMIT BABU ROKAYA"},"vote_count":1,"created_on":"2019-10-12T10:04:18.327682+05:45"},{"idx":"WH4fPYeoUMgoW5VfAbCNhH","contest":"OS Nepal Music Award 2076","episode":null,"category":"BEST LOKDOHORI LYRICIST","contestant":{"voting_id":"2C","name":"KAMAL SARGAM"},"vote_count":1,"created_on":"2019-10-12T10:03:58.654750+05:45"},{"idx":"J8kb58VvXU8v745Cg7hPNC","contest":"OS Nepal Music Award 2076","episode":null,"category":"BEST LOK DOHARI","contestant":{"voting_id":"1C","name":"RAMILA NEUPANE"},"vote_count":1,"created_on":"2019-10-12T10:03:35.378158+05:45"},{"idx":"abEonY8aQzR4Qo547xK927","contest":"OS Nepal Music Award 2076","episode":null,"category":"BEST LOKDOHORI MALE SINGER","contestant":{"voting_id":"15D","name":"MOHAN KHADKA"},"vote_count":1,"created_on":"2019-10-12T10:02:57.359764+05:45"},{"idx":"DzmEUakvDoAbNz5qgVTbdc","contest":"OS Nepal Music Award 2076","episode":null,"category":"BEST POP MALE SINGER ","contestant":{"voting_id":"28E","name":"RAKESH RAI"},"vote_count":1,"created_on":"2019-10-12T07:36:06.404186+05:45"},{"idx":"DhmW8uTgYCHi8aWJD6yi37","contest":"OS Nepal Music Award 2076","episode":null,"category":"BEST POP FEMALE SINGER","contestant":{"voting_id":"29A","name":"ANGELA SHRESTHA"},"vote_count":1,"created_on":"2019-10-11T23:43:36.113055+05:45"},{"idx":"3Uj7Wx48ZBHL8rPkHiZbsX","contest":"OS Nepal Music Award 2076","episode":null,"category":"BEST ADHUNIK NEW MALE SINGER","contestant":{"voting_id":"38C","name":"TEK BC"},"vote_count":1,"created_on":"2019-10-11T22:59:03.078727+05:45"},{"idx":"FdAmwUTiFjAA7VCVp6yTAX","contest":"OS Nepal Music Award 2076","episode":null,"category":"BEST POP FEMALE SINGER","contestant":{"voting_id":"29A","name":"ANGELA SHRESTHA"},"vote_count":1,"created_on":"2019-10-11T20:23:41.286567+05:45"},{"idx":"XNhmm9G5ji6MLjZRg4RQqj","contest":"OS Nepal Music Award 2076","episode":null,"category":"BEST TAMANG MALE SINGER","contestant":{"voting_id":"49B","name":"PRADIP K.GLAN"},"vote_count":50,"created_on":"2019-10-11T17:07:41.128595+05:45"},{"idx":"6mcUMjDN2ydsweGifZ8QvL","contest":"OS Nepal Music Award 2076","episode":null,"category":"BEST LOK DOHARI","contestant":{"voting_id":"1B","name":"SAMBHU KUNWAR"},"vote_count":100,"created_on":"2019-10-11T15:42:06.632501+05:45"},{"idx":"Fe73mp6fiEBBP8gP7zc2tE","contest":"OS Nepal Music Award 2076","episode":null,"category":"BEST LOK DOHARI","contestant":{"voting_id":"1B","name":"SAMBHU KUNWAR"},"vote_count":5,"created_on":"2019-10-11T15:40:06.080644+05:45"},{"idx":"s26rPk5fEUGHEapnSNmCxR","contest":"OS Nepal Music Award 2076","episode":null,"category":"BEST LOK DOHARI","contestant":{"voting_id":"1B","name":"SAMBHU KUNWAR"},"vote_count":1,"created_on":"2019-10-11T15:39:03.274397+05:45"},{"idx":"TAUkr4hUopjXSWEbE3xvdP","contest":"OS Nepal Music Award 2076","episode":null,"category":"BEST LOK POP","contestant":{"voting_id":"19B","name":"BIRENDRA SHRESHTA"},"vote_count":5,"created_on":"2019-10-11T15:30:56.796054+05:45"},{"idx":"tVnKX93AZrEhNSyaG8dEuC","contest":"OS Nepal Music Award 2076","episode":null,"category":"BEST ADHUNIK FEMALE MODEL","contestant":{"voting_id":"35B","name":"AANCHAL SHARMA"},"vote_count":1,"created_on":"2019-10-11T12:46:59.571178+05:45"},{"idx":"S6Vw2Dkj2ZbeYjCBGcQjb2","contest":"OS Nepal Music Award 2076","episode":null,"category":"BEST POP FEMALE MODEL ","contestant":{"voting_id":"24C","name":"SHRISTI KHADKA"},"vote_count":1,"created_on":"2019-10-11T12:44:32.499535+05:45"},{"idx":"Ys5Q88cyJAfwU2ZrK7jn3N","contest":"OS Nepal Music Award 2076","episode":null,"category":"BEST LOK POP","contestant":{"voting_id":"19B","name":"BIRENDRA SHRESHTA"},"vote_count":100,"created_on":"2019-10-11T12:10:35.286581+05:45"},{"idx":"RS8SjJ3z6Ah59K4DiRhCSD","contest":"OS Nepal Music Award 2076","episode":null,"category":"BEST LOKDOHORI VIDEO DIRECTOR (SAD)","contestant":{"voting_id":"7E","name":"D.R SUJAN"},"vote_count":1,"created_on":"2019-10-11T12:05:47.532683+05:45"},{"idx":"9GWMpnKqrFM5k8Ujpjny7T","contest":"OS Nepal Music Award 2076","episode":null,"category":"BEST LOK POP","contestant":{"voting_id":"19B","name":"BIRENDRA SHRESHTA"},"vote_count":100,"created_on":"2019-10-11T12:03:36.934556+05:45"},{"idx":"HkBEbRk5H2vSsqL5GpuVkP","contest":"OS Nepal Music Award 2076","episode":null,"category":"BEST LOK DOHARI","contestant":{"voting_id":"1E","name":"SHIVA KARKI"},"vote_count":1,"created_on":"2019-10-11T09:18:18.987442+05:45"},{"idx":"5omd9YdBFayXG8umajsdhi","contest":"OS Nepal Music Award 2076","episode":null,"category":"BEST LOKDOHORI LYRICIST","contestant":{"voting_id":"2D","name":"DHRUBA SHARMA      "},"vote_count":100,"created_on":"2019-10-11T08:39:04.991347+05:45"},{"idx":"aMjJwMvTHdhPW828pFk6Sh","contest":"OS Nepal Music Award 2076","episode":null,"category":"BEST LOKDOHORI LYRICIST","contestant":{"voting_id":"2D","name":"DHRUBA SHARMA      "},"vote_count":1,"created_on":"2019-10-11T08:38:30.696253+05:45"},{"idx":"V2eCrnJF3pEjN4UszoSQHk","contest":"OS Nepal Music Award 2076","episode":null,"category":"BEST POP MALE SINGER ","contestant":{"voting_id":"28D","name":"BIKRAM BARAL"},"vote_count":1,"created_on":"2019-10-10T20:57:16.478465+05:45"},{"idx":"MZqxkKWexDvJ6Ldc9r3Fr9","contest":"OS Nepal Music Award 2076","episode":null,"category":"BEST DEUDA FEMALE SINGER","contestant":{"voting_id":"46C","name":"REKHA JOSHI"},"vote_count":1,"created_on":"2019-10-10T19:46:02.005461+05:45"},{"idx":"xdZre9ih3U9f223Zra5Axe","contest":"OS Nepal Music Award 2076","episode":null,"category":"BEST NATIONAL SONG","contestant":{"voting_id":"56C","name":"SMITA GHIMIRE"},"vote_count":1,"created_on":"2019-10-10T19:45:10.879743+05:45"}]}