{"total_pages":275,"total_records":13721,"next":"https://khalti.com/api/v2/vuservote/?page=270","previous":"https://khalti.com/api/v2/vuservote/?page=268","record_range":[13401,13450],"current_page":269,"records":[{"idx":"SptsukBKFZHcDh5MKA427a","contest":"OS Nepal Music Award 2076","episode":null,"category":"BEST LOKDOHORI CINEMATOGRAPHER","contestant":{"voting_id":"8D","name":"BASU BARAL"},"vote_count":1,"created_on":"2019-10-10T14:59:54.664873+05:45"},{"idx":"pKkLSWsvo6vJzzMKkDSKom","contest":"OS Nepal Music Award 2076","episode":null,"category":"BEST MODERN VIDEO EDITOR","contestant":{"voting_id":"43A","name":"CHANDAN DUTTA"},"vote_count":1,"created_on":"2019-10-09T21:25:16.102119+05:45"},{"idx":"YxwMvcdgHnmtbXTTpnTxSX","contest":"OS Nepal Music Award 2076","episode":null,"category":"BEST LOK DOHARI","contestant":{"voting_id":"1E","name":"SHIVA KARKI"},"vote_count":1,"created_on":"2019-10-09T13:21:09.829143+05:45"},{"idx":"uiQAAZUGDH2Xyq8njpQ4eH","contest":"OS Nepal Music Award 2076","episode":null,"category":"BEST LOK DOHARI","contestant":{"voting_id":"1E","name":"SHIVA KARKI"},"vote_count":1,"created_on":"2019-10-09T10:52:39.814046+05:45"},{"idx":"84KqyJSuFfpHVxxcSemxXT","contest":"OS Nepal Music Award 2076","episode":null,"category":"BEST LOK DOHARI","contestant":{"voting_id":"1E","name":"SHIVA KARKI"},"vote_count":1,"created_on":"2019-10-09T10:31:04.134122+05:45"},{"idx":"JSuhVD4bgAq2aRo2tRLyuj","contest":"OS Nepal Music Award 2076","episode":null,"category":"BEST LOKDOHORI LYRICIST","contestant":{"voting_id":"2D","name":"DHRUBA SHARMA      "},"vote_count":1,"created_on":"2019-10-08T13:23:01.506609+05:45"},{"idx":"pagDrTqxu4VXUmfY3fXSYT","contest":"OS Nepal Music Award 2076","episode":null,"category":"BEST DEUDA MALE SINGER","contestant":{"voting_id":"45E","name":"SURYA BIRAHI SAUD"},"vote_count":1,"created_on":"2019-10-08T10:31:29.038547+05:45"},{"idx":"YaWR5JhpyQkvcRhJHtihP6","contest":"OS Nepal Music Award 2076","episode":null,"category":"BEST LOKDOHORI VIDEO DIRECTOR (Dance)","contestant":{"voting_id":"6E","name":"DIPENDRA TIMALSINA"},"vote_count":1,"created_on":"2019-10-07T23:28:39.668638+05:45"},{"idx":"TC8AKVFxPtRRBvzqa7TL8P","contest":"OS Nepal Music Award 2076","episode":null,"category":"BEST LOKDOHORI VIDEO EDITOR ","contestant":{"voting_id":"5B","name":"PRAKASH DHAMALA"},"vote_count":1,"created_on":"2019-10-07T23:28:12.393627+05:45"},{"idx":"2867r7mEcUfchKmPcjxiLD","contest":"OS Nepal Music Award 2076","episode":null,"category":"BEST LOK DOHARI","contestant":{"voting_id":"1B","name":"SAMBHU KUNWAR"},"vote_count":1,"created_on":"2019-10-07T19:56:52.409766+05:45"},{"idx":"NiKN6QM8R9kkfPRJPVjjEd","contest":"OS Nepal Music Award 2076","episode":null,"category":"BEST LOKDOHORI FEMALE SINGER","contestant":{"voting_id":"16C","name":"SAMJHANA BHANDARI"},"vote_count":1,"created_on":"2019-10-07T12:30:45.767982+05:45"},{"idx":"Njk9KyqbqfUEFj35R5iw39","contest":"OS Nepal Music Award 2076","episode":null,"category":" BEST LOKDOHORI FEMALE MODEL DANCE","contestant":{"voting_id":"9E","name":"ARUSHI MAGAR"},"vote_count":1,"created_on":"2019-10-06T22:13:16.728406+05:45"},{"idx":"Y7Vi2Dvh5DYv8XyBjiTy2c","contest":"OS Nepal Music Award 2076","episode":null,"category":"BEST LOKDOHORI MALE MODEL DANCE","contestant":{"voting_id":"10D","name":"SUMAN THAPA"},"vote_count":1,"created_on":"2019-10-06T20:45:42.401970+05:45"},{"idx":"obX4ULUZbcKDRL5xbnLg9A","contest":"OS Nepal Music Award 2076","episode":null,"category":"BEST SELO FEMALE SINGER","contestant":{"voting_id":"54B","name":"RESHMA BOMJAN"},"vote_count":1,"created_on":"2019-10-06T20:45:26.058050+05:45"},{"idx":"cVhiTA2KJWHzyV9NYyaTWi","contest":"OS Nepal Music Award 2076","episode":null,"category":"BEST LOK DOHARI","contestant":{"voting_id":"1B","name":"SAMBHU KUNWAR"},"vote_count":1,"created_on":"2019-10-06T20:44:45.169525+05:45"},{"idx":"uKZjEfytRSrtnBwzSvcZMS","contest":"OS Nepal Music Award 2076","episode":null,"category":"BEST POP FEMALE SINGER","contestant":{"voting_id":"29E","name":"SUJATA KC"},"vote_count":1,"created_on":"2019-10-06T19:49:08.337115+05:45"},{"idx":"P2EXaTHuNtFFCdUbeAwfR6","contest":"OS Nepal Music Award 2076","episode":null,"category":"BEST LOK DOHARI","contestant":{"voting_id":"1E","name":"SHIVA KARKI"},"vote_count":1,"created_on":"2019-10-06T19:21:04.508491+05:45"},{"idx":"uz2nXffvfvpACg87yXms8J","contest":"OS Nepal Music Award 2076","episode":null,"category":"BEST ALBUM","contestant":{"voting_id":"58B","name":"SURESH WAGLE"},"vote_count":1,"created_on":"2019-10-06T14:04:52.916015+05:45"},{"idx":"M4dx67RMVJUKTKo3nqrXR4","contest":"OS Nepal Music Award 2076","episode":null,"category":"BEST ADHUNIK SONG","contestant":{"voting_id":"30E","name":"KIRAN GAJMER"},"vote_count":1,"created_on":"2019-10-06T12:52:25.389674+05:45"},{"idx":"Mv7gMDiKyjmTC9iShaUQRe","contest":"OS Nepal Music Award 2076","episode":null,"category":"BEST LOK DOHARI","contestant":{"voting_id":"1E","name":"SHIVA KARKI"},"vote_count":1,"created_on":"2019-10-06T12:16:30.966466+05:45"},{"idx":"kgt33shwhZFFPqWZLcvyme","contest":"OS Nepal Music Award 2076","episode":null,"category":"BEST LOKDOHORI MUSICIAN","contestant":{"voting_id":"3D","name":"AMIT BABU ROKAYA"},"vote_count":1,"created_on":"2019-10-06T11:47:30.953364+05:45"},{"idx":"t6yyhEgsbuxJw4x4idoN5F","contest":"OS Nepal Music Award 2076","episode":null,"category":"BEST LOKDOHORI VIDEO DIRECTOR (SAD)","contestant":{"voting_id":"7A","name":"SMRITI TIMILSINA"},"vote_count":1,"created_on":"2019-10-06T11:11:50.859253+05:45"},{"idx":"QjaF6tqbBwnGzuVAQ6ug6P","contest":"OS Nepal Music Award 2076","episode":null,"category":"BEST LOKDOHORI MUSICIAN","contestant":{"voting_id":"3E","name":"SAHADEV KOIRALA"},"vote_count":1,"created_on":"2019-10-06T11:11:15.503474+05:45"},{"idx":"XPUTGAwj2hpGBMsY7VDV26","contest":"OS Nepal Music Award 2076","episode":null,"category":"BEST MODERN/ POP CINEMATOGRAPHER","contestant":{"voting_id":"41E","name":"AJAY REGMI"},"vote_count":1,"created_on":"2019-10-06T09:54:41.062719+05:45"},{"idx":"SeSRVpKBXAZ6SCYwCg82zK","contest":"OS Nepal Music Award 2076","episode":null,"category":"BEST NATIONAL LYRICIST","contestant":{"voting_id":"57E","name":"DAWA LAMA"},"vote_count":1,"created_on":"2019-10-06T09:32:32.543122+05:45"},{"idx":"taxUKdsFBq8tsddEhJs5Mo","contest":"OS Nepal Music Award 2076","episode":null,"category":"BEST NATIONAL SONG","contestant":{"voting_id":"56E","name":"UDESH SHRESHTA"},"vote_count":1,"created_on":"2019-10-06T09:32:08.414365+05:45"},{"idx":"vuPB224EtWsD2hQ95P6R9f","contest":"OS Nepal Music Award 2076","episode":null,"category":"BEST SELO MALE SINGER","contestant":{"voting_id":"55E","name":"YOGESH LAMA"},"vote_count":1,"created_on":"2019-10-06T09:31:41.899354+05:45"},{"idx":"R3tgDVcrBfSF7eiNihJdHL","contest":"OS Nepal Music Award 2076","episode":null,"category":"BEST SELO FEMALE SINGER","contestant":{"voting_id":"54E","name":"ROSHNA LUNGBA"},"vote_count":1,"created_on":"2019-10-06T09:31:18.101151+05:45"},{"idx":"GFSeYRz9ovDeSgzg7iaAZ9","contest":"OS Nepal Music Award 2076","episode":null,"category":"BEST KATHYA LOK   MALE SINGER","contestant":{"voting_id":"53E","name":"BAL KUMAR SHRESHTHA"},"vote_count":1,"created_on":"2019-10-06T09:30:50.237760+05:45"},{"idx":"4SHqBYkX9tLpeuDM27zUwe","contest":"OS Nepal Music Award 2076","episode":null,"category":"BEST KATHYA LOK  FEMALE SINGER","contestant":{"voting_id":"52E","name":"RITU TAMANG"},"vote_count":1,"created_on":"2019-10-06T09:30:26.368300+05:45"},{"idx":"dn8VfNBbf3YJgW8HCeRjHN","contest":"OS Nepal Music Award 2076","episode":null,"category":"BEST SUNUWAR MALE SINGER","contestant":{"voting_id":"51E","name":"TANKA SUNUWAR"},"vote_count":1,"created_on":"2019-10-06T09:30:08.435804+05:45"},{"idx":"PLy4CJgnKpsfnzazq4pgLG","contest":"OS Nepal Music Award 2076","episode":null,"category":"BEST SUNUWAR FEMALE SINGER","contestant":{"voting_id":"50E","name":"PUJA SUNUWAR"},"vote_count":1,"created_on":"2019-10-06T09:29:44.219148+05:45"},{"idx":"85MNVNwGs6VdLDx78UbuZN","contest":"OS Nepal Music Award 2076","episode":null,"category":"BEST TAMANG MALE SINGER","contestant":{"voting_id":"49E","name":"ABHISHEK TAMANG"},"vote_count":1,"created_on":"2019-10-06T09:29:23.970962+05:45"},{"idx":"CP7ih76sNxq2a62qT3YApi","contest":"OS Nepal Music Award 2076","episode":null,"category":"BEST TAMANG FEMALE SINGER","contestant":{"voting_id":"48E","name":"JITU LOPCHAN"},"vote_count":1,"created_on":"2019-10-06T09:29:07.914116+05:45"},{"idx":"Ej8vLB9CRWwgbuZmGPHUFL","contest":"OS Nepal Music Award 2076","episode":null,"category":"BEST DEUDA FEMALE SINGER","contestant":{"voting_id":"46E","name":"ANITA CHALAUNE"},"vote_count":1,"created_on":"2019-10-06T09:28:46.835393+05:45"},{"idx":"SXFvzDH6mjd9i73BzDSXRL","contest":"OS Nepal Music Award 2076","episode":null,"category":"BEST DEUDA MALE SINGER","contestant":{"voting_id":"45E","name":"SURYA BIRAHI SAUD"},"vote_count":1,"created_on":"2019-10-06T09:28:25.786707+05:45"},{"idx":"hgMaWFr6ogy5ro59FzvLnn","contest":"OS Nepal Music Award 2076","episode":null,"category":"BEST DUET SONG ","contestant":{"voting_id":"44C","name":"GUNRAJ SHRESTHA & TIKA PRASAIN"},"vote_count":1,"created_on":"2019-10-06T09:28:00.778256+05:45"},{"idx":"cHo5zuWx9hsqgEp7RsbNhn","contest":"OS Nepal Music Award 2076","episode":null,"category":"BEST MODERN VIDEO EDITOR","contestant":{"voting_id":"43E","name":"BISHNU KHADKA"},"vote_count":1,"created_on":"2019-10-06T09:27:35.531522+05:45"},{"idx":"BRiQR2iVzQrTapTxqafMvG","contest":"OS Nepal Music Award 2076","episode":null,"category":"BEST POP VIDEO EDITOR","contestant":{"voting_id":"42E","name":"MOHAN SUNUWAR"},"vote_count":1,"created_on":"2019-10-06T09:27:06.893640+05:45"},{"idx":"9naF3LGn2B8bTTLnkpDsNK","contest":"OS Nepal Music Award 2076","episode":null,"category":"BEST MODERN/ POP CINEMATOGRAPHER","contestant":{"voting_id":"41E","name":"AJAY REGMI"},"vote_count":1,"created_on":"2019-10-06T09:26:49.281760+05:45"},{"idx":"uSrobSASh9e7GLfTLQBuJ6","contest":"OS Nepal Music Award 2076","episode":null,"category":"BEST ADHUNIK MALE SINGER ","contestant":{"voting_id":"40E","name":"PURUSHOTTAM SUBEDI"},"vote_count":1,"created_on":"2019-10-06T09:26:19.809955+05:45"},{"idx":"JjujgJDdedo6frEkQaJfK6","contest":"OS Nepal Music Award 2076","episode":null,"category":"BEST ADHUNIK FEMALE SINGER ","contestant":{"voting_id":"39E","name":"JUNU GAUTAM"},"vote_count":1,"created_on":"2019-10-06T09:25:54.533484+05:45"},{"idx":"NfYET7otZPPfW6onCX7DtP","contest":"OS Nepal Music Award 2076","episode":null,"category":"BEST ADHUNIK NEW MALE SINGER","contestant":{"voting_id":"38A","name":"ROSHAN SUBEDI"},"vote_count":1,"created_on":"2019-10-06T09:25:31.010821+05:45"},{"idx":"r6GccdLfN9MscFC5Q4fCSG","contest":"OS Nepal Music Award 2076","episode":null,"category":" BEST ADHUNIK NEW FEMALE SINGER","contestant":{"voting_id":"37E","name":"SITA POUDEL"},"vote_count":1,"created_on":"2019-10-06T09:25:14.496635+05:45"},{"idx":"3ad9raiQxwucr6He8F82TU","contest":"OS Nepal Music Award 2076","episode":null,"category":"BEST ADHUNIK MALE MODEL ","contestant":{"voting_id":"36E","name":"SURAJ SHRESTHA"},"vote_count":1,"created_on":"2019-10-06T09:24:51.897484+05:45"},{"idx":"Ck7QoQWJesPiSYt6Zdpbkk","contest":"OS Nepal Music Award 2076","episode":null,"category":"BEST ADHUNIK FEMALE MODEL","contestant":{"voting_id":"35E","name":"SUSHILA THAPA"},"vote_count":1,"created_on":"2019-10-06T09:24:35.496287+05:45"},{"idx":"2BFwfbWTNoWA4U599UsNhY","contest":"OS Nepal Music Award 2076","episode":null,"category":"BEST ADHUNIK VIDEO DIRECTOR ","contestant":{"voting_id":"34E","name":"BABITA SHRESTHA"},"vote_count":1,"created_on":"2019-10-06T09:24:14.904040+05:45"},{"idx":"N5kTHgALZtPXHrhhKCzyqf","contest":"OS Nepal Music Award 2076","episode":null,"category":"BEST ADHUNIK ARRANGER","contestant":{"voting_id":"33E","name":"PURUSHOTTAM SUBEDI"},"vote_count":1,"created_on":"2019-10-06T09:23:57.267100+05:45"},{"idx":"E7YpapEa4Q4GxrTzFmMvnU","contest":"OS Nepal Music Award 2076","episode":null,"category":" BEST ADHUNIK MUSIC ","contestant":{"voting_id":"32E","name":"RAJKUMAR BAGAR"},"vote_count":1,"created_on":"2019-10-06T09:23:34.788554+05:45"},{"idx":"ARruBpruuu2zPNnsmzDxbR","contest":"OS Nepal Music Award 2076","episode":null,"category":"BEST ADHUNIK LYRICIST ","contestant":{"voting_id":"31D","name":"ROSHAN SHRESTHA"},"vote_count":1,"created_on":"2019-10-06T09:23:07.609664+05:45"}]}