{"total_pages":275,"total_records":13717,"next":"https://khalti.com/api/v2/vuservote/?page=28","previous":"https://khalti.com/api/v2/vuservote/?page=26","record_range":[1301,1350],"current_page":27,"records":[{"idx":"ka3NfqfqJjPhueCfssmwwG","contest":"Music Eve 2020","episode":"Music Eve 2020 IOE","category":null,"contestant":{"voting_id":"23","name":"The Acoustic Aero"},"vote_count":1,"created_on":"2020-01-30T06:57:23.668368+05:45"},{"idx":"ZyZ7U6SkCH8wTYFbiXVMD7","contest":"Music Eve 2020","episode":"Music Eve 2020 IOE","category":null,"contestant":{"voting_id":"11","name":"Nitesh subedi"},"vote_count":1,"created_on":"2020-01-30T06:27:55.919994+05:45"},{"idx":"mRMMHgG6QxE9o7v4wMk3Hf","contest":"Music Eve 2020","episode":"Music Eve 2020 IOE","category":null,"contestant":{"voting_id":"23","name":"The Acoustic Aero"},"vote_count":1,"created_on":"2020-01-30T06:17:32.919462+05:45"},{"idx":"tvjHZhPDp8jQbSwwzy7kiW","contest":"Music Eve 2020","episode":"Music Eve 2020 IOE","category":null,"contestant":{"voting_id":"23","name":"The Acoustic Aero"},"vote_count":1,"created_on":"2020-01-30T04:32:07.025339+05:45"},{"idx":"S7oc6AahE3uQVBsNnkuWR9","contest":"Model Superstar","episode":"Model Superstar Finale","category":null,"contestant":{"voting_id":"04","name":"Sabita Maharjan"},"vote_count":1,"created_on":"2020-01-30T00:58:02.435361+05:45"},{"idx":"k8E4Wu3UVwXDZS8i9gNU5N","contest":"Music Eve 2020","episode":"Music Eve 2020 IOE","category":null,"contestant":{"voting_id":"09","name":"Manoj Bhattarai"},"vote_count":1,"created_on":"2020-01-30T00:56:52.394277+05:45"},{"idx":"nosrciW3xM84ttQ9tBqqxG","contest":"Music Eve 2020","episode":"Music Eve 2020 IOE","category":null,"contestant":{"voting_id":"12","name":"one band"},"vote_count":1,"created_on":"2020-01-29T23:24:52.365602+05:45"},{"idx":"NdG9LxCvNj3uELKuZZNkXX","contest":"Music Eve 2020","episode":"Music Eve 2020 IOE","category":null,"contestant":{"voting_id":"23","name":"The Acoustic Aero"},"vote_count":1,"created_on":"2020-01-29T23:21:26.012425+05:45"},{"idx":"9Es9Ucu9u7b6ZxE3TeiUfk","contest":"Model Superstar","episode":"Model Superstar Finale","category":null,"contestant":{"voting_id":"06","name":"Sujan Basnet"},"vote_count":1,"created_on":"2020-01-29T23:19:45.439692+05:45"},{"idx":"z6XLaSGKSYyM3LfnjgLCEj","contest":"Music Eve 2020","episode":"Music Eve 2020 IOE","category":null,"contestant":{"voting_id":"11","name":"Nitesh subedi"},"vote_count":1,"created_on":"2020-01-29T23:04:50.687142+05:45"},{"idx":"5JgaRXf5yRiVakpjvRjUf8","contest":"Music Eve 2020","episode":"Music Eve 2020 IOE","category":null,"contestant":{"voting_id":"23","name":"The Acoustic Aero"},"vote_count":1,"created_on":"2020-01-29T23:03:50.258187+05:45"},{"idx":"vYPNyRHQVDMJYRLUjRgeoA","contest":"Music Eve 2020","episode":"Music Eve 2020 IOE","category":null,"contestant":{"voting_id":"23","name":"The Acoustic Aero"},"vote_count":1,"created_on":"2020-01-29T23:03:29.061304+05:45"},{"idx":"y7XLBnTfJZecp6wFZQCjkB","contest":"Music Eve 2020","episode":"Music Eve 2020 IOE","category":null,"contestant":{"voting_id":"23","name":"The Acoustic Aero"},"vote_count":1,"created_on":"2020-01-29T23:02:17.077609+05:45"},{"idx":"qvC4on44Yk4hMoF3JLa6t7","contest":"Music Eve 2020","episode":"Music Eve 2020 IOE","category":null,"contestant":{"voting_id":"23","name":"The Acoustic Aero"},"vote_count":1,"created_on":"2020-01-29T22:53:59.252809+05:45"},{"idx":"XN7Mu4kjcDkCFqAh6a2Xi3","contest":"Music Eve 2020","episode":"Music Eve 2020 IOE","category":null,"contestant":{"voting_id":"23","name":"The Acoustic Aero"},"vote_count":1,"created_on":"2020-01-29T22:52:06.536376+05:45"},{"idx":"5mUH5whZSv8MgDti2fRbFo","contest":"Music Eve 2020","episode":"Music Eve 2020 IOE","category":null,"contestant":{"voting_id":"15","name":"Purnima And Guys"},"vote_count":1,"created_on":"2020-01-29T22:51:09.921591+05:45"},{"idx":"NMn2PRmuSQ4qoZKdMTdA3K","contest":"Model Superstar","episode":"Model Superstar Finale","category":null,"contestant":{"voting_id":"30","name":"Nikita Shakya"},"vote_count":1,"created_on":"2020-01-29T22:50:19.369592+05:45"},{"idx":"pm5PatPvuJ897UQQmUcwsb","contest":"Music Eve 2020","episode":"Music Eve 2020 IOE","category":null,"contestant":{"voting_id":"20","name":"Sinam Adhikari"},"vote_count":1,"created_on":"2020-01-29T22:47:10.217008+05:45"},{"idx":"Fp2CS6AgkceRThEkaqr2t6","contest":"Model Superstar","episode":"Model Superstar Finale","category":null,"contestant":{"voting_id":"03","name":"Smriti Shah"},"vote_count":1,"created_on":"2020-01-29T22:32:39.202881+05:45"},{"idx":"dVBpuXsKfWWnBC3Wiea33A","contest":"Music Eve 2020","episode":"Music Eve 2020 IOE","category":null,"contestant":{"voting_id":"07","name":"Chemical Latch"},"vote_count":50,"created_on":"2020-01-29T22:16:16.474911+05:45"},{"idx":"MQVkQTESCCBeSkHZjL58RU","contest":"Music Eve 2020","episode":"Music Eve 2020 IOE","category":null,"contestant":{"voting_id":"19","name":"shital shivakoti"},"vote_count":1,"created_on":"2020-01-29T22:15:59.004769+05:45"},{"idx":"xg9sm37cF3madc99fV8YiT","contest":"Music Eve 2020","episode":"Music Eve 2020 IOE","category":null,"contestant":{"voting_id":"11","name":"Nitesh subedi"},"vote_count":1,"created_on":"2020-01-29T22:06:50.990323+05:45"},{"idx":"fdC48VNevzWyAYNW3Q2mYj","contest":"Music Eve 2020","episode":"Music Eve 2020 IOE","category":null,"contestant":{"voting_id":"23","name":"The Acoustic Aero"},"vote_count":1,"created_on":"2020-01-29T22:05:50.602707+05:45"},{"idx":"aYPmpUVQyJU9f4e3NKGCpd","contest":"Model Superstar","episode":"Model Superstar Finale","category":null,"contestant":{"voting_id":"02","name":"Srijana Basnet"},"vote_count":1,"created_on":"2020-01-29T22:03:47.794859+05:45"},{"idx":"SPLxUFWR8Te8967vsbuyyQ","contest":"Music Eve 2020","episode":"Music Eve 2020 IOE","category":null,"contestant":{"voting_id":"23","name":"The Acoustic Aero"},"vote_count":1,"created_on":"2020-01-29T22:03:17.583327+05:45"},{"idx":"bHEJzL7BU2XeVDz572bpTS","contest":"Music Eve 2020","episode":"Music Eve 2020 IOE","category":null,"contestant":{"voting_id":"12","name":"one band"},"vote_count":1,"created_on":"2020-01-29T22:02:40.476650+05:45"},{"idx":"PKdzyEhmZXG3jZ7AsLyLUh","contest":"Music Eve 2020","episode":"Music Eve 2020 IOE","category":null,"contestant":{"voting_id":"23","name":"The Acoustic Aero"},"vote_count":1,"created_on":"2020-01-29T21:57:59.743152+05:45"},{"idx":"xLq8JLMR7Pu9htyF4gAbJk","contest":"Music Eve 2020","episode":"Music Eve 2020 IOE","category":null,"contestant":{"voting_id":"23","name":"The Acoustic Aero"},"vote_count":1,"created_on":"2020-01-29T21:50:53.853184+05:45"},{"idx":"dowmky8WeCa3hZtN5gQ9WM","contest":"Music Eve 2020","episode":"Music Eve 2020 IOE","category":null,"contestant":{"voting_id":"24","name":"The Pan Band"},"vote_count":1,"created_on":"2020-01-29T21:46:51.615643+05:45"},{"idx":"B7sfc45iqFvgXcrK5ks7R8","contest":"Music Eve 2020","episode":"Music Eve 2020 IOE","category":null,"contestant":{"voting_id":"07","name":"Chemical Latch"},"vote_count":1,"created_on":"2020-01-29T21:44:20.451293+05:45"},{"idx":"u596i8y2S3mjNGWVfmrAQW","contest":"Music Eve 2020","episode":"Music Eve 2020 IOE","category":null,"contestant":{"voting_id":"07","name":"Chemical Latch"},"vote_count":25,"created_on":"2020-01-29T21:43:55.651431+05:45"},{"idx":"JhWXhxnZhrrnq7xbu8MDPi","contest":"Music Eve 2020","episode":"Music Eve 2020 IOE","category":null,"contestant":{"voting_id":"09","name":"Manoj Bhattarai"},"vote_count":1,"created_on":"2020-01-29T21:31:43.674139+05:45"},{"idx":"5rWg8rBDWR2Y3rHJR2fQKd","contest":"Music Eve 2020","episode":"Music Eve 2020 IOE","category":null,"contestant":{"voting_id":"09","name":"Manoj Bhattarai"},"vote_count":1,"created_on":"2020-01-29T21:24:01.381751+05:45"},{"idx":"T2z2RyTx2oyj2w7PoncaPV","contest":"Music Eve 2020","episode":"Music Eve 2020 IOE","category":null,"contestant":{"voting_id":"16","name":"saahil duo"},"vote_count":1,"created_on":"2020-01-29T21:20:51.942677+05:45"},{"idx":"PU5AG7nfU3JXf6KNjPZ4VK","contest":"Music Eve 2020","episode":"Music Eve 2020 IOE","category":null,"contestant":{"voting_id":"13","name":"Pawan Yokpangden"},"vote_count":1,"created_on":"2020-01-29T21:08:16.744298+05:45"},{"idx":"sjy8EB5Hjzh9xGeV9sSdra","contest":"Model Superstar","episode":"Model Superstar Finale","category":null,"contestant":{"voting_id":"04","name":"Sabita Maharjan"},"vote_count":1,"created_on":"2020-01-29T20:50:10.163982+05:45"},{"idx":"wRZbnrQenbKqLHZEpCTQan","contest":"Music Eve 2020","episode":"Music Eve 2020 IOE","category":null,"contestant":{"voting_id":"11","name":"Nitesh subedi"},"vote_count":1,"created_on":"2020-01-29T20:50:04.860436+05:45"},{"idx":"g3hxiw2gT7xb2PBeN4H65H","contest":"Music Eve 2020","episode":"Music Eve 2020 IOE","category":null,"contestant":{"voting_id":"03","name":"Abishek Aryal"},"vote_count":1,"created_on":"2020-01-29T20:48:27.419074+05:45"},{"idx":"UXn7v8PSDNLGUEBxSiK8L3","contest":"Music Eve 2020","episode":"Music Eve 2020 IOE","category":null,"contestant":{"voting_id":"26","name":"Utsav Pradhan"},"vote_count":1,"created_on":"2020-01-29T20:48:23.985858+05:45"},{"idx":"xPPFj6bjHCog9xD95arUhT","contest":"Model Superstar","episode":"Model Superstar Finale","category":null,"contestant":{"voting_id":"16","name":"Anil Karki"},"vote_count":1,"created_on":"2020-01-29T20:47:45.081833+05:45"},{"idx":"ECggmrf2ZTkqBVqQJwwwmb","contest":"Music Eve 2020","episode":"Music Eve 2020 IOE","category":null,"contestant":{"voting_id":"13","name":"Pawan Yokpangden"},"vote_count":1,"created_on":"2020-01-29T20:38:34.359111+05:45"},{"idx":"7mJ9ukqQRTQvFbwCGhUSv3","contest":"Music Eve 2020","episode":"Music Eve 2020 IOE","category":null,"contestant":{"voting_id":"13","name":"Pawan Yokpangden"},"vote_count":1,"created_on":"2020-01-29T20:24:24.576196+05:45"},{"idx":"j7DpaNFTzSgfUQkeGTgDt9","contest":"Music Eve 2020","episode":"Music Eve 2020 IOE","category":null,"contestant":{"voting_id":"07","name":"Chemical Latch"},"vote_count":1,"created_on":"2020-01-29T20:23:40.517747+05:45"},{"idx":"GAcBTDuh8VRc5rKaCRrc82","contest":"Music Eve 2020","episode":"Music Eve 2020 IOE","category":null,"contestant":{"voting_id":"16","name":"saahil duo"},"vote_count":1,"created_on":"2020-01-29T20:06:40.804394+05:45"},{"idx":"cnLjouvqjc9J7avTUzEgBo","contest":"Music Eve 2020","episode":"Music Eve 2020 IOE","category":null,"contestant":{"voting_id":"16","name":"saahil duo"},"vote_count":1,"created_on":"2020-01-29T20:06:19.205062+05:45"},{"idx":"8XJJipZ2A6kSs2pzo5fiKN","contest":"Music Eve 2020","episode":"Music Eve 2020 IOE","category":null,"contestant":{"voting_id":"16","name":"saahil duo"},"vote_count":1,"created_on":"2020-01-29T19:48:09.290626+05:45"},{"idx":"sDCVfcJgKDXEsgxBvBoMQD","contest":"Music Eve 2020","episode":"Music Eve 2020 IOE","category":null,"contestant":{"voting_id":"15","name":"Purnima And Guys"},"vote_count":1,"created_on":"2020-01-29T19:46:56.968016+05:45"},{"idx":"omQKKmrWKGFxpdCokPx99P","contest":"Music Eve 2020","episode":"Music Eve 2020 IOE","category":null,"contestant":{"voting_id":"13","name":"Pawan Yokpangden"},"vote_count":1,"created_on":"2020-01-29T19:35:47.428294+05:45"},{"idx":"DuQPDitr7mJphQwVuXRaYN","contest":"Music Eve 2020","episode":"Music Eve 2020 IOE","category":null,"contestant":{"voting_id":"03","name":"Abishek Aryal"},"vote_count":1,"created_on":"2020-01-29T19:28:02.877677+05:45"},{"idx":"WXwSpnYtmtPbWAw293Upei","contest":"Music Eve 2020","episode":"Music Eve 2020 IOE","category":null,"contestant":{"voting_id":"22","name":"swayam dhakal"},"vote_count":1,"created_on":"2020-01-29T19:22:06.276002+05:45"}]}