{"total_pages":275,"total_records":13721,"next":"https://khalti.com/api/v2/vuservote/?page=271","previous":"https://khalti.com/api/v2/vuservote/?page=269","record_range":[13451,13500],"current_page":270,"records":[{"idx":"gjNfk2bcjT9rcRZjHrocdT","contest":"OS Nepal Music Award 2076","episode":null,"category":"BEST POP FEMALE SINGER","contestant":{"voting_id":"29E","name":"SUJATA KC"},"vote_count":1,"created_on":"2019-10-06T09:21:52.849586+05:45"},{"idx":"5gwsMwnRD8gFdDhVRUkeQC","contest":"OS Nepal Music Award 2076","episode":null,"category":"BEST POP MALE SINGER ","contestant":{"voting_id":"28E","name":"RAKESH RAI"},"vote_count":1,"created_on":"2019-10-06T09:21:34.853760+05:45"},{"idx":"QfeTS23gA7a27vafvuWRZf","contest":"OS Nepal Music Award 2076","episode":null,"category":" BEST POP NEW FEMALE SINGER","contestant":{"voting_id":"27E","name":"s"},"vote_count":1,"created_on":"2019-10-06T09:21:04.533262+05:45"},{"idx":"M4yMF6CaTgQ8egbToAZpei","contest":"OS Nepal Music Award 2076","episode":null,"category":"BEST POP NEW MALE SINGER ","contestant":{"voting_id":"26E","name":"SURAJ KALAKHETI"},"vote_count":1,"created_on":"2019-10-06T09:20:39.195488+05:45"},{"idx":"weChhp8BT4YyJCzTyMYGRb","contest":"OS Nepal Music Award 2076","episode":null,"category":"BEST POP MALE MODEL ","contestant":{"voting_id":"25B","name":"KAMAL SINGH"},"vote_count":1,"created_on":"2019-10-06T09:20:18.270764+05:45"},{"idx":"eQ4nmNffBSsGN9swZRrU4B","contest":"OS Nepal Music Award 2076","episode":null,"category":"BEST POP FEMALE MODEL ","contestant":{"voting_id":"24E","name":"SMRITY SHRESTHA"},"vote_count":1,"created_on":"2019-10-06T09:19:57.890498+05:45"},{"idx":"PUHzVa25PRoyYaYThM3rY4","contest":"OS Nepal Music Award 2076","episode":null,"category":"BEST POP VIDEO DIRECTOR ","contestant":{"voting_id":"23E","name":"PRAKASH DHITAL"},"vote_count":1,"created_on":"2019-10-06T09:19:37.991400+05:45"},{"idx":"6aYx2WeMmUj9BjVfvi4Fhj","contest":"OS Nepal Music Award 2076","episode":null,"category":"BEST POP ARRANGER","contestant":{"voting_id":"22E","name":"KESHAB BADU"},"vote_count":1,"created_on":"2019-10-06T09:19:10.530616+05:45"},{"idx":"odjK444rVYUZTpcZAYumHj","contest":"OS Nepal Music Award 2076","episode":null,"category":"BEST POP MUSIC","contestant":{"voting_id":"21E","name":"SHANKAR THAPA"},"vote_count":1,"created_on":"2019-10-06T09:18:36.473123+05:45"},{"idx":"APdjxaKzD3tucuetKaJRWo","contest":"OS Nepal Music Award 2076","episode":null,"category":"BEST POP LYRICIST ","contestant":{"voting_id":"20E","name":"KIRAN MICHEAL"},"vote_count":1,"created_on":"2019-10-06T09:18:17.089728+05:45"},{"idx":"YScaYUXKBJagVZSevbX6T3","contest":"OS Nepal Music Award 2076","episode":null,"category":"BEST LOK POP","contestant":{"voting_id":"19E","name":"SURAJ SHRESHTA"},"vote_count":1,"created_on":"2019-10-06T09:17:34.815127+05:45"},{"idx":"4mj9jcLw4KbwDBdkvwcKmc","contest":"OS Nepal Music Award 2076","episode":null,"category":" BEST POP SONG","contestant":{"voting_id":"18E","name":"SACHIN RAUNIYAR"},"vote_count":1,"created_on":"2019-10-06T09:17:12.231818+05:45"},{"idx":"KQcXKnF8xjMkoC4utsgPih","contest":"OS Nepal Music Award 2076","episode":null,"category":"BEST LOKDOHORI VIDEO DIRECTOR (Dance)","contestant":{"voting_id":"6A","name":"MAUSAM HIMALI"},"vote_count":1,"created_on":"2019-10-06T08:57:08.669166+05:45"},{"idx":"EcDoBbaTt5p5jvGHE4c9o3","contest":"OS Nepal Music Award 2076","episode":null,"category":" BEST LOK SONG","contestant":{"voting_id":"17E","name":"ANJU GAUTAM"},"vote_count":1,"created_on":"2019-10-06T08:56:48.369371+05:45"},{"idx":"uJ7g94TroDF65okiZL4T3a","contest":"OS Nepal Music Award 2076","episode":null,"category":"BEST LOKDOHORI FEMALE SINGER","contestant":{"voting_id":"16E","name":"SARITA KARKI"},"vote_count":1,"created_on":"2019-10-06T08:56:30.477063+05:45"},{"idx":"vyrdZ99uYs3Z5hjsTATkCf","contest":"OS Nepal Music Award 2076","episode":null,"category":"BEST LOKDOHORI MALE SINGER","contestant":{"voting_id":"15E","name":"ARJUN KUNWAR"},"vote_count":1,"created_on":"2019-10-06T08:56:10.400262+05:45"},{"idx":"jizo6p54ddw5BGatYpcQJ8","contest":"OS Nepal Music Award 2076","episode":null,"category":"BEST LOKDOHORI MALE SINGER (NEW)","contestant":{"voting_id":"14E","name":"KUSHAL BISHWOKARMA"},"vote_count":1,"created_on":"2019-10-06T08:55:44.325777+05:45"},{"idx":"XqHZtgZ5RXfrNGgZu2SnBe","contest":"OS Nepal Music Award 2076","episode":null,"category":"BEST LOKDOHORI FEMALE SINGER (NEW)","contestant":{"voting_id":"13E","name":"NABINA GHISHING"},"vote_count":1,"created_on":"2019-10-06T08:55:20.669336+05:45"},{"idx":"knGJGhy2rw2RMHHrDh8rLb","contest":"OS Nepal Music Award 2076","episode":null,"category":"BEST LOKDOHORI MALE MODEL (SAD)","contestant":{"voting_id":"12C","name":"DHURBA HIMALI"},"vote_count":1,"created_on":"2019-10-06T08:54:56.513827+05:45"},{"idx":"dBccREJEDdaRVic23REhgm","contest":"OS Nepal Music Award 2076","episode":null,"category":" BEST LOKDOHORI FEMALE MODEL (SAD)","contestant":{"voting_id":"11E","name":"SANCHITA SHAHI"},"vote_count":1,"created_on":"2019-10-06T08:54:25.670355+05:45"},{"idx":"k2SJNZJEvS3BssxBUSzBnS","contest":"OS Nepal Music Award 2076","episode":null,"category":"BEST LOKDOHORI MALE MODEL DANCE","contestant":{"voting_id":"10E","name":"NIRMAL CHHETRI"},"vote_count":1,"created_on":"2019-10-06T08:54:02.007634+05:45"},{"idx":"6hyAj9kt4isNW4CSL56scA","contest":"OS Nepal Music Award 2076","episode":null,"category":"BEST LOKDOHORI CINEMATOGRAPHER","contestant":{"voting_id":"8E","name":"BIRENDRA BHATTA"},"vote_count":1,"created_on":"2019-10-06T08:53:25.495453+05:45"},{"idx":"35vPVwGHzqwGrsebwyPZGg","contest":"OS Nepal Music Award 2076","episode":null,"category":"BEST LOKDOHORI VIDEO DIRECTOR (SAD)","contestant":{"voting_id":"7E","name":"D.R SUJAN"},"vote_count":1,"created_on":"2019-10-06T08:52:58.391366+05:45"},{"idx":"bkdjPtzmFfk8kqtHhLkAih","contest":"OS Nepal Music Award 2076","episode":null,"category":"BEST LOK POP","contestant":{"voting_id":"19B","name":"BIRENDRA SHRESHTA"},"vote_count":100,"created_on":"2019-10-06T07:36:06.304236+05:45"},{"idx":"5tL7WGQ3UWMxKc2Mv4CfQ5","contest":"OS Nepal Music Award 2076","episode":null,"category":"BEST LOKDOHORI MALE MODEL DANCE","contestant":{"voting_id":"10C","name":"MAHENDRA GAUTAM"},"vote_count":1,"created_on":"2019-10-05T23:27:01.012525+05:45"},{"idx":"S6ZiDicXCCtmEPHXGPSauY","contest":"OS Nepal Music Award 2076","episode":null,"category":"BEST LOK DOHARI","contestant":{"voting_id":"1E","name":"SHIVA KARKI"},"vote_count":1,"created_on":"2019-10-05T20:13:50.284463+05:45"},{"idx":"BfYttGQ588r2j5mVPHa5AD","contest":"OS Nepal Music Award 2076","episode":null,"category":"BEST POP NEW MALE SINGER ","contestant":{"voting_id":"26B","name":"DIPAK CHAULAGAIN"},"vote_count":1,"created_on":"2019-10-05T17:27:02.140717+05:45"},{"idx":"G66uaEfmgSGzPxLbHh7z9Z","contest":"OS Nepal Music Award 2076","episode":null,"category":"BEST ADHUNIK SONG","contestant":{"voting_id":"30E","name":"KIRAN GAJMER"},"vote_count":1,"created_on":"2019-10-05T16:59:13.225825+05:45"},{"idx":"BeChKCZqwanv3aTS9T6JLn","contest":"OS Nepal Music Award 2076","episode":null,"category":" BEST ADHUNIK NEW FEMALE SINGER","contestant":{"voting_id":"37C","name":"LAXMI DONG"},"vote_count":1,"created_on":"2019-10-05T16:58:54.768592+05:45"},{"idx":"xz27e3VqNyhrcAPPyAjFZT","contest":"OS Nepal Music Award 2076","episode":null,"category":"BEST LOK POP","contestant":{"voting_id":"19B","name":"BIRENDRA SHRESHTA"},"vote_count":50,"created_on":"2019-10-05T16:09:15.994723+05:45"},{"idx":"Ex6aJZqbcyLt9yXuo2Atsk","contest":"OS Nepal Music Award 2076","episode":null,"category":"BEST ADHUNIK LYRICIST ","contestant":{"voting_id":"31A","name":"PRALAD SHAH"},"vote_count":1,"created_on":"2019-10-05T15:57:35.461767+05:45"},{"idx":"oRUrdDQZV5sFgafCUhCfqX","contest":"OS Nepal Music Award 2076","episode":null,"category":"BEST POP MALE SINGER ","contestant":{"voting_id":"28E","name":"RAKESH RAI"},"vote_count":1,"created_on":"2019-10-05T13:51:03.839790+05:45"},{"idx":"CAjEDaQnYcu7oquX2YaLYY","contest":"OS Nepal Music Award 2076","episode":null,"category":"BEST SELO FEMALE SINGER","contestant":{"voting_id":"54A","name":"SHASHI KALA MOKTAN"},"vote_count":1,"created_on":"2019-10-05T13:35:03.324667+05:45"},{"idx":"w5ZjQsMDaKokuzVXKS284P","contest":"OS Nepal Music Award 2076","episode":null,"category":"BEST LOKDOHORI ARRANGER ","contestant":{"voting_id":"4C","name":"HEMANT SHISHIR"},"vote_count":1,"created_on":"2019-10-05T13:33:57.737526+05:45"},{"idx":"3QrwuAeGTPpkL8azb3Eai5","contest":"OS Nepal Music Award 2076","episode":null,"category":"BEST TAMANG FEMALE SINGER","contestant":{"voting_id":"48C","name":"SRIJANA TAMANG"},"vote_count":1,"created_on":"2019-10-05T13:31:33.900969+05:45"},{"idx":"uiexhVPqmrwYSa4BxqWVc6","contest":"OS Nepal Music Award 2076","episode":null,"category":" BEST POP NEW FEMALE SINGER","contestant":{"voting_id":"27E","name":"s"},"vote_count":1,"created_on":"2019-10-05T13:03:12.912859+05:45"},{"idx":"NH7j8865QqtAtKHL879dmH","contest":"OS Nepal Music Award 2076","episode":null,"category":"BEST LOKDOHORI MALE SINGER","contestant":{"voting_id":"15E","name":"ARJUN KUNWAR"},"vote_count":1,"created_on":"2019-10-05T10:31:03.608012+05:45"},{"idx":"Qf5okGXjY9KLAJyxCLgqiW","contest":"OS Nepal Music Award 2076","episode":null,"category":"BEST POP VIDEO EDITOR","contestant":{"voting_id":"42B","name":"OM PRASI"},"vote_count":1,"created_on":"2019-10-05T09:40:35.426479+05:45"},{"idx":"UqxTNWVQmFHdZvrb5kzW39","contest":"OS Nepal Music Award 2076","episode":null,"category":"BEST DUET SONG ","contestant":{"voting_id":"44A","name":"KABITA SIWAKOTI & TANKA BUDATHOKI"},"vote_count":1,"created_on":"2019-10-05T09:32:43.595256+05:45"},{"idx":"y7D2MdS3iPbTPSteV7UAj2","contest":"OS Nepal Music Award 2076","episode":null,"category":"BEST LOK POP","contestant":{"voting_id":"19B","name":"BIRENDRA SHRESHTA"},"vote_count":25,"created_on":"2019-10-05T09:14:08.955510+05:45"},{"idx":"2GpoXxydZMz4LQpszkPqgn","contest":"OS Nepal Music Award 2076","episode":null,"category":"BEST POP NEW MALE SINGER ","contestant":{"voting_id":"26B","name":"DIPAK CHAULAGAIN"},"vote_count":1,"created_on":"2019-10-05T08:06:16.814092+05:45"},{"idx":"mfFU3eMgDpzzwcHQNV3vaY","contest":"OS Nepal Music Award 2076","episode":null,"category":"BEST LOKDOHORI LYRICIST","contestant":{"voting_id":"2D","name":"DHRUBA SHARMA      "},"vote_count":25,"created_on":"2019-10-05T06:50:06.135087+05:45"},{"idx":"QLEq7tUfBSUPPfzkTvq5nZ","contest":"OS Nepal Music Award 2076","episode":null,"category":"BEST LOKDOHORI LYRICIST","contestant":{"voting_id":"2D","name":"DHRUBA SHARMA      "},"vote_count":25,"created_on":"2019-10-05T06:49:24.053404+05:45"},{"idx":"Q8tLMS5tMppr3zERTaDi9h","contest":"OS Nepal Music Award 2076","episode":null,"category":" BEST POP SONG","contestant":{"voting_id":"18D","name":"SHISHIR BHANDARI"},"vote_count":1,"created_on":"2019-10-05T00:11:44.815297+05:45"},{"idx":"qgNS9bxxyePv6sEsumM5SD","contest":"OS Nepal Music Award 2076","episode":null,"category":"BEST ADHUNIK VIDEO DIRECTOR ","contestant":{"voting_id":"34A","name":"DIPAK ACHARYA"},"vote_count":500,"created_on":"2019-10-05T00:00:04.105234+05:45"},{"idx":"ZDDx3R9hmpDbiMZ5hAyPj5","contest":"OS Nepal Music Award 2076","episode":null,"category":"BEST ADHUNIK MALE MODEL ","contestant":{"voting_id":"36E","name":"SURAJ SHRESTHA"},"vote_count":1,"created_on":"2019-10-04T22:55:28.837366+05:45"},{"idx":"3NF9QbNJXY7jmBUHRPmALd","contest":"OS Nepal Music Award 2076","episode":null,"category":"BEST LOK DOHARI","contestant":{"voting_id":"1D","name":"DHARMARAJ POKHAREL"},"vote_count":1,"created_on":"2019-10-04T22:31:19.189349+05:45"},{"idx":"4yCBEcVGE9HsBCjKN2qWyE","contest":"OS Nepal Music Award 2076","episode":null,"category":"BEST LOKDOHORI LYRICIST","contestant":{"voting_id":"2E","name":"GANESH CHAULAGAI"},"vote_count":1,"created_on":"2019-10-04T20:42:16.616431+05:45"},{"idx":"GFHQkCPZr2m4SZW9iXNK9a","contest":"OS Nepal Music Award 2076","episode":null,"category":"BEST NATIONAL SONG","contestant":{"voting_id":"56C","name":"SMITA GHIMIRE"},"vote_count":1,"created_on":"2019-10-04T20:35:43.835033+05:45"},{"idx":"utebpfmQMhFvtwvyopUu38","contest":"OS Nepal Music Award 2076","episode":null,"category":"BEST LOK DOHARI","contestant":{"voting_id":"1C","name":"RAMILA NEUPANE"},"vote_count":1,"created_on":"2019-10-04T20:35:17.644714+05:45"}]}