{"total_pages":275,"total_records":13721,"next":"https://khalti.com/api/v2/vuservote/?page=272","previous":"https://khalti.com/api/v2/vuservote/?page=270","record_range":[13501,13550],"current_page":271,"records":[{"idx":"FVbwAdp8fiPTn9d6w7csEn","contest":"OS Nepal Music Award 2076","episode":null,"category":"BEST POP NEW MALE SINGER ","contestant":{"voting_id":"26A","name":"PRADIP K. GLAN"},"vote_count":100,"created_on":"2019-10-04T17:34:37.787950+05:45"},{"idx":"3R4frd7PAbsecfkxXcG7Nm","contest":"OS Nepal Music Award 2076","episode":null,"category":"BEST TAMANG MALE SINGER","contestant":{"voting_id":"49B","name":"PRADIP K.GLAN"},"vote_count":100,"created_on":"2019-10-04T17:33:35.806989+05:45"},{"idx":"2nftCNa57gVQrHP9htNxkm","contest":"OS Nepal Music Award 2076","episode":null,"category":"BEST LOKDOHORI LYRICIST","contestant":{"voting_id":"2D","name":"DHRUBA SHARMA      "},"vote_count":5,"created_on":"2019-10-04T13:28:54.356218+05:45"},{"idx":"g88vJ3XZDbiKv7vkdMXVwX","contest":"OS Nepal Music Award 2076","episode":null,"category":"BEST LOKDOHORI LYRICIST","contestant":{"voting_id":"2D","name":"DHRUBA SHARMA      "},"vote_count":50,"created_on":"2019-10-04T13:21:58.000895+05:45"},{"idx":"UQArgF537HrbXSqLMse4Vf","contest":"OS Nepal Music Award 2076","episode":null,"category":"BEST LOKDOHORI LYRICIST","contestant":{"voting_id":"2D","name":"DHRUBA SHARMA      "},"vote_count":50,"created_on":"2019-10-04T13:21:14.234414+05:45"},{"idx":"ZvaG4AXFoPnzgByFjReujZ","contest":"OS Nepal Music Award 2076","episode":null,"category":"BEST POP NEW MALE SINGER ","contestant":{"voting_id":"26B","name":"DIPAK CHAULAGAIN"},"vote_count":1,"created_on":"2019-10-04T13:07:11.315938+05:45"},{"idx":"8ojwzhtgNKut9YRWLYjfyi","contest":"OS Nepal Music Award 2076","episode":null,"category":"BEST LOK POP","contestant":{"voting_id":"19B","name":"BIRENDRA SHRESHTA"},"vote_count":25,"created_on":"2019-10-04T12:18:30.953314+05:45"},{"idx":"QGY2BCZDqd3Zj7PY4ZLGjT","contest":"OS Nepal Music Award 2076","episode":null,"category":" BEST POP SONG","contestant":{"voting_id":"18D","name":"SHISHIR BHANDARI"},"vote_count":1,"created_on":"2019-10-04T12:18:28.787049+05:45"},{"idx":"vhHQWFnUyv33yjA7eGy2bi","contest":"OS Nepal Music Award 2076","episode":null,"category":"BEST LOK DOHARI","contestant":{"voting_id":"1A","name":"DINESH CHHETRI                                                              "},"vote_count":1,"created_on":"2019-10-04T12:18:00.616757+05:45"},{"idx":"d4ECd7QpWefWBHaunkwCvM","contest":"OS Nepal Music Award 2076","episode":null,"category":"BEST LOK POP","contestant":{"voting_id":"19B","name":"BIRENDRA SHRESHTA"},"vote_count":1,"created_on":"2019-10-04T12:12:10.664933+05:45"},{"idx":"PNgZKHxKQYZjT8kqEFGXa5","contest":"OS Nepal Music Award 2076","episode":null,"category":"BEST LOK POP","contestant":{"voting_id":"19B","name":"BIRENDRA SHRESHTA"},"vote_count":1,"created_on":"2019-10-04T12:11:51.342037+05:45"},{"idx":"bN9AbULBJzWN5SBQn7nzLc","contest":"OS Nepal Music Award 2076","episode":null,"category":"BEST NATIONAL SONG","contestant":{"voting_id":"56C","name":"SMITA GHIMIRE"},"vote_count":1,"created_on":"2019-10-04T10:05:19.358215+05:45"},{"idx":"xuUVMtrUNfkRmBbbM3zN4j","contest":"OS Nepal Music Award 2076","episode":null,"category":"BEST POP NEW MALE SINGER ","contestant":{"voting_id":"26B","name":"DIPAK CHAULAGAIN"},"vote_count":1,"created_on":"2019-10-04T09:56:40.555122+05:45"},{"idx":"WyejPfzuTeD9oMhj6zLaj6","contest":"OS Nepal Music Award 2076","episode":null,"category":"BEST POP NEW MALE SINGER ","contestant":{"voting_id":"26B","name":"DIPAK CHAULAGAIN"},"vote_count":1,"created_on":"2019-10-04T09:36:05.691415+05:45"},{"idx":"LSJtJcSQUpPEJeZqJHQGsV","contest":"OS Nepal Music Award 2076","episode":null,"category":"BEST LOKDOHORI VIDEO DIRECTOR (SAD)","contestant":{"voting_id":"7E","name":"D.R SUJAN"},"vote_count":1,"created_on":"2019-10-04T08:49:58.065624+05:45"},{"idx":"wnvJZW2WSPgcnuZAreTvyY","contest":"OS Nepal Music Award 2076","episode":null,"category":"BEST MODERN/ POP CINEMATOGRAPHER","contestant":{"voting_id":"41A","name":"GANENDRA SHARMA HUMGAI"},"vote_count":1,"created_on":"2019-10-04T08:38:48.784424+05:45"},{"idx":"TsQ2fP6cMx9guLyLbNVbpP","contest":"OS Nepal Music Award 2076","episode":null,"category":" BEST POP SONG","contestant":{"voting_id":"18A","name":"SUNIL KATWAL"},"vote_count":1,"created_on":"2019-10-04T08:25:11.317247+05:45"},{"idx":"px8e3VJ97vApGYV9Xycvhh","contest":"OS Nepal Music Award 2076","episode":null,"category":"BEST LOKDOHORI MALE MODEL (SAD)","contestant":{"voting_id":"12D","name":"AASHIR PRATAP JUNG"},"vote_count":1,"created_on":"2019-10-04T08:24:17.116398+05:45"},{"idx":"CS5gPJKDAsd68gvPFm3DtD","contest":"OS Nepal Music Award 2076","episode":null,"category":"BEST POP FEMALE SINGER","contestant":{"voting_id":"29A","name":"ANGELA SHRESTHA"},"vote_count":1,"created_on":"2019-10-04T07:14:43.396507+05:45"},{"idx":"yeyM5jPPeT6hqfnJB5DZbd","contest":"OS Nepal Music Award 2076","episode":null,"category":"BEST POP LYRICIST ","contestant":{"voting_id":"20C","name":"MILAN BISTA"},"vote_count":1,"created_on":"2019-10-04T06:32:43.839036+05:45"},{"idx":"RRzKtFrKrApLyjmiiEaCuH","contest":"OS Nepal Music Award 2076","episode":null,"category":"BEST POP MALE MODEL ","contestant":{"voting_id":"25A","name":"DURGESH THAPA"},"vote_count":1,"created_on":"2019-10-03T22:42:34.089665+05:45"},{"idx":"qf3tGFF8tG6aVptBJKg5sJ","contest":"OS Nepal Music Award 2076","episode":null,"category":"BEST POP NEW MALE SINGER ","contestant":{"voting_id":"26E","name":"SURAJ KALAKHETI"},"vote_count":1,"created_on":"2019-10-03T22:41:25.283817+05:45"},{"idx":"J76RM6GDAV2TvtCMVnxLuH","contest":"OS Nepal Music Award 2076","episode":null,"category":"BEST SELO MALE SINGER","contestant":{"voting_id":"55D","name":"ANIL LAMA"},"vote_count":1,"created_on":"2019-10-03T20:47:54.025696+05:45"},{"idx":"iYsTWGXWtFVn7iXdyNuGmc","contest":"OS Nepal Music Award 2076","episode":null,"category":"BEST LOKDOHORI FEMALE SINGER","contestant":{"voting_id":"16C","name":"SAMJHANA BHANDARI"},"vote_count":1,"created_on":"2019-10-03T18:16:02.496176+05:45"},{"idx":"kfua3LAYkoXMczo2TDMKUD","contest":"OS Nepal Music Award 2076","episode":null,"category":"BEST LOKDOHORI MUSICIAN","contestant":{"voting_id":"3D","name":"AMIT BABU ROKAYA"},"vote_count":1,"created_on":"2019-10-03T18:02:14.719182+05:45"},{"idx":"tTtEXZ857puZxxYBewdLgE","contest":"OS Nepal Music Award 2076","episode":null,"category":"BEST LOK DOHARI","contestant":{"voting_id":"1E","name":"SHIVA KARKI"},"vote_count":1,"created_on":"2019-10-03T18:01:58.738273+05:45"},{"idx":"v36KpJjCsdKQueTzuXx3PA","contest":"OS Nepal Music Award 2076","episode":null,"category":"BEST POP FEMALE SINGER","contestant":{"voting_id":"29A","name":"ANGELA SHRESTHA"},"vote_count":1,"created_on":"2019-10-03T17:44:09.488646+05:45"},{"idx":"idG4EW82JJ27P6Entcv56N","contest":"OS Nepal Music Award 2076","episode":null,"category":"BEST POP NEW MALE SINGER ","contestant":{"voting_id":"26E","name":"SURAJ KALAKHETI"},"vote_count":1,"created_on":"2019-10-03T17:07:00.363779+05:45"},{"idx":"B39EB2PPx4kCSLm6uEi6SK","contest":"OS Nepal Music Award 2076","episode":null,"category":"BEST LOKDOHORI LYRICIST","contestant":{"voting_id":"2C","name":"KAMAL SARGAM"},"vote_count":1,"created_on":"2019-10-03T14:48:10.431797+05:45"},{"idx":"U2XP78wBXKWPnrvRxhTuL6","contest":"OS Nepal Music Award 2076","episode":null,"category":"BEST LOK DOHARI","contestant":{"voting_id":"1E","name":"SHIVA KARKI"},"vote_count":1,"created_on":"2019-10-03T14:46:27.630200+05:45"},{"idx":"qUXWkHuTpdTigzrihV5V6N","contest":"OS Nepal Music Award 2076","episode":null,"category":"BEST LOK POP","contestant":{"voting_id":"19B","name":"BIRENDRA SHRESHTA"},"vote_count":50,"created_on":"2019-10-03T14:25:48.758399+05:45"},{"idx":"7tgnonv2WZxV4EBggGjrmM","contest":"OS Nepal Music Award 2076","episode":null,"category":"BEST SELO MALE SINGER","contestant":{"voting_id":"55C","name":"RAMIT LAMA"},"vote_count":1,"created_on":"2019-10-03T12:15:06.279557+05:45"},{"idx":"HVphyCRRvPPowkNXwdkxCF","contest":"OS Nepal Music Award 2076","episode":null,"category":"BEST SELO MALE SINGER","contestant":{"voting_id":"55C","name":"RAMIT LAMA"},"vote_count":1,"created_on":"2019-10-03T12:14:16.273617+05:45"},{"idx":"XxwtJwvLNXmRF3DxQvgEn7","contest":"OS Nepal Music Award 2076","episode":null,"category":"BEST POP MALE SINGER ","contestant":{"voting_id":"28E","name":"RAKESH RAI"},"vote_count":1,"created_on":"2019-10-03T11:58:59.930265+05:45"},{"idx":"gXw4VwP2u2TcXe5iTvZrXE","contest":"OS Nepal Music Award 2076","episode":null,"category":"BEST POP NEW MALE SINGER ","contestant":{"voting_id":"26E","name":"SURAJ KALAKHETI"},"vote_count":1,"created_on":"2019-10-03T09:52:33.265442+05:45"},{"idx":"jGE7omRC9zuyuY8RuYtHTk","contest":"OS Nepal Music Award 2076","episode":null,"category":" BEST POP NEW FEMALE SINGER","contestant":{"voting_id":"27D","name":"BENISHA POUDEL"},"vote_count":50,"created_on":"2019-10-03T09:47:28.174406+05:45"},{"idx":"qCjb9AWwbkL2XT6pts5PT7","contest":"OS Nepal Music Award 2076","episode":null,"category":"BEST POP NEW MALE SINGER ","contestant":{"voting_id":"26E","name":"SURAJ KALAKHETI"},"vote_count":1,"created_on":"2019-10-03T09:46:22.876159+05:45"},{"idx":"byfvJXL2di7BMBiRWAnZvC","contest":"OS Nepal Music Award 2076","episode":null,"category":"BEST ADHUNIK SONG","contestant":{"voting_id":"30B","name":"SURESH WAGLE"},"vote_count":1,"created_on":"2019-10-03T09:44:52.655908+05:45"},{"idx":"yBcHujPYtqDWoL65NzJgC2","contest":"OS Nepal Music Award 2076","episode":null,"category":"BEST POP NEW MALE SINGER ","contestant":{"voting_id":"26E","name":"SURAJ KALAKHETI"},"vote_count":1,"created_on":"2019-10-03T08:54:41.387993+05:45"},{"idx":"e2tF85zqrNXM7yoKnHjkxV","contest":"OS Nepal Music Award 2076","episode":null,"category":"BEST MODERN VIDEO EDITOR","contestant":{"voting_id":"43C","name":"BIKASH DHAMALA"},"vote_count":1,"created_on":"2019-10-03T06:54:39.118395+05:45"},{"idx":"tuQfqDzR9vKugVDtu8gz5k","contest":"OS Nepal Music Award 2076","episode":null,"category":"BEST LOK POP","contestant":{"voting_id":"19B","name":"BIRENDRA SHRESHTA"},"vote_count":1,"created_on":"2019-10-03T00:03:09.555724+05:45"},{"idx":"7vfZMvBU8BwhchpVfcidL8","contest":"OS Nepal Music Award 2076","episode":null,"category":"BEST TAMANG MALE SINGER","contestant":{"voting_id":"49B","name":"PRADIP K.GLAN"},"vote_count":1,"created_on":"2019-10-02T23:17:01.668118+05:45"},{"idx":"yrYvgpWMNKuLZSV5yaxtJU","contest":"OS Nepal Music Award 2076","episode":null,"category":"BEST SELO FEMALE SINGER","contestant":{"voting_id":"54C","name":"MINGS LAMA"},"vote_count":1,"created_on":"2019-10-02T22:32:21.508823+05:45"},{"idx":"cZsw6gd9FZZw5CyRogys8L","contest":"OS Nepal Music Award 2076","episode":null,"category":"BEST NATIONAL LYRICIST","contestant":{"voting_id":"57D","name":"UDESH SHRESHTA"},"vote_count":1,"created_on":"2019-10-02T22:30:57.958760+05:45"},{"idx":"MF4hDWpceBYsXRb6tRkqDD","contest":"OS Nepal Music Award 2076","episode":null,"category":"BEST NATIONAL SONG","contestant":{"voting_id":"56C","name":"SMITA GHIMIRE"},"vote_count":1,"created_on":"2019-10-02T22:29:53.546436+05:45"},{"idx":"rAEyiPa9XQyKRxuKC9BwS9","contest":"OS Nepal Music Award 2076","episode":null,"category":"BEST POP FEMALE SINGER","contestant":{"voting_id":"29A","name":"ANGELA SHRESTHA"},"vote_count":1,"created_on":"2019-10-02T21:09:56.403258+05:45"},{"idx":"NrFz2AUr3WCwPPG5cmYTd3","contest":"OS Nepal Music Award 2076","episode":null,"category":"BEST LOK DOHARI","contestant":{"voting_id":"1D","name":"DHARMARAJ POKHAREL"},"vote_count":1,"created_on":"2019-10-02T20:36:28.319975+05:45"},{"idx":"dVMHzrHrKVHioDavgHbo7E","contest":"OS Nepal Music Award 2076","episode":null,"category":"BEST LOKDOHORI VIDEO DIRECTOR (Dance)","contestant":{"voting_id":"6A","name":"MAUSAM HIMALI"},"vote_count":1,"created_on":"2019-10-02T14:02:08.315734+05:45"},{"idx":"vGpibdXfqtMEvpBMffjL69","contest":"OS Nepal Music Award 2076","episode":null,"category":" BEST LOK SONG","contestant":{"voting_id":"17B","name":"SURAJ THAPA"},"vote_count":1,"created_on":"2019-10-02T14:01:38.341786+05:45"},{"idx":"pgQmLWbCvqUjWe3zCqDQsj","contest":"OS Nepal Music Award 2076","episode":null,"category":"BEST LOKDOHORI MALE SINGER","contestant":{"voting_id":"15E","name":"ARJUN KUNWAR"},"vote_count":1,"created_on":"2019-10-02T14:01:20.249447+05:45"}]}