{"total_pages":275,"total_records":13721,"next":"https://khalti.com/api/v2/vuservote/?page=273","previous":"https://khalti.com/api/v2/vuservote/?page=271","record_range":[13551,13600],"current_page":272,"records":[{"idx":"h8MHDPNNAwccREYF4icDES","contest":"OS Nepal Music Award 2076","episode":null,"category":"BEST LOKDOHORI MALE SINGER (NEW)","contestant":{"voting_id":"14E","name":"KUSHAL BISHWOKARMA"},"vote_count":1,"created_on":"2019-10-02T14:01:04.638869+05:45"},{"idx":"eohcy78qZnV7K5wawXdgy9","contest":"OS Nepal Music Award 2076","episode":null,"category":"BEST LOKDOHORI FEMALE SINGER (NEW)","contestant":{"voting_id":"13A","name":"NIRU SHREES MAGAR"},"vote_count":1,"created_on":"2019-10-02T14:00:49.288677+05:45"},{"idx":"PczKBLLfvB7bbgczq5TeCa","contest":"OS Nepal Music Award 2076","episode":null,"category":" BEST LOKDOHORI FEMALE MODEL (SAD)","contestant":{"voting_id":"11E","name":"SANCHITA SHAHI"},"vote_count":1,"created_on":"2019-10-02T14:00:13.143801+05:45"},{"idx":"6FGiXvQyCg7cHNyw7oCjCC","contest":"OS Nepal Music Award 2076","episode":null,"category":"BEST LOKDOHORI MALE MODEL DANCE","contestant":{"voting_id":"10E","name":"NIRMAL CHHETRI"},"vote_count":1,"created_on":"2019-10-02T13:59:59.343201+05:45"},{"idx":"riyLNzsrnJbR7GUvGJpqfK","contest":"OS Nepal Music Award 2076","episode":null,"category":" BEST LOKDOHORI FEMALE MODEL DANCE","contestant":{"voting_id":"9D","name":"ANJU NIRAULA"},"vote_count":1,"created_on":"2019-10-02T13:59:43.841413+05:45"},{"idx":"n7m4uLfL7zPKpcintBKjM8","contest":"OS Nepal Music Award 2076","episode":null,"category":"BEST LOKDOHORI CINEMATOGRAPHER","contestant":{"voting_id":"8E","name":"BIRENDRA BHATTA"},"vote_count":1,"created_on":"2019-10-02T13:59:24.734155+05:45"},{"idx":"tDHzZhvbrWqNmZMnz4wwXD","contest":"OS Nepal Music Award 2076","episode":null,"category":"BEST LOKDOHORI VIDEO DIRECTOR (SAD)","contestant":{"voting_id":"7E","name":"D.R SUJAN"},"vote_count":1,"created_on":"2019-10-02T13:59:10.754582+05:45"},{"idx":"v6zCaUEeevWW7A7mjP6yKM","contest":"OS Nepal Music Award 2076","episode":null,"category":"BEST LOKDOHORI VIDEO EDITOR ","contestant":{"voting_id":"5B","name":"PRAKASH DHAMALA"},"vote_count":1,"created_on":"2019-10-02T13:58:54.918804+05:45"},{"idx":"2kikMeyiTV9oCzhJuLVtpe","contest":"OS Nepal Music Award 2076","episode":null,"category":"BEST LOKDOHORI ARRANGER ","contestant":{"voting_id":"4D","name":"ARJUN THAPA"},"vote_count":1,"created_on":"2019-10-02T13:58:32.981294+05:45"},{"idx":"aTFoBUTVQhHuJhdsphcp6k","contest":"OS Nepal Music Award 2076","episode":null,"category":"BEST LOKDOHORI MUSICIAN","contestant":{"voting_id":"3E","name":"SAHADEV KOIRALA"},"vote_count":1,"created_on":"2019-10-02T13:58:16.102792+05:45"},{"idx":"zz2QCSveWKBHdiUPnidjXV","contest":"OS Nepal Music Award 2076","episode":null,"category":"BEST LOK DOHARI","contestant":{"voting_id":"1C","name":"RAMILA NEUPANE"},"vote_count":1,"created_on":"2019-10-02T13:57:57.741305+05:45"},{"idx":"VTwLKArRzLVH94xY3QjiBR","contest":"OS Nepal Music Award 2076","episode":null,"category":"BEST LOKDOHORI LYRICIST","contestant":{"voting_id":"2D","name":"DHRUBA SHARMA      "},"vote_count":1,"created_on":"2019-10-02T13:57:33.842704+05:45"},{"idx":"Cwt9EZpwN4bP9JkVR8KXpT","contest":"OS Nepal Music Award 2076","episode":null,"category":"BEST SUNUWAR MALE SINGER","contestant":{"voting_id":"51D","name":"PUSHKAR SUNUWAR"},"vote_count":1,"created_on":"2019-10-02T12:20:16.368416+05:45"},{"idx":"Mem4wr96pEiZpvxhLzpYFb","contest":"OS Nepal Music Award 2076","episode":null,"category":"BEST MODERN VIDEO EDITOR","contestant":{"voting_id":"43A","name":"CHANDAN DUTTA"},"vote_count":1,"created_on":"2019-10-02T10:33:25.318271+05:45"},{"idx":"Yum2s3qmx27gGDAZBeBqAC","contest":"OS Nepal Music Award 2076","episode":null,"category":"BEST POP FEMALE MODEL ","contestant":{"voting_id":"24E","name":"SMRITY SHRESTHA"},"vote_count":1,"created_on":"2019-10-02T09:57:44.713009+05:45"},{"idx":"TNCU5AnjrBejbvuqK3TZL7","contest":"OS Nepal Music Award 2076","episode":null,"category":"BEST ADHUNIK FEMALE MODEL","contestant":{"voting_id":"35B","name":"AANCHAL SHARMA"},"vote_count":1,"created_on":"2019-10-02T09:56:50.862201+05:45"},{"idx":"vLvJGLrhQRYDNa6ZW9GkVn","contest":"OS Nepal Music Award 2076","episode":null,"category":" BEST POP NEW FEMALE SINGER","contestant":{"voting_id":"27B","name":"MAYA PUN MAGAR"},"vote_count":1,"created_on":"2019-10-02T09:54:59.174715+05:45"},{"idx":"2uzhyn2iGWbxhHkzc5oomW","contest":"OS Nepal Music Award 2076","episode":null,"category":"BEST LOKDOHORI MALE SINGER (NEW)","contestant":{"voting_id":"14B","name":"YUBARAJ MAGAR"},"vote_count":1,"created_on":"2019-10-02T09:54:27.397445+05:45"},{"idx":"bRezCkge9zBPPEZAsDjLgj","contest":"OS Nepal Music Award 2076","episode":null,"category":"BEST LOKDOHORI FEMALE SINGER","contestant":{"voting_id":"16B","name":"AMRITA LUNGELI MAGAR"},"vote_count":1,"created_on":"2019-10-02T09:52:54.434249+05:45"},{"idx":"HkNni4EyWxPtoHNuUPTow4","contest":"OS Nepal Music Award 2076","episode":null,"category":"BEST POP FEMALE SINGER","contestant":{"voting_id":"29D","name":"PARU RANJIT"},"vote_count":1,"created_on":"2019-10-02T09:52:14.104909+05:45"},{"idx":"FYZJxDraUZyeu6a4Uha9c8","contest":"OS Nepal Music Award 2076","episode":null,"category":"BEST POP MALE SINGER ","contestant":{"voting_id":"28A","name":"BABU BOGATI"},"vote_count":1,"created_on":"2019-10-02T09:50:30.783881+05:45"},{"idx":"oBE5trmKUN3tK2oi9QZjfR","contest":"OS Nepal Music Award 2076","episode":null,"category":"BEST ADHUNIK FEMALE SINGER ","contestant":{"voting_id":"39A","name":"TIKA PRASAIN"},"vote_count":1,"created_on":"2019-10-02T09:50:02.253461+05:45"},{"idx":"HJtVfPWBCc3jFP4kHyU8xK","contest":"OS Nepal Music Award 2076","episode":null,"category":"BEST NATIONAL SONG","contestant":{"voting_id":"56E","name":"UDESH SHRESHTA"},"vote_count":1,"created_on":"2019-10-01T20:55:27.455804+05:45"},{"idx":"go4P5LYNgyXxmnYsYba3cN","contest":"OS Nepal Music Award 2076","episode":null,"category":"BEST ALBUM","contestant":{"voting_id":"58B","name":"SURESH WAGLE"},"vote_count":1,"created_on":"2019-10-01T20:54:56.725252+05:45"},{"idx":"U5a75Y5wpjtgohe4ZWhxkC","contest":"OS Nepal Music Award 2076","episode":null,"category":" BEST POP SONG","contestant":{"voting_id":"18B","name":"KIRAN MICHEAL"},"vote_count":1,"created_on":"2019-10-01T20:54:27.844109+05:45"},{"idx":"PTU4AYW7N7iUvNa3DX8EA3","contest":"OS Nepal Music Award 2076","episode":null,"category":"BEST LOKDOHORI VIDEO EDITOR ","contestant":{"voting_id":"5A","name":"DEEPAK VISTA"},"vote_count":1,"created_on":"2019-10-01T20:32:35.341254+05:45"},{"idx":"YycJX74z2xpxjNuqxAbZm3","contest":"OS Nepal Music Award 2076","episode":null,"category":"BEST LOK DOHARI","contestant":{"voting_id":"1E","name":"SHIVA KARKI"},"vote_count":1,"created_on":"2019-10-01T18:13:55.958972+05:45"},{"idx":"QwBFNuGmCoAoQNBQDnisaG","contest":"OS Nepal Music Award 2076","episode":null,"category":"BEST MODERN VIDEO EDITOR","contestant":{"voting_id":"43A","name":"CHANDAN DUTTA"},"vote_count":1,"created_on":"2019-10-01T17:52:21.261329+05:45"},{"idx":"GE8y9zxRrtMsAoqY5MftuZ","contest":"OS Nepal Music Award 2076","episode":null,"category":"BEST POP NEW MALE SINGER ","contestant":{"voting_id":"26A","name":"PRADIP K. GLAN"},"vote_count":1,"created_on":"2019-10-01T13:54:43.436209+05:45"},{"idx":"Nyzg8oyRoFXoQojcKGq4EE","contest":"OS Nepal Music Award 2076","episode":null,"category":"BEST POP MUSIC","contestant":{"voting_id":"21D","name":"NABIN RAWAL"},"vote_count":1,"created_on":"2019-10-01T12:44:41.081188+05:45"},{"idx":"t5mVBimhzainh94DPC3drj","contest":"OS Nepal Music Award 2076","episode":null,"category":"BEST POP LYRICIST ","contestant":{"voting_id":"20C","name":"MILAN BISTA"},"vote_count":1,"created_on":"2019-10-01T12:38:15.747270+05:45"},{"idx":"dmgW2KMxky8mekKULEH8Bm","contest":"OS Nepal Music Award 2076","episode":null,"category":"BEST POP NEW MALE SINGER ","contestant":{"voting_id":"26C","name":"MILAN BISTA"},"vote_count":1,"created_on":"2019-10-01T12:37:27.386669+05:45"},{"idx":"wiQL9tQ9r7tTKA8erMrk4B","contest":"OS Nepal Music Award 2076","episode":null,"category":"BEST POP LYRICIST ","contestant":{"voting_id":"20C","name":"MILAN BISTA"},"vote_count":1,"created_on":"2019-10-01T11:58:41.700083+05:45"},{"idx":"8HKEwYb5W6iuPwG48RMu9N","contest":"OS Nepal Music Award 2076","episode":null,"category":"BEST POP LYRICIST ","contestant":{"voting_id":"20C","name":"MILAN BISTA"},"vote_count":1,"created_on":"2019-10-01T11:53:38.939975+05:45"},{"idx":"2fvcQ5TVxZdMEVPmnYRkfS","contest":"OS Nepal Music Award 2076","episode":null,"category":"BEST ADHUNIK NEW MALE SINGER","contestant":{"voting_id":"38E","name":"BUDDHA MOKTAN"},"vote_count":1,"created_on":"2019-10-01T10:55:19.722497+05:45"},{"idx":"sMXWRotpczmCLA9vztfN62","contest":"OS Nepal Music Award 2076","episode":null,"category":"BEST LOK DOHARI","contestant":{"voting_id":"1E","name":"SHIVA KARKI"},"vote_count":1,"created_on":"2019-10-01T10:50:03.652047+05:45"},{"idx":"bKSCba7fnhv3UNnhohaxWA","contest":"OS Nepal Music Award 2076","episode":null,"category":"BEST ADHUNIK NEW MALE SINGER","contestant":{"voting_id":"38E","name":"BUDDHA MOKTAN"},"vote_count":1,"created_on":"2019-10-01T09:47:25.921454+05:45"},{"idx":"kNzZo4gkkem63pB4PwYo3H","contest":"OS Nepal Music Award 2076","episode":null,"category":"BEST LOK DOHARI","contestant":{"voting_id":"1C","name":"RAMILA NEUPANE"},"vote_count":1,"created_on":"2019-10-01T09:41:54.288304+05:45"},{"idx":"dtKgM2P4Ex6r6M5pnSiJpb","contest":"OS Nepal Music Award 2076","episode":null,"category":" BEST POP SONG","contestant":{"voting_id":"18E","name":"SACHIN RAUNIYAR"},"vote_count":1,"created_on":"2019-10-01T09:41:33.614443+05:45"},{"idx":"LQcWRtkpuGYD8AAbsRyYf3","contest":"OS Nepal Music Award 2076","episode":null,"category":"BEST ADHUNIK FEMALE SINGER ","contestant":{"voting_id":"39B","name":"NISHA DESHAR"},"vote_count":1,"created_on":"2019-10-01T09:16:07.139847+05:45"},{"idx":"yDTJTLeWT9uUuSYZa9Pp57","contest":"OS Nepal Music Award 2076","episode":null,"category":"BEST LOK DOHARI","contestant":{"voting_id":"1A","name":"DINESH CHHETRI                                                              "},"vote_count":1,"created_on":"2019-10-01T08:53:03.308035+05:45"},{"idx":"LhNAQXY3qQEpLYBngpBrXZ","contest":"OS Nepal Music Award 2076","episode":null,"category":" BEST LOK SONG","contestant":{"voting_id":"17B","name":"SURAJ THAPA"},"vote_count":1,"created_on":"2019-10-01T08:44:34.915232+05:45"},{"idx":"7uNSuYWPDtGH6xBjgoFahA","contest":"OS Nepal Music Award 2076","episode":null,"category":"BEST LOKDOHORI FEMALE SINGER (NEW)","contestant":{"voting_id":"13B","name":"RUPA GHARTI MAGAR"},"vote_count":1,"created_on":"2019-10-01T07:57:47.586804+05:45"},{"idx":"M3wJy62UXx2jt3YFrPd7fL","contest":"OS Nepal Music Award 2076","episode":null,"category":"BEST LOK DOHARI","contestant":{"voting_id":"1E","name":"SHIVA KARKI"},"vote_count":1,"created_on":"2019-10-01T07:57:08.902537+05:45"},{"idx":"X3qE48DmwewuzDWSRZ3FLU","contest":"OS Nepal Music Award 2076","episode":null,"category":"BEST LOK DOHARI","contestant":{"voting_id":"1E","name":"SHIVA KARKI"},"vote_count":1,"created_on":"2019-10-01T07:03:07.396614+05:45"},{"idx":"5nX8b8JDQiK7GWyA2fuwVi","contest":"OS Nepal Music Award 2076","episode":null,"category":"BEST LOKDOHORI CINEMATOGRAPHER","contestant":{"voting_id":"8A","name":"RAJESH GHIMIRE"},"vote_count":1,"created_on":"2019-09-30T23:57:00.792283+05:45"},{"idx":"KbobsooTgSSH7p54UJy8ca","contest":"OS Nepal Music Award 2076","episode":null,"category":"BEST LOKDOHORI VIDEO DIRECTOR (SAD)","contestant":{"voting_id":"7B","name":"DURGA PAUDEL"},"vote_count":1,"created_on":"2019-09-30T23:54:36.207515+05:45"},{"idx":"a5Y7TFHPtX8xw5s6fH2dvm","contest":"OS Nepal Music Award 2076","episode":null,"category":"BEST LOKDOHORI MALE MODEL DANCE","contestant":{"voting_id":"10B","name":"RAMJI KHAND"},"vote_count":1,"created_on":"2019-09-30T23:50:45.760683+05:45"},{"idx":"VydnyyggsXBph5dMwWkh7d","contest":"OS Nepal Music Award 2076","episode":null,"category":"BEST POP MUSIC","contestant":{"voting_id":"21B","name":"DEEPAK SHARMA"},"vote_count":1,"created_on":"2019-09-30T23:49:19.393391+05:45"},{"idx":"SU4D7XTsATW6GotgP2umqZ","contest":"OS Nepal Music Award 2076","episode":null,"category":"BEST MODERN VIDEO EDITOR","contestant":{"voting_id":"43B","name":"PRAKASH DHAMALA"},"vote_count":1,"created_on":"2019-09-30T23:28:54.069919+05:45"}]}