{"total_pages":275,"total_records":13721,"next":"https://khalti.com/api/v2/vuservote/?page=274","previous":"https://khalti.com/api/v2/vuservote/?page=272","record_range":[13601,13650],"current_page":273,"records":[{"idx":"92hb6m5nqW7iiN4xfugShm","contest":"OS Nepal Music Award 2076","episode":null,"category":"BEST LOKDOHORI MALE SINGER","contestant":{"voting_id":"15A","name":"PUSKAL SHARMA"},"vote_count":1,"created_on":"2019-09-30T21:24:00.973836+05:45"},{"idx":"es6KzZKRVzCAMWAXBMyvqN","contest":"OS Nepal Music Award 2076","episode":null,"category":"BEST SUNUWAR MALE SINGER","contestant":{"voting_id":"51E","name":"TANKA SUNUWAR"},"vote_count":1,"created_on":"2019-09-30T20:01:08.181306+05:45"},{"idx":"YcaKg6kF9AqXXDkzCmPLYS","contest":"OS Nepal Music Award 2076","episode":null,"category":"BEST KATHYA LOK   MALE SINGER","contestant":{"voting_id":"53B","name":"PRAKASH KATUWAL"},"vote_count":1,"created_on":"2019-09-30T19:06:05.261088+05:45"},{"idx":"8FkSYAGD2NSQwoT7SKxDjJ","contest":"OS Nepal Music Award 2076","episode":null,"category":"BEST SUNUWAR FEMALE SINGER","contestant":{"voting_id":"50E","name":"PUJA SUNUWAR"},"vote_count":1,"created_on":"2019-09-30T19:01:46.817483+05:45"},{"idx":"4QBu9B5vaMLfpD28Q3jLLV","contest":"OS Nepal Music Award 2076","episode":null,"category":"BEST SUNUWAR MALE SINGER","contestant":{"voting_id":"51E","name":"TANKA SUNUWAR"},"vote_count":1,"created_on":"2019-09-30T18:58:19.577914+05:45"},{"idx":"Ub8tBTZaxGxZtEyYyDZuW3","contest":"OS Nepal Music Award 2076","episode":null,"category":"BEST LOKDOHORI MALE SINGER","contestant":{"voting_id":"15A","name":"PUSKAL SHARMA"},"vote_count":1,"created_on":"2019-09-30T17:34:13.672357+05:45"},{"idx":"BNHwaXEeATSj8o4cx67B8n","contest":"OS Nepal Music Award 2076","episode":null,"category":"BEST LOKDOHORI MALE SINGER","contestant":{"voting_id":"15A","name":"PUSKAL SHARMA"},"vote_count":1,"created_on":"2019-09-30T17:32:35.176246+05:45"},{"idx":"XhxnucGcANfGAuqivD2UFZ","contest":"OS Nepal Music Award 2076","episode":null,"category":"BEST LOK POP","contestant":{"voting_id":"19B","name":"BIRENDRA SHRESHTA"},"vote_count":1,"created_on":"2019-09-30T16:14:30.042993+05:45"},{"idx":"F3bAfHR5Ki5d3PbArrJZsj","contest":"OS Nepal Music Award 2076","episode":null,"category":"BEST LOKDOHORI VIDEO DIRECTOR (Dance)","contestant":{"voting_id":"6D","name":"KAJISH SHRESTHA"},"vote_count":1,"created_on":"2019-09-30T15:48:17.104068+05:45"},{"idx":"rxkekTZQMmxtfJTMSrjtXY","contest":"OS Nepal Music Award 2076","episode":null,"category":"BEST LOKDOHORI ARRANGER ","contestant":{"voting_id":"4E","name":"DOLRAJ BARGHARE MAGAR"},"vote_count":1,"created_on":"2019-09-30T15:19:28.403332+05:45"},{"idx":"fmyCugNbWNgh6jPNdR3LnL","contest":"OS Nepal Music Award 2076","episode":null,"category":"BEST LOKDOHORI LYRICIST","contestant":{"voting_id":"2B","name":"SHIVA HAMAL              "},"vote_count":1,"created_on":"2019-09-30T15:18:35.822513+05:45"},{"idx":"3M9kggQuzfGpvvrcgzDeMf","contest":"OS Nepal Music Award 2076","episode":null,"category":"BEST LOK DOHARI","contestant":{"voting_id":"1C","name":"RAMILA NEUPANE"},"vote_count":1,"created_on":"2019-09-30T15:15:29.588426+05:45"},{"idx":"VYm7WFi4vwoNLdKRSw3Qw7","contest":"OS Nepal Music Award 2076","episode":null,"category":"BEST ADHUNIK NEW MALE SINGER","contestant":{"voting_id":"38E","name":"BUDDHA MOKTAN"},"vote_count":1,"created_on":"2019-09-30T13:04:03.272702+05:45"},{"idx":"VTgt56H5oox5S8iZNKzuhK","contest":"OS Nepal Music Award 2076","episode":null,"category":"BEST ADHUNIK NEW MALE SINGER","contestant":{"voting_id":"38E","name":"BUDDHA MOKTAN"},"vote_count":1,"created_on":"2019-09-30T13:01:35.410644+05:45"},{"idx":"To9UKxDbozHjjbHPC5Gu92","contest":"OS Nepal Music Award 2076","episode":null,"category":"BEST LOKDOHORI VIDEO DIRECTOR (SAD)","contestant":{"voting_id":"7A","name":"SMRITI TIMILSINA"},"vote_count":1,"created_on":"2019-09-30T11:20:32.657358+05:45"},{"idx":"ienZkPDyUf5XVkTTGtpmDF","contest":"OS Nepal Music Award 2076","episode":null,"category":"BEST POP NEW MALE SINGER ","contestant":{"voting_id":"26C","name":"MILAN BISTA"},"vote_count":1,"created_on":"2019-09-30T11:05:47.383376+05:45"},{"idx":"2zptLeSqFZ5vZqi7mVuFXo","contest":"OS Nepal Music Award 2076","episode":null,"category":"BEST LOK DOHARI","contestant":{"voting_id":"1D","name":"DHARMARAJ POKHAREL"},"vote_count":1,"created_on":"2019-09-30T10:21:05.418911+05:45"},{"idx":"SDaokzMvqfdnrULqSTrpnB","contest":"OS Nepal Music Award 2076","episode":null,"category":"BEST NATIONAL SONG","contestant":{"voting_id":"56A","name":"CHRISTINA SHRESHTA"},"vote_count":1,"created_on":"2019-09-30T09:37:31.369410+05:45"},{"idx":"JGSFdaSQ4S7XddRdfs5pYC","contest":"OS Nepal Music Award 2076","episode":null,"category":"BEST POP VIDEO DIRECTOR ","contestant":{"voting_id":"23C","name":"MANOJ BISTA"},"vote_count":1,"created_on":"2019-09-30T08:48:01.239049+05:45"},{"idx":"vsPDzCYQrAttdgbvUWey45","contest":"OS Nepal Music Award 2076","episode":null,"category":"BEST POP FEMALE MODEL ","contestant":{"voting_id":"24C","name":"SHRISTI KHADKA"},"vote_count":1,"created_on":"2019-09-30T00:12:51.256003+05:45"},{"idx":"TWxTXNBMANu9QQgKmhtB2n","contest":"OS Nepal Music Award 2076","episode":null,"category":"BEST DUET SONG ","contestant":{"voting_id":"44C","name":"GUNRAJ SHRESTHA & TIKA PRASAIN"},"vote_count":1,"created_on":"2019-09-30T00:10:33.858558+05:45"},{"idx":"cu2KZrJ62BmN4wmXqXvFDK","contest":"OS Nepal Music Award 2076","episode":null,"category":"BEST POP MUSIC","contestant":{"voting_id":"21B","name":"DEEPAK SHARMA"},"vote_count":50,"created_on":"2019-09-29T19:47:35.816876+05:45"},{"idx":"Ht98kRoX7rBqNRfkUNjg9J","contest":"OS Nepal Music Award 2076","episode":null,"category":" BEST ADHUNIK NEW FEMALE SINGER","contestant":{"voting_id":"37D","name":"NIJA PAUDEL"},"vote_count":1,"created_on":"2019-09-29T19:42:46.091929+05:45"},{"idx":"CU3MyYH7rpYXsgtDVK8nBg","contest":"OS Nepal Music Award 2076","episode":null,"category":"BEST LOKDOHORI VIDEO EDITOR ","contestant":{"voting_id":"5B","name":"PRAKASH DHAMALA"},"vote_count":1,"created_on":"2019-09-29T19:41:52.242209+05:45"},{"idx":"ZQ4VNMsDxaX6HCpwW47kpc","contest":"OS Nepal Music Award 2076","episode":null,"category":" BEST POP NEW FEMALE SINGER","contestant":{"voting_id":"27D","name":"BENISHA POUDEL"},"vote_count":1,"created_on":"2019-09-29T19:41:12.598134+05:45"},{"idx":"aTRrH5gZTYS3DeyqkcXUad","contest":"OS Nepal Music Award 2076","episode":null,"category":"BEST POP MUSIC","contestant":{"voting_id":"21B","name":"DEEPAK SHARMA"},"vote_count":1,"created_on":"2019-09-29T19:40:05.059731+05:45"},{"idx":"p5NXH3aP4xnXT4D4gmezKM","contest":"OS Nepal Music Award 2076","episode":null,"category":"BEST POP MUSIC","contestant":{"voting_id":"21B","name":"DEEPAK SHARMA"},"vote_count":1,"created_on":"2019-09-29T19:34:57.348548+05:45"},{"idx":"KB9rGtRb6d7G36j9wbGVaV","contest":"OS Nepal Music Award 2076","episode":null,"category":"BEST LOK DOHARI","contestant":{"voting_id":"1E","name":"SHIVA KARKI"},"vote_count":1,"created_on":"2019-09-29T16:41:31.841341+05:45"},{"idx":"EJmnCNL99SD3z9nqpGjiWh","contest":"OS Nepal Music Award 2076","episode":null,"category":"BEST LOK POP","contestant":{"voting_id":"19A","name":"BABU BOGATI"},"vote_count":1,"created_on":"2019-09-29T16:41:08.053846+05:45"},{"idx":"uFzNYRWZ4QhwMMYnrfceGV","contest":"OS Nepal Music Award 2076","episode":null,"category":" BEST POP SONG","contestant":{"voting_id":"18D","name":"SHISHIR BHANDARI"},"vote_count":1,"created_on":"2019-09-29T16:40:16.675600+05:45"},{"idx":"heJdDZ7CKbzXmQR6BhT3W4","contest":"OS Nepal Music Award 2076","episode":null,"category":"BEST POP LYRICIST ","contestant":{"voting_id":"20C","name":"MILAN BISTA"},"vote_count":1,"created_on":"2019-09-29T16:39:39.835711+05:45"},{"idx":"z2gTRQDM84RK9LNX62LYSG","contest":"OS Nepal Music Award 2076","episode":null,"category":"BEST LOK DOHARI","contestant":{"voting_id":"1A","name":"DINESH CHHETRI                                                              "},"vote_count":1,"created_on":"2019-09-29T15:27:04.917404+05:45"},{"idx":"CV32Piiz4C3ERyVgFceHzC","contest":"OS Nepal Music Award 2076","episode":null,"category":"BEST LOKDOHORI VIDEO DIRECTOR (SAD)","contestant":{"voting_id":"7A","name":"SMRITI TIMILSINA"},"vote_count":1,"created_on":"2019-09-29T14:53:36.649281+05:45"},{"idx":"Mm2DSUwZDQF3ZTW7LsRdoP","contest":"OS Nepal Music Award 2076","episode":null,"category":"BEST ADHUNIK NEW MALE SINGER","contestant":{"voting_id":"38E","name":"BUDDHA MOKTAN"},"vote_count":1,"created_on":"2019-09-29T14:31:11.380451+05:45"},{"idx":"W5kA5YFfLqLD9bqEmDkyn4","contest":"OS Nepal Music Award 2076","episode":null,"category":"BEST ADHUNIK NEW MALE SINGER","contestant":{"voting_id":"38E","name":"BUDDHA MOKTAN"},"vote_count":1,"created_on":"2019-09-29T14:12:11.404389+05:45"},{"idx":"S7UUeAD3FoUeYbqaprmRiD","contest":"OS Nepal Music Award 2076","episode":null,"category":"BEST POP NEW MALE SINGER ","contestant":{"voting_id":"26C","name":"MILAN BISTA"},"vote_count":1,"created_on":"2019-09-29T14:03:57.344825+05:45"},{"idx":"HqDVMj4C2HEDTHkKkqsXzU","contest":"OS Nepal Music Award 2076","episode":null,"category":"BEST LOKDOHORI VIDEO EDITOR ","contestant":{"voting_id":"5A","name":"DEEPAK VISTA"},"vote_count":5,"created_on":"2019-09-29T13:56:47.481926+05:45"},{"idx":"Cz2GxY76CGK7WzAgJg7nEk","contest":"OS Nepal Music Award 2076","episode":null,"category":"BEST LOKDOHORI VIDEO EDITOR ","contestant":{"voting_id":"5A","name":"DEEPAK VISTA"},"vote_count":1,"created_on":"2019-09-29T13:56:02.984250+05:45"},{"idx":"sxb7qB37bUdT7Cd3hFxDW2","contest":"OS Nepal Music Award 2076","episode":null,"category":"BEST POP NEW MALE SINGER ","contestant":{"voting_id":"26B","name":"DIPAK CHAULAGAIN"},"vote_count":1,"created_on":"2019-09-29T13:07:34.505796+05:45"},{"idx":"BjF9Sbxa5b6tDv2VTCnMZe","contest":"OS Nepal Music Award 2076","episode":null,"category":"BEST POP NEW MALE SINGER ","contestant":{"voting_id":"26B","name":"DIPAK CHAULAGAIN"},"vote_count":1,"created_on":"2019-09-29T12:19:33.016146+05:45"},{"idx":"8TMnAU5HqLBdAeHb3vvogg","contest":"OS Nepal Music Award 2076","episode":null,"category":"BEST POP ARRANGER","contestant":{"voting_id":"22E","name":"KESHAB BADU"},"vote_count":1,"created_on":"2019-09-29T11:43:42.779583+05:45"},{"idx":"9empbk6o3bkYGWGXEQWrZT","contest":"OS Nepal Music Award 2076","episode":null,"category":"BEST ADHUNIK VIDEO DIRECTOR ","contestant":{"voting_id":"34A","name":"DIPAK ACHARYA"},"vote_count":500,"created_on":"2019-09-29T10:58:31.351867+05:45"},{"idx":"arNs9kiG7r3uTQ9772rpyn","contest":"OS Nepal Music Award 2076","episode":null,"category":"BEST ADHUNIK NEW MALE SINGER","contestant":{"voting_id":"38E","name":"BUDDHA MOKTAN"},"vote_count":1,"created_on":"2019-09-29T10:54:57.371298+05:45"},{"idx":"YjaDwEGLrhZhNZPBHzTxoc","contest":"OS Nepal Music Award 2076","episode":null,"category":"BEST ADHUNIK NEW MALE SINGER","contestant":{"voting_id":"38E","name":"BUDDHA MOKTAN"},"vote_count":1,"created_on":"2019-09-29T10:50:43.381901+05:45"},{"idx":"5Y7LSGFtsnP3aqPFgtFTsR","contest":"OS Nepal Music Award 2076","episode":null,"category":"BEST ADHUNIK SONG","contestant":{"voting_id":"30B","name":"SURESH WAGLE"},"vote_count":1,"created_on":"2019-09-29T08:43:00.523868+05:45"},{"idx":"SQy3QpodBYWL3wpQhBeFzQ","contest":"OS Nepal Music Award 2076","episode":null,"category":"BEST LOKDOHORI VIDEO EDITOR ","contestant":{"voting_id":"5A","name":"DEEPAK VISTA"},"vote_count":1,"created_on":"2019-09-29T08:41:58.733422+05:45"},{"idx":"ToRZ3ZiXzPwtZUwkVV3EWW","contest":"OS Nepal Music Award 2076","episode":null,"category":"BEST LOKDOHORI ARRANGER ","contestant":{"voting_id":"4E","name":"DOLRAJ BARGHARE MAGAR"},"vote_count":1,"created_on":"2019-09-29T08:41:34.280804+05:45"},{"idx":"LXRYXKZc4y6ZgYsgL7sHsU","contest":"OS Nepal Music Award 2076","episode":null,"category":"BEST LOKDOHORI MUSICIAN","contestant":{"voting_id":"3B","name":"RAMU KHADKA"},"vote_count":1,"created_on":"2019-09-29T08:41:11.791101+05:45"},{"idx":"oTu3i7RA4AsPKyYusKqP6d","contest":"OS Nepal Music Award 2076","episode":null,"category":"BEST LOKDOHORI LYRICIST","contestant":{"voting_id":"2B","name":"SHIVA HAMAL              "},"vote_count":1,"created_on":"2019-09-29T08:40:46.507639+05:45"},{"idx":"USDvMF4HSNNFa9TbmUkrJX","contest":"OS Nepal Music Award 2076","episode":null,"category":"BEST LOK DOHARI","contestant":{"voting_id":"1C","name":"RAMILA NEUPANE"},"vote_count":1,"created_on":"2019-09-29T08:40:21.169170+05:45"}]}