{"total_pages":275,"total_records":13721,"next":"https://khalti.com/api/v2/vuservote/?page=275","previous":"https://khalti.com/api/v2/vuservote/?page=273","record_range":[13651,13700],"current_page":274,"records":[{"idx":"fWTGWf8TmwEJSuHLrUYfL6","contest":"OS Nepal Music Award 2076","episode":null,"category":" BEST LOKDOHORI FEMALE MODEL DANCE","contestant":{"voting_id":"9A","name":"REENA THAPA MAGAR"},"vote_count":1,"created_on":"2019-09-29T08:39:45.100005+05:45"},{"idx":"De57F5NtUtrLGzkKinJ32c","contest":"OS Nepal Music Award 2076","episode":null,"category":"BEST ALBUM","contestant":{"voting_id":"58B","name":"SURESH WAGLE"},"vote_count":1,"created_on":"2019-09-29T08:38:56.932799+05:45"},{"idx":"cg6Kt96qPgx2H9tKxUEjES","contest":"OS Nepal Music Award 2076","episode":null,"category":"BEST ADHUNIK NEW MALE SINGER","contestant":{"voting_id":"38E","name":"BUDDHA MOKTAN"},"vote_count":1,"created_on":"2019-09-29T08:01:22.053443+05:45"},{"idx":"r77km8U7jQPdbyBi4xoapX","contest":"OS Nepal Music Award 2076","episode":null,"category":"BEST ADHUNIK NEW MALE SINGER","contestant":{"voting_id":"38E","name":"BUDDHA MOKTAN"},"vote_count":1,"created_on":"2019-09-29T07:28:31.837417+05:45"},{"idx":"NmZsdubSrJ9Jrou8ZbSB3X","contest":"OS Nepal Music Award 2076","episode":null,"category":"BEST ADHUNIK NEW MALE SINGER","contestant":{"voting_id":"38E","name":"BUDDHA MOKTAN"},"vote_count":1,"created_on":"2019-09-29T07:03:30.165362+05:45"},{"idx":"X94HAy3fwRAVxjLRxFRgtQ","contest":"OS Nepal Music Award 2076","episode":null,"category":"BEST ADHUNIK NEW MALE SINGER","contestant":{"voting_id":"38E","name":"BUDDHA MOKTAN"},"vote_count":1,"created_on":"2019-09-29T06:59:53.381591+05:45"},{"idx":"KeZj4dwTrYbgyHEn6sCGkK","contest":"OS Nepal Music Award 2076","episode":null,"category":"BEST ADHUNIK NEW MALE SINGER","contestant":{"voting_id":"38E","name":"BUDDHA MOKTAN"},"vote_count":1,"created_on":"2019-09-29T06:51:30.697578+05:45"},{"idx":"tH6whrA9kkWn8Mx6gWnPuX","contest":"OS Nepal Music Award 2076","episode":null,"category":"BEST ADHUNIK NEW MALE SINGER","contestant":{"voting_id":"38E","name":"BUDDHA MOKTAN"},"vote_count":1,"created_on":"2019-09-29T06:48:20.130868+05:45"},{"idx":"YbQ3VTQhe3rmiSp4JCfciJ","contest":"OS Nepal Music Award 2076","episode":null,"category":"BEST ADHUNIK NEW MALE SINGER","contestant":{"voting_id":"38E","name":"BUDDHA MOKTAN"},"vote_count":1,"created_on":"2019-09-29T06:43:18.413063+05:45"},{"idx":"ubYPx8T7uwui9xLRcH99xi","contest":"OS Nepal Music Award 2076","episode":null,"category":"BEST ADHUNIK NEW MALE SINGER","contestant":{"voting_id":"38E","name":"BUDDHA MOKTAN"},"vote_count":1,"created_on":"2019-09-29T06:40:31.092609+05:45"},{"idx":"vSUYMYxEDrAJRi5qta6RwD","contest":"OS Nepal Music Award 2076","episode":null,"category":"BEST ADHUNIK NEW MALE SINGER","contestant":{"voting_id":"38E","name":"BUDDHA MOKTAN"},"vote_count":1,"created_on":"2019-09-29T06:30:05.452410+05:45"},{"idx":"ScuVXBPpcuQyDogjKwUTcf","contest":"OS Nepal Music Award 2076","episode":null,"category":"BEST ADHUNIK NEW MALE SINGER","contestant":{"voting_id":"38E","name":"BUDDHA MOKTAN"},"vote_count":1,"created_on":"2019-09-29T04:54:42.359138+05:45"},{"idx":"AXnfqgWfb8d3YBYAfCXJkY","contest":"OS Nepal Music Award 2076","episode":null,"category":"BEST SELO MALE SINGER","contestant":{"voting_id":"55D","name":"ANIL LAMA"},"vote_count":1,"created_on":"2019-09-29T01:33:21.226040+05:45"},{"idx":"BVpjf7oxKDFaTiyrhVJjqF","contest":"OS Nepal Music Award 2076","episode":null,"category":"BEST POP NEW MALE SINGER ","contestant":{"voting_id":"26B","name":"DIPAK CHAULAGAIN"},"vote_count":1,"created_on":"2019-09-29T00:37:35.669358+05:45"},{"idx":"iToDpxTd2HjXuDcEdgcWz6","contest":"OS Nepal Music Award 2076","episode":null,"category":"BEST ADHUNIK NEW MALE SINGER","contestant":{"voting_id":"38E","name":"BUDDHA MOKTAN"},"vote_count":1,"created_on":"2019-09-28T22:16:46.090613+05:45"},{"idx":"NrQLuxabMCkZ98uu3i4Bsg","contest":"OS Nepal Music Award 2076","episode":null,"category":"BEST ADHUNIK NEW MALE SINGER","contestant":{"voting_id":"38E","name":"BUDDHA MOKTAN"},"vote_count":1,"created_on":"2019-09-28T22:09:21.072297+05:45"},{"idx":"eFLET9frqctcWcvdsqsXwd","contest":"OS Nepal Music Award 2076","episode":null,"category":" BEST ADHUNIK NEW FEMALE SINGER","contestant":{"voting_id":"37A","name":"SHARMILA RAI"},"vote_count":1,"created_on":"2019-09-28T21:18:10.596038+05:45"},{"idx":"haZ3ND9MM6ZpbcbSsxKRzW","contest":"OS Nepal Music Award 2076","episode":null,"category":"BEST ADHUNIK NEW MALE SINGER","contestant":{"voting_id":"38E","name":"BUDDHA MOKTAN"},"vote_count":1,"created_on":"2019-09-28T21:16:34.917915+05:45"},{"idx":"2PjcjPL876dJArFXQg42of","contest":"OS Nepal Music Award 2076","episode":null,"category":"BEST ADHUNIK SONG","contestant":{"voting_id":"30B","name":"SURESH WAGLE"},"vote_count":1,"created_on":"2019-09-28T21:14:20.386647+05:45"},{"idx":"pvsUaM25iqMEFE6cuw9UH8","contest":"OS Nepal Music Award 2076","episode":null,"category":"BEST LOKDOHORI MALE MODEL DANCE","contestant":{"voting_id":"10E","name":"NIRMAL CHHETRI"},"vote_count":1,"created_on":"2019-09-28T20:55:23.159592+05:45"},{"idx":"tZazKK49VSjZy6P7kQx9eV","contest":"OS Nepal Music Award 2076","episode":null,"category":"BEST ADHUNIK SONG","contestant":{"voting_id":"30E","name":"KIRAN GAJMER"},"vote_count":1,"created_on":"2019-09-28T20:48:24.712524+05:45"},{"idx":"QJjPnKC9RFctXteRdFMqRZ","contest":"OS Nepal Music Award 2076","episode":null,"category":"BEST ADHUNIK NEW MALE SINGER","contestant":{"voting_id":"38E","name":"BUDDHA MOKTAN"},"vote_count":1,"created_on":"2019-09-28T20:33:49.611324+05:45"},{"idx":"2CCYaKXwCfN2uctv9sxNYY","contest":"OS Nepal Music Award 2076","episode":null,"category":"BEST ADHUNIK NEW MALE SINGER","contestant":{"voting_id":"38E","name":"BUDDHA MOKTAN"},"vote_count":1,"created_on":"2019-09-28T19:41:21.011627+05:45"},{"idx":"vx2ongjy3hp4H33bMuA8TJ","contest":"OS Nepal Music Award 2076","episode":null,"category":"BEST LOKDOHORI MALE SINGER (NEW)","contestant":{"voting_id":"14C","name":"BIBASH BASNET"},"vote_count":1,"created_on":"2019-09-28T19:16:21.373566+05:45"},{"idx":"ebgb4pLfQYmCCwqXEXNNcS","contest":"OS Nepal Music Award 2076","episode":null,"category":"BEST LOKDOHORI LYRICIST","contestant":{"voting_id":"2B","name":"SHIVA HAMAL              "},"vote_count":1,"created_on":"2019-09-28T19:15:40.049418+05:45"},{"idx":"voAjHyzCem9ToQQr5viQPP","contest":"OS Nepal Music Award 2076","episode":null,"category":"BEST ADHUNIK NEW MALE SINGER","contestant":{"voting_id":"38E","name":"BUDDHA MOKTAN"},"vote_count":1,"created_on":"2019-09-28T19:10:56.971686+05:45"},{"idx":"bYBr3YEGeXPboKcn5Ba8rE","contest":"OS Nepal Music Award 2076","episode":null,"category":"BEST LOK DOHARI","contestant":{"voting_id":"1E","name":"SHIVA KARKI"},"vote_count":5,"created_on":"2019-09-28T19:10:33.126081+05:45"},{"idx":"xWvCLJB32tugsssnHpA6i8","contest":"OS Nepal Music Award 2076","episode":null,"category":"BEST LOK POP","contestant":{"voting_id":"19A","name":"BABU BOGATI"},"vote_count":1,"created_on":"2019-09-28T19:07:32.710668+05:45"},{"idx":"dpsAuE7iSEM9eUjdeMWhtZ","contest":"OS Nepal Music Award 2076","episode":null,"category":" BEST POP SONG","contestant":{"voting_id":"18B","name":"KIRAN MICHEAL"},"vote_count":1,"created_on":"2019-09-28T19:06:56.106598+05:45"},{"idx":"pobXQPRopwoMavmboJ3eDQ","contest":"OS Nepal Music Award 2076","episode":null,"category":"BEST LOKDOHORI LYRICIST","contestant":{"voting_id":"2C","name":"KAMAL SARGAM"},"vote_count":1,"created_on":"2019-09-28T17:03:04.768522+05:45"},{"idx":"bZnZaZpFRpJCnntpCHiyPZ","contest":"OS Nepal Music Award 2076","episode":null,"category":"BEST KATHYA LOK   MALE SINGER","contestant":{"voting_id":"53E","name":"BAL KUMAR SHRESHTHA"},"vote_count":1,"created_on":"2019-09-28T16:55:49.596549+05:45"},{"idx":"BuhkpKnQhSGNUqcrrhmobJ","contest":"OS Nepal Music Award 2076","episode":null,"category":"BEST LOKDOHORI LYRICIST","contestant":{"voting_id":"2C","name":"KAMAL SARGAM"},"vote_count":1,"created_on":"2019-09-28T16:54:24.879630+05:45"},{"idx":"FhFH8Z2Mz46uR5RKxFRhof","contest":"OS Nepal Music Award 2076","episode":null,"category":"BEST LOKDOHORI LYRICIST","contestant":{"voting_id":"2D","name":"DHRUBA SHARMA      "},"vote_count":1,"created_on":"2019-09-28T16:46:13.592571+05:45"},{"idx":"AZbAQohXAmjrihhdi4P9tS","contest":"OS Nepal Music Award 2076","episode":null,"category":"BEST ALBUM","contestant":{"voting_id":"58A","name":"ANISH SHRESTHA"},"vote_count":1,"created_on":"2019-09-28T16:31:14.458178+05:45"},{"idx":"Vr6By9q5hxqwTe4B4uTe3T","contest":"OS Nepal Music Award 2076","episode":null,"category":"BEST MODERN/ POP CINEMATOGRAPHER","contestant":{"voting_id":"41E","name":"AJAY REGMI"},"vote_count":1,"created_on":"2019-09-28T15:54:00.195137+05:45"},{"idx":"jDJE8S8XWXk7h2CqnqdbBm","contest":"OS Nepal Music Award 2076","episode":null,"category":"BEST POP LYRICIST ","contestant":{"voting_id":"20A","name":"RAMESH DAHAL"},"vote_count":1,"created_on":"2019-09-28T15:41:22.578251+05:45"},{"idx":"xuvEBQnv6iX92YgnSwoEsQ","contest":"OS Nepal Music Award 2076","episode":null,"category":"BEST ADHUNIK LYRICIST ","contestant":{"voting_id":"31E","name":"ASHOK KUMAR TAMANG"},"vote_count":1,"created_on":"2019-09-28T15:38:40.835946+05:45"},{"idx":"Q8rhdvkbg8FCV3LFX8tPZR","contest":"OS Nepal Music Award 2076","episode":null,"category":"BEST LOKDOHORI VIDEO EDITOR ","contestant":{"voting_id":"5B","name":"PRAKASH DHAMALA"},"vote_count":1,"created_on":"2019-09-28T15:25:55.650501+05:45"},{"idx":"DQMZrdGWFkoWGfUnoiWCp3","contest":"OS Nepal Music Award 2076","episode":null,"category":"BEST LOKDOHORI VIDEO DIRECTOR (Dance)","contestant":{"voting_id":"6D","name":"KAJISH SHRESTHA"},"vote_count":1,"created_on":"2019-09-28T15:24:27.275586+05:45"},{"idx":"YtKZLwYXjmbtsincdNtB7F","contest":"OS Nepal Music Award 2076","episode":null,"category":"BEST LOKDOHORI VIDEO DIRECTOR (Dance)","contestant":{"voting_id":"6D","name":"KAJISH SHRESTHA"},"vote_count":1,"created_on":"2019-09-28T15:20:25.979337+05:45"},{"idx":"nPg4Du6WBWn8dPYJrDxYfR","contest":"OS Nepal Music Award 2076","episode":null,"category":"BEST POP LYRICIST ","contestant":{"voting_id":"20A","name":"RAMESH DAHAL"},"vote_count":1,"created_on":"2019-09-28T15:17:19.652652+05:45"},{"idx":"YpMrHTm3oyQPMpQMwUoU4N","contest":"OS Nepal Music Award 2076","episode":null,"category":"BEST MODERN VIDEO EDITOR","contestant":{"voting_id":"43B","name":"PRAKASH DHAMALA"},"vote_count":1,"created_on":"2019-09-28T15:07:28.246815+05:45"},{"idx":"JsfMtjsxjQtszTnRpy6SKd","contest":"OS Nepal Music Award 2076","episode":null,"category":"BEST LOK DOHARI","contestant":{"voting_id":"1C","name":"RAMILA NEUPANE"},"vote_count":1,"created_on":"2019-09-28T15:06:02.259550+05:45"},{"idx":"J3UprwE6esuUrkPdt2nsgh","contest":"OS Nepal Music Award 2076","episode":null,"category":"BEST NATIONAL SONG","contestant":{"voting_id":"56A","name":"CHRISTINA SHRESHTA"},"vote_count":1,"created_on":"2019-09-28T15:05:41.950991+05:45"},{"idx":"3eJ5HVAAUDRxpttVUbnjLQ","contest":"OS Nepal Music Award 2076","episode":null,"category":" BEST POP SONG","contestant":{"voting_id":"18D","name":"SHISHIR BHANDARI"},"vote_count":1,"created_on":"2019-09-28T15:05:04.706672+05:45"},{"idx":"Gh6gCu4AL3veyesMDqPpfa","contest":"OS Nepal Music Award 2076","episode":null,"category":"BEST LOKDOHORI VIDEO DIRECTOR (SAD)","contestant":{"voting_id":"7A","name":"SMRITI TIMILSINA"},"vote_count":1,"created_on":"2019-09-28T14:59:15.908651+05:45"},{"idx":"mVpAMcFNSpSHZzJwsUxt3T","contest":"OS Nepal Music Award 2076","episode":null,"category":"BEST POP VIDEO EDITOR","contestant":{"voting_id":"42C","name":"PRAKASH DHAMALA"},"vote_count":1,"created_on":"2019-09-28T14:56:32.182028+05:45"},{"idx":"99NiuagRJfExPVuDwbFKpY","contest":"OS Nepal Music Award 2076","episode":null,"category":"BEST LOKDOHORI VIDEO EDITOR ","contestant":{"voting_id":"5B","name":"PRAKASH DHAMALA"},"vote_count":1,"created_on":"2019-09-28T14:55:15.884546+05:45"},{"idx":"7WXQSwbLUY6ZPjRtFmF92Y","contest":"OS Nepal Music Award 2076","episode":null,"category":"BEST LOKDOHORI VIDEO DIRECTOR (Dance)","contestant":{"voting_id":"6B","name":"SHANKHAR BC"},"vote_count":1,"created_on":"2019-09-28T14:55:01.939405+05:45"},{"idx":"ayrfJHtiXgaARfpED9dGum","contest":"OS Nepal Music Award 2076","episode":null,"category":"BEST POP VIDEO EDITOR","contestant":{"voting_id":"42D","name":"NABIN GHARTI MAGAR"},"vote_count":1,"created_on":"2019-09-28T14:53:51.254351+05:45"}]}