{"total_pages":275,"total_records":13721,"next":null,"previous":"https://khalti.com/api/v2/vuservote/?page=274","record_range":[13701,13721],"current_page":275,"records":[{"idx":"6kAHgMJbzwWz8Kgg32qo3g","contest":"OS Nepal Music Award 2076","episode":null,"category":"BEST LOKDOHORI VIDEO EDITOR ","contestant":{"voting_id":"5C","name":"NABIN GHARTI MAGAR"},"vote_count":1,"created_on":"2019-09-28T14:53:02.655845+05:45"},{"idx":"F9ZNoykNrUfTGyU39NfjP3","contest":"OS Nepal Music Award 2076","episode":null,"category":"BEST POP LYRICIST ","contestant":{"voting_id":"20D","name":"DP KHANAL"},"vote_count":1,"created_on":"2019-09-28T14:51:24.862288+05:45"},{"idx":"ixMRtrubDye5emL9qDmKaG","contest":"OS Nepal Music Award 2076","episode":null,"category":"BEST LOK POP","contestant":{"voting_id":"19D","name":"BINOD DHAKAL"},"vote_count":1,"created_on":"2019-09-28T14:46:18.591585+05:45"},{"idx":"gsydScbg8eM4xpaaeCQgf3","contest":"OS Nepal Music Award 2076","episode":null,"category":"BEST LOK DOHARI","contestant":{"voting_id":"1E","name":"SHIVA KARKI"},"vote_count":5,"created_on":"2019-09-28T14:32:58.733258+05:45"},{"idx":"DnwEJpYBZu4joEGFzvEiFL","contest":"OS Nepal Music Award 2076","episode":null,"category":"BEST LOKDOHORI MUSICIAN","contestant":{"voting_id":"3E","name":"SAHADEV KOIRALA"},"vote_count":1,"created_on":"2019-09-28T14:19:03.071553+05:45"},{"idx":"suoCVeNeef3jZehZTP7ekc","contest":"OS Nepal Music Award 2076","episode":null,"category":"BEST LOK DOHARI","contestant":{"voting_id":"1B","name":"SAMBHU KUNWAR"},"vote_count":1,"created_on":"2019-09-28T14:16:05.067512+05:45"},{"idx":"YTfGFg6PREErPEiw9oJTWV","contest":"OS Nepal Music Award 2076","episode":null,"category":"BEST LOKDOHORI MALE SINGER","contestant":{"voting_id":"15E","name":"ARJUN KUNWAR"},"vote_count":1,"created_on":"2019-09-28T14:02:05.496208+05:45"},{"idx":"X6sPP3Wi9Jmk7rY9UL3qiJ","contest":"OS Nepal Music Award 2076","episode":null,"category":"BEST POP VIDEO EDITOR","contestant":{"voting_id":"42E","name":"MOHAN SUNUWAR"},"vote_count":1,"created_on":"2019-09-28T14:01:28.764762+05:45"},{"idx":"e8i9AJHmzPxAiQA4Gn2Kr9","contest":"OS Nepal Music Award 2076","episode":null,"category":"BEST ADHUNIK ARRANGER","contestant":{"voting_id":"33E","name":"PURUSHOTTAM SUBEDI"},"vote_count":1,"created_on":"2019-09-28T14:01:05.421749+05:45"},{"idx":"CMLMqFq4ZXVSYByptu7Rqh","contest":"OS Nepal Music Award 2076","episode":null,"category":"BEST LOKDOHORI MUSICIAN","contestant":{"voting_id":"3E","name":"SAHADEV KOIRALA"},"vote_count":1,"created_on":"2019-09-28T13:56:07.328756+05:45"},{"idx":"y8YAsHdD6xtQnMBErSsT94","contest":"OS Nepal Music Award 2076","episode":null,"category":" BEST LOKDOHORI FEMALE MODEL (SAD)","contestant":{"voting_id":"11E","name":"SANCHITA SHAHI"},"vote_count":1,"created_on":"2019-09-28T13:48:29.325072+05:45"},{"idx":"wJiJ3yok7ehkKhWF2c9eLF","contest":"OS Nepal Music Award 2076","episode":null,"category":"BEST NATIONAL SONG","contestant":{"voting_id":"56E","name":"UDESH SHRESHTA"},"vote_count":1,"created_on":"2019-09-28T13:44:55.629560+05:45"},{"idx":"m998in3dbxLH86mnPDppvC","contest":"OS Nepal Music Award 2076","episode":null,"category":"BEST ADHUNIK SONG","contestant":{"voting_id":"30E","name":"KIRAN GAJMER"},"vote_count":1,"created_on":"2019-09-28T13:44:22.773386+05:45"},{"idx":"6wZ93NTngreH84pGBeRu6X","contest":"OS Nepal Music Award 2076","episode":null,"category":"BEST LOK DOHARI","contestant":{"voting_id":"1E","name":"SHIVA KARKI"},"vote_count":1,"created_on":"2019-09-28T13:40:54.039301+05:45"},{"idx":"dec2PiyqcaUkjqycAARkrF","contest":"OS Nepal Music Award 2076","episode":null,"category":"BEST LOK DOHARI","contestant":{"voting_id":"1E","name":"SHIVA KARKI"},"vote_count":1,"created_on":"2019-09-28T13:40:53.273201+05:45"},{"idx":"ZxDrsHDKWxt2bjt25UzKtY","contest":"OS Nepal Music Award 2076","episode":null,"category":"BEST LOKDOHORI LYRICIST","contestant":{"voting_id":"2D","name":"DHRUBA SHARMA      "},"vote_count":1,"created_on":"2019-09-28T08:21:30.001122+05:45"},{"idx":"VT5xjVjTtZqYmN6SoLrptH","contest":"OS Nepal Music Award 2076","episode":null,"category":"BEST ADHUNIK SONG","contestant":{"voting_id":"30D","name":"RB KHADKA"},"vote_count":1,"created_on":"2019-09-28T04:45:56.097797+05:45"},{"idx":"EhEcJRe5c3FDBi8BTApgY6","contest":"OS Nepal Music Award 2076","episode":null,"category":"BEST ALBUM","contestant":{"voting_id":"58A","name":"ANISH SHRESTHA"},"vote_count":1,"created_on":"2019-09-28T04:45:19.635930+05:45"},{"idx":"vuKFS2HVFdEAsinDgrhQK5","contest":"OS Nepal Music Award 2076","episode":null,"category":"BEST POP LYRICIST ","contestant":{"voting_id":"20D","name":"DP KHANAL"},"vote_count":1,"created_on":"2019-09-28T01:02:22.291154+05:45"},{"idx":"xKSmJbSkMerJ2oiMoJqRdk","contest":"OS Nepal Music Award 2076","episode":null,"category":"BEST POP MALE SINGER ","contestant":{"voting_id":"28A","name":"BABU BOGATI"},"vote_count":1,"created_on":"2019-09-27T21:54:37.095035+05:45"},{"idx":"ze2a85GQByFgYz9zw85UVk","contest":"Sparrow SMS Voting","episode":"IIN Campaion","category":null,"contestant":{"voting_id":"A","name":"Manish Modi"},"vote_count":10,"created_on":"2019-09-25T15:41:09.789713+05:45"}]}