{"total_pages":275,"total_records":13717,"next":"https://khalti.com/api/v2/vuservote/?page=29","previous":"https://khalti.com/api/v2/vuservote/?page=27","record_range":[1351,1400],"current_page":28,"records":[{"idx":"uV5Nk5fhnMUR6545hvvHZ4","contest":"Music Eve 2020","episode":"Music Eve 2020 IOE","category":null,"contestant":{"voting_id":"06","name":"Bishal shakya"},"vote_count":1,"created_on":"2020-01-29T19:19:51.344312+05:45"},{"idx":"hqyMuRHXGDJwLn2ji8PJc6","contest":"Music Eve 2020","episode":"Music Eve 2020 IOE","category":null,"contestant":{"voting_id":"16","name":"saahil duo"},"vote_count":1,"created_on":"2020-01-29T19:17:10.690629+05:45"},{"idx":"3NjU7pg5PSdYwarEepPTk9","contest":"Music Eve 2020","episode":"Music Eve 2020 IOE","category":null,"contestant":{"voting_id":"13","name":"Pawan Yokpangden"},"vote_count":1,"created_on":"2020-01-29T19:03:45.342747+05:45"},{"idx":"4yxv3DzZSmKAYAXdf6ELMB","contest":"Music Eve 2020","episode":"Music Eve 2020 IOE","category":null,"contestant":{"voting_id":"16","name":"saahil duo"},"vote_count":5,"created_on":"2020-01-29T18:45:32.544899+05:45"},{"idx":"oJC99wwXdbRjffLkPabXX5","contest":"Music Eve 2020","episode":"Music Eve 2020 IOE","category":null,"contestant":{"voting_id":"16","name":"saahil duo"},"vote_count":5,"created_on":"2020-01-29T18:45:09.215301+05:45"},{"idx":"iqZGWiBbiKK9jM5DTCv7SU","contest":"Music Eve 2020","episode":"Music Eve 2020 IOE","category":null,"contestant":{"voting_id":"07","name":"Chemical Latch"},"vote_count":1,"created_on":"2020-01-29T18:43:17.819687+05:45"},{"idx":"jykiQ7cbRDQBPfteA83kh5","contest":"Music Eve 2020","episode":"Music Eve 2020 IOE","category":null,"contestant":{"voting_id":"03","name":"Abishek Aryal"},"vote_count":1,"created_on":"2020-01-29T18:36:52.328246+05:45"},{"idx":"fftxqedxWqeJvSHC3AdXL2","contest":"Music Eve 2020","episode":"Music Eve 2020 IOE","category":null,"contestant":{"voting_id":"16","name":"saahil duo"},"vote_count":1,"created_on":"2020-01-29T18:34:13.274368+05:45"},{"idx":"qb5tcKpLpm9TVXRGMrh6Vk","contest":"Music Eve 2020","episode":"Music Eve 2020 IOE","category":null,"contestant":{"voting_id":"03","name":"Abishek Aryal"},"vote_count":5,"created_on":"2020-01-29T18:23:22.290420+05:45"},{"idx":"hGkXRQJfTWPKJkvbP36DSb","contest":"Music Eve 2020","episode":"Music Eve 2020 IOE","category":null,"contestant":{"voting_id":"15","name":"Purnima And Guys"},"vote_count":1,"created_on":"2020-01-29T18:06:17.618787+05:45"},{"idx":"D2WeehBtbRhCRZyKr7BAKa","contest":"Music Eve 2020","episode":"Music Eve 2020 IOE","category":null,"contestant":{"voting_id":"16","name":"saahil duo"},"vote_count":1,"created_on":"2020-01-29T18:05:35.231047+05:45"},{"idx":"yiZ38kZD25GqfGNdLTPqSS","contest":"Music Eve 2020","episode":"Music Eve 2020 IOE","category":null,"contestant":{"voting_id":"16","name":"saahil duo"},"vote_count":1,"created_on":"2020-01-29T17:55:18.748993+05:45"},{"idx":"gUgUmXBohVUN5vuA9fC8PX","contest":"Music Eve 2020","episode":"Music Eve 2020 IOE","category":null,"contestant":{"voting_id":"26","name":"Utsav Pradhan"},"vote_count":1,"created_on":"2020-01-29T17:42:34.109650+05:45"},{"idx":"jnhvKWDtUuaKBHYqrc24jk","contest":"Music Eve 2020","episode":"Music Eve 2020 IOE","category":null,"contestant":{"voting_id":"16","name":"saahil duo"},"vote_count":1,"created_on":"2020-01-29T17:39:30.984439+05:45"},{"idx":"Atbqd4sjefrPLT5S8TN8Q2","contest":"Music Eve 2020","episode":"Music Eve 2020 IOE","category":null,"contestant":{"voting_id":"08","name":"Kshitiz Basnet"},"vote_count":1,"created_on":"2020-01-29T17:34:18.827682+05:45"},{"idx":"bFhmpByCLwuUk79iGKJYUG","contest":"Music Eve 2020","episode":"Music Eve 2020 IOE","category":null,"contestant":{"voting_id":"16","name":"saahil duo"},"vote_count":1,"created_on":"2020-01-29T17:26:00.317890+05:45"},{"idx":"ghC3ZPgk7VpAMLzY9A4Ln8","contest":"Music Eve 2020","episode":"Music Eve 2020 IOE","category":null,"contestant":{"voting_id":"13","name":"Pawan Yokpangden"},"vote_count":1,"created_on":"2020-01-29T17:25:26.186292+05:45"},{"idx":"HEBVAwbBNjmA2fHPzQurRn","contest":"Model Superstar","episode":"Model Superstar Finale","category":null,"contestant":{"voting_id":"31","name":"Aakriti Subedi"},"vote_count":1,"created_on":"2020-01-29T17:04:20.164093+05:45"},{"idx":"KpTbbJCko4KBksSRddBcnT","contest":"Model Superstar","episode":"Model Superstar Finale","category":null,"contestant":{"voting_id":"03","name":"Smriti Shah"},"vote_count":1,"created_on":"2020-01-29T16:51:58.013753+05:45"},{"idx":"8kxRAR45vbYS6b9Mg9iZrK","contest":"Model Superstar","episode":"Model Superstar Finale","category":null,"contestant":{"voting_id":"04","name":"Sabita Maharjan"},"vote_count":1,"created_on":"2020-01-29T16:51:16.436708+05:45"},{"idx":"9VG7zbsJxSF5D4vdw5AHYc","contest":"Model Superstar","episode":"Model Superstar Finale","category":null,"contestant":{"voting_id":"31","name":"Aakriti Subedi"},"vote_count":1,"created_on":"2020-01-29T16:48:37.247908+05:45"},{"idx":"Bzt2bkNmb3VcAdYbmWQNZ9","contest":"Music Eve 2020","episode":"Music Eve 2020 IOE","category":null,"contestant":{"voting_id":"06","name":"Bishal shakya"},"vote_count":1,"created_on":"2020-01-29T16:26:57.163660+05:45"},{"idx":"8tFHkeU4LXNGhyLLAYkxT9","contest":"Model Superstar","episode":"Model Superstar Finale","category":null,"contestant":{"voting_id":"12","name":"Rabin Ghising"},"vote_count":1,"created_on":"2020-01-29T15:58:01.685847+05:45"},{"idx":"DvYGBbuRczTCUNEic6jxDF","contest":"Music Eve 2020","episode":"Music Eve 2020 IOE","category":null,"contestant":{"voting_id":"16","name":"saahil duo"},"vote_count":1,"created_on":"2020-01-29T15:46:52.459821+05:45"},{"idx":"KMZUrev2xrCMGLV3exod5d","contest":"Music Eve 2020","episode":"Music Eve 2020 IOE","category":null,"contestant":{"voting_id":"12","name":"one band"},"vote_count":1,"created_on":"2020-01-29T15:37:23.250146+05:45"},{"idx":"gUQ6iAjQVKXceaC4wDLnWj","contest":"Music Eve 2020","episode":"Music Eve 2020 IOE","category":null,"contestant":{"voting_id":"16","name":"saahil duo"},"vote_count":1,"created_on":"2020-01-29T15:36:08.076552+05:45"},{"idx":"TbVwc4jRiCfBXVGeChE5k5","contest":"Model Superstar","episode":"Model Superstar Finale","category":null,"contestant":{"voting_id":"12","name":"Rabin Ghising"},"vote_count":1,"created_on":"2020-01-29T15:28:51.356734+05:45"},{"idx":"c8MouZjXzGVRpBJrfKrE5j","contest":"Music Eve 2020","episode":"Music Eve 2020 IOE","category":null,"contestant":{"voting_id":"03","name":"Abishek Aryal"},"vote_count":1,"created_on":"2020-01-29T15:11:13.343663+05:45"},{"idx":"Sj4XbVG7FNmrJ7gDvgYysU","contest":"Music Eve 2020","episode":"Music Eve 2020 IOE","category":null,"contestant":{"voting_id":"03","name":"Abishek Aryal"},"vote_count":1,"created_on":"2020-01-29T15:06:44.347565+05:45"},{"idx":"5Zcyw2rbfosznJWgU4HXrZ","contest":"Music Eve 2020","episode":"Music Eve 2020 IOE","category":null,"contestant":{"voting_id":"18","name":"Saurav Sinjali Magar"},"vote_count":1,"created_on":"2020-01-29T15:06:20.116799+05:45"},{"idx":"CCH3CDg3FKshDues5RqDog","contest":"Model Superstar","episode":"Model Superstar Finale","category":null,"contestant":{"voting_id":"01","name":"Sajina Subba"},"vote_count":1,"created_on":"2020-01-29T15:05:45.085106+05:45"},{"idx":"2JdtzQFWi6xv2JprnBbzr4","contest":"Music Eve 2020","episode":"Music Eve 2020 IOE","category":null,"contestant":{"voting_id":"18","name":"Saurav Sinjali Magar"},"vote_count":1,"created_on":"2020-01-29T14:50:22.400307+05:45"},{"idx":"DAYTF7nHGwHgAxCmJAho9m","contest":"Model Superstar","episode":"Model Superstar Finale","category":null,"contestant":{"voting_id":"21","name":"Padam Bahadur Ranamagar"},"vote_count":1,"created_on":"2020-01-29T14:39:19.940343+05:45"},{"idx":"TPkpMrEg9gnMhgv8q5dK9K","contest":"Music Eve 2020","episode":"Music Eve 2020 IOE","category":null,"contestant":{"voting_id":"13","name":"Pawan Yokpangden"},"vote_count":1,"created_on":"2020-01-29T14:25:45.995359+05:45"},{"idx":"ymhdJcgHZ53aFviQty6Tqa","contest":"Music Eve 2020","episode":"Music Eve 2020 IOE","category":null,"contestant":{"voting_id":"16","name":"saahil duo"},"vote_count":1,"created_on":"2020-01-29T14:22:24.740243+05:45"},{"idx":"HVSQYJNcZ9BbRLCLX5Si32","contest":"Model Superstar","episode":"Model Superstar Finale","category":null,"contestant":{"voting_id":"31","name":"Aakriti Subedi"},"vote_count":1,"created_on":"2020-01-29T14:19:25.757854+05:45"},{"idx":"7wFNssCUfMSeX8fsw4DukH","contest":"Music Eve 2020","episode":"Music Eve 2020 IOE","category":null,"contestant":{"voting_id":"16","name":"saahil duo"},"vote_count":1,"created_on":"2020-01-29T14:14:50.439644+05:45"},{"idx":"mDbvr3YPi9YTkDndNd2HxT","contest":"Model Superstar","episode":"Model Superstar Finale","category":null,"contestant":{"voting_id":"11","name":"Rachana Karki"},"vote_count":1,"created_on":"2020-01-29T13:56:02.984409+05:45"},{"idx":"pNb8MQRkKaq7qM7p5vdKKk","contest":"Music Eve 2020","episode":"Music Eve 2020 IOE","category":null,"contestant":{"voting_id":"08","name":"Kshitiz Basnet"},"vote_count":1,"created_on":"2020-01-29T13:49:15.886412+05:45"},{"idx":"hC9dh8dTXSotyEcLME5z4j","contest":"Music Eve 2020","episode":"Music Eve 2020 IOE","category":null,"contestant":{"voting_id":"16","name":"saahil duo"},"vote_count":25,"created_on":"2020-01-29T13:47:18.174420+05:45"},{"idx":"hgLWh5o34yBs38XsQBFfWE","contest":"Music Eve 2020","episode":"Music Eve 2020 IOE","category":null,"contestant":{"voting_id":"08","name":"Kshitiz Basnet"},"vote_count":1,"created_on":"2020-01-29T13:46:04.183437+05:45"},{"idx":"xGZSouLWvTuu856LgbaRGC","contest":"Music Eve 2020","episode":"Music Eve 2020 IOE","category":null,"contestant":{"voting_id":"12","name":"one band"},"vote_count":1,"created_on":"2020-01-29T13:44:38.012365+05:45"},{"idx":"FXzPjztPu8QnoSLgErHZHc","contest":"Music Eve 2020","episode":"Music Eve 2020 IOE","category":null,"contestant":{"voting_id":"13","name":"Pawan Yokpangden"},"vote_count":1,"created_on":"2020-01-29T13:15:27.048012+05:45"},{"idx":"MN3NBctxGHGsxTGnRwAu9J","contest":"Music Eve 2020","episode":"Music Eve 2020 IOE","category":null,"contestant":{"voting_id":"16","name":"saahil duo"},"vote_count":1,"created_on":"2020-01-29T13:15:20.919924+05:45"},{"idx":"ZsodpmHycD3QgJmASSrktZ","contest":"Music Eve 2020","episode":"Music Eve 2020 IOE","category":null,"contestant":{"voting_id":"07","name":"Chemical Latch"},"vote_count":1,"created_on":"2020-01-29T12:55:57.176576+05:45"},{"idx":"rcXjasfcpMMh2B4c9uC2pa","contest":"Music Eve 2020","episode":"Music Eve 2020 IOE","category":null,"contestant":{"voting_id":"12","name":"one band"},"vote_count":1,"created_on":"2020-01-29T12:47:20.544547+05:45"},{"idx":"m6EMh6eLpLGvzdghTtd9om","contest":"Music Eve 2020","episode":"Music Eve 2020 IOE","category":null,"contestant":{"voting_id":"22","name":"swayam dhakal"},"vote_count":1,"created_on":"2020-01-29T12:44:05.729678+05:45"},{"idx":"46zNfKVb9JyZXQoxqGjMff","contest":"Model Superstar","episode":"Model Superstar Finale","category":null,"contestant":{"voting_id":"04","name":"Sabita Maharjan"},"vote_count":1,"created_on":"2020-01-29T12:39:50.594165+05:45"},{"idx":"ou4cvXri95yWW9d7VUaRmA","contest":"Model Superstar","episode":"Model Superstar Finale","category":null,"contestant":{"voting_id":"02","name":"Srijana Basnet"},"vote_count":1,"created_on":"2020-01-29T12:39:29.064471+05:45"},{"idx":"bGSyUAxzqHJeg2ERqeHQo5","contest":"Music Eve 2020","episode":"Music Eve 2020 IOE","category":null,"contestant":{"voting_id":"20","name":"Sinam Adhikari"},"vote_count":1,"created_on":"2020-01-29T12:33:23.610311+05:45"}]}