{"total_pages":275,"total_records":13717,"next":"https://khalti.com/api/v2/vuservote/?page=30","previous":"https://khalti.com/api/v2/vuservote/?page=28","record_range":[1401,1450],"current_page":29,"records":[{"idx":"A8um638QLGFPDyU8uzhaZM","contest":"Music Eve 2020","episode":"Music Eve 2020 IOE","category":null,"contestant":{"voting_id":"13","name":"Pawan Yokpangden"},"vote_count":1,"created_on":"2020-01-29T12:30:27.897325+05:45"},{"idx":"r88YtCzJmRE9jHgnfFsnhg","contest":"Music Eve 2020","episode":"Music Eve 2020 IOE","category":null,"contestant":{"voting_id":"07","name":"Chemical Latch"},"vote_count":1,"created_on":"2020-01-29T11:59:10.788603+05:45"},{"idx":"ccQ3GpnCcVURRtNyzA4pbL","contest":"Music Eve 2020","episode":"Music Eve 2020 IOE","category":null,"contestant":{"voting_id":"13","name":"Pawan Yokpangden"},"vote_count":1,"created_on":"2020-01-29T11:28:31.013123+05:45"},{"idx":"iZnRKrAkwyufWHBBSrFX43","contest":"Music Eve 2020","episode":"Music Eve 2020 IOE","category":null,"contestant":{"voting_id":"12","name":"one band"},"vote_count":25,"created_on":"2020-01-29T10:51:16.020440+05:45"},{"idx":"PbthUyoKBuwHJrxGxSKdYD","contest":"Music Eve 2020","episode":"Music Eve 2020 IOE","category":null,"contestant":{"voting_id":"17","name":"sanskriti rimal"},"vote_count":1,"created_on":"2020-01-29T10:49:20.638829+05:45"},{"idx":"hmnoRp7fMkUk5ArxoDvz9Z","contest":"Music Eve 2020","episode":"Music Eve 2020 IOE","category":null,"contestant":{"voting_id":"12","name":"one band"},"vote_count":1,"created_on":"2020-01-29T10:39:33.986192+05:45"},{"idx":"8sJRzLRyMa4wkPwDwJ6vhm","contest":"Music Eve 2020","episode":"Music Eve 2020 IOE","category":null,"contestant":{"voting_id":"07","name":"Chemical Latch"},"vote_count":1,"created_on":"2020-01-29T10:31:04.425310+05:45"},{"idx":"vXBSY62eWRCqqXrafUWFxd","contest":"Music Eve 2020","episode":"Music Eve 2020 IOE","category":null,"contestant":{"voting_id":"11","name":"Nitesh subedi"},"vote_count":1,"created_on":"2020-01-29T10:23:14.753456+05:45"},{"idx":"3kM5yVBZRwLzMtSGu6tKu9","contest":"Music Eve 2020","episode":"Music Eve 2020 IOE","category":null,"contestant":{"voting_id":"22","name":"swayam dhakal"},"vote_count":1,"created_on":"2020-01-29T10:20:12.512526+05:45"},{"idx":"NCz49pKtFCfUXQJWBa4VVn","contest":"Music Eve 2020","episode":"Music Eve 2020 IOE","category":null,"contestant":{"voting_id":"22","name":"swayam dhakal"},"vote_count":1,"created_on":"2020-01-29T10:19:41.999363+05:45"},{"idx":"Ro3qR97EaMxTmD83vPUDY4","contest":"Music Eve 2020","episode":"Music Eve 2020 IOE","category":null,"contestant":{"voting_id":"02","name":"abinash acharya"},"vote_count":1,"created_on":"2020-01-29T10:17:34.238502+05:45"},{"idx":"AdqarvEhpsbSny6e9nMNaM","contest":"Music Eve 2020","episode":"Music Eve 2020 IOE","category":null,"contestant":{"voting_id":"22","name":"swayam dhakal"},"vote_count":5,"created_on":"2020-01-29T10:14:17.926338+05:45"},{"idx":"mpVRpYdNYxo426wLM4cnhb","contest":"Music Eve 2020","episode":"Music Eve 2020 IOE","category":null,"contestant":{"voting_id":"16","name":"saahil duo"},"vote_count":1,"created_on":"2020-01-29T10:00:08.334503+05:45"},{"idx":"aUMYZzLfFzF5eganGfiCBn","contest":"Music Eve 2020","episode":"Music Eve 2020 IOE","category":null,"contestant":{"voting_id":"26","name":"Utsav Pradhan"},"vote_count":1,"created_on":"2020-01-29T09:59:26.249858+05:45"},{"idx":"fxXAa8enADE7jffBVaJGD8","contest":"Music Eve 2020","episode":"Music Eve 2020 IOE","category":null,"contestant":{"voting_id":"07","name":"Chemical Latch"},"vote_count":1,"created_on":"2020-01-29T09:46:10.572204+05:45"},{"idx":"3NjBkmSgXvZPhFn7P52i2n","contest":"Model Superstar","episode":"Model Superstar Finale","category":null,"contestant":{"voting_id":"12","name":"Rabin Ghising"},"vote_count":1,"created_on":"2020-01-29T09:44:49.315521+05:45"},{"idx":"4DiXQXVymmMunDStZTv8f5","contest":"Model Superstar","episode":"Model Superstar Finale","category":null,"contestant":{"voting_id":"01","name":"Sajina Subba"},"vote_count":1,"created_on":"2020-01-29T09:33:15.928033+05:45"},{"idx":"jnQ7jQbG4VFcDvy88gYha9","contest":"Music Eve 2020","episode":"Music Eve 2020 IOE","category":null,"contestant":{"voting_id":"13","name":"Pawan Yokpangden"},"vote_count":1,"created_on":"2020-01-29T09:28:58.259186+05:45"},{"idx":"EsTJ6U9gEuobomfM7KWCRD","contest":"Music Eve 2020","episode":"Music Eve 2020 IOE","category":null,"contestant":{"voting_id":"16","name":"saahil duo"},"vote_count":1,"created_on":"2020-01-29T09:25:03.883659+05:45"},{"idx":"LJhuJeTzk2NSQGMtmBuEcX","contest":"Music Eve 2020","episode":"Music Eve 2020 IOE","category":null,"contestant":{"voting_id":"12","name":"one band"},"vote_count":25,"created_on":"2020-01-29T09:05:59.933293+05:45"},{"idx":"VnpoyVpdUS8NGVCcWTEJgY","contest":"Music Eve 2020","episode":"Music Eve 2020 IOE","category":null,"contestant":{"voting_id":"16","name":"saahil duo"},"vote_count":1,"created_on":"2020-01-29T09:05:52.233898+05:45"},{"idx":"prM3tgfFFWR6ntv8W8x6Vj","contest":"Model Superstar","episode":"Model Superstar Finale","category":null,"contestant":{"voting_id":"02","name":"Srijana Basnet"},"vote_count":1,"created_on":"2020-01-29T09:05:50.795836+05:45"},{"idx":"epyv66bDg6bj4XyWeWZuaY","contest":"Music Eve 2020","episode":"Music Eve 2020 IOE","category":null,"contestant":{"voting_id":"13","name":"Pawan Yokpangden"},"vote_count":1,"created_on":"2020-01-29T09:02:55.705955+05:45"},{"idx":"gxtYcaJXjUcxSsTUsvzucZ","contest":"Music Eve 2020","episode":"Music Eve 2020 IOE","category":null,"contestant":{"voting_id":"08","name":"Kshitiz Basnet"},"vote_count":5,"created_on":"2020-01-29T09:01:24.457173+05:45"},{"idx":"xtugS9m9Nxzu9aFez92QfH","contest":"Music Eve 2020","episode":"Music Eve 2020 IOE","category":null,"contestant":{"voting_id":"16","name":"saahil duo"},"vote_count":1,"created_on":"2020-01-29T09:01:06.028516+05:45"},{"idx":"BMzZC4HF3c6oRh6aHs6CNQ","contest":"Music Eve 2020","episode":"Music Eve 2020 IOE","category":null,"contestant":{"voting_id":"08","name":"Kshitiz Basnet"},"vote_count":1,"created_on":"2020-01-29T09:00:14.754622+05:45"},{"idx":"CVLasx7dwMhW2Jb8N2KD5K","contest":"Music Eve 2020","episode":"Music Eve 2020 IOE","category":null,"contestant":{"voting_id":"03","name":"Abishek Aryal"},"vote_count":1,"created_on":"2020-01-29T08:58:08.712267+05:45"},{"idx":"ac7gqeeesiXAfZ5KrLFA3i","contest":"Music Eve 2020","episode":"Music Eve 2020 IOE","category":null,"contestant":{"voting_id":"21","name":"Suvharamba"},"vote_count":1,"created_on":"2020-01-29T08:56:04.580870+05:45"},{"idx":"syfoXaKg7bRGqgwjvY7My4","contest":"Music Eve 2020","episode":"Music Eve 2020 IOE","category":null,"contestant":{"voting_id":"15","name":"Purnima And Guys"},"vote_count":1,"created_on":"2020-01-29T08:52:14.020687+05:45"},{"idx":"NpDan3cxzdCGQgjXTmRWGo","contest":"Music Eve 2020","episode":"Music Eve 2020 IOE","category":null,"contestant":{"voting_id":"07","name":"Chemical Latch"},"vote_count":1,"created_on":"2020-01-29T08:51:57.512524+05:45"},{"idx":"jqeeTvbNm7KsausGraVjiR","contest":"Music Eve 2020","episode":"Music Eve 2020 IOE","category":null,"contestant":{"voting_id":"07","name":"Chemical Latch"},"vote_count":1,"created_on":"2020-01-29T08:51:33.098977+05:45"},{"idx":"VTmmRFHQxq7AZPezj8ePUZ","contest":"Music Eve 2020","episode":"Music Eve 2020 IOE","category":null,"contestant":{"voting_id":"21","name":"Suvharamba"},"vote_count":1,"created_on":"2020-01-29T08:50:50.420866+05:45"},{"idx":"sX8ire5a7mBQcG4AJ5YN2L","contest":"Music Eve 2020","episode":"Music Eve 2020 IOE","category":null,"contestant":{"voting_id":"23","name":"The Acoustic Aero"},"vote_count":1,"created_on":"2020-01-29T08:48:23.110598+05:45"},{"idx":"cbjy99hpgzMUp8XYgw7Vpe","contest":"Music Eve 2020","episode":"Music Eve 2020 IOE","category":null,"contestant":{"voting_id":"23","name":"The Acoustic Aero"},"vote_count":1,"created_on":"2020-01-29T08:48:09.334363+05:45"},{"idx":"Cyj3bqWJBwcMghrqwgtWd7","contest":"Music Eve 2020","episode":"Music Eve 2020 IOE","category":null,"contestant":{"voting_id":"23","name":"The Acoustic Aero"},"vote_count":1,"created_on":"2020-01-29T08:45:04.332775+05:45"},{"idx":"iiQtrp9z33eZ3bNqLbnxaJ","contest":"Music Eve 2020","episode":"Music Eve 2020 IOE","category":null,"contestant":{"voting_id":"23","name":"The Acoustic Aero"},"vote_count":1,"created_on":"2020-01-29T08:43:59.163924+05:45"},{"idx":"MnyU7KsqCSnnUGe5PnXvjR","contest":"Music Eve 2020","episode":"Music Eve 2020 IOE","category":null,"contestant":{"voting_id":"03","name":"Abishek Aryal"},"vote_count":1,"created_on":"2020-01-29T08:41:36.698623+05:45"},{"idx":"A54WJVcwwJpcTQ3hjJiV3K","contest":"Music Eve 2020","episode":"Music Eve 2020 IOE","category":null,"contestant":{"voting_id":"04","name":"Asmit Timalsina"},"vote_count":1,"created_on":"2020-01-29T08:40:25.507242+05:45"},{"idx":"HGrvkz9DbCXMEPHkbKPzqk","contest":"Model Superstar","episode":"Model Superstar Finale","category":null,"contestant":{"voting_id":"02","name":"Srijana Basnet"},"vote_count":1,"created_on":"2020-01-29T08:39:30.731683+05:45"},{"idx":"cWZou9tDiVimvHM7qS58EK","contest":"Music Eve 2020","episode":"Music Eve 2020 IOE","category":null,"contestant":{"voting_id":"25","name":"Turbo Band"},"vote_count":1,"created_on":"2020-01-29T08:39:07.965973+05:45"},{"idx":"tAebDbGZmzAYZshf2ioX9G","contest":"Music Eve 2020","episode":"Music Eve 2020 IOE","category":null,"contestant":{"voting_id":"15","name":"Purnima And Guys"},"vote_count":1,"created_on":"2020-01-29T08:36:27.584348+05:45"},{"idx":"JGh2gxAPFWTwDYayUeXdMV","contest":"Music Eve 2020","episode":"Music Eve 2020 IOE","category":null,"contestant":{"voting_id":"12","name":"one band"},"vote_count":1,"created_on":"2020-01-29T08:33:23.889525+05:45"},{"idx":"6LMYBNhb5ucfj4ZNrGwjxM","contest":"Music Eve 2020","episode":"Music Eve 2020 IOE","category":null,"contestant":{"voting_id":"12","name":"one band"},"vote_count":5,"created_on":"2020-01-29T08:31:38.203564+05:45"},{"idx":"YAougnbw2PRtrT9U3uBM5H","contest":"Music Eve 2020","episode":"Music Eve 2020 IOE","category":null,"contestant":{"voting_id":"12","name":"one band"},"vote_count":5,"created_on":"2020-01-29T08:31:02.656093+05:45"},{"idx":"KerRGJ64s8Vid3y7aNNoPY","contest":"Music Eve 2020","episode":"Music Eve 2020 IOE","category":null,"contestant":{"voting_id":"13","name":"Pawan Yokpangden"},"vote_count":1,"created_on":"2020-01-29T08:30:07.258483+05:45"},{"idx":"8Tkbq28MHufuP2bAPExNXM","contest":"Music Eve 2020","episode":"Music Eve 2020 IOE","category":null,"contestant":{"voting_id":"07","name":"Chemical Latch"},"vote_count":1,"created_on":"2020-01-29T08:20:09.791309+05:45"},{"idx":"zKcCHH3xcxnaKDKeajdMfk","contest":"Music Eve 2020","episode":"Music Eve 2020 IOE","category":null,"contestant":{"voting_id":"02","name":"abinash acharya"},"vote_count":5,"created_on":"2020-01-29T08:13:25.167834+05:45"},{"idx":"aNTM2P9oPwQ9stiyHAoL32","contest":"Music Eve 2020","episode":"Music Eve 2020 IOE","category":null,"contestant":{"voting_id":"02","name":"abinash acharya"},"vote_count":5,"created_on":"2020-01-29T08:12:16.646790+05:45"},{"idx":"YsFayTCQWG4sHiAwUGAPLY","contest":"Music Eve 2020","episode":"Music Eve 2020 IOE","category":null,"contestant":{"voting_id":"02","name":"abinash acharya"},"vote_count":1,"created_on":"2020-01-29T08:10:42.383166+05:45"},{"idx":"SEUhmhDjmpfinH26BwjhZE","contest":"Music Eve 2020","episode":"Music Eve 2020 IOE","category":null,"contestant":{"voting_id":"13","name":"Pawan Yokpangden"},"vote_count":1,"created_on":"2020-01-29T08:08:23.305588+05:45"}]}