{"total_pages":275,"total_records":13717,"next":"https://khalti.com/api/v2/vuservote/?page=4","previous":"https://khalti.com/api/v2/vuservote/?page=2","record_range":[101,150],"current_page":3,"records":[{"idx":"vTD2RVxywN4zUQ2wanjUAM","contest":"Locus 2020","episode":"Locus 2020","category":null,"contestant":{"voting_id":"31","name":"Project 3 in 1 Cartesian 3D Printer"},"vote_count":1,"created_on":"2020-02-03T11:39:48.699743+05:45"},{"idx":"34Q8bn2DMtzdLwiGKaexxh","contest":"Locus 2020","episode":"Locus 2020","category":null,"contestant":{"voting_id":"12","name":"Project Green City"},"vote_count":1,"created_on":"2020-02-03T11:31:00.444700+05:45"},{"idx":"68jNFaNvpNWC9J39Kfvr6C","contest":"Locus 2020","episode":"Locus 2020","category":null,"contestant":{"voting_id":"08","name":"Project A Smart Approach Towards Lifestyle in Nepal"},"vote_count":1,"created_on":"2020-02-03T11:30:09.101086+05:45"},{"idx":"kJeVE7YvdktMLhQGW9qN9n","contest":"Locus 2020","episode":"Locus 2020","category":null,"contestant":{"voting_id":"12","name":"Project Green City"},"vote_count":1,"created_on":"2020-02-03T11:30:02.128894+05:45"},{"idx":"kVjMw2gsovji4QgidVntne","contest":"Locus 2020","episode":"Locus 2020","category":null,"contestant":{"voting_id":"13","name":"Project Smart Fire Detector"},"vote_count":1,"created_on":"2020-02-03T11:29:57.148006+05:45"},{"idx":"jeg6zs6JfQJgFvVc2gSNHN","contest":"Locus 2020","episode":"Locus 2020","category":null,"contestant":{"voting_id":"31","name":"Project 3 in 1 Cartesian 3D Printer"},"vote_count":1,"created_on":"2020-02-03T11:25:52.238637+05:45"},{"idx":"rYD5H58MyX4yEnweix8BXQ","contest":"Locus 2020","episode":"Locus 2020","category":null,"contestant":{"voting_id":"12","name":"Project Green City"},"vote_count":1,"created_on":"2020-02-03T11:24:36.157105+05:45"},{"idx":"PThcq3pzfrZMniGrzokvaN","contest":"Locus 2020","episode":"Locus 2020","category":null,"contestant":{"voting_id":"13","name":"Project Smart Fire Detector"},"vote_count":1,"created_on":"2020-02-03T11:19:16.751910+05:45"},{"idx":"qvkLYLxRMa2ZPSRj2heRNg","contest":"Model Superstar","episode":"Model Superstar Finale","category":null,"contestant":{"voting_id":"02","name":"Srijana Basnet"},"vote_count":1,"created_on":"2020-02-03T11:02:13.709619+05:45"},{"idx":"7K56hfAdDAsQ6LrUpiH4xG","contest":"Model Superstar","episode":"Model Superstar Finale","category":null,"contestant":{"voting_id":"30","name":"Nikita Shakya"},"vote_count":1,"created_on":"2020-02-03T11:01:44.852714+05:45"},{"idx":"ZjcguyVhFm4S439K3dZU33","contest":"Locus 2020","episode":"Locus 2020","category":null,"contestant":{"voting_id":"16","name":"Project IOT Based Smart Agriculture System"},"vote_count":1,"created_on":"2020-02-03T10:55:06.676571+05:45"},{"idx":"kXqyUpYLitPdCHLFDpYDF5","contest":"Locus 2020","episode":"Locus 2020","category":null,"contestant":{"voting_id":"60","name":"Project EMG Contolled Prosthetic Arm"},"vote_count":5,"created_on":"2020-02-03T10:50:52.566533+05:45"},{"idx":"wvL5Y7yJcJGHLXyKV9KBC5","contest":"Locus 2020","episode":"Locus 2020","category":null,"contestant":{"voting_id":"65","name":"Project Chicken Farm Monitoring System"},"vote_count":5,"created_on":"2020-02-03T10:47:42.403246+05:45"},{"idx":"SyawvJLpqjZ7DBLFeZXGvM","contest":"Locus 2020","episode":"Locus 2020","category":null,"contestant":{"voting_id":"42","name":"Project P.I.M.P."},"vote_count":5,"created_on":"2020-02-03T10:45:32.274855+05:45"},{"idx":"BNpg8sdQqkzqWecHs3whRA","contest":"Locus 2020","episode":"Locus 2020","category":null,"contestant":{"voting_id":"04","name":"Project IRB -Robo Arm"},"vote_count":1,"created_on":"2020-02-03T10:41:12.818827+05:45"},{"idx":"jFhTFVjZYbsktMAGStLxg6","contest":"Locus 2020","episode":"Locus 2020","category":null,"contestant":{"voting_id":"31","name":"Project 3 in 1 Cartesian 3D Printer"},"vote_count":1,"created_on":"2020-02-03T10:36:28.492511+05:45"},{"idx":"epKmepWiynToUJ4X3ar3c9","contest":"Locus 2020","episode":"Locus 2020","category":null,"contestant":{"voting_id":"08","name":"Project A Smart Approach Towards Lifestyle in Nepal"},"vote_count":1,"created_on":"2020-02-03T10:34:55.023284+05:45"},{"idx":"nUX8mjWayre2MPU5kgocs7","contest":"Locus 2020","episode":"Locus 2020","category":null,"contestant":{"voting_id":"31","name":"Project 3 in 1 Cartesian 3D Printer"},"vote_count":5,"created_on":"2020-02-03T10:33:28.133516+05:45"},{"idx":"fMDRXDmfh48jqNy6kcdirU","contest":"Locus 2020","episode":"Locus 2020","category":null,"contestant":{"voting_id":"17","name":"Project EN SAT"},"vote_count":5,"created_on":"2020-02-03T10:32:28.437290+05:45"},{"idx":"KSGQsKYpsxPyvnfUR9tHeL","contest":"Locus 2020","episode":"Locus 2020","category":null,"contestant":{"voting_id":"28","name":"Project Robotic Arm for 3D Analysis"},"vote_count":5,"created_on":"2020-02-03T10:31:51.992428+05:45"},{"idx":"7CMX5yLmwHTW6hbwf9sgkX","contest":"Locus 2020","episode":"Locus 2020","category":null,"contestant":{"voting_id":"31","name":"Project 3 in 1 Cartesian 3D Printer"},"vote_count":1,"created_on":"2020-02-03T10:30:12.296376+05:45"},{"idx":"p9so8qZLJa3n3APKPzKje3","contest":"Locus 2020","episode":"Locus 2020","category":null,"contestant":{"voting_id":"08","name":"Project A Smart Approach Towards Lifestyle in Nepal"},"vote_count":1,"created_on":"2020-02-03T10:27:35.228176+05:45"},{"idx":"H6bgVu8RGwF8tujvHK3yf9","contest":"Locus 2020","episode":"Locus 2020","category":null,"contestant":{"voting_id":"31","name":"Project 3 in 1 Cartesian 3D Printer"},"vote_count":1,"created_on":"2020-02-03T10:18:53.242520+05:45"},{"idx":"r6W2AV4Rad8tYb3fwxUxMd","contest":"Locus 2020","episode":"Locus 2020","category":null,"contestant":{"voting_id":"09","name":"Project Solar Powered Water Surface Garbage Collecting Boat"},"vote_count":1,"created_on":"2020-02-03T10:16:11.543345+05:45"},{"idx":"CCKKRXRLzkDVMhVqyCHQha","contest":"Locus 2020","episode":"Locus 2020","category":null,"contestant":{"voting_id":"31","name":"Project 3 in 1 Cartesian 3D Printer"},"vote_count":1,"created_on":"2020-02-03T10:13:34.102840+05:45"},{"idx":"d3T3LGo3h5fS9mggDJqSx3","contest":"Locus 2020","episode":"Locus 2020","category":null,"contestant":{"voting_id":"08","name":"Project A Smart Approach Towards Lifestyle in Nepal"},"vote_count":1,"created_on":"2020-02-03T10:12:29.982122+05:45"},{"idx":"YdXAUqKrbv2CcJ3BW4jcbb","contest":"Locus 2020","episode":"Locus 2020","category":null,"contestant":{"voting_id":"31","name":"Project 3 in 1 Cartesian 3D Printer"},"vote_count":1,"created_on":"2020-02-03T10:11:20.556787+05:45"},{"idx":"2PzoFFJxszMSWMCxVebVcP","contest":"Model Superstar","episode":"Model Superstar Finale","category":null,"contestant":{"voting_id":"11","name":"Rachana Karki"},"vote_count":1,"created_on":"2020-02-03T10:11:14.400221+05:45"},{"idx":"4g7Uvx3X7HYHKoboAvjAS3","contest":"Locus 2020","episode":"Locus 2020","category":null,"contestant":{"voting_id":"46","name":"Project Immune"},"vote_count":1,"created_on":"2020-02-03T10:09:40.149756+05:45"},{"idx":"675xUxpBANSJKcBQNnzdND","contest":"Locus 2020","episode":"Locus 2020","category":null,"contestant":{"voting_id":"31","name":"Project 3 in 1 Cartesian 3D Printer"},"vote_count":1,"created_on":"2020-02-03T10:07:53.859278+05:45"},{"idx":"Sh6NzvFRrk676YKMZy4SqK","contest":"Locus 2020","episode":"Locus 2020","category":null,"contestant":{"voting_id":"03","name":"Project Street Light Automation"},"vote_count":1,"created_on":"2020-02-03T10:07:00.418787+05:45"},{"idx":"RhV7o5fRvsc8HvkPaABRyA","contest":"Locus 2020","episode":"Locus 2020","category":null,"contestant":{"voting_id":"03","name":"Project Street Light Automation"},"vote_count":1,"created_on":"2020-02-03T10:04:32.140031+05:45"},{"idx":"CeDhDJELBvx67p3HhHnUiY","contest":"Locus 2020","episode":"Locus 2020","category":null,"contestant":{"voting_id":"66","name":"Project Alexa Pi"},"vote_count":1,"created_on":"2020-02-03T10:03:08.979225+05:45"},{"idx":"AfYAiJv5k3zx3YPS6yzHpA","contest":"Locus 2020","episode":"Locus 2020","category":null,"contestant":{"voting_id":"59","name":"Project Home Automation"},"vote_count":1,"created_on":"2020-02-03T09:58:02.721540+05:45"},{"idx":"ktFxcre4fY854bt6CVotwi","contest":"Locus 2020","episode":"Locus 2020","category":null,"contestant":{"voting_id":"66","name":"Project Alexa Pi"},"vote_count":1,"created_on":"2020-02-03T09:57:13.031726+05:45"},{"idx":"VhsxDA5baMUGbnwax34EuT","contest":"Locus 2020","episode":"Locus 2020","category":null,"contestant":{"voting_id":"31","name":"Project 3 in 1 Cartesian 3D Printer"},"vote_count":1,"created_on":"2020-02-03T09:56:48.503190+05:45"},{"idx":"fZq6fDmdxzRkwusNr2nkPE","contest":"Locus 2020","episode":"Locus 2020","category":null,"contestant":{"voting_id":"66","name":"Project Alexa Pi"},"vote_count":1,"created_on":"2020-02-03T09:49:16.568084+05:45"},{"idx":"fcLuU4N6L7NjzwuQ7zNFVT","contest":"Locus 2020","episode":"Locus 2020","category":null,"contestant":{"voting_id":"31","name":"Project 3 in 1 Cartesian 3D Printer"},"vote_count":1,"created_on":"2020-02-03T09:48:21.615973+05:45"},{"idx":"qL8v46HoUWvym4UzvKayZ5","contest":"Locus 2020","episode":"Locus 2020","category":null,"contestant":{"voting_id":"31","name":"Project 3 in 1 Cartesian 3D Printer"},"vote_count":1,"created_on":"2020-02-03T09:47:18.719726+05:45"},{"idx":"yxwwcwkHcMmEFnQ35rStXV","contest":"Locus 2020","episode":"Locus 2020","category":null,"contestant":{"voting_id":"66","name":"Project Alexa Pi"},"vote_count":1,"created_on":"2020-02-03T09:45:52.668157+05:45"},{"idx":"uuwTgTdBpHw5dWZ3AZf5UH","contest":"Locus 2020","episode":"Locus 2020","category":null,"contestant":{"voting_id":"19","name":"Project CNC Drawing Machine"},"vote_count":1,"created_on":"2020-02-03T09:44:38.610684+05:45"},{"idx":"dUGdAdFUceEaJUCaBfrKyj","contest":"Locus 2020","episode":"Locus 2020","category":null,"contestant":{"voting_id":"86","name":"Project Target Shooter"},"vote_count":5,"created_on":"2020-02-03T09:43:05.884245+05:45"},{"idx":"gKGWpBnXXzAiAiaUFywiX7","contest":"Locus 2020","episode":"Locus 2020","category":null,"contestant":{"voting_id":"86","name":"Project Target Shooter"},"vote_count":1,"created_on":"2020-02-03T09:42:08.527048+05:45"},{"idx":"eaSisoJoed9wtzc8AATaKT","contest":"Locus 2020","episode":"Locus 2020","category":null,"contestant":{"voting_id":"86","name":"Project Target Shooter"},"vote_count":1,"created_on":"2020-02-03T09:36:06.263792+05:45"},{"idx":"o6XLAqFdqRWLmESCDKUp6A","contest":"Locus 2020","episode":"Locus 2020","category":null,"contestant":{"voting_id":"66","name":"Project Alexa Pi"},"vote_count":1,"created_on":"2020-02-03T09:32:23.518387+05:45"},{"idx":"RUcVmY9TmBwBMx9XwuBU57","contest":"Locus 2020","episode":"Locus 2020","category":null,"contestant":{"voting_id":"66","name":"Project Alexa Pi"},"vote_count":1,"created_on":"2020-02-03T09:28:37.806667+05:45"},{"idx":"WWSSUMkeaHkSdnp8mB4y5W","contest":"Locus 2020","episode":"Locus 2020","category":null,"contestant":{"voting_id":"16","name":"Project IOT Based Smart Agriculture System"},"vote_count":1,"created_on":"2020-02-03T09:26:53.279167+05:45"},{"idx":"mitK8zz9gCVvmwoe4f5Hp4","contest":"Locus 2020","episode":"Locus 2020","category":null,"contestant":{"voting_id":"92","name":"Project Bhakari Shopping Nepal"},"vote_count":1,"created_on":"2020-02-03T09:26:38.636276+05:45"},{"idx":"xUzhoYqLoT7hKbSAMJGnSK","contest":"Locus 2020","episode":"Locus 2020","category":null,"contestant":{"voting_id":"01","name":"Project Fire Robo"},"vote_count":5,"created_on":"2020-02-03T09:26:28.307607+05:45"},{"idx":"T2Q4b9ocinL549qhtF2iUf","contest":"Locus 2020","episode":"Locus 2020","category":null,"contestant":{"voting_id":"01","name":"Project Fire Robo"},"vote_count":5,"created_on":"2020-02-03T09:26:02.642544+05:45"}]}