{"total_pages":275,"total_records":13717,"next":"https://khalti.com/api/v2/vuservote/?page=31","previous":"https://khalti.com/api/v2/vuservote/?page=29","record_range":[1451,1500],"current_page":30,"records":[{"idx":"NSYjzTewVYHEZtj43QkmEK","contest":"Music Eve 2020","episode":"Music Eve 2020 IOE","category":null,"contestant":{"voting_id":"12","name":"one band"},"vote_count":1,"created_on":"2020-01-29T08:04:11.259481+05:45"},{"idx":"XBvHvWBiu4CVVeaupA5Fyc","contest":"Music Eve 2020","episode":"Music Eve 2020 IOE","category":null,"contestant":{"voting_id":"19","name":"shital shivakoti"},"vote_count":1,"created_on":"2020-01-29T08:03:51.435194+05:45"},{"idx":"BW2pCUM4A983E6SS46of7J","contest":"Music Eve 2020","episode":"Music Eve 2020 IOE","category":null,"contestant":{"voting_id":"15","name":"Purnima And Guys"},"vote_count":1,"created_on":"2020-01-29T08:02:34.072532+05:45"},{"idx":"KseEicbmJV9axD6cjWTrV6","contest":"Model Superstar","episode":"Model Superstar Finale","category":null,"contestant":{"voting_id":"17","name":"Sajana Panta"},"vote_count":1,"created_on":"2020-01-29T07:59:45.987173+05:45"},{"idx":"eJ5zAHBLNAFP5it2gNuQ7d","contest":"Music Eve 2020","episode":"Music Eve 2020 IOE","category":null,"contestant":{"voting_id":"13","name":"Pawan Yokpangden"},"vote_count":1,"created_on":"2020-01-29T07:58:44.752674+05:45"},{"idx":"hxHWeLYyfgzWghb5PqkDJn","contest":"Music Eve 2020","episode":"Music Eve 2020 IOE","category":null,"contestant":{"voting_id":"06","name":"Bishal shakya"},"vote_count":1,"created_on":"2020-01-29T07:57:51.888854+05:45"},{"idx":"wPwgk9MZrxDRJ3NG6EytFd","contest":"Music Eve 2020","episode":"Music Eve 2020 IOE","category":null,"contestant":{"voting_id":"20","name":"Sinam Adhikari"},"vote_count":1,"created_on":"2020-01-29T07:53:08.532912+05:45"},{"idx":"7ju6criGZTB3bcU6JJYJ6Z","contest":"Music Eve 2020","episode":"Music Eve 2020 IOE","category":null,"contestant":{"voting_id":"25","name":"Turbo Band"},"vote_count":1,"created_on":"2020-01-29T07:46:35.735241+05:45"},{"idx":"vQ5Ft9QeLqktAZqqZybpYM","contest":"Music Eve 2020","episode":"Music Eve 2020 IOE","category":null,"contestant":{"voting_id":"08","name":"Kshitiz Basnet"},"vote_count":1,"created_on":"2020-01-29T07:45:26.035156+05:45"},{"idx":"RHiYdi2HPxkXwbWqhGnHUc","contest":"Music Eve 2020","episode":"Music Eve 2020 IOE","category":null,"contestant":{"voting_id":"07","name":"Chemical Latch"},"vote_count":1,"created_on":"2020-01-29T07:40:07.574793+05:45"},{"idx":"SXosWn94GJErHFKNt6jmNP","contest":"Music Eve 2020","episode":"Music Eve 2020 IOE","category":null,"contestant":{"voting_id":"25","name":"Turbo Band"},"vote_count":1,"created_on":"2020-01-29T07:39:16.373757+05:45"},{"idx":"MpcfRTNLBUnhtbMZJrhnFe","contest":"Music Eve 2020","episode":"Music Eve 2020 IOE","category":null,"contestant":{"voting_id":"16","name":"saahil duo"},"vote_count":1,"created_on":"2020-01-29T07:34:54.469834+05:45"},{"idx":"4oZyTQ3945p8hpu8h3TBMP","contest":"Model Superstar","episode":"Model Superstar Finale","category":null,"contestant":{"voting_id":"12","name":"Rabin Ghising"},"vote_count":1,"created_on":"2020-01-29T07:32:32.947695+05:45"},{"idx":"ggaUQrTGFMtmvPLUJfX2EZ","contest":"Music Eve 2020","episode":"Music Eve 2020 IOE","category":null,"contestant":{"voting_id":"11","name":"Nitesh subedi"},"vote_count":1,"created_on":"2020-01-29T07:25:25.229078+05:45"},{"idx":"2uoZWwH5p8Dn7XqsuWhpHN","contest":"Music Eve 2020","episode":"Music Eve 2020 IOE","category":null,"contestant":{"voting_id":"07","name":"Chemical Latch"},"vote_count":1,"created_on":"2020-01-29T07:24:56.965438+05:45"},{"idx":"JF76oX6B6tn53Z8UPWty4M","contest":"Model Superstar","episode":"Model Superstar Finale","category":null,"contestant":{"voting_id":"03","name":"Smriti Shah"},"vote_count":1,"created_on":"2020-01-29T07:24:04.788660+05:45"},{"idx":"CJeGmNoDMUkcbdASXaw6uB","contest":"Music Eve 2020","episode":"Music Eve 2020 IOE","category":null,"contestant":{"voting_id":"25","name":"Turbo Band"},"vote_count":1,"created_on":"2020-01-29T07:21:03.623985+05:45"},{"idx":"aedqitkNKq63txjGqVYctG","contest":"Music Eve 2020","episode":"Music Eve 2020 IOE","category":null,"contestant":{"voting_id":"25","name":"Turbo Band"},"vote_count":1,"created_on":"2020-01-29T07:07:56.737932+05:45"},{"idx":"eb6Kjo98RcJg8azb4L7fD2","contest":"Music Eve 2020","episode":"Music Eve 2020 IOE","category":null,"contestant":{"voting_id":"12","name":"one band"},"vote_count":1,"created_on":"2020-01-29T06:35:32.884064+05:45"},{"idx":"etZ5rgmakt9evy5Zq87mhJ","contest":"Music Eve 2020","episode":"Music Eve 2020 IOE","category":null,"contestant":{"voting_id":"07","name":"Chemical Latch"},"vote_count":1,"created_on":"2020-01-29T06:12:15.509561+05:45"},{"idx":"EwpDewvhEgneV5MbdBXLsB","contest":"Music Eve 2020","episode":"Music Eve 2020 IOE","category":null,"contestant":{"voting_id":"16","name":"saahil duo"},"vote_count":1,"created_on":"2020-01-29T06:09:11.629740+05:45"},{"idx":"nNYJX8cDfZ2JoR6UhccvZU","contest":"Music Eve 2020","episode":"Music Eve 2020 IOE","category":null,"contestant":{"voting_id":"16","name":"saahil duo"},"vote_count":1,"created_on":"2020-01-29T05:44:49.878232+05:45"},{"idx":"kJwk6RS2QJ64LQ4SRoePqB","contest":"Music Eve 2020","episode":"Music Eve 2020 IOE","category":null,"contestant":{"voting_id":"07","name":"Chemical Latch"},"vote_count":1,"created_on":"2020-01-29T05:18:52.571123+05:45"},{"idx":"DRWMXPNcirUNSwLsgKr4GW","contest":"Music Eve 2020","episode":"Music Eve 2020 IOE","category":null,"contestant":{"voting_id":"06","name":"Bishal shakya"},"vote_count":1,"created_on":"2020-01-29T04:27:23.047628+05:45"},{"idx":"nmhrz7HMVFbZjGjMYbtdZR","contest":"Model Superstar","episode":"Model Superstar Finale","category":null,"contestant":{"voting_id":"02","name":"Srijana Basnet"},"vote_count":1,"created_on":"2020-01-29T02:41:44.020403+05:45"},{"idx":"GDaZFKhqWeBxXiPmuGAGWV","contest":"Model Superstar","episode":"Model Superstar Finale","category":null,"contestant":{"voting_id":"02","name":"Srijana Basnet"},"vote_count":1,"created_on":"2020-01-29T01:49:17.281997+05:45"},{"idx":"eh8UsZJwE9KLqjbT8hZDSK","contest":"Music Eve 2020","episode":"Music Eve 2020 IOE","category":null,"contestant":{"voting_id":"13","name":"Pawan Yokpangden"},"vote_count":1,"created_on":"2020-01-29T00:58:19.887386+05:45"},{"idx":"pRmeQfM8vzB6w38fW3nz8c","contest":"Music Eve 2020","episode":"Music Eve 2020 IOE","category":null,"contestant":{"voting_id":"16","name":"saahil duo"},"vote_count":1,"created_on":"2020-01-29T00:25:35.075377+05:45"},{"idx":"faDv8xhVyhq7AknBFwDJ3b","contest":"Music Eve 2020","episode":"Music Eve 2020 IOE","category":null,"contestant":{"voting_id":"24","name":"The Pan Band"},"vote_count":1,"created_on":"2020-01-29T00:25:27.814331+05:45"},{"idx":"BaLBWKWnq8bDcLK4Xim4dT","contest":"Music Eve 2020","episode":"Music Eve 2020 IOE","category":null,"contestant":{"voting_id":"16","name":"saahil duo"},"vote_count":1,"created_on":"2020-01-29T00:22:42.380890+05:45"},{"idx":"zhboJH5WpsUjTtcMZtXhUX","contest":"Music Eve 2020","episode":"Music Eve 2020 IOE","category":null,"contestant":{"voting_id":"23","name":"The Acoustic Aero"},"vote_count":1,"created_on":"2020-01-29T00:05:04.240649+05:45"},{"idx":"hnRbdGx4bWREfLiyHdXvWo","contest":"Music Eve 2020","episode":"Music Eve 2020 IOE","category":null,"contestant":{"voting_id":"26","name":"Utsav Pradhan"},"vote_count":1,"created_on":"2020-01-29T00:02:41.854300+05:45"},{"idx":"cHrcD9hRWNtsFcaKwtrfbT","contest":"Music Eve 2020","episode":"Music Eve 2020 IOE","category":null,"contestant":{"voting_id":"23","name":"The Acoustic Aero"},"vote_count":1,"created_on":"2020-01-29T00:02:05.555640+05:45"},{"idx":"hjbNdUppUDPbtBqaQvFN7d","contest":"Music Eve 2020","episode":"Music Eve 2020 IOE","category":null,"contestant":{"voting_id":"23","name":"The Acoustic Aero"},"vote_count":1,"created_on":"2020-01-28T23:58:10.233757+05:45"},{"idx":"g6nsJwouP2F5v2kJ6onZrb","contest":"Music Eve 2020","episode":"Music Eve 2020 IOE","category":null,"contestant":{"voting_id":"23","name":"The Acoustic Aero"},"vote_count":1,"created_on":"2020-01-28T23:53:14.483019+05:45"},{"idx":"BTqGagioguKrm4Y2PxiN4W","contest":"Music Eve 2020","episode":"Music Eve 2020 IOE","category":null,"contestant":{"voting_id":"13","name":"Pawan Yokpangden"},"vote_count":1,"created_on":"2020-01-28T23:52:21.819107+05:45"},{"idx":"c2ZaAdsCf27UrEWhGaS7zd","contest":"Music Eve 2020","episode":"Music Eve 2020 IOE","category":null,"contestant":{"voting_id":"03","name":"Abishek Aryal"},"vote_count":1,"created_on":"2020-01-28T23:51:59.043111+05:45"},{"idx":"aWJqTVvpDwtftSG4uJBQwS","contest":"Music Eve 2020","episode":"Music Eve 2020 IOE","category":null,"contestant":{"voting_id":"23","name":"The Acoustic Aero"},"vote_count":1,"created_on":"2020-01-28T23:49:30.330869+05:45"},{"idx":"vMx5UnWy4wnfCqjsTMgmWP","contest":"Music Eve 2020","episode":"Music Eve 2020 IOE","category":null,"contestant":{"voting_id":"23","name":"The Acoustic Aero"},"vote_count":1,"created_on":"2020-01-28T23:45:10.435223+05:45"},{"idx":"J4yRWkQaPYqJopkZGyAMvL","contest":"Music Eve 2020","episode":"Music Eve 2020 IOE","category":null,"contestant":{"voting_id":"16","name":"saahil duo"},"vote_count":1,"created_on":"2020-01-28T23:42:52.659865+05:45"},{"idx":"XqfePcywbpMqi9Xm4L3YpZ","contest":"Music Eve 2020","episode":"Music Eve 2020 IOE","category":null,"contestant":{"voting_id":"12","name":"one band"},"vote_count":1,"created_on":"2020-01-28T23:42:30.013801+05:45"},{"idx":"UbHEM6MPCfNfUisTjowrue","contest":"Music Eve 2020","episode":"Music Eve 2020 IOE","category":null,"contestant":{"voting_id":"23","name":"The Acoustic Aero"},"vote_count":1,"created_on":"2020-01-28T23:39:32.235795+05:45"},{"idx":"yRzFjodiMQbCqz9U35ErBA","contest":"Music Eve 2020","episode":"Music Eve 2020 IOE","category":null,"contestant":{"voting_id":"23","name":"The Acoustic Aero"},"vote_count":1,"created_on":"2020-01-28T23:38:55.029432+05:45"},{"idx":"iostZg8ENoCys3kvsC7jDg","contest":"Music Eve 2020","episode":"Music Eve 2020 IOE","category":null,"contestant":{"voting_id":"26","name":"Utsav Pradhan"},"vote_count":1,"created_on":"2020-01-28T23:33:04.651443+05:45"},{"idx":"qwyxY82ShsLGB5Gx2C8XDh","contest":"Music Eve 2020","episode":"Music Eve 2020 IOE","category":null,"contestant":{"voting_id":"16","name":"saahil duo"},"vote_count":1,"created_on":"2020-01-28T23:29:55.566805+05:45"},{"idx":"Kk87FpEDHnFKn5ese3tyyj","contest":"Music Eve 2020","episode":"Music Eve 2020 IOE","category":null,"contestant":{"voting_id":"16","name":"saahil duo"},"vote_count":1,"created_on":"2020-01-28T23:24:51.921900+05:45"},{"idx":"VPH6GZC5LE9vtpnYBszqFB","contest":"Music Eve 2020","episode":"Music Eve 2020 IOE","category":null,"contestant":{"voting_id":"15","name":"Purnima And Guys"},"vote_count":1,"created_on":"2020-01-28T23:23:28.225600+05:45"},{"idx":"t3ytSRfC2MJjC2bV8pJxDE","contest":"Music Eve 2020","episode":"Music Eve 2020 IOE","category":null,"contestant":{"voting_id":"23","name":"The Acoustic Aero"},"vote_count":1,"created_on":"2020-01-28T23:14:20.312746+05:45"},{"idx":"7VQ5wpSTadVffJjLyDKJJK","contest":"Music Eve 2020","episode":"Music Eve 2020 IOE","category":null,"contestant":{"voting_id":"23","name":"The Acoustic Aero"},"vote_count":5,"created_on":"2020-01-28T23:09:52.347860+05:45"},{"idx":"MMfP5GPr9euXEQ2t8kXNNg","contest":"Music Eve 2020","episode":"Music Eve 2020 IOE","category":null,"contestant":{"voting_id":"07","name":"Chemical Latch"},"vote_count":1,"created_on":"2020-01-28T23:08:51.376484+05:45"}]}