{"total_pages":275,"total_records":13717,"next":"https://khalti.com/api/v2/vuservote/?page=32","previous":"https://khalti.com/api/v2/vuservote/?page=30","record_range":[1501,1550],"current_page":31,"records":[{"idx":"iMpAxH3eEeLMH7eQeTCBRN","contest":"Music Eve 2020","episode":"Music Eve 2020 IOE","category":null,"contestant":{"voting_id":"16","name":"saahil duo"},"vote_count":1,"created_on":"2020-01-28T23:04:26.549874+05:45"},{"idx":"gXqCFwrCnff2fFjQHCcQe9","contest":"Music Eve 2020","episode":"Music Eve 2020 IOE","category":null,"contestant":{"voting_id":"16","name":"saahil duo"},"vote_count":1,"created_on":"2020-01-28T23:01:34.839603+05:45"},{"idx":"EDNZEDfRpKXp6VsttHVaCn","contest":"Music Eve 2020","episode":"Music Eve 2020 IOE","category":null,"contestant":{"voting_id":"16","name":"saahil duo"},"vote_count":1,"created_on":"2020-01-28T22:57:25.457829+05:45"},{"idx":"qrabt2GFg5kwizjzz2AUMi","contest":"Music Eve 2020","episode":"Music Eve 2020 IOE","category":null,"contestant":{"voting_id":"16","name":"saahil duo"},"vote_count":1,"created_on":"2020-01-28T22:54:08.791417+05:45"},{"idx":"bLincGKA6nbTzBiXoFHXc9","contest":"Music Eve 2020","episode":"Music Eve 2020 IOE","category":null,"contestant":{"voting_id":"16","name":"saahil duo"},"vote_count":1,"created_on":"2020-01-28T22:51:26.255262+05:45"},{"idx":"6keH9tGtNX5QfoJ97NLwsJ","contest":"Music Eve 2020","episode":"Music Eve 2020 IOE","category":null,"contestant":{"voting_id":"16","name":"saahil duo"},"vote_count":1,"created_on":"2020-01-28T22:50:32.165723+05:45"},{"idx":"huzRDxc2y5MfcHshsCi2He","contest":"Music Eve 2020","episode":"Music Eve 2020 IOE","category":null,"contestant":{"voting_id":"16","name":"saahil duo"},"vote_count":1,"created_on":"2020-01-28T22:50:32.035341+05:45"},{"idx":"nRs9DJ2yeJE2d3gni3kmk7","contest":"Music Eve 2020","episode":"Music Eve 2020 IOE","category":null,"contestant":{"voting_id":"16","name":"saahil duo"},"vote_count":1,"created_on":"2020-01-28T22:47:43.333316+05:45"},{"idx":"7CVFe64FhBMuUDq33bWbXo","contest":"Music Eve 2020","episode":"Music Eve 2020 IOE","category":null,"contestant":{"voting_id":"16","name":"saahil duo"},"vote_count":1,"created_on":"2020-01-28T22:47:19.484302+05:45"},{"idx":"T736xtDf5hBrv5yTLhpR3W","contest":"Music Eve 2020","episode":"Music Eve 2020 IOE","category":null,"contestant":{"voting_id":"07","name":"Chemical Latch"},"vote_count":1,"created_on":"2020-01-28T22:42:15.413068+05:45"},{"idx":"7dFXN9bhQsHKUvwhjXh6PN","contest":"Music Eve 2020","episode":"Music Eve 2020 IOE","category":null,"contestant":{"voting_id":"15","name":"Purnima And Guys"},"vote_count":1,"created_on":"2020-01-28T22:39:58.790367+05:45"},{"idx":"KdDegyBL6YQaS2MpUYUemh","contest":"Music Eve 2020","episode":"Music Eve 2020 IOE","category":null,"contestant":{"voting_id":"13","name":"Pawan Yokpangden"},"vote_count":1,"created_on":"2020-01-28T22:39:33.928465+05:45"},{"idx":"7ScQo4wdgkEQZ5dyu55aA7","contest":"Music Eve 2020","episode":"Music Eve 2020 IOE","category":null,"contestant":{"voting_id":"15","name":"Purnima And Guys"},"vote_count":1,"created_on":"2020-01-28T22:37:34.956366+05:45"},{"idx":"eDpsdaTXCJUue4ejYnbmgY","contest":"Music Eve 2020","episode":"Music Eve 2020 IOE","category":null,"contestant":{"voting_id":"12","name":"one band"},"vote_count":1,"created_on":"2020-01-28T22:21:27.228854+05:45"},{"idx":"GLwyuvrVvQeEAo49tNrcHh","contest":"Music Eve 2020","episode":"Music Eve 2020 IOE","category":null,"contestant":{"voting_id":"15","name":"Purnima And Guys"},"vote_count":1,"created_on":"2020-01-28T22:20:13.975019+05:45"},{"idx":"mtbgKymU5dACDMG3qSWaHJ","contest":"Music Eve 2020","episode":"Music Eve 2020 IOE","category":null,"contestant":{"voting_id":"16","name":"saahil duo"},"vote_count":1,"created_on":"2020-01-28T22:19:01.802649+05:45"},{"idx":"mQhBohdZcPxvaAgukrjdvD","contest":"Music Eve 2020","episode":"Music Eve 2020 IOE","category":null,"contestant":{"voting_id":"08","name":"Kshitiz Basnet"},"vote_count":1,"created_on":"2020-01-28T22:17:51.485186+05:45"},{"idx":"RpPqSLnpv3MgYi3xoFUiBi","contest":"Music Eve 2020","episode":"Music Eve 2020 IOE","category":null,"contestant":{"voting_id":"12","name":"one band"},"vote_count":1,"created_on":"2020-01-28T22:16:10.323306+05:45"},{"idx":"BoZThQ7PJdFyqFRMw3tS84","contest":"Music Eve 2020","episode":"Music Eve 2020 IOE","category":null,"contestant":{"voting_id":"07","name":"Chemical Latch"},"vote_count":1,"created_on":"2020-01-28T22:08:24.202242+05:45"},{"idx":"4fPRLgDs6B2z4cx7PTvhfV","contest":"Music Eve 2020","episode":"Music Eve 2020 IOE","category":null,"contestant":{"voting_id":"12","name":"one band"},"vote_count":1,"created_on":"2020-01-28T22:07:57.506106+05:45"},{"idx":"MAgcRMLARxdHhECDV7JtzB","contest":"Music Eve 2020","episode":"Music Eve 2020 IOE","category":null,"contestant":{"voting_id":"08","name":"Kshitiz Basnet"},"vote_count":1,"created_on":"2020-01-28T22:07:08.523243+05:45"},{"idx":"Qp4khWdBCtXSk5f3oHyGy9","contest":"Music Eve 2020","episode":"Music Eve 2020 IOE","category":null,"contestant":{"voting_id":"03","name":"Abishek Aryal"},"vote_count":1,"created_on":"2020-01-28T22:06:02.868858+05:45"},{"idx":"boGwGhQfvkZzL8wDp2LDPW","contest":"Music Eve 2020","episode":"Music Eve 2020 IOE","category":null,"contestant":{"voting_id":"16","name":"saahil duo"},"vote_count":1,"created_on":"2020-01-28T22:05:49.816265+05:45"},{"idx":"JTHDmMFQaUKYSghePzz2fP","contest":"Music Eve 2020","episode":"Music Eve 2020 IOE","category":null,"contestant":{"voting_id":"12","name":"one band"},"vote_count":1,"created_on":"2020-01-28T22:04:54.460411+05:45"},{"idx":"xYcrgKC4hGz9d7hUvuVjPc","contest":"Music Eve 2020","episode":"Music Eve 2020 IOE","category":null,"contestant":{"voting_id":"07","name":"Chemical Latch"},"vote_count":1,"created_on":"2020-01-28T22:03:27.484944+05:45"},{"idx":"UmFg9XbuA3nPh4M23ZJXJC","contest":"Music Eve 2020","episode":"Music Eve 2020 IOE","category":null,"contestant":{"voting_id":"08","name":"Kshitiz Basnet"},"vote_count":1,"created_on":"2020-01-28T21:56:28.828972+05:45"},{"idx":"pi9qywmNHbzLpGbo8nLDpK","contest":"Music Eve 2020","episode":"Music Eve 2020 IOE","category":null,"contestant":{"voting_id":"07","name":"Chemical Latch"},"vote_count":5,"created_on":"2020-01-28T21:53:30.499731+05:45"},{"idx":"YXVJePponypDRFSNGrAByL","contest":"Music Eve 2020","episode":"Music Eve 2020 IOE","category":null,"contestant":{"voting_id":"23","name":"The Acoustic Aero"},"vote_count":1,"created_on":"2020-01-28T21:52:57.545977+05:45"},{"idx":"2Fkuinj6wzBmsxFG8dYJPL","contest":"Music Eve 2020","episode":"Music Eve 2020 IOE","category":null,"contestant":{"voting_id":"20","name":"Sinam Adhikari"},"vote_count":1,"created_on":"2020-01-28T21:52:17.653956+05:45"},{"idx":"fq96BBqY3Vd9TfNrqSnWph","contest":"Music Eve 2020","episode":"Music Eve 2020 IOE","category":null,"contestant":{"voting_id":"07","name":"Chemical Latch"},"vote_count":1,"created_on":"2020-01-28T21:51:12.486033+05:45"},{"idx":"5zuBm7sjjgMFpiHRJUx7wU","contest":"Music Eve 2020","episode":"Music Eve 2020 IOE","category":null,"contestant":{"voting_id":"16","name":"saahil duo"},"vote_count":1,"created_on":"2020-01-28T21:49:53.824432+05:45"},{"idx":"YvZejRo6KhB5jK5CjB57nL","contest":"Music Eve 2020","episode":"Music Eve 2020 IOE","category":null,"contestant":{"voting_id":"07","name":"Chemical Latch"},"vote_count":1,"created_on":"2020-01-28T21:48:37.966566+05:45"},{"idx":"Bkw63L7VKnNv4VzMqa2GNd","contest":"Music Eve 2020","episode":"Music Eve 2020 IOE","category":null,"contestant":{"voting_id":"08","name":"Kshitiz Basnet"},"vote_count":5,"created_on":"2020-01-28T21:48:36.313985+05:45"},{"idx":"6rqSKWVkbv6zgFnxknNUUa","contest":"Model Superstar","episode":"Model Superstar Finale","category":null,"contestant":{"voting_id":"13","name":"Prashant Shah"},"vote_count":1,"created_on":"2020-01-28T21:44:58.524662+05:45"},{"idx":"PtMaivvAgZK6fSCJSunTgn","contest":"Music Eve 2020","episode":"Music Eve 2020 IOE","category":null,"contestant":{"voting_id":"08","name":"Kshitiz Basnet"},"vote_count":1,"created_on":"2020-01-28T21:44:57.954639+05:45"},{"idx":"jyKrkUUvRQRpave9DQYMEB","contest":"Model Superstar","episode":"Model Superstar Finale","category":null,"contestant":{"voting_id":"13","name":"Prashant Shah"},"vote_count":1,"created_on":"2020-01-28T21:44:48.758576+05:45"},{"idx":"79BhisdTj7v8gpDvGfDcbX","contest":"Model Superstar","episode":"Model Superstar Finale","category":null,"contestant":{"voting_id":"13","name":"Prashant Shah"},"vote_count":1,"created_on":"2020-01-28T21:44:38.560683+05:45"},{"idx":"tYjDYEKL64aimuBc8GTkak","contest":"Model Superstar","episode":"Model Superstar Finale","category":null,"contestant":{"voting_id":"13","name":"Prashant Shah"},"vote_count":1,"created_on":"2020-01-28T21:44:28.314929+05:45"},{"idx":"8CUebzTZ8u6vjaQFEpbX94","contest":"Model Superstar","episode":"Model Superstar Finale","category":null,"contestant":{"voting_id":"13","name":"Prashant Shah"},"vote_count":1,"created_on":"2020-01-28T21:44:19.366226+05:45"},{"idx":"2mmmvsQz6mZHQXWi8UD2Xn","contest":"Model Superstar","episode":"Model Superstar Finale","category":null,"contestant":{"voting_id":"13","name":"Prashant Shah"},"vote_count":1,"created_on":"2020-01-28T21:44:10.690010+05:45"},{"idx":"7GafdWKULPeQcePUCw4Jng","contest":"Model Superstar","episode":"Model Superstar Finale","category":null,"contestant":{"voting_id":"13","name":"Prashant Shah"},"vote_count":1,"created_on":"2020-01-28T21:44:03.120520+05:45"},{"idx":"cTZTGBwqr4TzuzmRwobzcS","contest":"Model Superstar","episode":"Model Superstar Finale","category":null,"contestant":{"voting_id":"13","name":"Prashant Shah"},"vote_count":1,"created_on":"2020-01-28T21:43:55.375219+05:45"},{"idx":"VqNNpPJHGNXFxp3DHdEg6m","contest":"Model Superstar","episode":"Model Superstar Finale","category":null,"contestant":{"voting_id":"13","name":"Prashant Shah"},"vote_count":1,"created_on":"2020-01-28T21:43:46.806503+05:45"},{"idx":"ZUbKpFPiQJmWaFoWqFTBsU","contest":"Model Superstar","episode":"Model Superstar Finale","category":null,"contestant":{"voting_id":"13","name":"Prashant Shah"},"vote_count":1,"created_on":"2020-01-28T21:43:37.410332+05:45"},{"idx":"hQExFkkDwwFen9k4tNdJvf","contest":"Model Superstar","episode":"Model Superstar Finale","category":null,"contestant":{"voting_id":"13","name":"Prashant Shah"},"vote_count":1,"created_on":"2020-01-28T21:43:28.068456+05:45"},{"idx":"LYnafUrzZYaRBdty3ziXL9","contest":"Model Superstar","episode":"Model Superstar Finale","category":null,"contestant":{"voting_id":"13","name":"Prashant Shah"},"vote_count":1,"created_on":"2020-01-28T21:43:19.134492+05:45"},{"idx":"UGpRkNHihKwKJ4qumAHh9k","contest":"Model Superstar","episode":"Model Superstar Finale","category":null,"contestant":{"voting_id":"13","name":"Prashant Shah"},"vote_count":1,"created_on":"2020-01-28T21:43:07.371953+05:45"},{"idx":"DCGJF4x3cDHH6Df8NQ6NHA","contest":"Model Superstar","episode":"Model Superstar Finale","category":null,"contestant":{"voting_id":"13","name":"Prashant Shah"},"vote_count":1,"created_on":"2020-01-28T21:42:58.767466+05:45"},{"idx":"T8Ct38EttmZhFPMc49FyfZ","contest":"Music Eve 2020","episode":"Music Eve 2020 IOE","category":null,"contestant":{"voting_id":"15","name":"Purnima And Guys"},"vote_count":1,"created_on":"2020-01-28T21:42:58.305311+05:45"},{"idx":"ZyQyua6cMUz7852rzdENu3","contest":"Model Superstar","episode":"Model Superstar Finale","category":null,"contestant":{"voting_id":"13","name":"Prashant Shah"},"vote_count":1,"created_on":"2020-01-28T21:42:50.132437+05:45"}]}