{"total_pages":275,"total_records":13717,"next":"https://khalti.com/api/v2/vuservote/?page=33","previous":"https://khalti.com/api/v2/vuservote/?page=31","record_range":[1551,1600],"current_page":32,"records":[{"idx":"ssqkVtqTxX3AdfTmMbiZ29","contest":"Model Superstar","episode":"Model Superstar Finale","category":null,"contestant":{"voting_id":"13","name":"Prashant Shah"},"vote_count":1,"created_on":"2020-01-28T21:42:43.106455+05:45"},{"idx":"XYEGAF7exeAVEMaZyVbm65","contest":"Model Superstar","episode":"Model Superstar Finale","category":null,"contestant":{"voting_id":"13","name":"Prashant Shah"},"vote_count":1,"created_on":"2020-01-28T21:42:32.030793+05:45"},{"idx":"Gm4hzsczzS5Q4jSn739d89","contest":"Model Superstar","episode":"Model Superstar Finale","category":null,"contestant":{"voting_id":"13","name":"Prashant Shah"},"vote_count":1,"created_on":"2020-01-28T21:42:24.878974+05:45"},{"idx":"sdCKSuijkaSdQzHoT3PmrU","contest":"Model Superstar","episode":"Model Superstar Finale","category":null,"contestant":{"voting_id":"13","name":"Prashant Shah"},"vote_count":1,"created_on":"2020-01-28T21:42:18.285782+05:45"},{"idx":"8Umggs5GgzTSuxDX6bYcP5","contest":"Model Superstar","episode":"Model Superstar Finale","category":null,"contestant":{"voting_id":"13","name":"Prashant Shah"},"vote_count":1,"created_on":"2020-01-28T21:42:10.023499+05:45"},{"idx":"TNP2QMSR5JrKa8f3kcDPRi","contest":"Model Superstar","episode":"Model Superstar Finale","category":null,"contestant":{"voting_id":"13","name":"Prashant Shah"},"vote_count":1,"created_on":"2020-01-28T21:42:01.061298+05:45"},{"idx":"cw8T2P5neXA6Jg2tSFMiGN","contest":"Model Superstar","episode":"Model Superstar Finale","category":null,"contestant":{"voting_id":"13","name":"Prashant Shah"},"vote_count":1,"created_on":"2020-01-28T21:41:51.398782+05:45"},{"idx":"awPH7DTmqKCi3rpSV7gj2d","contest":"Music Eve 2020","episode":"Music Eve 2020 IOE","category":null,"contestant":{"voting_id":"15","name":"Purnima And Guys"},"vote_count":1,"created_on":"2020-01-28T21:41:45.729472+05:45"},{"idx":"2jbrVQyRQhzDRJoiHWuvSC","contest":"Model Superstar","episode":"Model Superstar Finale","category":null,"contestant":{"voting_id":"13","name":"Prashant Shah"},"vote_count":1,"created_on":"2020-01-28T21:41:42.249869+05:45"},{"idx":"AacJdfnhhf2uoMWunjMeV7","contest":"Model Superstar","episode":"Model Superstar Finale","category":null,"contestant":{"voting_id":"13","name":"Prashant Shah"},"vote_count":1,"created_on":"2020-01-28T21:41:34.339941+05:45"},{"idx":"QCVNruXsJdciFCJPBnNt5F","contest":"Model Superstar","episode":"Model Superstar Finale","category":null,"contestant":{"voting_id":"13","name":"Prashant Shah"},"vote_count":1,"created_on":"2020-01-28T21:41:26.653588+05:45"},{"idx":"LMTHBdowah7qNGPi6ia2P8","contest":"Model Superstar","episode":"Model Superstar Finale","category":null,"contestant":{"voting_id":"13","name":"Prashant Shah"},"vote_count":1,"created_on":"2020-01-28T21:41:18.770365+05:45"},{"idx":"fRUYkVLiFSqHEZ3DjYuaJJ","contest":"Model Superstar","episode":"Model Superstar Finale","category":null,"contestant":{"voting_id":"13","name":"Prashant Shah"},"vote_count":1,"created_on":"2020-01-28T21:41:07.867309+05:45"},{"idx":"B6ocfQDUJ6QQvG2APDfCd3","contest":"Model Superstar","episode":"Model Superstar Finale","category":null,"contestant":{"voting_id":"13","name":"Prashant Shah"},"vote_count":1,"created_on":"2020-01-28T21:41:00.244220+05:45"},{"idx":"xNfvHBU8uTwnRbD8KQPLEd","contest":"Model Superstar","episode":"Model Superstar Finale","category":null,"contestant":{"voting_id":"13","name":"Prashant Shah"},"vote_count":1,"created_on":"2020-01-28T21:40:52.529000+05:45"},{"idx":"CZm9S7ppzHjoSow6HAnQKi","contest":"Model Superstar","episode":"Model Superstar Finale","category":null,"contestant":{"voting_id":"13","name":"Prashant Shah"},"vote_count":1,"created_on":"2020-01-28T21:40:42.179034+05:45"},{"idx":"E4nwkj3dsd7wmAsmw6kpDC","contest":"Model Superstar","episode":"Model Superstar Finale","category":null,"contestant":{"voting_id":"13","name":"Prashant Shah"},"vote_count":1,"created_on":"2020-01-28T21:40:32.981577+05:45"},{"idx":"dKXRBCcoG4wbYBRKzM3xxm","contest":"Model Superstar","episode":"Model Superstar Finale","category":null,"contestant":{"voting_id":"13","name":"Prashant Shah"},"vote_count":1,"created_on":"2020-01-28T21:40:24.728682+05:45"},{"idx":"yzJftZRvzTibKrkTxLTpKH","contest":"Music Eve 2020","episode":"Music Eve 2020 IOE","category":null,"contestant":{"voting_id":"16","name":"saahil duo"},"vote_count":1,"created_on":"2020-01-28T21:37:32.966870+05:45"},{"idx":"hJvyfTLmmFZirSVmhNTHYP","contest":"Music Eve 2020","episode":"Music Eve 2020 IOE","category":null,"contestant":{"voting_id":"07","name":"Chemical Latch"},"vote_count":1,"created_on":"2020-01-28T21:37:25.115897+05:45"},{"idx":"JQVQJuYgrMQnCzsxXa7QVD","contest":"Model Superstar","episode":"Model Superstar Finale","category":null,"contestant":{"voting_id":"13","name":"Prashant Shah"},"vote_count":1,"created_on":"2020-01-28T21:36:27.674026+05:45"},{"idx":"cEYqpHNwVTeTAHCRubeNv6","contest":"Model Superstar","episode":"Model Superstar Finale","category":null,"contestant":{"voting_id":"13","name":"Prashant Shah"},"vote_count":1,"created_on":"2020-01-28T21:35:46.505668+05:45"},{"idx":"W3uPZYt6vwKTw73jSaboSb","contest":"Model Superstar","episode":"Model Superstar Finale","category":null,"contestant":{"voting_id":"13","name":"Prashant Shah"},"vote_count":1,"created_on":"2020-01-28T21:35:35.230173+05:45"},{"idx":"HakHS5J2SDdRpSwhxVvamZ","contest":"Model Superstar","episode":"Model Superstar Finale","category":null,"contestant":{"voting_id":"13","name":"Prashant Shah"},"vote_count":1,"created_on":"2020-01-28T21:35:28.267183+05:45"},{"idx":"CYKzjXE6KAJseqYKy5JkrJ","contest":"Model Superstar","episode":"Model Superstar Finale","category":null,"contestant":{"voting_id":"13","name":"Prashant Shah"},"vote_count":1,"created_on":"2020-01-28T21:35:18.440492+05:45"},{"idx":"DQrwv83LhLbgfqjzdpZTSJ","contest":"Music Eve 2020","episode":"Music Eve 2020 IOE","category":null,"contestant":{"voting_id":"15","name":"Purnima And Guys"},"vote_count":1,"created_on":"2020-01-28T21:34:35.272054+05:45"},{"idx":"ojQho3cJUWoTYkajcoRcvY","contest":"Model Superstar","episode":"Model Superstar Finale","category":null,"contestant":{"voting_id":"13","name":"Prashant Shah"},"vote_count":1,"created_on":"2020-01-28T21:33:38.508353+05:45"},{"idx":"JMCZmDiGzkcKygziq2iN5g","contest":"Model Superstar","episode":"Model Superstar Finale","category":null,"contestant":{"voting_id":"13","name":"Prashant Shah"},"vote_count":1,"created_on":"2020-01-28T21:33:15.604920+05:45"},{"idx":"VeRCtXkKiAYYzMEDeJE6ah","contest":"Model Superstar","episode":"Model Superstar Finale","category":null,"contestant":{"voting_id":"13","name":"Prashant Shah"},"vote_count":1,"created_on":"2020-01-28T21:33:05.564017+05:45"},{"idx":"ewvdSMoxJ89oouSHPVqUPm","contest":"Model Superstar","episode":"Model Superstar Finale","category":null,"contestant":{"voting_id":"13","name":"Prashant Shah"},"vote_count":1,"created_on":"2020-01-28T21:32:57.546386+05:45"},{"idx":"HfYHYsufeTotJsHGiiWJBL","contest":"Model Superstar","episode":"Model Superstar Finale","category":null,"contestant":{"voting_id":"13","name":"Prashant Shah"},"vote_count":1,"created_on":"2020-01-28T21:32:47.506126+05:45"},{"idx":"UpAZL6maL22ByAk6zPFM9X","contest":"Model Superstar","episode":"Model Superstar Finale","category":null,"contestant":{"voting_id":"13","name":"Prashant Shah"},"vote_count":1,"created_on":"2020-01-28T21:32:38.727486+05:45"},{"idx":"PTyRPRwrWAjT7m4gaVFDKh","contest":"Model Superstar","episode":"Model Superstar Finale","category":null,"contestant":{"voting_id":"13","name":"Prashant Shah"},"vote_count":1,"created_on":"2020-01-28T21:32:29.359687+05:45"},{"idx":"piFK9dqTEA4NjwbrNDF8mE","contest":"Music Eve 2020","episode":"Music Eve 2020 IOE","category":null,"contestant":{"voting_id":"15","name":"Purnima And Guys"},"vote_count":1,"created_on":"2020-01-28T21:32:13.767955+05:45"},{"idx":"ffdRxFsMabwexB6UE9ncfY","contest":"Music Eve 2020","episode":"Music Eve 2020 IOE","category":null,"contestant":{"voting_id":"25","name":"Turbo Band"},"vote_count":1,"created_on":"2020-01-28T21:28:35.745411+05:45"},{"idx":"Kxy5iAPNaQmSBLk6jLsH56","contest":"Music Eve 2020","episode":"Music Eve 2020 IOE","category":null,"contestant":{"voting_id":"16","name":"saahil duo"},"vote_count":1,"created_on":"2020-01-28T21:25:46.251692+05:45"},{"idx":"KojQTAygfmCt6dihaJvhQj","contest":"Music Eve 2020","episode":"Music Eve 2020 IOE","category":null,"contestant":{"voting_id":"15","name":"Purnima And Guys"},"vote_count":1,"created_on":"2020-01-28T21:21:18.945801+05:45"},{"idx":"cY9nTQaF4zL6EhcwDRRtK3","contest":"Music Eve 2020","episode":"Music Eve 2020 IOE","category":null,"contestant":{"voting_id":"16","name":"saahil duo"},"vote_count":1,"created_on":"2020-01-28T21:19:13.278761+05:45"},{"idx":"rAzeUS9coWaUuzEiFbDpwA","contest":"Music Eve 2020","episode":"Music Eve 2020 IOE","category":null,"contestant":{"voting_id":"16","name":"saahil duo"},"vote_count":1,"created_on":"2020-01-28T21:18:54.605043+05:45"},{"idx":"K3gAPKyZmc83ZhU66GiDyg","contest":"Model Superstar","episode":"Model Superstar Finale","category":null,"contestant":{"voting_id":"13","name":"Prashant Shah"},"vote_count":1,"created_on":"2020-01-28T21:18:27.231289+05:45"},{"idx":"MxKwrH5pkSsyV2h6ozP445","contest":"Music Eve 2020","episode":"Music Eve 2020 IOE","category":null,"contestant":{"voting_id":"03","name":"Abishek Aryal"},"vote_count":1,"created_on":"2020-01-28T21:18:22.219931+05:45"},{"idx":"89UWDfeWUwMQk6rcEJwWm9","contest":"Model Superstar","episode":"Model Superstar Finale","category":null,"contestant":{"voting_id":"13","name":"Prashant Shah"},"vote_count":1,"created_on":"2020-01-28T21:18:17.290784+05:45"},{"idx":"hahX7UkiJwSyWaMnXX6eAB","contest":"Model Superstar","episode":"Model Superstar Finale","category":null,"contestant":{"voting_id":"32","name":"Ichhya Adhikari"},"vote_count":1,"created_on":"2020-01-28T21:18:16.220036+05:45"},{"idx":"KQF2zQqq6JZHapz7iRPNbk","contest":"Model Superstar","episode":"Model Superstar Finale","category":null,"contestant":{"voting_id":"13","name":"Prashant Shah"},"vote_count":1,"created_on":"2020-01-28T21:18:08.537966+05:45"},{"idx":"HWMf8sg9wN98RwUVoU2mgi","contest":"Model Superstar","episode":"Model Superstar Finale","category":null,"contestant":{"voting_id":"13","name":"Prashant Shah"},"vote_count":1,"created_on":"2020-01-28T21:18:00.452199+05:45"},{"idx":"u9D9YFd8os67pw5we24MiR","contest":"Model Superstar","episode":"Model Superstar Finale","category":null,"contestant":{"voting_id":"13","name":"Prashant Shah"},"vote_count":1,"created_on":"2020-01-28T21:17:52.024274+05:45"},{"idx":"kJRxXhbfNaKGmYMRpukL8g","contest":"Model Superstar","episode":"Model Superstar Finale","category":null,"contestant":{"voting_id":"13","name":"Prashant Shah"},"vote_count":1,"created_on":"2020-01-28T21:17:44.326104+05:45"},{"idx":"TiHfe5rc2x8RGHNWJBawLX","contest":"Model Superstar","episode":"Model Superstar Finale","category":null,"contestant":{"voting_id":"13","name":"Prashant Shah"},"vote_count":1,"created_on":"2020-01-28T21:16:31.357565+05:45"},{"idx":"4n8LDeC93hS9Zsg7uN7XRa","contest":"Music Eve 2020","episode":"Music Eve 2020 IOE","category":null,"contestant":{"voting_id":"02","name":"abinash acharya"},"vote_count":1,"created_on":"2020-01-28T21:13:12.505056+05:45"},{"idx":"Vr7rwEjqH7qAMqmUb75fhc","contest":"Music Eve 2020","episode":"Music Eve 2020 IOE","category":null,"contestant":{"voting_id":"15","name":"Purnima And Guys"},"vote_count":1,"created_on":"2020-01-28T21:11:09.351151+05:45"}]}