{"total_pages":275,"total_records":13717,"next":"https://khalti.com/api/v2/vuservote/?page=34","previous":"https://khalti.com/api/v2/vuservote/?page=32","record_range":[1601,1650],"current_page":33,"records":[{"idx":"4Ssbvu4Y5fagunjX9HdmCD","contest":"Music Eve 2020","episode":"Music Eve 2020 IOE","category":null,"contestant":{"voting_id":"16","name":"saahil duo"},"vote_count":1,"created_on":"2020-01-28T21:10:59.643047+05:45"},{"idx":"idTLBjwZG7XRe3ytB5Lze4","contest":"Music Eve 2020","episode":"Music Eve 2020 IOE","category":null,"contestant":{"voting_id":"16","name":"saahil duo"},"vote_count":5,"created_on":"2020-01-28T21:09:17.310021+05:45"},{"idx":"oCNtbsSfCxVAhfBG8eEkyb","contest":"Music Eve 2020","episode":"Music Eve 2020 IOE","category":null,"contestant":{"voting_id":"16","name":"saahil duo"},"vote_count":1,"created_on":"2020-01-28T21:08:07.908321+05:45"},{"idx":"d2fi9uDeVTsbUvfHcfAUkE","contest":"Music Eve 2020","episode":"Music Eve 2020 IOE","category":null,"contestant":{"voting_id":"01","name":"4th GH"},"vote_count":1,"created_on":"2020-01-28T21:07:07.809108+05:45"},{"idx":"X5XYiE8met6i2mDCwXydWj","contest":"Music Eve 2020","episode":"Music Eve 2020 IOE","category":null,"contestant":{"voting_id":"03","name":"Abishek Aryal"},"vote_count":1,"created_on":"2020-01-28T21:02:36.658044+05:45"},{"idx":"rcyr9Z3Si49n6GweiccJ9M","contest":"Music Eve 2020","episode":"Music Eve 2020 IOE","category":null,"contestant":{"voting_id":"16","name":"saahil duo"},"vote_count":1,"created_on":"2020-01-28T20:58:08.479273+05:45"},{"idx":"mKPMYetL9yz3FCcGFAUXZG","contest":"Music Eve 2020","episode":"Music Eve 2020 IOE","category":null,"contestant":{"voting_id":"17","name":"sanskriti rimal"},"vote_count":1,"created_on":"2020-01-28T20:57:13.218073+05:45"},{"idx":"oXVfbko9SAqVsbrqsKmeBb","contest":"Music Eve 2020","episode":"Music Eve 2020 IOE","category":null,"contestant":{"voting_id":"16","name":"saahil duo"},"vote_count":5,"created_on":"2020-01-28T20:56:22.994214+05:45"},{"idx":"TQqmM6qm8pcA2Ezke5upnX","contest":"Model Superstar","episode":"Model Superstar Finale","category":null,"contestant":{"voting_id":"11","name":"Rachana Karki"},"vote_count":1,"created_on":"2020-01-28T20:56:07.880733+05:45"},{"idx":"64sauarHRF6Rq7gcuMumug","contest":"Music Eve 2020","episode":"Music Eve 2020 IOE","category":null,"contestant":{"voting_id":"02","name":"abinash acharya"},"vote_count":5,"created_on":"2020-01-28T20:53:44.472489+05:45"},{"idx":"JfBctptHmYZw4kJanbcY2E","contest":"Music Eve 2020","episode":"Music Eve 2020 IOE","category":null,"contestant":{"voting_id":"02","name":"abinash acharya"},"vote_count":1,"created_on":"2020-01-28T20:53:20.663711+05:45"},{"idx":"UgcuKeaxAjjNLwru2RCNz7","contest":"Music Eve 2020","episode":"Music Eve 2020 IOE","category":null,"contestant":{"voting_id":"26","name":"Utsav Pradhan"},"vote_count":1,"created_on":"2020-01-28T20:52:49.942943+05:45"},{"idx":"aFKcrbwKZ8WUsyNbkw7cvV","contest":"Music Eve 2020","episode":"Music Eve 2020 IOE","category":null,"contestant":{"voting_id":"03","name":"Abishek Aryal"},"vote_count":1,"created_on":"2020-01-28T20:50:23.727033+05:45"},{"idx":"SgnHpDDe6pC4mGd7qWQAPi","contest":"Music Eve 2020","episode":"Music Eve 2020 IOE","category":null,"contestant":{"voting_id":"06","name":"Bishal shakya"},"vote_count":1,"created_on":"2020-01-28T20:49:28.552172+05:45"},{"idx":"j2JBhUfmAw9FAjdZQwxag2","contest":"Music Eve 2020","episode":"Music Eve 2020 IOE","category":null,"contestant":{"voting_id":"16","name":"saahil duo"},"vote_count":1,"created_on":"2020-01-28T20:49:17.140673+05:45"},{"idx":"9WbVUaseXJdQaZP9sP5VpW","contest":"Music Eve 2020","episode":"Music Eve 2020 IOE","category":null,"contestant":{"voting_id":"16","name":"saahil duo"},"vote_count":1,"created_on":"2020-01-28T20:48:25.889109+05:45"},{"idx":"tW3fc4MF7cCdyUzhEUdrtP","contest":"Music Eve 2020","episode":"Music Eve 2020 IOE","category":null,"contestant":{"voting_id":"06","name":"Bishal shakya"},"vote_count":1,"created_on":"2020-01-28T20:48:20.318526+05:45"},{"idx":"qrr7TG6otD25YWjUUabASH","contest":"Music Eve 2020","episode":"Music Eve 2020 IOE","category":null,"contestant":{"voting_id":"16","name":"saahil duo"},"vote_count":1,"created_on":"2020-01-28T20:46:51.064547+05:45"},{"idx":"4Aj9PvF8xD8iQqgkR48znX","contest":"Music Eve 2020","episode":"Music Eve 2020 IOE","category":null,"contestant":{"voting_id":"03","name":"Abishek Aryal"},"vote_count":1,"created_on":"2020-01-28T20:45:36.549269+05:45"},{"idx":"SUm4TgUpAyXn7H26zF4dvm","contest":"Music Eve 2020","episode":"Music Eve 2020 IOE","category":null,"contestant":{"voting_id":"16","name":"saahil duo"},"vote_count":1,"created_on":"2020-01-28T20:43:16.559311+05:45"},{"idx":"8QiSDk7VUKsVcnzaH8g7uc","contest":"Music Eve 2020","episode":"Music Eve 2020 IOE","category":null,"contestant":{"voting_id":"03","name":"Abishek Aryal"},"vote_count":1,"created_on":"2020-01-28T20:42:48.132147+05:45"},{"idx":"TH3K22oGZ7mdUB5AYUDLoF","contest":"Music Eve 2020","episode":"Music Eve 2020 IOE","category":null,"contestant":{"voting_id":"26","name":"Utsav Pradhan"},"vote_count":1,"created_on":"2020-01-28T20:40:55.325225+05:45"},{"idx":"PXSyrcyRooak7U6WgJ3YA8","contest":"Music Eve 2020","episode":"Music Eve 2020 IOE","category":null,"contestant":{"voting_id":"03","name":"Abishek Aryal"},"vote_count":1,"created_on":"2020-01-28T20:40:06.087917+05:45"},{"idx":"SxoScYbbDed2EoPDeBxnaS","contest":"Music Eve 2020","episode":"Music Eve 2020 IOE","category":null,"contestant":{"voting_id":"04","name":"Asmit Timalsina"},"vote_count":1,"created_on":"2020-01-28T20:37:30.201920+05:45"},{"idx":"UmoFAgpKbVn3XZMzCBtQvM","contest":"Music Eve 2020","episode":"Music Eve 2020 IOE","category":null,"contestant":{"voting_id":"11","name":"Nitesh subedi"},"vote_count":1,"created_on":"2020-01-28T20:36:13.056681+05:45"},{"idx":"6rYJXcqRfKb8SoLjfsmGr4","contest":"Music Eve 2020","episode":"Music Eve 2020 IOE","category":null,"contestant":{"voting_id":"03","name":"Abishek Aryal"},"vote_count":1,"created_on":"2020-01-28T20:35:45.786691+05:45"},{"idx":"Qb5wZv6nsfKrisdqd3b5FW","contest":"Music Eve 2020","episode":"Music Eve 2020 IOE","category":null,"contestant":{"voting_id":"03","name":"Abishek Aryal"},"vote_count":1,"created_on":"2020-01-28T20:28:55.443315+05:45"},{"idx":"XaWhWiZC8pLr6bvqvA2xL6","contest":"Music Eve 2020","episode":"Music Eve 2020 IOE","category":null,"contestant":{"voting_id":"16","name":"saahil duo"},"vote_count":1,"created_on":"2020-01-28T20:20:37.438633+05:45"},{"idx":"WKahPqVQa6yc9sC9DXdXPc","contest":"Music Eve 2020","episode":"Music Eve 2020 IOE","category":null,"contestant":{"voting_id":"16","name":"saahil duo"},"vote_count":1,"created_on":"2020-01-28T20:17:04.135383+05:45"},{"idx":"LvuRyT2t5GzrGLivviUkK7","contest":"Model Superstar","episode":"Model Superstar Finale","category":null,"contestant":{"voting_id":"02","name":"Srijana Basnet"},"vote_count":1,"created_on":"2020-01-28T20:11:03.172809+05:45"},{"idx":"9ggaPRTUCayBJQeq7Qad3T","contest":"Music Eve 2020","episode":"Music Eve 2020 IOE","category":null,"contestant":{"voting_id":"03","name":"Abishek Aryal"},"vote_count":1,"created_on":"2020-01-28T20:10:25.982441+05:45"},{"idx":"q8GrEv96femJYnPRQjC3Wo","contest":"Music Eve 2020","episode":"Music Eve 2020 IOE","category":null,"contestant":{"voting_id":"18","name":"Saurav Sinjali Magar"},"vote_count":1,"created_on":"2020-01-28T20:05:14.161306+05:45"},{"idx":"W3Nhzdh6v7zPjTrRkg4md5","contest":"Music Eve 2020","episode":"Music Eve 2020 IOE","category":null,"contestant":{"voting_id":"22","name":"swayam dhakal"},"vote_count":1,"created_on":"2020-01-28T19:38:54.287066+05:45"},{"idx":"FYJtdhMfxr752AmUszafTm","contest":"Music Eve 2020","episode":"Music Eve 2020 IOE","category":null,"contestant":{"voting_id":"26","name":"Utsav Pradhan"},"vote_count":1,"created_on":"2020-01-28T19:38:42.303553+05:45"},{"idx":"ji9bFNU5HPQXHuKeWUrk8V","contest":"Music Eve 2020","episode":"Music Eve 2020 IOE","category":null,"contestant":{"voting_id":"11","name":"Nitesh subedi"},"vote_count":1,"created_on":"2020-01-28T19:25:43.062260+05:45"},{"idx":"evEpKabEU8TiypBPAWW7ic","contest":"Music Eve 2020","episode":"Music Eve 2020 IOE","category":null,"contestant":{"voting_id":"12","name":"one band"},"vote_count":5,"created_on":"2020-01-28T19:22:35.903856+05:45"},{"idx":"XTijEKbygF5reoVLN5zhZD","contest":"Music Eve 2020","episode":"Music Eve 2020 IOE","category":null,"contestant":{"voting_id":"26","name":"Utsav Pradhan"},"vote_count":1,"created_on":"2020-01-28T18:55:38.702342+05:45"},{"idx":"vbrRrHV9Rhddk2gN3HwgZ7","contest":"Music Eve 2020","episode":"Music Eve 2020 IOE","category":null,"contestant":{"voting_id":"07","name":"Chemical Latch"},"vote_count":1,"created_on":"2020-01-28T18:36:16.547933+05:45"},{"idx":"sN76JCu3xaDdLDyVDDTMSK","contest":"Music Eve 2020","episode":"Music Eve 2020 IOE","category":null,"contestant":{"voting_id":"07","name":"Chemical Latch"},"vote_count":1,"created_on":"2020-01-28T18:34:49.171219+05:45"},{"idx":"pjSPGXCSWbLKdT9LADneG7","contest":"Music Eve 2020","episode":"Music Eve 2020 IOE","category":null,"contestant":{"voting_id":"07","name":"Chemical Latch"},"vote_count":1,"created_on":"2020-01-28T18:25:15.723222+05:45"},{"idx":"8vkTyxrdGuKaJ7NKMU5dcY","contest":"Music Eve 2020","episode":"Music Eve 2020 IOE","category":null,"contestant":{"voting_id":"07","name":"Chemical Latch"},"vote_count":1,"created_on":"2020-01-28T18:25:15.591782+05:45"},{"idx":"AebUWAR4pHQ4yDDvsnpnhA","contest":"Music Eve 2020","episode":"Music Eve 2020 IOE","category":null,"contestant":{"voting_id":"26","name":"Utsav Pradhan"},"vote_count":1,"created_on":"2020-01-28T18:17:24.097706+05:45"},{"idx":"WjoqiEdaG3pFABni4cWbri","contest":"Model Superstar","episode":"Model Superstar Finale","category":null,"contestant":{"voting_id":"30","name":"Nikita Shakya"},"vote_count":1,"created_on":"2020-01-28T18:06:36.658914+05:45"},{"idx":"F68AgUp7zYSbTLaVRvKgYi","contest":"Music Eve 2020","episode":"Music Eve 2020 IOE","category":null,"contestant":{"voting_id":"10","name":"Nishan Paudel"},"vote_count":1,"created_on":"2020-01-28T17:43:40.298508+05:45"},{"idx":"cuZYBiXebeQhomrmYYq5xf","contest":"Music Eve 2020","episode":"Music Eve 2020 IOE","category":null,"contestant":{"voting_id":"10","name":"Nishan Paudel"},"vote_count":1,"created_on":"2020-01-28T17:36:40.340368+05:45"},{"idx":"jF99qJFGiLTLkW4xnUZAXh","contest":"Model Superstar","episode":"Model Superstar Finale","category":null,"contestant":{"voting_id":"30","name":"Nikita Shakya"},"vote_count":1,"created_on":"2020-01-28T14:28:52.161292+05:45"},{"idx":"mrAKAuwbMjgN5M2n6oXH7T","contest":"Model Superstar","episode":"Model Superstar Finale","category":null,"contestant":{"voting_id":"02","name":"Srijana Basnet"},"vote_count":1,"created_on":"2020-01-28T14:28:50.981398+05:45"},{"idx":"GWCrVPvsFXQ9GN36BvNgqJ","contest":"Model Superstar","episode":"Model Superstar Finale","category":null,"contestant":{"voting_id":"02","name":"Srijana Basnet"},"vote_count":1,"created_on":"2020-01-28T14:27:43.190123+05:45"},{"idx":"L7LaruWBXQz8VM6VsMzHBZ","contest":"Model Superstar","episode":"Model Superstar Finale","category":null,"contestant":{"voting_id":"03","name":"Smriti Shah"},"vote_count":1,"created_on":"2020-01-28T12:34:20.215393+05:45"},{"idx":"4G2uV7uK5SmhCasHEJjx7J","contest":"Model Superstar","episode":"Model Superstar Finale","category":null,"contestant":{"voting_id":"12","name":"Rabin Ghising"},"vote_count":1,"created_on":"2020-01-28T12:17:23.989129+05:45"}]}