{"total_pages":275,"total_records":13717,"next":"https://khalti.com/api/v2/vuservote/?page=35","previous":"https://khalti.com/api/v2/vuservote/?page=33","record_range":[1651,1700],"current_page":34,"records":[{"idx":"gikYPnXUw9qLpsgfcQCW7X","contest":"Model Superstar","episode":"Model Superstar Finale","category":null,"contestant":{"voting_id":"31","name":"Aakriti Subedi"},"vote_count":1,"created_on":"2020-01-28T10:29:56.031985+05:45"},{"idx":"Up7sHV2EpyBASZjnHGK5SU","contest":"Model Superstar","episode":"Model Superstar Finale","category":null,"contestant":{"voting_id":"04","name":"Sabita Maharjan"},"vote_count":1,"created_on":"2020-01-28T10:22:33.315740+05:45"},{"idx":"b6MosRseAmPGWK535ruFc3","contest":"Model Superstar","episode":"Model Superstar Finale","category":null,"contestant":{"voting_id":"04","name":"Sabita Maharjan"},"vote_count":1,"created_on":"2020-01-28T10:21:51.037162+05:45"},{"idx":"TU4UZREfL7FZa5xxDmimDN","contest":"Model Superstar","episode":"Model Superstar Finale","category":null,"contestant":{"voting_id":"01","name":"Sajina Subba"},"vote_count":1,"created_on":"2020-01-28T09:45:37.073812+05:45"},{"idx":"8XemWpbNyhEdG3So7d3Rek","contest":"Model Superstar","episode":"Model Superstar Finale","category":null,"contestant":{"voting_id":"02","name":"Srijana Basnet"},"vote_count":1,"created_on":"2020-01-28T09:41:28.412005+05:45"},{"idx":"M4oQcunqaKwXkLGdY8pPv8","contest":"Model Superstar","episode":"Model Superstar Finale","category":null,"contestant":{"voting_id":"16","name":"Anil Karki"},"vote_count":1,"created_on":"2020-01-28T09:19:15.646412+05:45"},{"idx":"XMuBDpPvRRpSqL8Yyhpqr8","contest":"Model Superstar","episode":"Model Superstar Finale","category":null,"contestant":{"voting_id":"02","name":"Srijana Basnet"},"vote_count":1,"created_on":"2020-01-28T06:59:10.611448+05:45"},{"idx":"pcNs6JWe9P9hMZdVSeRX8F","contest":"Model Superstar","episode":"Model Superstar Finale","category":null,"contestant":{"voting_id":"02","name":"Srijana Basnet"},"vote_count":1,"created_on":"2020-01-28T06:58:27.889089+05:45"},{"idx":"eSZEpM6tivCvyFTDHavtwa","contest":"Model Superstar","episode":"Model Superstar Finale","category":null,"contestant":{"voting_id":"04","name":"Sabita Maharjan"},"vote_count":1,"created_on":"2020-01-28T03:09:32.351508+05:45"},{"idx":"7TGfiGVFCEo5xnrqiy8AD7","contest":"Model Superstar","episode":"Model Superstar Finale","category":null,"contestant":{"voting_id":"02","name":"Srijana Basnet"},"vote_count":1,"created_on":"2020-01-28T03:09:17.575432+05:45"},{"idx":"mFAXundWAK4GFjMstmoZV8","contest":"Model Superstar","episode":"Model Superstar Finale","category":null,"contestant":{"voting_id":"11","name":"Rachana Karki"},"vote_count":1,"created_on":"2020-01-27T23:33:41.061952+05:45"},{"idx":"knjTbjxGcK2NTyg5oPaU4Z","contest":"Model Superstar","episode":"Model Superstar Finale","category":null,"contestant":{"voting_id":"03","name":"Smriti Shah"},"vote_count":1,"created_on":"2020-01-27T23:32:55.695104+05:45"},{"idx":"qnRrsiRKU9GxvVk3TtiPd3","contest":"Model Superstar","episode":"Model Superstar Finale","category":null,"contestant":{"voting_id":"11","name":"Rachana Karki"},"vote_count":1,"created_on":"2020-01-27T21:11:39.129461+05:45"},{"idx":"CpjU26QNDCt7bGfXB96UeJ","contest":"Model Superstar","episode":"Model Superstar Finale","category":null,"contestant":{"voting_id":"13","name":"Prashant Shah"},"vote_count":1,"created_on":"2020-01-27T20:18:38.397669+05:45"},{"idx":"7zNJMGZicpSjsJwpjC9e4T","contest":"Model Superstar","episode":"Model Superstar Finale","category":null,"contestant":{"voting_id":"13","name":"Prashant Shah"},"vote_count":1,"created_on":"2020-01-27T19:38:56.772443+05:45"},{"idx":"asDhrhaU9CqgjVA4dQoTHm","contest":"Model Superstar","episode":"Model Superstar Finale","category":null,"contestant":{"voting_id":"04","name":"Sabita Maharjan"},"vote_count":1,"created_on":"2020-01-27T17:40:49.217171+05:45"},{"idx":"JQ4UhgbBeJXvgSiNG5rdFe","contest":"Model Superstar","episode":"Model Superstar Finale","category":null,"contestant":{"voting_id":"13","name":"Prashant Shah"},"vote_count":1,"created_on":"2020-01-27T16:45:47.340014+05:45"},{"idx":"pp9WSVMAt5rmXfroTZhDV2","contest":"Model Superstar","episode":"Model Superstar Finale","category":null,"contestant":{"voting_id":"13","name":"Prashant Shah"},"vote_count":1,"created_on":"2020-01-27T16:45:34.146983+05:45"},{"idx":"Ptcy3hyq6bruyD948b92hV","contest":"Model Superstar","episode":"Model Superstar Finale","category":null,"contestant":{"voting_id":"13","name":"Prashant Shah"},"vote_count":1,"created_on":"2020-01-27T16:45:15.097666+05:45"},{"idx":"8mr5iJ8XqDJs8hG8TsTRMj","contest":"Model Superstar","episode":"Model Superstar Finale","category":null,"contestant":{"voting_id":"13","name":"Prashant Shah"},"vote_count":1,"created_on":"2020-01-27T16:44:50.356502+05:45"},{"idx":"PaKbjAiqhM3HdW3rKF4doZ","contest":"Model Superstar","episode":"Model Superstar Finale","category":null,"contestant":{"voting_id":"12","name":"Rabin Ghising"},"vote_count":1,"created_on":"2020-01-27T16:41:16.890492+05:45"},{"idx":"MjeKTP5PvqvPXxhTrxKReV","contest":"Model Superstar","episode":"Model Superstar Finale","category":null,"contestant":{"voting_id":"31","name":"Aakriti Subedi"},"vote_count":1,"created_on":"2020-01-27T16:40:48.037517+05:45"},{"idx":"SEsAubZ2TusuR85BmoqaFg","contest":"Model Superstar","episode":"Model Superstar Finale","category":null,"contestant":{"voting_id":"31","name":"Aakriti Subedi"},"vote_count":1,"created_on":"2020-01-27T16:40:21.474435+05:45"},{"idx":"9p9hRNf4isppdgJYWubikf","contest":"Model Superstar","episode":"Model Superstar Finale","category":null,"contestant":{"voting_id":"12","name":"Rabin Ghising"},"vote_count":1,"created_on":"2020-01-27T16:39:49.592442+05:45"},{"idx":"w92FSsbtfW7x37URV7XwfA","contest":"Model Superstar","episode":"Model Superstar Finale","category":null,"contestant":{"voting_id":"02","name":"Srijana Basnet"},"vote_count":1,"created_on":"2020-01-27T16:34:11.468080+05:45"},{"idx":"AeG5pEETYCf7DGgyqV3TjS","contest":"Model Superstar","episode":"Model Superstar Finale","category":null,"contestant":{"voting_id":"01","name":"Sajina Subba"},"vote_count":1,"created_on":"2020-01-27T16:33:56.312526+05:45"},{"idx":"QpAZCpUTRGVwXuuBU8CcNg","contest":"Model Superstar","episode":"Model Superstar Finale","category":null,"contestant":{"voting_id":"14","name":"Ashish Shakya"},"vote_count":1,"created_on":"2020-01-27T16:33:40.676240+05:45"},{"idx":"qfMRaAiozGC7VQAWjiKkCd","contest":"Model Superstar","episode":"Model Superstar Finale","category":null,"contestant":{"voting_id":"04","name":"Sabita Maharjan"},"vote_count":1,"created_on":"2020-01-27T15:55:20.135653+05:45"},{"idx":"Au8AJhyocVRccMLeoLEifD","contest":"Model Superstar","episode":"Model Superstar Finale","category":null,"contestant":{"voting_id":"01","name":"Sajina Subba"},"vote_count":1,"created_on":"2020-01-27T15:17:58.856785+05:45"},{"idx":"mUUqTBxWAyo6esapFxZ9GG","contest":"Model Superstar","episode":"Model Superstar Finale","category":null,"contestant":{"voting_id":"01","name":"Sajina Subba"},"vote_count":1,"created_on":"2020-01-27T13:39:49.711704+05:45"},{"idx":"59pJvBYV43TxVbPsRyKrPW","contest":"Model Superstar","episode":"Model Superstar Finale","category":null,"contestant":{"voting_id":"31","name":"Aakriti Subedi"},"vote_count":1,"created_on":"2020-01-27T13:13:23.169579+05:45"},{"idx":"9J6d8hz5GpJtmKR48Z8GSc","contest":"Model Superstar","episode":"Model Superstar Finale","category":null,"contestant":{"voting_id":"02","name":"Srijana Basnet"},"vote_count":1,"created_on":"2020-01-27T12:47:35.903793+05:45"},{"idx":"WHmsnTQoP8U5hrbc6NTesY","contest":"Model Superstar","episode":"Model Superstar Finale","category":null,"contestant":{"voting_id":"01","name":"Sajina Subba"},"vote_count":1,"created_on":"2020-01-27T12:47:23.899767+05:45"},{"idx":"L3Lueo6KFNzKX36KLSvfmj","contest":"Model Superstar","episode":"Model Superstar Finale","category":null,"contestant":{"voting_id":"01","name":"Sajina Subba"},"vote_count":1,"created_on":"2020-01-27T12:47:05.657148+05:45"},{"idx":"UmHiTxZVREXVqdUPj8sgpg","contest":"Model Superstar","episode":"Model Superstar Finale","category":null,"contestant":{"voting_id":"01","name":"Sajina Subba"},"vote_count":1,"created_on":"2020-01-27T12:46:55.580552+05:45"},{"idx":"8mQBoqkNmvRSDkGhR8THRS","contest":"Model Superstar","episode":"Model Superstar Finale","category":null,"contestant":{"voting_id":"02","name":"Srijana Basnet"},"vote_count":1,"created_on":"2020-01-27T12:46:51.920315+05:45"},{"idx":"32aXrLcZPFnKgYCqx4VMQK","contest":"Model Superstar","episode":"Model Superstar Finale","category":null,"contestant":{"voting_id":"01","name":"Sajina Subba"},"vote_count":1,"created_on":"2020-01-27T12:46:37.797593+05:45"},{"idx":"3hTuvSK6mKBRWmRtBZcsXf","contest":"Model Superstar","episode":"Model Superstar Finale","category":null,"contestant":{"voting_id":"02","name":"Srijana Basnet"},"vote_count":1,"created_on":"2020-01-27T12:46:18.500964+05:45"},{"idx":"i9FoaZasXg4PiN5gzQwnjM","contest":"Model Superstar","episode":"Model Superstar Finale","category":null,"contestant":{"voting_id":"01","name":"Sajina Subba"},"vote_count":1,"created_on":"2020-01-27T12:46:16.886649+05:45"},{"idx":"CzT4dHVzKY4NS8AwRvLLzb","contest":"Model Superstar","episode":"Model Superstar Finale","category":null,"contestant":{"voting_id":"01","name":"Sajina Subba"},"vote_count":1,"created_on":"2020-01-27T12:04:32.963368+05:45"},{"idx":"xNAE8E5nx5wyGwctYtW4LZ","contest":"Model Superstar","episode":"Model Superstar Finale","category":null,"contestant":{"voting_id":"01","name":"Sajina Subba"},"vote_count":1,"created_on":"2020-01-27T12:04:10.095652+05:45"},{"idx":"vEXC29Uckh8TGPmMBCta2X","contest":"Model Superstar","episode":"Model Superstar Finale","category":null,"contestant":{"voting_id":"01","name":"Sajina Subba"},"vote_count":1,"created_on":"2020-01-27T12:03:38.727415+05:45"},{"idx":"FHDmT4MuuX6Ypp3QwRbYvZ","contest":"Model Superstar","episode":"Model Superstar Finale","category":null,"contestant":{"voting_id":"03","name":"Smriti Shah"},"vote_count":1,"created_on":"2020-01-27T11:50:26.986842+05:45"},{"idx":"V2kTNt44TP2Lfn5YGtAK3a","contest":"Model Superstar","episode":"Model Superstar Finale","category":null,"contestant":{"voting_id":"02","name":"Srijana Basnet"},"vote_count":1,"created_on":"2020-01-27T11:25:23.647069+05:45"},{"idx":"4e7pdRi7YfF73G4xjUKsKd","contest":"Model Superstar","episode":"Model Superstar Finale","category":null,"contestant":{"voting_id":"01","name":"Sajina Subba"},"vote_count":1,"created_on":"2020-01-27T11:24:55.354273+05:45"},{"idx":"jLGSGX9kjG2XHc9HEzUdDA","contest":"Model Superstar","episode":"Model Superstar Finale","category":null,"contestant":{"voting_id":"02","name":"Srijana Basnet"},"vote_count":1,"created_on":"2020-01-27T11:24:54.796150+05:45"},{"idx":"qAGQpwLoxhtrEKPoMoLEVe","contest":"Model Superstar","episode":"Model Superstar Finale","category":null,"contestant":{"voting_id":"11","name":"Rachana Karki"},"vote_count":1,"created_on":"2020-01-27T11:24:38.021248+05:45"},{"idx":"gwbbVULHA6bddpAXz5UUWF","contest":"Model Superstar","episode":"Model Superstar Finale","category":null,"contestant":{"voting_id":"03","name":"Smriti Shah"},"vote_count":1,"created_on":"2020-01-27T10:04:38.996810+05:45"},{"idx":"rwJWC4uyhRYZyTdLNhnPML","contest":"Model Superstar","episode":"Model Superstar Finale","category":null,"contestant":{"voting_id":"02","name":"Srijana Basnet"},"vote_count":1,"created_on":"2020-01-27T09:49:32.447932+05:45"},{"idx":"gyTqH4VeRaN98xLyH5448m","contest":"Model Superstar","episode":"Model Superstar Finale","category":null,"contestant":{"voting_id":"02","name":"Srijana Basnet"},"vote_count":1,"created_on":"2020-01-27T09:49:15.626938+05:45"}]}