{"total_pages":275,"total_records":13717,"next":"https://khalti.com/api/v2/vuservote/?page=36","previous":"https://khalti.com/api/v2/vuservote/?page=34","record_range":[1701,1750],"current_page":35,"records":[{"idx":"6Hh5pg5w7CHtA8mR4jUhiZ","contest":"Model Superstar","episode":"Model Superstar Finale","category":null,"contestant":{"voting_id":"03","name":"Smriti Shah"},"vote_count":1,"created_on":"2020-01-27T09:23:32.468752+05:45"},{"idx":"uJCmbvipGKKvxwoWcfUj3L","contest":"Model Superstar","episode":"Model Superstar Finale","category":null,"contestant":{"voting_id":"04","name":"Sabita Maharjan"},"vote_count":1,"created_on":"2020-01-27T08:56:23.569009+05:45"},{"idx":"SzgoxAB2a7qd6VLqLk7LqW","contest":"Model Superstar","episode":"Model Superstar Finale","category":null,"contestant":{"voting_id":"07","name":"Narman Malla"},"vote_count":1,"created_on":"2020-01-27T08:38:02.746952+05:45"},{"idx":"pg4ceNuHNko9zBoLHD9K7Q","contest":"Model Superstar","episode":"Model Superstar Finale","category":null,"contestant":{"voting_id":"01","name":"Sajina Subba"},"vote_count":5,"created_on":"2020-01-27T08:27:59.100372+05:45"},{"idx":"HNmHHGrBC8PeUt2CNoTe6h","contest":"Model Superstar","episode":"Model Superstar Finale","category":null,"contestant":{"voting_id":"02","name":"Srijana Basnet"},"vote_count":1,"created_on":"2020-01-27T07:50:20.866886+05:45"},{"idx":"oB4mi8xx7B5aKCFRiJSyN4","contest":"Model Superstar","episode":"Model Superstar Finale","category":null,"contestant":{"voting_id":"03","name":"Smriti Shah"},"vote_count":1,"created_on":"2020-01-27T07:50:04.672163+05:45"},{"idx":"omP5pLPr7d93uGbAStZWC8","contest":"Model Superstar","episode":"Model Superstar Finale","category":null,"contestant":{"voting_id":"01","name":"Sajina Subba"},"vote_count":1,"created_on":"2020-01-27T07:49:51.996109+05:45"},{"idx":"j3AoFRAuWxoYiKHjBGBgNP","contest":"Model Superstar","episode":"Model Superstar Finale","category":null,"contestant":{"voting_id":"02","name":"Srijana Basnet"},"vote_count":1,"created_on":"2020-01-27T07:49:35.057348+05:45"},{"idx":"3Yrzig8GVhgb7iSKDEfBJ8","contest":"Model Superstar","episode":"Model Superstar Finale","category":null,"contestant":{"voting_id":"02","name":"Srijana Basnet"},"vote_count":1,"created_on":"2020-01-27T07:39:23.785664+05:45"},{"idx":"EDMHU2dwAjmcZRcnfWa6cc","contest":"Model Superstar","episode":"Model Superstar Finale","category":null,"contestant":{"voting_id":"02","name":"Srijana Basnet"},"vote_count":1,"created_on":"2020-01-27T07:38:55.191209+05:45"},{"idx":"n6m9HryFeDdJdomuj6nHZN","contest":"Model Superstar","episode":"Model Superstar Finale","category":null,"contestant":{"voting_id":"03","name":"Smriti Shah"},"vote_count":1,"created_on":"2020-01-27T07:33:58.507324+05:45"},{"idx":"Zfr9gsQxMR8o59BCkqG3gh","contest":"Model Superstar","episode":"Model Superstar Finale","category":null,"contestant":{"voting_id":"03","name":"Smriti Shah"},"vote_count":1,"created_on":"2020-01-27T07:33:17.550036+05:45"},{"idx":"LzKDZqYfzF8kUfeE38cBHA","contest":"Model Superstar","episode":"Model Superstar Finale","category":null,"contestant":{"voting_id":"31","name":"Aakriti Subedi"},"vote_count":1,"created_on":"2020-01-27T01:00:10.433955+05:45"},{"idx":"k6wXeK3Q7xmHcZKmE4xYq3","contest":"Model Superstar","episode":"Model Superstar Finale","category":null,"contestant":{"voting_id":"32","name":"Ichhya Adhikari"},"vote_count":1,"created_on":"2020-01-26T22:32:28.046537+05:45"},{"idx":"scfXLK73mdwqM6fGpcLwwU","contest":"Model Superstar","episode":"Model Superstar Finale","category":null,"contestant":{"voting_id":"13","name":"Prashant Shah"},"vote_count":1,"created_on":"2020-01-26T21:58:03.301967+05:45"},{"idx":"n3DuDqQRim5xaVqUEXQkwF","contest":"Model Superstar","episode":"Model Superstar Finale","category":null,"contestant":{"voting_id":"13","name":"Prashant Shah"},"vote_count":1,"created_on":"2020-01-26T21:57:30.055567+05:45"},{"idx":"WBvsD7pfGo2PnacWgk9UqT","contest":"Model Superstar","episode":"Model Superstar Finale","category":null,"contestant":{"voting_id":"02","name":"Srijana Basnet"},"vote_count":1,"created_on":"2020-01-26T21:18:36.116262+05:45"},{"idx":"yXDgw5YJdiPytBTmzeQ4dE","contest":"Model Superstar","episode":"Model Superstar Finale","category":null,"contestant":{"voting_id":"11","name":"Rachana Karki"},"vote_count":1,"created_on":"2020-01-26T21:18:03.292541+05:45"},{"idx":"jazyHZyV6kZiGx9MBAyVr7","contest":"Model Superstar","episode":"Model Superstar Finale","category":null,"contestant":{"voting_id":"07","name":"Narman Malla"},"vote_count":1,"created_on":"2020-01-26T21:16:34.208952+05:45"},{"idx":"fi9UG7p5CSRKiYTTZyiHr8","contest":"Model Superstar","episode":"Model Superstar Finale","category":null,"contestant":{"voting_id":"06","name":"Sujan Basnet"},"vote_count":1,"created_on":"2020-01-26T21:11:28.421253+05:45"},{"idx":"MvHctorxRfLn3qGsC6ndDE","contest":"Model Superstar","episode":"Model Superstar Finale","category":null,"contestant":{"voting_id":"31","name":"Aakriti Subedi"},"vote_count":1,"created_on":"2020-01-26T21:08:26.466144+05:45"},{"idx":"qkVJAAGrM6PeAdEcKcGXT4","contest":"Model Superstar","episode":"Model Superstar Finale","category":null,"contestant":{"voting_id":"04","name":"Sabita Maharjan"},"vote_count":1,"created_on":"2020-01-26T19:38:16.596303+05:45"},{"idx":"Yh955CgGPw9cLho7Th4Xbc","contest":"Model Superstar","episode":"Model Superstar Finale","category":null,"contestant":{"voting_id":"11","name":"Rachana Karki"},"vote_count":1,"created_on":"2020-01-26T19:37:27.166333+05:45"},{"idx":"YRJ2gdHvAFtetfhPdEbepJ","contest":"Model Superstar","episode":"Model Superstar Finale","category":null,"contestant":{"voting_id":"13","name":"Prashant Shah"},"vote_count":1,"created_on":"2020-01-26T19:36:20.656715+05:45"},{"idx":"6PPxRAV9gmuxdNaiyVdssT","contest":"Model Superstar","episode":"Model Superstar Finale","category":null,"contestant":{"voting_id":"13","name":"Prashant Shah"},"vote_count":1,"created_on":"2020-01-26T19:36:11.579803+05:45"},{"idx":"zmGAwLt4JMKdWU6isqPCzF","contest":"Model Superstar","episode":"Model Superstar Finale","category":null,"contestant":{"voting_id":"02","name":"Srijana Basnet"},"vote_count":1,"created_on":"2020-01-26T19:35:24.193614+05:45"},{"idx":"eDiTNWm5nNL7nSMnCMRtvb","contest":"Model Superstar","episode":"Model Superstar Finale","category":null,"contestant":{"voting_id":"30","name":"Nikita Shakya"},"vote_count":1,"created_on":"2020-01-26T19:32:25.367267+05:45"},{"idx":"y2XhMmbEsNZKGcFJkrG28W","contest":"Model Superstar","episode":"Model Superstar Finale","category":null,"contestant":{"voting_id":"01","name":"Sajina Subba"},"vote_count":1,"created_on":"2020-01-26T18:58:55.486414+05:45"},{"idx":"dRG8XJkS9gVFCyTxmLBDpU","contest":"Model Superstar","episode":"Model Superstar Finale","category":null,"contestant":{"voting_id":"04","name":"Sabita Maharjan"},"vote_count":1,"created_on":"2020-01-26T18:43:39.671164+05:45"},{"idx":"6dgzoDP8vj8C72cUuvtGaT","contest":"Model Superstar","episode":"Model Superstar Finale","category":null,"contestant":{"voting_id":"04","name":"Sabita Maharjan"},"vote_count":1,"created_on":"2020-01-26T18:43:14.188151+05:45"},{"idx":"nHJP9aVweGAvX4qQL4MDyY","contest":"Model Superstar","episode":"Model Superstar Finale","category":null,"contestant":{"voting_id":"02","name":"Srijana Basnet"},"vote_count":1,"created_on":"2020-01-26T17:56:16.072584+05:45"},{"idx":"XKbdhzBx5eSieZEJPhr8PL","contest":"Model Superstar","episode":"Model Superstar Finale","category":null,"contestant":{"voting_id":"02","name":"Srijana Basnet"},"vote_count":1,"created_on":"2020-01-26T17:56:00.891479+05:45"},{"idx":"cNfvPmG7CGByBopba5wZPS","contest":"Model Superstar","episode":"Model Superstar Finale","category":null,"contestant":{"voting_id":"03","name":"Smriti Shah"},"vote_count":1,"created_on":"2020-01-26T17:55:36.313401+05:45"},{"idx":"CEE7SC3NifLGyVPiJqusQo","contest":"Model Superstar","episode":"Model Superstar Finale","category":null,"contestant":{"voting_id":"13","name":"Prashant Shah"},"vote_count":1,"created_on":"2020-01-26T17:09:02.355973+05:45"},{"idx":"AxCLyUrtErBLLs4Js2NJdR","contest":"Model Superstar","episode":"Model Superstar Finale","category":null,"contestant":{"voting_id":"13","name":"Prashant Shah"},"vote_count":1,"created_on":"2020-01-26T17:08:39.755699+05:45"},{"idx":"FGELRWbo94Zf3sL8MWHCLo","contest":"Model Superstar","episode":"Model Superstar Finale","category":null,"contestant":{"voting_id":"13","name":"Prashant Shah"},"vote_count":1,"created_on":"2020-01-26T17:08:30.222000+05:45"},{"idx":"749hpXHnG7CjdpEKfdyM7F","contest":"Model Superstar","episode":"Model Superstar Finale","category":null,"contestant":{"voting_id":"13","name":"Prashant Shah"},"vote_count":1,"created_on":"2020-01-26T17:08:22.462153+05:45"},{"idx":"S2SJVtiyN66VeQVz8YD8oJ","contest":"Model Superstar","episode":"Model Superstar Finale","category":null,"contestant":{"voting_id":"13","name":"Prashant Shah"},"vote_count":1,"created_on":"2020-01-26T17:08:14.586107+05:45"},{"idx":"bdtRAHbhjGrxMMJwJD6J3a","contest":"Model Superstar","episode":"Model Superstar Finale","category":null,"contestant":{"voting_id":"13","name":"Prashant Shah"},"vote_count":1,"created_on":"2020-01-26T17:08:03.794335+05:45"},{"idx":"DWVny5DB6g4oTPiPpWCcsN","contest":"Model Superstar","episode":"Model Superstar Finale","category":null,"contestant":{"voting_id":"13","name":"Prashant Shah"},"vote_count":1,"created_on":"2020-01-26T17:07:54.750400+05:45"},{"idx":"mMZLVVKcsFLZgvK69Ux5kc","contest":"Model Superstar","episode":"Model Superstar Finale","category":null,"contestant":{"voting_id":"13","name":"Prashant Shah"},"vote_count":1,"created_on":"2020-01-26T17:07:45.155647+05:45"},{"idx":"NoVTN47WxQ6z5ExN4qL4e9","contest":"Model Superstar","episode":"Model Superstar Finale","category":null,"contestant":{"voting_id":"13","name":"Prashant Shah"},"vote_count":1,"created_on":"2020-01-26T17:07:33.327539+05:45"},{"idx":"gdQPk5ykDpHfhBWx3gCPy4","contest":"Model Superstar","episode":"Model Superstar Finale","category":null,"contestant":{"voting_id":"13","name":"Prashant Shah"},"vote_count":1,"created_on":"2020-01-26T17:07:21.353404+05:45"},{"idx":"tGR6XE66WpVooDwWKe4krY","contest":"Model Superstar","episode":"Model Superstar Finale","category":null,"contestant":{"voting_id":"13","name":"Prashant Shah"},"vote_count":1,"created_on":"2020-01-26T17:07:11.763323+05:45"},{"idx":"fyoRqorHnDdi9LeGVN8QHh","contest":"Model Superstar","episode":"Model Superstar Finale","category":null,"contestant":{"voting_id":"13","name":"Prashant Shah"},"vote_count":1,"created_on":"2020-01-26T17:07:02.419560+05:45"},{"idx":"Tqgf9aPxkjFFkcZHD5txtX","contest":"Model Superstar","episode":"Model Superstar Finale","category":null,"contestant":{"voting_id":"13","name":"Prashant Shah"},"vote_count":1,"created_on":"2020-01-26T17:06:52.238890+05:45"},{"idx":"L8gSEqDgS9xpb9fi2TGso2","contest":"Model Superstar","episode":"Model Superstar Finale","category":null,"contestant":{"voting_id":"13","name":"Prashant Shah"},"vote_count":1,"created_on":"2020-01-26T17:05:50.380158+05:45"},{"idx":"a39kfGydmiP3AebAwjxY7N","contest":"Model Superstar","episode":"Model Superstar Finale","category":null,"contestant":{"voting_id":"13","name":"Prashant Shah"},"vote_count":1,"created_on":"2020-01-26T17:05:41.504202+05:45"},{"idx":"MznkKwcU69DpWVHR7nnMqY","contest":"Model Superstar","episode":"Model Superstar Finale","category":null,"contestant":{"voting_id":"13","name":"Prashant Shah"},"vote_count":1,"created_on":"2020-01-26T17:05:29.047763+05:45"},{"idx":"GZwENYHKPzank4amsJk592","contest":"Model Superstar","episode":"Model Superstar Finale","category":null,"contestant":{"voting_id":"13","name":"Prashant Shah"},"vote_count":1,"created_on":"2020-01-26T17:05:20.931319+05:45"}]}