{"total_pages":275,"total_records":13717,"next":"https://khalti.com/api/v2/vuservote/?page=37","previous":"https://khalti.com/api/v2/vuservote/?page=35","record_range":[1751,1800],"current_page":36,"records":[{"idx":"8NjSD83Xj9a357nda84Q7S","contest":"Model Superstar","episode":"Model Superstar Finale","category":null,"contestant":{"voting_id":"13","name":"Prashant Shah"},"vote_count":1,"created_on":"2020-01-26T17:05:09.678646+05:45"},{"idx":"pTjNWaCcaePhzmE5fHqMzM","contest":"Model Superstar","episode":"Model Superstar Finale","category":null,"contestant":{"voting_id":"13","name":"Prashant Shah"},"vote_count":1,"created_on":"2020-01-26T17:04:34.500067+05:45"},{"idx":"3oet6BQUqxJRZtVTrhaJk3","contest":"Model Superstar","episode":"Model Superstar Finale","category":null,"contestant":{"voting_id":"13","name":"Prashant Shah"},"vote_count":1,"created_on":"2020-01-26T17:04:17.385301+05:45"},{"idx":"Rt2iSQYL54iARMxE2ARjJg","contest":"Model Superstar","episode":"Model Superstar Finale","category":null,"contestant":{"voting_id":"13","name":"Prashant Shah"},"vote_count":1,"created_on":"2020-01-26T17:04:07.225706+05:45"},{"idx":"JdzHJofjirTQMMLPoAL7p2","contest":"Model Superstar","episode":"Model Superstar Finale","category":null,"contestant":{"voting_id":"13","name":"Prashant Shah"},"vote_count":1,"created_on":"2020-01-26T17:03:56.746451+05:45"},{"idx":"NZ3d5VcU2PPTBZy7dXndSe","contest":"Model Superstar","episode":"Model Superstar Finale","category":null,"contestant":{"voting_id":"13","name":"Prashant Shah"},"vote_count":1,"created_on":"2020-01-26T17:03:47.867597+05:45"},{"idx":"8meifYdKLqvMSLbZmmsKyg","contest":"Model Superstar","episode":"Model Superstar Finale","category":null,"contestant":{"voting_id":"13","name":"Prashant Shah"},"vote_count":1,"created_on":"2020-01-26T17:03:39.217424+05:45"},{"idx":"XSZMovWgSTfEtakFaR5Vnd","contest":"Model Superstar","episode":"Model Superstar Finale","category":null,"contestant":{"voting_id":"13","name":"Prashant Shah"},"vote_count":1,"created_on":"2020-01-26T17:03:27.626636+05:45"},{"idx":"RvuZFivJgk9crqKU8F6qjb","contest":"Model Superstar","episode":"Model Superstar Finale","category":null,"contestant":{"voting_id":"13","name":"Prashant Shah"},"vote_count":1,"created_on":"2020-01-26T17:03:18.205293+05:45"},{"idx":"HhotJ5LCDbXqr54bMEGEdQ","contest":"Model Superstar","episode":"Model Superstar Finale","category":null,"contestant":{"voting_id":"13","name":"Prashant Shah"},"vote_count":1,"created_on":"2020-01-26T17:03:09.670052+05:45"},{"idx":"BteepjZ6XeUu6tA3PFJU2U","contest":"Model Superstar","episode":"Model Superstar Finale","category":null,"contestant":{"voting_id":"13","name":"Prashant Shah"},"vote_count":1,"created_on":"2020-01-26T17:02:56.494245+05:45"},{"idx":"Hz5cji2wfvyhZuC4eSjdPE","contest":"Model Superstar","episode":"Model Superstar Finale","category":null,"contestant":{"voting_id":"13","name":"Prashant Shah"},"vote_count":1,"created_on":"2020-01-26T17:02:47.534590+05:45"},{"idx":"8bdTG2wP87WFQXYZV2niaG","contest":"Model Superstar","episode":"Model Superstar Finale","category":null,"contestant":{"voting_id":"13","name":"Prashant Shah"},"vote_count":1,"created_on":"2020-01-26T17:02:38.887844+05:45"},{"idx":"e6eJCNAGCWzq98xaAgQazQ","contest":"Model Superstar","episode":"Model Superstar Finale","category":null,"contestant":{"voting_id":"13","name":"Prashant Shah"},"vote_count":1,"created_on":"2020-01-26T17:02:30.737693+05:45"},{"idx":"ujgxExg6DCLQ3sMD2MkbCe","contest":"Model Superstar","episode":"Model Superstar Finale","category":null,"contestant":{"voting_id":"13","name":"Prashant Shah"},"vote_count":1,"created_on":"2020-01-26T17:02:21.510553+05:45"},{"idx":"pt6sjkKvdUnP32DDEUBHrR","contest":"Model Superstar","episode":"Model Superstar Finale","category":null,"contestant":{"voting_id":"13","name":"Prashant Shah"},"vote_count":1,"created_on":"2020-01-26T17:02:12.200235+05:45"},{"idx":"P66okiFheUCteSokYg8CJH","contest":"Model Superstar","episode":"Model Superstar Finale","category":null,"contestant":{"voting_id":"13","name":"Prashant Shah"},"vote_count":1,"created_on":"2020-01-26T17:02:03.473312+05:45"},{"idx":"P7gEiU4vygijpK86C7s6cE","contest":"Model Superstar","episode":"Model Superstar Finale","category":null,"contestant":{"voting_id":"13","name":"Prashant Shah"},"vote_count":1,"created_on":"2020-01-26T17:01:54.849331+05:45"},{"idx":"g9xL2MyaQASjbhGGxECCZJ","contest":"Model Superstar","episode":"Model Superstar Finale","category":null,"contestant":{"voting_id":"13","name":"Prashant Shah"},"vote_count":1,"created_on":"2020-01-26T17:01:46.591459+05:45"},{"idx":"S22HsXfLhoYShiPJZrXoiE","contest":"Model Superstar","episode":"Model Superstar Finale","category":null,"contestant":{"voting_id":"13","name":"Prashant Shah"},"vote_count":1,"created_on":"2020-01-26T17:01:39.155930+05:45"},{"idx":"dBjSKMe5H7ahazgfnuqjxM","contest":"Model Superstar","episode":"Model Superstar Finale","category":null,"contestant":{"voting_id":"13","name":"Prashant Shah"},"vote_count":1,"created_on":"2020-01-26T17:01:30.132098+05:45"},{"idx":"7xXd73XFnKJkb3PUKHFkbR","contest":"Model Superstar","episode":"Model Superstar Finale","category":null,"contestant":{"voting_id":"13","name":"Prashant Shah"},"vote_count":1,"created_on":"2020-01-26T17:01:20.400483+05:45"},{"idx":"XDgnVrYXT6jZm8tG3DcfjB","contest":"Model Superstar","episode":"Model Superstar Finale","category":null,"contestant":{"voting_id":"13","name":"Prashant Shah"},"vote_count":1,"created_on":"2020-01-26T17:01:11.083871+05:45"},{"idx":"WxBFxQ3GbsX4RywuGrFYsb","contest":"Model Superstar","episode":"Model Superstar Finale","category":null,"contestant":{"voting_id":"13","name":"Prashant Shah"},"vote_count":1,"created_on":"2020-01-26T17:01:01.195658+05:45"},{"idx":"BA8TQHLyH7dArPcjBxHNX8","contest":"Model Superstar","episode":"Model Superstar Finale","category":null,"contestant":{"voting_id":"13","name":"Prashant Shah"},"vote_count":1,"created_on":"2020-01-26T17:00:51.096213+05:45"},{"idx":"3aWNFeNE7rbd79uHegVAJW","contest":"Model Superstar","episode":"Model Superstar Finale","category":null,"contestant":{"voting_id":"13","name":"Prashant Shah"},"vote_count":1,"created_on":"2020-01-26T17:00:39.934982+05:45"},{"idx":"42795gQpkqGqQ7jBtuSoQX","contest":"Model Superstar","episode":"Model Superstar Finale","category":null,"contestant":{"voting_id":"13","name":"Prashant Shah"},"vote_count":1,"created_on":"2020-01-26T17:00:26.580878+05:45"},{"idx":"Y8J5BLoxeVPoxLwvYGEYMF","contest":"Model Superstar","episode":"Model Superstar Finale","category":null,"contestant":{"voting_id":"13","name":"Prashant Shah"},"vote_count":1,"created_on":"2020-01-26T17:00:17.855521+05:45"},{"idx":"uunxouJnjcQUjbPjoATso4","contest":"Model Superstar","episode":"Model Superstar Finale","category":null,"contestant":{"voting_id":"13","name":"Prashant Shah"},"vote_count":1,"created_on":"2020-01-26T17:00:07.300603+05:45"},{"idx":"V88xH226w7yJxKjVBSbeCC","contest":"Model Superstar","episode":"Model Superstar Finale","category":null,"contestant":{"voting_id":"13","name":"Prashant Shah"},"vote_count":1,"created_on":"2020-01-26T16:59:58.172303+05:45"},{"idx":"etVTfquqoiB3CtpjYpZJQc","contest":"Model Superstar","episode":"Model Superstar Finale","category":null,"contestant":{"voting_id":"13","name":"Prashant Shah"},"vote_count":1,"created_on":"2020-01-26T16:59:49.239762+05:45"},{"idx":"KDiXxTMzWfFbaqV4XdUVR7","contest":"Model Superstar","episode":"Model Superstar Finale","category":null,"contestant":{"voting_id":"13","name":"Prashant Shah"},"vote_count":1,"created_on":"2020-01-26T16:59:36.082430+05:45"},{"idx":"fKrzHgyGfqtj6Va2BuEQAo","contest":"Model Superstar","episode":"Model Superstar Finale","category":null,"contestant":{"voting_id":"13","name":"Prashant Shah"},"vote_count":1,"created_on":"2020-01-26T16:59:28.996472+05:45"},{"idx":"T2hoGrJLE7CTJXTQDvDEPC","contest":"Model Superstar","episode":"Model Superstar Finale","category":null,"contestant":{"voting_id":"13","name":"Prashant Shah"},"vote_count":1,"created_on":"2020-01-26T16:59:18.616056+05:45"},{"idx":"CYykZQRSV32YpbQaxs9xfN","contest":"Model Superstar","episode":"Model Superstar Finale","category":null,"contestant":{"voting_id":"13","name":"Prashant Shah"},"vote_count":1,"created_on":"2020-01-26T16:59:10.380322+05:45"},{"idx":"fXKUVD7Qi85rrsiRqq5JPX","contest":"Model Superstar","episode":"Model Superstar Finale","category":null,"contestant":{"voting_id":"13","name":"Prashant Shah"},"vote_count":1,"created_on":"2020-01-26T16:59:01.078187+05:45"},{"idx":"ebXB87XkJtbxQBb73M7YQZ","contest":"Model Superstar","episode":"Model Superstar Finale","category":null,"contestant":{"voting_id":"13","name":"Prashant Shah"},"vote_count":1,"created_on":"2020-01-26T16:58:51.464385+05:45"},{"idx":"hjbXHfVwdMCU2m8YevPDwN","contest":"Model Superstar","episode":"Model Superstar Finale","category":null,"contestant":{"voting_id":"13","name":"Prashant Shah"},"vote_count":1,"created_on":"2020-01-26T16:58:38.124276+05:45"},{"idx":"sUniZzDtPy59bWwngQnJm6","contest":"Model Superstar","episode":"Model Superstar Finale","category":null,"contestant":{"voting_id":"13","name":"Prashant Shah"},"vote_count":1,"created_on":"2020-01-26T16:58:27.936466+05:45"},{"idx":"dyv7BZbq4yvz9b6H8eZ8JP","contest":"Model Superstar","episode":"Model Superstar Finale","category":null,"contestant":{"voting_id":"13","name":"Prashant Shah"},"vote_count":1,"created_on":"2020-01-26T16:58:17.855718+05:45"},{"idx":"TApfVPM6R2hADYqjzxGfpb","contest":"Model Superstar","episode":"Model Superstar Finale","category":null,"contestant":{"voting_id":"13","name":"Prashant Shah"},"vote_count":1,"created_on":"2020-01-26T16:58:06.840110+05:45"},{"idx":"QceDZnc2mGzCgTW2WdcAP2","contest":"Model Superstar","episode":"Model Superstar Finale","category":null,"contestant":{"voting_id":"13","name":"Prashant Shah"},"vote_count":1,"created_on":"2020-01-26T16:57:56.696358+05:45"},{"idx":"673nJqoEQzhuimTQaNdgCc","contest":"Model Superstar","episode":"Model Superstar Finale","category":null,"contestant":{"voting_id":"13","name":"Prashant Shah"},"vote_count":1,"created_on":"2020-01-26T16:57:47.161460+05:45"},{"idx":"2qPcb5A9A2V9j3PnEphrtY","contest":"Model Superstar","episode":"Model Superstar Finale","category":null,"contestant":{"voting_id":"13","name":"Prashant Shah"},"vote_count":1,"created_on":"2020-01-26T16:57:37.022884+05:45"},{"idx":"FYqsTvJFK8DRWGjYusHAea","contest":"Model Superstar","episode":"Model Superstar Finale","category":null,"contestant":{"voting_id":"13","name":"Prashant Shah"},"vote_count":1,"created_on":"2020-01-26T16:57:25.759074+05:45"},{"idx":"6VZnesLjJNikspXco4T4sT","contest":"Model Superstar","episode":"Model Superstar Finale","category":null,"contestant":{"voting_id":"13","name":"Prashant Shah"},"vote_count":1,"created_on":"2020-01-26T16:57:16.334429+05:45"},{"idx":"SiowESKMtN82cjcexQqS2n","contest":"Model Superstar","episode":"Model Superstar Finale","category":null,"contestant":{"voting_id":"13","name":"Prashant Shah"},"vote_count":1,"created_on":"2020-01-26T16:57:07.828714+05:45"},{"idx":"CTtvCX7GbYSWPyYCShn9MC","contest":"Model Superstar","episode":"Model Superstar Finale","category":null,"contestant":{"voting_id":"13","name":"Prashant Shah"},"vote_count":1,"created_on":"2020-01-26T16:56:59.062006+05:45"},{"idx":"YFWs2hAENhMoLLCKxuhrCJ","contest":"Model Superstar","episode":"Model Superstar Finale","category":null,"contestant":{"voting_id":"13","name":"Prashant Shah"},"vote_count":1,"created_on":"2020-01-26T16:56:04.771316+05:45"},{"idx":"FEGpiTromtmLEM73Tg5fiE","contest":"Model Superstar","episode":"Model Superstar Finale","category":null,"contestant":{"voting_id":"13","name":"Prashant Shah"},"vote_count":1,"created_on":"2020-01-26T16:53:10.918170+05:45"}]}