{"total_pages":275,"total_records":13717,"next":"https://khalti.com/api/v2/vuservote/?page=38","previous":"https://khalti.com/api/v2/vuservote/?page=36","record_range":[1801,1850],"current_page":37,"records":[{"idx":"ZCJL7Q7Aydc8PTBy6pRncK","contest":"Model Superstar","episode":"Model Superstar Finale","category":null,"contestant":{"voting_id":"13","name":"Prashant Shah"},"vote_count":1,"created_on":"2020-01-26T16:50:10.541454+05:45"},{"idx":"KRAGV9wYsD7joqbyNCs4R3","contest":"Model Superstar","episode":"Model Superstar Finale","category":null,"contestant":{"voting_id":"13","name":"Prashant Shah"},"vote_count":1,"created_on":"2020-01-26T16:49:59.552803+05:45"},{"idx":"hR2JTqFqAjxsFdiDPtFjRj","contest":"Model Superstar","episode":"Model Superstar Finale","category":null,"contestant":{"voting_id":"13","name":"Prashant Shah"},"vote_count":1,"created_on":"2020-01-26T16:49:48.024457+05:45"},{"idx":"HqqNEvjuchcrvdB4q8H45W","contest":"Model Superstar","episode":"Model Superstar Finale","category":null,"contestant":{"voting_id":"13","name":"Prashant Shah"},"vote_count":1,"created_on":"2020-01-26T16:49:37.276240+05:45"},{"idx":"8xEKc9rgK5ahV2cDdAQrYJ","contest":"Model Superstar","episode":"Model Superstar Finale","category":null,"contestant":{"voting_id":"13","name":"Prashant Shah"},"vote_count":1,"created_on":"2020-01-26T16:49:28.678755+05:45"},{"idx":"Cous4cXCXFtDgFCNybmYa3","contest":"Model Superstar","episode":"Model Superstar Finale","category":null,"contestant":{"voting_id":"13","name":"Prashant Shah"},"vote_count":1,"created_on":"2020-01-26T16:49:17.860688+05:45"},{"idx":"AERNKGCARTpu9NZ7rb237b","contest":"Model Superstar","episode":"Model Superstar Finale","category":null,"contestant":{"voting_id":"13","name":"Prashant Shah"},"vote_count":1,"created_on":"2020-01-26T16:49:05.603355+05:45"},{"idx":"QjG7GWiQc3wBypddLMBpd9","contest":"Model Superstar","episode":"Model Superstar Finale","category":null,"contestant":{"voting_id":"13","name":"Prashant Shah"},"vote_count":1,"created_on":"2020-01-26T16:48:56.244265+05:45"},{"idx":"pz3auHCZPqxvoV7ceDuXug","contest":"Model Superstar","episode":"Model Superstar Finale","category":null,"contestant":{"voting_id":"13","name":"Prashant Shah"},"vote_count":1,"created_on":"2020-01-26T16:48:17.036548+05:45"},{"idx":"stkupra3BkZDKgcAemy98X","contest":"Model Superstar","episode":"Model Superstar Finale","category":null,"contestant":{"voting_id":"13","name":"Prashant Shah"},"vote_count":1,"created_on":"2020-01-26T16:47:59.290092+05:45"},{"idx":"ceznH8G2pYRDxwwxnoLik9","contest":"Model Superstar","episode":"Model Superstar Finale","category":null,"contestant":{"voting_id":"13","name":"Prashant Shah"},"vote_count":1,"created_on":"2020-01-26T16:47:48.563029+05:45"},{"idx":"NQm9iuj5RYFBJEATJfLF5C","contest":"Model Superstar","episode":"Model Superstar Finale","category":null,"contestant":{"voting_id":"13","name":"Prashant Shah"},"vote_count":1,"created_on":"2020-01-26T16:47:39.021385+05:45"},{"idx":"oDPGMANvxH6eZDnPeWsaWX","contest":"Model Superstar","episode":"Model Superstar Finale","category":null,"contestant":{"voting_id":"13","name":"Prashant Shah"},"vote_count":1,"created_on":"2020-01-26T16:47:29.436293+05:45"},{"idx":"tdB5aSMESnZnxvhBgKs35D","contest":"Model Superstar","episode":"Model Superstar Finale","category":null,"contestant":{"voting_id":"13","name":"Prashant Shah"},"vote_count":1,"created_on":"2020-01-26T16:47:18.448632+05:45"},{"idx":"6Q2wtEttPySqdGutqJGM6C","contest":"Model Superstar","episode":"Model Superstar Finale","category":null,"contestant":{"voting_id":"13","name":"Prashant Shah"},"vote_count":1,"created_on":"2020-01-26T16:47:09.051957+05:45"},{"idx":"5PKLy2RPHxeZCRsQ6bNhsS","contest":"Model Superstar","episode":"Model Superstar Finale","category":null,"contestant":{"voting_id":"13","name":"Prashant Shah"},"vote_count":1,"created_on":"2020-01-26T16:47:00.115986+05:45"},{"idx":"pAWziocsYvrXa4pQW8QJ4R","contest":"Model Superstar","episode":"Model Superstar Finale","category":null,"contestant":{"voting_id":"13","name":"Prashant Shah"},"vote_count":1,"created_on":"2020-01-26T16:46:50.464235+05:45"},{"idx":"xsjgCCGzoUydmfYooFB3wm","contest":"Model Superstar","episode":"Model Superstar Finale","category":null,"contestant":{"voting_id":"13","name":"Prashant Shah"},"vote_count":1,"created_on":"2020-01-26T16:46:41.964512+05:45"},{"idx":"qsWNwBJ8MZqnarHYkMPU9R","contest":"Model Superstar","episode":"Model Superstar Finale","category":null,"contestant":{"voting_id":"13","name":"Prashant Shah"},"vote_count":1,"created_on":"2020-01-26T16:46:32.991942+05:45"},{"idx":"SNywgezcW2oz4ZDBHCuWFE","contest":"Model Superstar","episode":"Model Superstar Finale","category":null,"contestant":{"voting_id":"13","name":"Prashant Shah"},"vote_count":1,"created_on":"2020-01-26T16:46:25.023008+05:45"},{"idx":"i6TkCzooMALDtn8757cMWW","contest":"Model Superstar","episode":"Model Superstar Finale","category":null,"contestant":{"voting_id":"13","name":"Prashant Shah"},"vote_count":1,"created_on":"2020-01-26T16:46:05.328023+05:45"},{"idx":"5UGENaAzo4Pw777ZyvFNtf","contest":"Model Superstar","episode":"Model Superstar Finale","category":null,"contestant":{"voting_id":"13","name":"Prashant Shah"},"vote_count":1,"created_on":"2020-01-26T16:45:54.944147+05:45"},{"idx":"DPgeWRBm6USHi3viyj4BUL","contest":"Model Superstar","episode":"Model Superstar Finale","category":null,"contestant":{"voting_id":"13","name":"Prashant Shah"},"vote_count":1,"created_on":"2020-01-26T16:45:45.699696+05:45"},{"idx":"Btj7gzLNZmNGxYKoxRwG4T","contest":"Model Superstar","episode":"Model Superstar Finale","category":null,"contestant":{"voting_id":"13","name":"Prashant Shah"},"vote_count":1,"created_on":"2020-01-26T16:45:36.850261+05:45"},{"idx":"HadyfzA4siWoicG3LdNDNC","contest":"Model Superstar","episode":"Model Superstar Finale","category":null,"contestant":{"voting_id":"13","name":"Prashant Shah"},"vote_count":1,"created_on":"2020-01-26T16:45:22.174246+05:45"},{"idx":"W2fQm55ZZ84bjaHMBAz5JN","contest":"Model Superstar","episode":"Model Superstar Finale","category":null,"contestant":{"voting_id":"13","name":"Prashant Shah"},"vote_count":1,"created_on":"2020-01-26T16:45:13.117058+05:45"},{"idx":"FTVdJPLH2PqKicB92i4Mp8","contest":"Model Superstar","episode":"Model Superstar Finale","category":null,"contestant":{"voting_id":"13","name":"Prashant Shah"},"vote_count":1,"created_on":"2020-01-26T16:45:01.527685+05:45"},{"idx":"CrXVeMGtJ2L4UQ78mqMWTF","contest":"Model Superstar","episode":"Model Superstar Finale","category":null,"contestant":{"voting_id":"13","name":"Prashant Shah"},"vote_count":1,"created_on":"2020-01-26T16:42:48.304084+05:45"},{"idx":"LT4J2mfegNKJMCwvVwhx23","contest":"Model Superstar","episode":"Model Superstar Finale","category":null,"contestant":{"voting_id":"13","name":"Prashant Shah"},"vote_count":1,"created_on":"2020-01-26T16:42:35.878442+05:45"},{"idx":"PtQU9d2VvSzkm88n7ySwCg","contest":"Model Superstar","episode":"Model Superstar Finale","category":null,"contestant":{"voting_id":"13","name":"Prashant Shah"},"vote_count":1,"created_on":"2020-01-26T16:42:21.794709+05:45"},{"idx":"EDVYFcMASBP72W6ZDsvZsL","contest":"Model Superstar","episode":"Model Superstar Finale","category":null,"contestant":{"voting_id":"13","name":"Prashant Shah"},"vote_count":1,"created_on":"2020-01-26T16:42:12.941018+05:45"},{"idx":"dBHKvJTufq7fU37UQVoFaa","contest":"Model Superstar","episode":"Model Superstar Finale","category":null,"contestant":{"voting_id":"13","name":"Prashant Shah"},"vote_count":1,"created_on":"2020-01-26T16:41:59.842890+05:45"},{"idx":"YsMwP6qdXJyoAdXcGb2FpQ","contest":"Model Superstar","episode":"Model Superstar Finale","category":null,"contestant":{"voting_id":"13","name":"Prashant Shah"},"vote_count":1,"created_on":"2020-01-26T16:41:46.856554+05:45"},{"idx":"UBhXiJhFcTqdYsKEZzkJVU","contest":"Model Superstar","episode":"Model Superstar Finale","category":null,"contestant":{"voting_id":"13","name":"Prashant Shah"},"vote_count":1,"created_on":"2020-01-26T16:41:35.393654+05:45"},{"idx":"dDvWjUbTsozyALteKzBaQR","contest":"Model Superstar","episode":"Model Superstar Finale","category":null,"contestant":{"voting_id":"13","name":"Prashant Shah"},"vote_count":1,"created_on":"2020-01-26T16:41:26.719047+05:45"},{"idx":"ZPeJSrhiGoRnbtrzSDoWcZ","contest":"Model Superstar","episode":"Model Superstar Finale","category":null,"contestant":{"voting_id":"13","name":"Prashant Shah"},"vote_count":1,"created_on":"2020-01-26T16:41:14.715988+05:45"},{"idx":"jBK6Yy4cVHLLqbowaiCXEo","contest":"Model Superstar","episode":"Model Superstar Finale","category":null,"contestant":{"voting_id":"13","name":"Prashant Shah"},"vote_count":1,"created_on":"2020-01-26T16:41:05.104611+05:45"},{"idx":"GsjYhHQtcsvn9DBWf8w4vW","contest":"Model Superstar","episode":"Model Superstar Finale","category":null,"contestant":{"voting_id":"13","name":"Prashant Shah"},"vote_count":1,"created_on":"2020-01-26T16:40:54.436292+05:45"},{"idx":"3WYAxKHyNhDmMnnnKDdgaJ","contest":"Model Superstar","episode":"Model Superstar Finale","category":null,"contestant":{"voting_id":"13","name":"Prashant Shah"},"vote_count":1,"created_on":"2020-01-26T16:40:43.847064+05:45"},{"idx":"LBR2x6MTtHuc7XDKexEx96","contest":"Model Superstar","episode":"Model Superstar Finale","category":null,"contestant":{"voting_id":"13","name":"Prashant Shah"},"vote_count":1,"created_on":"2020-01-26T16:40:31.388219+05:45"},{"idx":"a5gzhBdwJbG7SQAN443QpY","contest":"Model Superstar","episode":"Model Superstar Finale","category":null,"contestant":{"voting_id":"13","name":"Prashant Shah"},"vote_count":1,"created_on":"2020-01-26T16:40:18.776262+05:45"},{"idx":"vctfcCeWFTEAX7LzUBVCQ4","contest":"Model Superstar","episode":"Model Superstar Finale","category":null,"contestant":{"voting_id":"13","name":"Prashant Shah"},"vote_count":1,"created_on":"2020-01-26T16:40:08.903357+05:45"},{"idx":"YufbSkfrEkzLJMsGhFheq7","contest":"Model Superstar","episode":"Model Superstar Finale","category":null,"contestant":{"voting_id":"13","name":"Prashant Shah"},"vote_count":1,"created_on":"2020-01-26T16:39:58.934979+05:45"},{"idx":"PDVudhcdGA3vQJh77XWJua","contest":"Model Superstar","episode":"Model Superstar Finale","category":null,"contestant":{"voting_id":"02","name":"Srijana Basnet"},"vote_count":1,"created_on":"2020-01-26T15:47:59.501330+05:45"},{"idx":"kkQKUd7DUebXbktstQ4okN","contest":"Model Superstar","episode":"Model Superstar Finale","category":null,"contestant":{"voting_id":"31","name":"Aakriti Subedi"},"vote_count":1,"created_on":"2020-01-26T14:56:23.785127+05:45"},{"idx":"YNjTexkuPinbUAVWBFVC5f","contest":"Model Superstar","episode":"Model Superstar Finale","category":null,"contestant":{"voting_id":"31","name":"Aakriti Subedi"},"vote_count":1,"created_on":"2020-01-26T14:55:26.362758+05:45"},{"idx":"YZRadoPdVr9LoDGcXaJ254","contest":"Model Superstar","episode":"Model Superstar Finale","category":null,"contestant":{"voting_id":"31","name":"Aakriti Subedi"},"vote_count":1,"created_on":"2020-01-26T14:49:24.782581+05:45"},{"idx":"oWxu2fBATohRsEDggh5AC9","contest":"Model Superstar","episode":"Model Superstar Finale","category":null,"contestant":{"voting_id":"01","name":"Sajina Subba"},"vote_count":1,"created_on":"2020-01-26T13:28:13.476853+05:45"},{"idx":"miLm93bBoyviKEWfDRFqCJ","contest":"Model Superstar","episode":"Model Superstar Finale","category":null,"contestant":{"voting_id":"03","name":"Smriti Shah"},"vote_count":1,"created_on":"2020-01-26T13:20:47.021498+05:45"},{"idx":"QFXPX7NHCgduqK4ZcS855V","contest":"Model Superstar","episode":"Model Superstar Finale","category":null,"contestant":{"voting_id":"02","name":"Srijana Basnet"},"vote_count":1,"created_on":"2020-01-26T13:20:26.461963+05:45"}]}