{"total_pages":275,"total_records":13717,"next":"https://khalti.com/api/v2/vuservote/?page=39","previous":"https://khalti.com/api/v2/vuservote/?page=37","record_range":[1851,1900],"current_page":38,"records":[{"idx":"YbzkY4XcCYJaix847MhbLG","contest":"Model Superstar","episode":"Model Superstar Finale","category":null,"contestant":{"voting_id":"04","name":"Sabita Maharjan"},"vote_count":1,"created_on":"2020-01-26T12:52:37.477851+05:45"},{"idx":"29DTqXq3qYGCmK5ohptLG7","contest":"Model Superstar","episode":"Model Superstar Finale","category":null,"contestant":{"voting_id":"04","name":"Sabita Maharjan"},"vote_count":1,"created_on":"2020-01-26T12:42:45.855632+05:45"},{"idx":"ZAkWrW9hWzqLGvePQQQpK6","contest":"Model Superstar","episode":"Model Superstar Finale","category":null,"contestant":{"voting_id":"04","name":"Sabita Maharjan"},"vote_count":1,"created_on":"2020-01-26T12:25:59.455712+05:45"},{"idx":"3o4RmnEPMJgzaJACRFvKCU","contest":"Model Superstar","episode":"Model Superstar Finale","category":null,"contestant":{"voting_id":"04","name":"Sabita Maharjan"},"vote_count":1,"created_on":"2020-01-26T11:54:49.016618+05:45"},{"idx":"eN3CPrih7DtLf3FroQXy4d","contest":"Model Superstar","episode":"Model Superstar Finale","category":null,"contestant":{"voting_id":"12","name":"Rabin Ghising"},"vote_count":1,"created_on":"2020-01-26T11:06:43.188807+05:45"},{"idx":"i9b6JLuJezGHa3pzc4v2v5","contest":"Model Superstar","episode":"Model Superstar Finale","category":null,"contestant":{"voting_id":"02","name":"Srijana Basnet"},"vote_count":1,"created_on":"2020-01-26T10:20:08.590365+05:45"},{"idx":"tvQEoYtSd4JLkUmeHCbGnQ","contest":"Model Superstar","episode":"Model Superstar Finale","category":null,"contestant":{"voting_id":"31","name":"Aakriti Subedi"},"vote_count":1,"created_on":"2020-01-26T09:52:15.374442+05:45"},{"idx":"4j9UkQ5wxjTQYmtcA2LesX","contest":"Model Superstar","episode":"Model Superstar Finale","category":null,"contestant":{"voting_id":"30","name":"Nikita Shakya"},"vote_count":1,"created_on":"2020-01-26T09:10:38.295409+05:45"},{"idx":"djDN3c2EtSZm8Nm8oK6KvL","contest":"Model Superstar","episode":"Model Superstar Finale","category":null,"contestant":{"voting_id":"01","name":"Sajina Subba"},"vote_count":1,"created_on":"2020-01-26T09:08:54.580070+05:45"},{"idx":"dLDq768vGegKds6GzwP9N3","contest":"Model Superstar","episode":"Model Superstar Finale","category":null,"contestant":{"voting_id":"03","name":"Smriti Shah"},"vote_count":1,"created_on":"2020-01-26T08:53:12.990717+05:45"},{"idx":"Khd2kcGWaHRso7tBGxPuVc","contest":"Model Superstar","episode":"Model Superstar Finale","category":null,"contestant":{"voting_id":"03","name":"Smriti Shah"},"vote_count":1,"created_on":"2020-01-26T08:52:33.607757+05:45"},{"idx":"MoqZg8BZ5Fa25sJVwFVz5P","contest":"Model Superstar","episode":"Model Superstar Finale","category":null,"contestant":{"voting_id":"02","name":"Srijana Basnet"},"vote_count":1,"created_on":"2020-01-26T08:35:19.515936+05:45"},{"idx":"iBtoNZs2u7FzgA4q52a8yG","contest":"Model Superstar","episode":"Model Superstar Finale","category":null,"contestant":{"voting_id":"02","name":"Srijana Basnet"},"vote_count":1,"created_on":"2020-01-26T08:30:18.008667+05:45"},{"idx":"i6kC3zx9RKLQsp3wCKfbq5","contest":"Model Superstar","episode":"Model Superstar Finale","category":null,"contestant":{"voting_id":"02","name":"Srijana Basnet"},"vote_count":1,"created_on":"2020-01-26T08:29:55.997080+05:45"},{"idx":"PttEfS3fKbciBGfvQZm9iB","contest":"Model Superstar","episode":"Model Superstar Finale","category":null,"contestant":{"voting_id":"01","name":"Sajina Subba"},"vote_count":1,"created_on":"2020-01-26T08:29:36.434468+05:45"},{"idx":"Hcb6xrgQeFVzKDY7CNapdM","contest":"Model Superstar","episode":"Model Superstar Finale","category":null,"contestant":{"voting_id":"04","name":"Sabita Maharjan"},"vote_count":1,"created_on":"2020-01-26T08:09:00.093286+05:45"},{"idx":"wiTmga6MHWQkgvNTrQZcMY","contest":"Model Superstar","episode":"Model Superstar Finale","category":null,"contestant":{"voting_id":"03","name":"Smriti Shah"},"vote_count":1,"created_on":"2020-01-25T23:56:27.403583+05:45"},{"idx":"RergZbcJYPDqZk8yur5hea","contest":"Model Superstar","episode":"Model Superstar Finale","category":null,"contestant":{"voting_id":"02","name":"Srijana Basnet"},"vote_count":1,"created_on":"2020-01-25T22:22:51.646350+05:45"},{"idx":"DNFdS9s4A5HZKGSmXKudHX","contest":"Model Superstar","episode":"Model Superstar Finale","category":null,"contestant":{"voting_id":"32","name":"Ichhya Adhikari"},"vote_count":1,"created_on":"2020-01-25T22:15:01.703739+05:45"},{"idx":"LLz4GwjMiihaeKPTvVFcFk","contest":"Model Superstar","episode":"Model Superstar Finale","category":null,"contestant":{"voting_id":"11","name":"Rachana Karki"},"vote_count":1,"created_on":"2020-01-25T21:35:23.185918+05:45"},{"idx":"jeP8QVwdCQGwRL2eZJpqNc","contest":"Model Superstar","episode":"Model Superstar Finale","category":null,"contestant":{"voting_id":"11","name":"Rachana Karki"},"vote_count":1,"created_on":"2020-01-25T21:35:02.705854+05:45"},{"idx":"rsTbBV3CiqnLevTdz5sVja","contest":"Model Superstar","episode":"Model Superstar Finale","category":null,"contestant":{"voting_id":"11","name":"Rachana Karki"},"vote_count":1,"created_on":"2020-01-25T21:34:12.886263+05:45"},{"idx":"DcNoSnbWjsGGSLwNiRBfee","contest":"Model Superstar","episode":"Model Superstar Finale","category":null,"contestant":{"voting_id":"01","name":"Sajina Subba"},"vote_count":1,"created_on":"2020-01-25T20:32:59.176795+05:45"},{"idx":"AfNdX7dy2PUWNxUZrFjceF","contest":"Model Superstar","episode":"Model Superstar Finale","category":null,"contestant":{"voting_id":"13","name":"Prashant Shah"},"vote_count":1,"created_on":"2020-01-25T20:28:02.169659+05:45"},{"idx":"pLq342cmpdXXkHPhNgZZ92","contest":"Model Superstar","episode":"Model Superstar Finale","category":null,"contestant":{"voting_id":"13","name":"Prashant Shah"},"vote_count":1,"created_on":"2020-01-25T20:27:35.467672+05:45"},{"idx":"BtsvGF7ikPdYRmaXWwKcuJ","contest":"Model Superstar","episode":"Model Superstar Finale","category":null,"contestant":{"voting_id":"13","name":"Prashant Shah"},"vote_count":1,"created_on":"2020-01-25T20:27:22.649443+05:45"},{"idx":"5st2kFzhDzEiMuThzTcfTK","contest":"Model Superstar","episode":"Model Superstar Finale","category":null,"contestant":{"voting_id":"13","name":"Prashant Shah"},"vote_count":1,"created_on":"2020-01-25T20:27:09.454255+05:45"},{"idx":"yFB8GTLfGXDQMMVfZTj3jJ","contest":"Model Superstar","episode":"Model Superstar Finale","category":null,"contestant":{"voting_id":"13","name":"Prashant Shah"},"vote_count":1,"created_on":"2020-01-25T20:24:00.626750+05:45"},{"idx":"mAbaYRbeqgDUaqEoanXVqd","contest":"Model Superstar","episode":"Model Superstar Finale","category":null,"contestant":{"voting_id":"13","name":"Prashant Shah"},"vote_count":1,"created_on":"2020-01-25T20:22:53.208965+05:45"},{"idx":"zA6rHZogbhnsV6JMzzTTj3","contest":"Model Superstar","episode":"Model Superstar Finale","category":null,"contestant":{"voting_id":"13","name":"Prashant Shah"},"vote_count":1,"created_on":"2020-01-25T20:22:16.532129+05:45"},{"idx":"MRpAAuGdqpjHEMWkiVPMLR","contest":"Model Superstar","episode":"Model Superstar Finale","category":null,"contestant":{"voting_id":"13","name":"Prashant Shah"},"vote_count":1,"created_on":"2020-01-25T20:21:53.251186+05:45"},{"idx":"9c9JGxAjtQjLo2iTJqcy6e","contest":"Model Superstar","episode":"Model Superstar Finale","category":null,"contestant":{"voting_id":"13","name":"Prashant Shah"},"vote_count":1,"created_on":"2020-01-25T20:21:19.194011+05:45"},{"idx":"JUB9L9pgvyzWf6gKPV4Bo3","contest":"Model Superstar","episode":"Model Superstar Finale","category":null,"contestant":{"voting_id":"13","name":"Prashant Shah"},"vote_count":1,"created_on":"2020-01-25T20:21:04.611279+05:45"},{"idx":"shpoJ4MAFLkb2JnfZ3Cssf","contest":"Model Superstar","episode":"Model Superstar Finale","category":null,"contestant":{"voting_id":"13","name":"Prashant Shah"},"vote_count":1,"created_on":"2020-01-25T20:20:29.954764+05:45"},{"idx":"vSSFenjPHKToRaTMHY2Up8","contest":"Model Superstar","episode":"Model Superstar Finale","category":null,"contestant":{"voting_id":"13","name":"Prashant Shah"},"vote_count":1,"created_on":"2020-01-25T20:20:12.417669+05:45"},{"idx":"Ue6NToB5bXoN2FHeUVGGHZ","contest":"Model Superstar","episode":"Model Superstar Finale","category":null,"contestant":{"voting_id":"13","name":"Prashant Shah"},"vote_count":1,"created_on":"2020-01-25T20:19:37.710466+05:45"},{"idx":"Nq9hLFXsjRHdrbT4tmZHQd","contest":"Model Superstar","episode":"Model Superstar Finale","category":null,"contestant":{"voting_id":"13","name":"Prashant Shah"},"vote_count":1,"created_on":"2020-01-25T20:19:02.780965+05:45"},{"idx":"5xgysS8eZxjTL7rzMCrUXH","contest":"Model Superstar","episode":"Model Superstar Finale","category":null,"contestant":{"voting_id":"13","name":"Prashant Shah"},"vote_count":1,"created_on":"2020-01-25T20:18:28.489951+05:45"},{"idx":"ygTCpu5Bb5MjbeMChHgZJ8","contest":"Model Superstar","episode":"Model Superstar Finale","category":null,"contestant":{"voting_id":"13","name":"Prashant Shah"},"vote_count":1,"created_on":"2020-01-25T20:18:06.243487+05:45"},{"idx":"6HqoaaoRoqJkWyxLECJrUK","contest":"Model Superstar","episode":"Model Superstar Finale","category":null,"contestant":{"voting_id":"13","name":"Prashant Shah"},"vote_count":1,"created_on":"2020-01-25T20:17:32.095545+05:45"},{"idx":"qFjbdCCuGUAwBFcneKpacZ","contest":"Model Superstar","episode":"Model Superstar Finale","category":null,"contestant":{"voting_id":"13","name":"Prashant Shah"},"vote_count":1,"created_on":"2020-01-25T20:17:00.889520+05:45"},{"idx":"zsmtKwJo3Yz9nr7gqbxx5J","contest":"Model Superstar","episode":"Model Superstar Finale","category":null,"contestant":{"voting_id":"13","name":"Prashant Shah"},"vote_count":1,"created_on":"2020-01-25T20:16:42.994656+05:45"},{"idx":"Moi6g6qbgiigLUCiE6y3PB","contest":"Model Superstar","episode":"Model Superstar Finale","category":null,"contestant":{"voting_id":"13","name":"Prashant Shah"},"vote_count":1,"created_on":"2020-01-25T20:16:10.861944+05:45"},{"idx":"XDeaosWtx6mAVpRWCpjRLN","contest":"Model Superstar","episode":"Model Superstar Finale","category":null,"contestant":{"voting_id":"03","name":"Smriti Shah"},"vote_count":1,"created_on":"2020-01-25T20:11:50.572686+05:45"},{"idx":"EYLGL7sVZokWzx432p2vzK","contest":"Model Superstar","episode":"Model Superstar Finale","category":null,"contestant":{"voting_id":"13","name":"Prashant Shah"},"vote_count":1,"created_on":"2020-01-25T20:09:36.595651+05:45"},{"idx":"ft5ANQ9Jq89eEA7PfYzGHe","contest":"Model Superstar","episode":"Model Superstar Finale","category":null,"contestant":{"voting_id":"13","name":"Prashant Shah"},"vote_count":1,"created_on":"2020-01-25T20:08:42.448921+05:45"},{"idx":"LqKiVCRDYcXxyYRkc42Kn4","contest":"Model Superstar","episode":"Model Superstar Finale","category":null,"contestant":{"voting_id":"13","name":"Prashant Shah"},"vote_count":1,"created_on":"2020-01-25T20:05:27.039584+05:45"},{"idx":"vGCebyBsRv6kZC88KUxyJf","contest":"Model Superstar","episode":"Model Superstar Finale","category":null,"contestant":{"voting_id":"13","name":"Prashant Shah"},"vote_count":1,"created_on":"2020-01-25T20:05:00.112525+05:45"},{"idx":"Aoc9KfKqeN9DCgoQVrw4gL","contest":"Model Superstar","episode":"Model Superstar Finale","category":null,"contestant":{"voting_id":"13","name":"Prashant Shah"},"vote_count":1,"created_on":"2020-01-25T20:04:45.646695+05:45"},{"idx":"aomVg3BZo6MXrwfq7xP2CQ","contest":"Model Superstar","episode":"Model Superstar Finale","category":null,"contestant":{"voting_id":"13","name":"Prashant Shah"},"vote_count":1,"created_on":"2020-01-25T20:04:34.239467+05:45"}]}