{"total_pages":275,"total_records":13717,"next":"https://khalti.com/api/v2/vuservote/?page=40","previous":"https://khalti.com/api/v2/vuservote/?page=38","record_range":[1901,1950],"current_page":39,"records":[{"idx":"UdREsnd2DMVY3bjH3mNDUW","contest":"Model Superstar","episode":"Model Superstar Finale","category":null,"contestant":{"voting_id":"13","name":"Prashant Shah"},"vote_count":1,"created_on":"2020-01-25T20:04:16.896856+05:45"},{"idx":"Fi7JEWJdyrkQTpcz84AGk6","contest":"Model Superstar","episode":"Model Superstar Finale","category":null,"contestant":{"voting_id":"13","name":"Prashant Shah"},"vote_count":1,"created_on":"2020-01-25T20:03:36.046965+05:45"},{"idx":"KDWcPKEk4PLs6heHr3RgF6","contest":"Model Superstar","episode":"Model Superstar Finale","category":null,"contestant":{"voting_id":"13","name":"Prashant Shah"},"vote_count":1,"created_on":"2020-01-25T20:03:17.970465+05:45"},{"idx":"W8KDpD5Lduc7KFxVhdsSkJ","contest":"Model Superstar","episode":"Model Superstar Finale","category":null,"contestant":{"voting_id":"13","name":"Prashant Shah"},"vote_count":1,"created_on":"2020-01-25T20:03:04.712042+05:45"},{"idx":"7rDMv3WPVxjpkinYK4BVDJ","contest":"Model Superstar","episode":"Model Superstar Finale","category":null,"contestant":{"voting_id":"13","name":"Prashant Shah"},"vote_count":1,"created_on":"2020-01-25T20:02:51.680967+05:45"},{"idx":"5cQPY7aRvBEmz3AB9FzmXY","contest":"Model Superstar","episode":"Model Superstar Finale","category":null,"contestant":{"voting_id":"13","name":"Prashant Shah"},"vote_count":1,"created_on":"2020-01-25T20:02:39.999574+05:45"},{"idx":"PW58VRDDddjVU3HxJ286f9","contest":"Model Superstar","episode":"Model Superstar Finale","category":null,"contestant":{"voting_id":"13","name":"Prashant Shah"},"vote_count":1,"created_on":"2020-01-25T20:02:30.065609+05:45"},{"idx":"zAYauFnHcJWEt9kKjbxfHD","contest":"Model Superstar","episode":"Model Superstar Finale","category":null,"contestant":{"voting_id":"13","name":"Prashant Shah"},"vote_count":1,"created_on":"2020-01-25T20:01:57.056403+05:45"},{"idx":"Un92THvQrnH3khV2mMztsW","contest":"Model Superstar","episode":"Model Superstar Finale","category":null,"contestant":{"voting_id":"13","name":"Prashant Shah"},"vote_count":1,"created_on":"2020-01-25T20:01:41.486000+05:45"},{"idx":"RyR2wHTTucyEa9pJEvMp9d","contest":"Model Superstar","episode":"Model Superstar Finale","category":null,"contestant":{"voting_id":"13","name":"Prashant Shah"},"vote_count":1,"created_on":"2020-01-25T20:01:23.788531+05:45"},{"idx":"X65gXdaVKKwxyZKzPSJ2iU","contest":"Model Superstar","episode":"Model Superstar Finale","category":null,"contestant":{"voting_id":"13","name":"Prashant Shah"},"vote_count":1,"created_on":"2020-01-25T20:01:12.261588+05:45"},{"idx":"uRvvqdUQhFKraP2rsKsFSf","contest":"Model Superstar","episode":"Model Superstar Finale","category":null,"contestant":{"voting_id":"13","name":"Prashant Shah"},"vote_count":1,"created_on":"2020-01-25T20:01:01.912798+05:45"},{"idx":"Akr73uNMLM2iDcSbuNt3XP","contest":"Model Superstar","episode":"Model Superstar Finale","category":null,"contestant":{"voting_id":"13","name":"Prashant Shah"},"vote_count":1,"created_on":"2020-01-25T19:59:55.073810+05:45"},{"idx":"jErXSmjDDJK4JymBh6DLHa","contest":"Model Superstar","episode":"Model Superstar Finale","category":null,"contestant":{"voting_id":"13","name":"Prashant Shah"},"vote_count":1,"created_on":"2020-01-25T19:59:29.960929+05:45"},{"idx":"6a2JYQYWA6gHaWtyEDJWd5","contest":"Model Superstar","episode":"Model Superstar Finale","category":null,"contestant":{"voting_id":"13","name":"Prashant Shah"},"vote_count":1,"created_on":"2020-01-25T19:59:02.449448+05:45"},{"idx":"oRKTaEKHSHJLp65cv29Tbc","contest":"Model Superstar","episode":"Model Superstar Finale","category":null,"contestant":{"voting_id":"13","name":"Prashant Shah"},"vote_count":1,"created_on":"2020-01-25T19:58:26.470211+05:45"},{"idx":"btLKsdRHybEC4J95tai8c2","contest":"Model Superstar","episode":"Model Superstar Finale","category":null,"contestant":{"voting_id":"13","name":"Prashant Shah"},"vote_count":1,"created_on":"2020-01-25T19:57:53.071525+05:45"},{"idx":"Sqo7UJntYuxTgiKyDcZLmf","contest":"Model Superstar","episode":"Model Superstar Finale","category":null,"contestant":{"voting_id":"13","name":"Prashant Shah"},"vote_count":1,"created_on":"2020-01-25T19:57:22.898018+05:45"},{"idx":"PZVLE7QWngqCvutxC73XKX","contest":"Model Superstar","episode":"Model Superstar Finale","category":null,"contestant":{"voting_id":"01","name":"Sajina Subba"},"vote_count":1,"created_on":"2020-01-25T18:58:57.309407+05:45"},{"idx":"jMmM9bz9xJswBvSpem3wDM","contest":"Model Superstar","episode":"Model Superstar Finale","category":null,"contestant":{"voting_id":"04","name":"Sabita Maharjan"},"vote_count":1,"created_on":"2020-01-25T17:38:07.911042+05:45"},{"idx":"V3KTu4crZsuUqB62r92x2B","contest":"Model Superstar","episode":"Model Superstar Finale","category":null,"contestant":{"voting_id":"02","name":"Srijana Basnet"},"vote_count":1,"created_on":"2020-01-25T17:34:58.766369+05:45"},{"idx":"jutFtpyn8EdZyiWio9Pf6W","contest":"Model Superstar","episode":"Model Superstar Finale","category":null,"contestant":{"voting_id":"04","name":"Sabita Maharjan"},"vote_count":1,"created_on":"2020-01-25T17:04:11.401050+05:45"},{"idx":"CvNCZsqRLSfsxsGvsF6cGm","contest":"Model Superstar","episode":"Model Superstar Finale","category":null,"contestant":{"voting_id":"04","name":"Sabita Maharjan"},"vote_count":1,"created_on":"2020-01-25T17:03:47.042175+05:45"},{"idx":"PV6bfiDkfLoBwsxJHv8De3","contest":"Model Superstar","episode":"Model Superstar Finale","category":null,"contestant":{"voting_id":"12","name":"Rabin Ghising"},"vote_count":1,"created_on":"2020-01-25T16:29:25.831031+05:45"},{"idx":"8kty9dr5uhoG9uYJP6TQc6","contest":"Model Superstar","episode":"Model Superstar Finale","category":null,"contestant":{"voting_id":"01","name":"Sajina Subba"},"vote_count":1,"created_on":"2020-01-25T16:16:34.168741+05:45"},{"idx":"nr42zb6CV2sNb3bh3g4QqY","contest":"Model Superstar","episode":"Model Superstar Finale","category":null,"contestant":{"voting_id":"06","name":"Sujan Basnet"},"vote_count":1,"created_on":"2020-01-25T16:16:15.560108+05:45"},{"idx":"8R3LrEibyh98oX5zgKrWLA","contest":"Model Superstar","episode":"Model Superstar Finale","category":null,"contestant":{"voting_id":"04","name":"Sabita Maharjan"},"vote_count":1,"created_on":"2020-01-25T16:15:56.273825+05:45"},{"idx":"eXGn8w86yX73D2sHVVVAMk","contest":"Model Superstar","episode":"Model Superstar Finale","category":null,"contestant":{"voting_id":"01","name":"Sajina Subba"},"vote_count":1,"created_on":"2020-01-25T15:41:40.245902+05:45"},{"idx":"Quu6ebXmgHePJFdF9oJUX7","contest":"Model Superstar","episode":"Model Superstar Finale","category":null,"contestant":{"voting_id":"11","name":"Rachana Karki"},"vote_count":1,"created_on":"2020-01-25T15:25:28.427955+05:45"},{"idx":"zHBZ3W28KKb4vJAoQmhdJM","contest":"Model Superstar","episode":"Model Superstar Finale","category":null,"contestant":{"voting_id":"03","name":"Smriti Shah"},"vote_count":1,"created_on":"2020-01-25T14:11:01.219716+05:45"},{"idx":"JY9eAc5nqt287ucUenJmfj","contest":"Model Superstar","episode":"Model Superstar Finale","category":null,"contestant":{"voting_id":"03","name":"Smriti Shah"},"vote_count":1,"created_on":"2020-01-25T12:44:10.814643+05:45"},{"idx":"9K4t3c8ad9Ebv2WoNFNyS9","contest":"Model Superstar","episode":"Model Superstar Finale","category":null,"contestant":{"voting_id":"02","name":"Srijana Basnet"},"vote_count":1,"created_on":"2020-01-25T12:43:17.813339+05:45"},{"idx":"fRyU9E44zHtRPRRxeqmGaG","contest":"Model Superstar","episode":"Model Superstar Finale","category":null,"contestant":{"voting_id":"11","name":"Rachana Karki"},"vote_count":1,"created_on":"2020-01-25T12:27:05.271588+05:45"},{"idx":"LXyfGRCaVUny9WGmNpJfJ2","contest":"Model Superstar","episode":"Model Superstar Finale","category":null,"contestant":{"voting_id":"11","name":"Rachana Karki"},"vote_count":1,"created_on":"2020-01-25T12:23:23.153383+05:45"},{"idx":"boXi6vSucDxArNmaPGuTYB","contest":"Model Superstar","episode":"Model Superstar Finale","category":null,"contestant":{"voting_id":"01","name":"Sajina Subba"},"vote_count":1,"created_on":"2020-01-25T12:06:41.718131+05:45"},{"idx":"o4jYwJPqvKbnpAULuNiuC3","contest":"Model Superstar","episode":"Model Superstar Finale","category":null,"contestant":{"voting_id":"02","name":"Srijana Basnet"},"vote_count":1,"created_on":"2020-01-25T12:06:15.914388+05:45"},{"idx":"c4f3yQAURmYZ8CX69PuLUG","contest":"Model Superstar","episode":"Model Superstar Finale","category":null,"contestant":{"voting_id":"11","name":"Rachana Karki"},"vote_count":1,"created_on":"2020-01-25T11:05:49.100092+05:45"},{"idx":"dtgCUH2ZuyvLKGdqf6cFzC","contest":"Model Superstar","episode":"Model Superstar Finale","category":null,"contestant":{"voting_id":"02","name":"Srijana Basnet"},"vote_count":1,"created_on":"2020-01-25T10:54:45.828463+05:45"},{"idx":"LtVSi7ihApDJKFobNtMS7f","contest":"Model Superstar","episode":"Model Superstar Finale","category":null,"contestant":{"voting_id":"06","name":"Sujan Basnet"},"vote_count":1,"created_on":"2020-01-25T10:27:57.700291+05:45"},{"idx":"EUSYYjso5Vih5FoEevBdn3","contest":"Model Superstar","episode":"Model Superstar Finale","category":null,"contestant":{"voting_id":"02","name":"Srijana Basnet"},"vote_count":1,"created_on":"2020-01-25T10:09:54.827803+05:45"},{"idx":"jf2M933G8sHbMKFLdu2f5J","contest":"Model Superstar","episode":"Model Superstar Finale","category":null,"contestant":{"voting_id":"02","name":"Srijana Basnet"},"vote_count":1,"created_on":"2020-01-25T10:09:18.976082+05:45"},{"idx":"vqECk7mQiKkxqTLeUvkRnA","contest":"Model Superstar","episode":"Model Superstar Finale","category":null,"contestant":{"voting_id":"02","name":"Srijana Basnet"},"vote_count":1,"created_on":"2020-01-25T10:07:32.705676+05:45"},{"idx":"jvAuwv7NhbLgYFkN4MbwhP","contest":"Model Superstar","episode":"Model Superstar Finale","category":null,"contestant":{"voting_id":"31","name":"Aakriti Subedi"},"vote_count":1,"created_on":"2020-01-25T09:55:17.722299+05:45"},{"idx":"vunkiztiSNX9aRqUvaMGzK","contest":"Model Superstar","episode":"Model Superstar Finale","category":null,"contestant":{"voting_id":"03","name":"Smriti Shah"},"vote_count":1,"created_on":"2020-01-25T09:54:11.553817+05:45"},{"idx":"P9GGh6qrANCjY2nKVSBZhL","contest":"Model Superstar","episode":"Model Superstar Finale","category":null,"contestant":{"voting_id":"11","name":"Rachana Karki"},"vote_count":1,"created_on":"2020-01-25T09:19:49.515207+05:45"},{"idx":"9e6pRbs96wtmeUA6GeuuPd","contest":"Model Superstar","episode":"Model Superstar Finale","category":null,"contestant":{"voting_id":"12","name":"Rabin Ghising"},"vote_count":1,"created_on":"2020-01-25T09:04:42.938278+05:45"},{"idx":"9z3zRRPaHBWGzxxZAsAwpP","contest":"Model Superstar","episode":"Model Superstar Finale","category":null,"contestant":{"voting_id":"03","name":"Smriti Shah"},"vote_count":1,"created_on":"2020-01-25T08:59:03.769682+05:45"},{"idx":"dW4ZkBbpdwwJfHMAVZ8YqU","contest":"Model Superstar","episode":"Model Superstar Finale","category":null,"contestant":{"voting_id":"02","name":"Srijana Basnet"},"vote_count":1,"created_on":"2020-01-25T08:54:31.649381+05:45"},{"idx":"qBMsHux3ntsTnrqrWHaRLG","contest":"Model Superstar","episode":"Model Superstar Finale","category":null,"contestant":{"voting_id":"02","name":"Srijana Basnet"},"vote_count":1,"created_on":"2020-01-25T08:43:05.438594+05:45"},{"idx":"BPEnnMxXgcaYgerMVmyJ4i","contest":"Model Superstar","episode":"Model Superstar Finale","category":null,"contestant":{"voting_id":"02","name":"Srijana Basnet"},"vote_count":1,"created_on":"2020-01-25T08:16:38.845099+05:45"}]}