{"total_pages":275,"total_records":13717,"next":"https://khalti.com/api/v2/vuservote/?page=5","previous":"https://khalti.com/api/v2/vuservote/?page=3","record_range":[151,200],"current_page":4,"records":[{"idx":"4b9M2MeZJKWPY8pt5iHHiU","contest":"Locus 2020","episode":"Locus 2020","category":null,"contestant":{"voting_id":"01","name":"Project Fire Robo"},"vote_count":1,"created_on":"2020-02-03T09:25:46.572833+05:45"},{"idx":"MMV8coGoCiVvkxwRK9xDMU","contest":"Locus 2020","episode":"Locus 2020","category":null,"contestant":{"voting_id":"66","name":"Project Alexa Pi"},"vote_count":1,"created_on":"2020-02-03T09:25:38.211768+05:45"},{"idx":"HbHLtRmbYZNCaieJPu2qvH","contest":"Locus 2020","episode":"Locus 2020","category":null,"contestant":{"voting_id":"01","name":"Project Fire Robo"},"vote_count":100,"created_on":"2020-02-03T09:25:07.039582+05:45"},{"idx":"mxJjWxPghPjvLh4pMpcxv4","contest":"Locus 2020","episode":"Locus 2020","category":null,"contestant":{"voting_id":"14","name":"Project TeeForges"},"vote_count":1,"created_on":"2020-02-03T09:24:12.282159+05:45"},{"idx":"PcuSyaNJoU8Eh9MVddsJyd","contest":"Locus 2020","episode":"Locus 2020","category":null,"contestant":{"voting_id":"16","name":"Project IOT Based Smart Agriculture System"},"vote_count":1,"created_on":"2020-02-03T09:23:07.557184+05:45"},{"idx":"CRz5GxXFPSBTMKWodg9ZLe","contest":"Locus 2020","episode":"Locus 2020","category":null,"contestant":{"voting_id":"26","name":"Project Automatic Rechargaeble Stove"},"vote_count":1,"created_on":"2020-02-03T09:19:31.681029+05:45"},{"idx":"QVAYumRrq8fqs4tRoZyUCD","contest":"Locus 2020","episode":"Locus 2020","category":null,"contestant":{"voting_id":"60","name":"Project EMG Contolled Prosthetic Arm"},"vote_count":1,"created_on":"2020-02-03T09:17:27.832542+05:45"},{"idx":"tgZmJruftHnR93AjDaoLwk","contest":"Locus 2020","episode":"Locus 2020","category":null,"contestant":{"voting_id":"66","name":"Project Alexa Pi"},"vote_count":1,"created_on":"2020-02-03T09:08:33.759079+05:45"},{"idx":"EvoW8ga7rSxnPftsi2GRMW","contest":"Locus 2020","episode":"Locus 2020","category":null,"contestant":{"voting_id":"86","name":"Project Target Shooter"},"vote_count":1,"created_on":"2020-02-03T09:06:45.704988+05:45"},{"idx":"EhCW2BRj8T3EMJdZcbznBb","contest":"Locus 2020","episode":"Locus 2020","category":null,"contestant":{"voting_id":"62","name":"Project 2D CNC Plotter"},"vote_count":1,"created_on":"2020-02-03T09:06:37.254707+05:45"},{"idx":"ALSxc8xmMUjMEm5GePasgZ","contest":"Locus 2020","episode":"Locus 2020","category":null,"contestant":{"voting_id":"66","name":"Project Alexa Pi"},"vote_count":1,"created_on":"2020-02-03T09:06:25.125524+05:45"},{"idx":"p9ZmxB5FN8oXYi2nTUBcpc","contest":"Model Superstar","episode":"Model Superstar Finale","category":null,"contestant":{"voting_id":"12","name":"Rabin Ghising"},"vote_count":1,"created_on":"2020-02-03T09:05:24.531709+05:45"},{"idx":"Qb9pnHsxtMD64QKKXcgdYL","contest":"Locus 2020","episode":"Locus 2020","category":null,"contestant":{"voting_id":"66","name":"Project Alexa Pi"},"vote_count":1,"created_on":"2020-02-03T09:04:43.251960+05:45"},{"idx":"oKYQ3kFaCuChc4oahcdy9Y","contest":"Locus 2020","episode":"Locus 2020","category":null,"contestant":{"voting_id":"19","name":"Project CNC Drawing Machine"},"vote_count":1,"created_on":"2020-02-03T08:50:21.598011+05:45"},{"idx":"h3CJAKqghXUHARMAGcSx4S","contest":"Locus 2020","episode":"Locus 2020","category":null,"contestant":{"voting_id":"31","name":"Project 3 in 1 Cartesian 3D Printer"},"vote_count":1,"created_on":"2020-02-03T08:48:02.438367+05:45"},{"idx":"4yJPafD4bPgjYZnNe8QGKE","contest":"Locus 2020","episode":"Locus 2020","category":null,"contestant":{"voting_id":"03","name":"Project Street Light Automation"},"vote_count":1,"created_on":"2020-02-03T08:45:50.688513+05:45"},{"idx":"2sfVNk79wq7D5oQuJzfZR8","contest":"Locus 2020","episode":"Locus 2020","category":null,"contestant":{"voting_id":"23","name":"Project Home Automation"},"vote_count":1,"created_on":"2020-02-03T08:45:27.861754+05:45"},{"idx":"XApec7TbtkNRBoiCbADQaK","contest":"Locus 2020","episode":"Locus 2020","category":null,"contestant":{"voting_id":"31","name":"Project 3 in 1 Cartesian 3D Printer"},"vote_count":1,"created_on":"2020-02-03T08:41:26.486340+05:45"},{"idx":"M8gwXwjFZCqe4tfKhLMQdP","contest":"Locus 2020","episode":"Locus 2020","category":null,"contestant":{"voting_id":"19","name":"Project CNC Drawing Machine"},"vote_count":1,"created_on":"2020-02-03T08:37:34.894252+05:45"},{"idx":"jCAvATAmJfxxStYZK9UAmH","contest":"Locus 2020","episode":"Locus 2020","category":null,"contestant":{"voting_id":"46","name":"Project Immune"},"vote_count":1,"created_on":"2020-02-03T08:22:47.602954+05:45"},{"idx":"jKQyqJETWQRbe8kvBbhrwG","contest":"Locus 2020","episode":"Locus 2020","category":null,"contestant":{"voting_id":"19","name":"Project CNC Drawing Machine"},"vote_count":1,"created_on":"2020-02-03T08:14:43.322637+05:45"},{"idx":"WvrBiuN2DSE94b3azLtTJ9","contest":"Locus 2020","episode":"Locus 2020","category":null,"contestant":{"voting_id":"84","name":"Project Margadarshan"},"vote_count":1,"created_on":"2020-02-03T08:06:08.881038+05:45"},{"idx":"tbxsQTYrwfpJPFjc8857PD","contest":"Locus 2020","episode":"Locus 2020","category":null,"contestant":{"voting_id":"19","name":"Project CNC Drawing Machine"},"vote_count":1,"created_on":"2020-02-03T08:05:19.387061+05:45"},{"idx":"vsVvHMFqBsavgxw7rPhqCK","contest":"Locus 2020","episode":"Locus 2020","category":null,"contestant":{"voting_id":"46","name":"Project Immune"},"vote_count":1,"created_on":"2020-02-03T07:56:50.176272+05:45"},{"idx":"8Ge29negVmHSeBueAzErtR","contest":"Model Superstar","episode":"Model Superstar Finale","category":null,"contestant":{"voting_id":"12","name":"Rabin Ghising"},"vote_count":1,"created_on":"2020-02-03T07:51:23.819323+05:45"},{"idx":"e6ZLCCYmLkPVJaxyHhYEN8","contest":"Locus 2020","episode":"Locus 2020","category":null,"contestant":{"voting_id":"19","name":"Project CNC Drawing Machine"},"vote_count":1,"created_on":"2020-02-03T07:50:38.824513+05:45"},{"idx":"cn2EwBmkh7C9FscrATJSzW","contest":"Locus 2020","episode":"Locus 2020","category":null,"contestant":{"voting_id":"04","name":"Project IRB -Robo Arm"},"vote_count":1,"created_on":"2020-02-03T07:44:00.948684+05:45"},{"idx":"o2EKkopU2M8KroGmpCzwnZ","contest":"Locus 2020","episode":"Locus 2020","category":null,"contestant":{"voting_id":"13","name":"Project Smart Fire Detector"},"vote_count":1,"created_on":"2020-02-03T07:02:37.598284+05:45"},{"idx":"vh32y8mh3dCQFToC8Nu3E6","contest":"Locus 2020","episode":"Locus 2020","category":null,"contestant":{"voting_id":"19","name":"Project CNC Drawing Machine"},"vote_count":5,"created_on":"2020-02-03T06:48:34.086995+05:45"},{"idx":"LVrvVLHaGg9BptCrYT54Qc","contest":"Locus 2020","episode":"Locus 2020","category":null,"contestant":{"voting_id":"19","name":"Project CNC Drawing Machine"},"vote_count":1,"created_on":"2020-02-03T06:47:18.674250+05:45"},{"idx":"nMkCQJ3ThcEmzLw7AEVEDX","contest":"Locus 2020","episode":"Locus 2020","category":null,"contestant":{"voting_id":"08","name":"Project A Smart Approach Towards Lifestyle in Nepal"},"vote_count":1,"created_on":"2020-02-03T06:28:15.840047+05:45"},{"idx":"QBDDqnqDxoE86zQe6Hq4C6","contest":"Locus 2020","episode":"Locus 2020","category":null,"contestant":{"voting_id":"14","name":"Project TeeForges"},"vote_count":1,"created_on":"2020-02-03T05:55:18.742991+05:45"},{"idx":"3VwM5UrQbWYLnv9AuJZBM5","contest":"Locus 2020","episode":"Locus 2020","category":null,"contestant":{"voting_id":"19","name":"Project CNC Drawing Machine"},"vote_count":1,"created_on":"2020-02-03T05:45:03.085310+05:45"},{"idx":"w7ymFd3hMGhbd22adwmTST","contest":"Model Superstar","episode":"Model Superstar Finale","category":null,"contestant":{"voting_id":"02","name":"Srijana Basnet"},"vote_count":1,"created_on":"2020-02-03T04:01:41.121345+05:45"},{"idx":"FgeLeKYfDaiNL84Cf3CSGj","contest":"Locus 2020","episode":"Locus 2020","category":null,"contestant":{"voting_id":"19","name":"Project CNC Drawing Machine"},"vote_count":1,"created_on":"2020-02-03T03:21:24.208368+05:45"},{"idx":"2BSd8bLde9e8yN8BQZuthB","contest":"Locus 2020","episode":"Locus 2020","category":null,"contestant":{"voting_id":"01","name":"Project Fire Robo"},"vote_count":1,"created_on":"2020-02-03T00:02:59.655260+05:45"},{"idx":"ZbgG2cbsTmCuUZfAjuxPhk","contest":"Model Superstar","episode":"Model Superstar Finale","category":null,"contestant":{"voting_id":"03","name":"Smriti Shah"},"vote_count":1,"created_on":"2020-02-03T00:02:38.517954+05:45"},{"idx":"jUzCu5DyjHzks8ZY4RQXCe","contest":"Locus 2020","episode":"Locus 2020","category":null,"contestant":{"voting_id":"04","name":"Project IRB -Robo Arm"},"vote_count":1,"created_on":"2020-02-02T23:29:18.029588+05:45"},{"idx":"gnKmq9iBZS8wpSDmmKdfzf","contest":"Locus 2020","episode":"Locus 2020","category":null,"contestant":{"voting_id":"23","name":"Project Home Automation"},"vote_count":1,"created_on":"2020-02-02T23:22:57.740140+05:45"},{"idx":"hpJzCgvfxAvYKfQvoHGKbY","contest":"Locus 2020","episode":"Locus 2020","category":null,"contestant":{"voting_id":"46","name":"Project Immune"},"vote_count":1,"created_on":"2020-02-02T23:21:40.374492+05:45"},{"idx":"UdqxjYaUGNMQxxMbTfnwSa","contest":"Locus 2020","episode":"Locus 2020","category":null,"contestant":{"voting_id":"46","name":"Project Immune"},"vote_count":1,"created_on":"2020-02-02T23:04:50.185399+05:45"},{"idx":"ZrjWewPBf9kGDoBGCxdtbg","contest":"Locus 2020","episode":"Locus 2020","category":null,"contestant":{"voting_id":"32","name":"Project Health and Environment Checker"},"vote_count":1,"created_on":"2020-02-02T23:02:04.761715+05:45"},{"idx":"BKdTJEGd32pZpHgdduSY8g","contest":"Locus 2020","episode":"Locus 2020","category":null,"contestant":{"voting_id":"14","name":"Project TeeForges"},"vote_count":1,"created_on":"2020-02-02T23:00:19.474391+05:45"},{"idx":"AvCoNXFHFfPN2GpUtFpJQ3","contest":"Locus 2020","episode":"Locus 2020","category":null,"contestant":{"voting_id":"32","name":"Project Health and Environment Checker"},"vote_count":1,"created_on":"2020-02-02T22:59:59.042887+05:45"},{"idx":"pVKvmwbCrouVsPf6cBQJQD","contest":"Locus 2020","episode":"Locus 2020","category":null,"contestant":{"voting_id":"32","name":"Project Health and Environment Checker"},"vote_count":1,"created_on":"2020-02-02T22:57:23.883003+05:45"},{"idx":"YKLaQPtcRERpjsWuB7kSYV","contest":"Locus 2020","episode":"Locus 2020","category":null,"contestant":{"voting_id":"32","name":"Project Health and Environment Checker"},"vote_count":1,"created_on":"2020-02-02T22:53:54.759138+05:45"},{"idx":"cHB5UaAewRuVUMNeG37RhV","contest":"Model Superstar","episode":"Model Superstar Finale","category":null,"contestant":{"voting_id":"11","name":"Rachana Karki"},"vote_count":1,"created_on":"2020-02-02T22:52:00.834877+05:45"},{"idx":"h29oB5x2uycLDNKNGGX7am","contest":"Locus 2020","episode":"Locus 2020","category":null,"contestant":{"voting_id":"83","name":"Project Ghadi"},"vote_count":1,"created_on":"2020-02-02T22:51:56.468167+05:45"},{"idx":"g3Hz86gtcocPB3nLYeFWwj","contest":"Locus 2020","episode":"Locus 2020","category":null,"contestant":{"voting_id":"46","name":"Project Immune"},"vote_count":1,"created_on":"2020-02-02T22:50:56.195682+05:45"},{"idx":"34KRyvv4UhZM5TTV6nunkZ","contest":"Locus 2020","episode":"Locus 2020","category":null,"contestant":{"voting_id":"46","name":"Project Immune"},"vote_count":1,"created_on":"2020-02-02T22:47:31.398033+05:45"}]}