{"total_pages":275,"total_records":13717,"next":"https://khalti.com/api/v2/vuservote/?page=41","previous":"https://khalti.com/api/v2/vuservote/?page=39","record_range":[1951,2000],"current_page":40,"records":[{"idx":"eWSSf5yg4TM3PhTytrX3FZ","contest":"Model Superstar","episode":"Model Superstar Finale","category":null,"contestant":{"voting_id":"02","name":"Srijana Basnet"},"vote_count":1,"created_on":"2020-01-25T02:46:45.153654+05:45"},{"idx":"G4Nqb84RT2sNGqpUgd4Ysf","contest":"Model Superstar","episode":"Model Superstar Finale","category":null,"contestant":{"voting_id":"12","name":"Rabin Ghising"},"vote_count":1,"created_on":"2020-01-24T23:04:45.209200+05:45"},{"idx":"dd4UW9hpxY8JEdRw3wN88P","contest":"Model Superstar","episode":"Model Superstar Finale","category":null,"contestant":{"voting_id":"12","name":"Rabin Ghising"},"vote_count":1,"created_on":"2020-01-24T23:03:36.331832+05:45"},{"idx":"uYrYnSzvSLotGpEiYhrbne","contest":"Model Superstar","episode":"Model Superstar Finale","category":null,"contestant":{"voting_id":"12","name":"Rabin Ghising"},"vote_count":1,"created_on":"2020-01-24T23:02:37.822105+05:45"},{"idx":"bgfGNHfQth6AcdWEcLLDKJ","contest":"Model Superstar","episode":"Model Superstar Finale","category":null,"contestant":{"voting_id":"12","name":"Rabin Ghising"},"vote_count":1,"created_on":"2020-01-24T23:02:28.968208+05:45"},{"idx":"ph443xBbYPWnagyhgZhmhR","contest":"Model Superstar","episode":"Model Superstar Finale","category":null,"contestant":{"voting_id":"12","name":"Rabin Ghising"},"vote_count":1,"created_on":"2020-01-24T23:02:01.441235+05:45"},{"idx":"TEMJpYPuzS28d3cD3KeFZ7","contest":"Model Superstar","episode":"Model Superstar Finale","category":null,"contestant":{"voting_id":"11","name":"Rachana Karki"},"vote_count":1,"created_on":"2020-01-24T22:12:21.540858+05:45"},{"idx":"XCGqvAKZKDi7KJhk2T3uSD","contest":"Model Superstar","episode":"Model Superstar Finale","category":null,"contestant":{"voting_id":"01","name":"Sajina Subba"},"vote_count":1,"created_on":"2020-01-24T21:28:56.746492+05:45"},{"idx":"2BgCuTmCcjeMNCPvM5o2bm","contest":"Model Superstar","episode":"Model Superstar Finale","category":null,"contestant":{"voting_id":"01","name":"Sajina Subba"},"vote_count":1,"created_on":"2020-01-24T21:27:29.165488+05:45"},{"idx":"oUPDu87WVT4dKqTKuYv7xY","contest":"Model Superstar","episode":"Model Superstar Finale","category":null,"contestant":{"voting_id":"12","name":"Rabin Ghising"},"vote_count":1,"created_on":"2020-01-24T21:11:46.894215+05:45"},{"idx":"yWahnBB2tKZDWKeYwwCrhG","contest":"Model Superstar","episode":"Model Superstar Finale","category":null,"contestant":{"voting_id":"02","name":"Srijana Basnet"},"vote_count":1,"created_on":"2020-01-24T21:11:00.409503+05:45"},{"idx":"EeULExh9DGdhkDn2eMrCjA","contest":"Model Superstar","episode":"Model Superstar Finale","category":null,"contestant":{"voting_id":"13","name":"Prashant Shah"},"vote_count":1,"created_on":"2020-01-24T21:04:50.460524+05:45"},{"idx":"ALnXRVJkrH8EW6qNarwF3Y","contest":"Model Superstar","episode":"Model Superstar Finale","category":null,"contestant":{"voting_id":"03","name":"Smriti Shah"},"vote_count":1,"created_on":"2020-01-24T21:03:56.159065+05:45"},{"idx":"7P2svNBWccNJiWBjwXox2o","contest":"Model Superstar","episode":"Model Superstar Finale","category":null,"contestant":{"voting_id":"32","name":"Ichhya Adhikari"},"vote_count":1,"created_on":"2020-01-24T20:32:04.737410+05:45"},{"idx":"JqwGvKbeaEPgMrAseJu5LB","contest":"Model Superstar","episode":"Model Superstar Finale","category":null,"contestant":{"voting_id":"32","name":"Ichhya Adhikari"},"vote_count":1,"created_on":"2020-01-24T20:31:46.990767+05:45"},{"idx":"StnmnyvVjawrxEhysQCtq5","contest":"Model Superstar","episode":"Model Superstar Finale","category":null,"contestant":{"voting_id":"32","name":"Ichhya Adhikari"},"vote_count":1,"created_on":"2020-01-24T20:31:33.152406+05:45"},{"idx":"aRXyLoX8ExrRJoNLGd5JpH","contest":"Model Superstar","episode":"Model Superstar Finale","category":null,"contestant":{"voting_id":"01","name":"Sajina Subba"},"vote_count":1,"created_on":"2020-01-24T20:30:30.153058+05:45"},{"idx":"b5BqLfW22yWYDAKD9PbGhd","contest":"Model Superstar","episode":"Model Superstar Finale","category":null,"contestant":{"voting_id":"02","name":"Srijana Basnet"},"vote_count":1,"created_on":"2020-01-24T20:30:11.524019+05:45"},{"idx":"N53hfrnrHbaBcrjeMnU6W8","contest":"Model Superstar","episode":"Model Superstar Finale","category":null,"contestant":{"voting_id":"01","name":"Sajina Subba"},"vote_count":1,"created_on":"2020-01-24T20:29:01.312304+05:45"},{"idx":"pghbvfBWpZFBWiGL4GWt2K","contest":"Model Superstar","episode":"Model Superstar Finale","category":null,"contestant":{"voting_id":"11","name":"Rachana Karki"},"vote_count":1,"created_on":"2020-01-24T20:14:42.175261+05:45"},{"idx":"Fp3Mu4mG5ipPigtqRuq44X","contest":"Model Superstar","episode":"Model Superstar Finale","category":null,"contestant":{"voting_id":"31","name":"Aakriti Subedi"},"vote_count":1,"created_on":"2020-01-24T20:12:20.430637+05:45"},{"idx":"EeLRuxv5AWK3dN4cmEhfsD","contest":"Model Superstar","episode":"Model Superstar Finale","category":null,"contestant":{"voting_id":"31","name":"Aakriti Subedi"},"vote_count":1,"created_on":"2020-01-24T20:11:54.546471+05:45"},{"idx":"Fzmwd55NFoJCUAwfUpG74H","contest":"Model Superstar","episode":"Model Superstar Finale","category":null,"contestant":{"voting_id":"31","name":"Aakriti Subedi"},"vote_count":1,"created_on":"2020-01-24T20:09:57.914572+05:45"},{"idx":"BszgPsVma7N3JZ5P9W8Ev3","contest":"Model Superstar","episode":"Model Superstar Finale","category":null,"contestant":{"voting_id":"31","name":"Aakriti Subedi"},"vote_count":1,"created_on":"2020-01-24T20:01:45.214499+05:45"},{"idx":"MMfXGWk7gbwS8U2Zmgbpui","contest":"Model Superstar","episode":"Model Superstar Finale","category":null,"contestant":{"voting_id":"31","name":"Aakriti Subedi"},"vote_count":1,"created_on":"2020-01-24T20:01:22.351589+05:45"},{"idx":"erdcbiGimssSu3auq94ayU","contest":"Model Superstar","episode":"Model Superstar Finale","category":null,"contestant":{"voting_id":"31","name":"Aakriti Subedi"},"vote_count":1,"created_on":"2020-01-24T20:00:54.482526+05:45"},{"idx":"d24WkDjpPDWPSpniK7bjoH","contest":"Model Superstar","episode":"Model Superstar Finale","category":null,"contestant":{"voting_id":"31","name":"Aakriti Subedi"},"vote_count":1,"created_on":"2020-01-24T19:59:53.555350+05:45"},{"idx":"Q3yCYmykN4CejvXTUHAT9P","contest":"Model Superstar","episode":"Model Superstar Finale","category":null,"contestant":{"voting_id":"31","name":"Aakriti Subedi"},"vote_count":1,"created_on":"2020-01-24T19:58:22.650380+05:45"},{"idx":"dxq9uH35zQKSBughbx32ja","contest":"Model Superstar","episode":"Model Superstar Finale","category":null,"contestant":{"voting_id":"01","name":"Sajina Subba"},"vote_count":1,"created_on":"2020-01-24T15:01:03.762201+05:45"},{"idx":"AYyGQFTFKFGYuQujBAF4Z4","contest":"Model Superstar","episode":"Model Superstar Finale","category":null,"contestant":{"voting_id":"30","name":"Nikita Shakya"},"vote_count":1,"created_on":"2020-01-24T14:44:12.685478+05:45"},{"idx":"3BZZwnqAdbAbxrst2zduK6","contest":"Model Superstar","episode":"Model Superstar Finale","category":null,"contestant":{"voting_id":"31","name":"Aakriti Subedi"},"vote_count":1,"created_on":"2020-01-24T14:43:13.923041+05:45"},{"idx":"vJZTzWcZfgU5gM6q48ZtFN","contest":"Model Superstar","episode":"Model Superstar Finale","category":null,"contestant":{"voting_id":"32","name":"Ichhya Adhikari"},"vote_count":1,"created_on":"2020-01-24T14:42:44.449523+05:45"},{"idx":"rXhTJUfxQMNb7y5r88muEi","contest":"Model Superstar","episode":"Model Superstar Finale","category":null,"contestant":{"voting_id":"17","name":"Sajana Panta"},"vote_count":1,"created_on":"2020-01-24T14:41:31.654598+05:45"},{"idx":"AHixdUydzpcv4vmpu7NRkX","contest":"Model Superstar","episode":"Model Superstar Finale","category":null,"contestant":{"voting_id":"04","name":"Sabita Maharjan"},"vote_count":1,"created_on":"2020-01-24T14:12:42.303573+05:45"},{"idx":"CW8TtNPQVSpe4kpXU2iv5H","contest":"Model Superstar","episode":"Model Superstar Finale","category":null,"contestant":{"voting_id":"11","name":"Rachana Karki"},"vote_count":1,"created_on":"2020-01-24T13:46:03.870537+05:45"},{"idx":"6Fe5QHCFdHCFA4sy74CmUM","contest":"Model Superstar","episode":"Model Superstar Finale","category":null,"contestant":{"voting_id":"03","name":"Smriti Shah"},"vote_count":1,"created_on":"2020-01-24T13:10:35.582871+05:45"},{"idx":"Kd5tVXyCUeeoEeUQzQ7qSB","contest":"Model Superstar","episode":"Model Superstar Finale","category":null,"contestant":{"voting_id":"04","name":"Sabita Maharjan"},"vote_count":5,"created_on":"2020-01-24T12:09:37.559764+05:45"},{"idx":"39orVSkXAHHaMZfuxkfLvB","contest":"Model Superstar","episode":"Model Superstar Finale","category":null,"contestant":{"voting_id":"31","name":"Aakriti Subedi"},"vote_count":1,"created_on":"2020-01-24T11:40:50.431575+05:45"},{"idx":"KKd6pzWYhmtaMdrU7LzvGY","contest":"Model Superstar","episode":"Model Superstar Finale","category":null,"contestant":{"voting_id":"32","name":"Ichhya Adhikari"},"vote_count":1,"created_on":"2020-01-24T10:55:02.675963+05:45"},{"idx":"KYphUa2DtrTiHvZqJncn3n","contest":"Little Champ International 2020","episode":"Little Champ International 2020","category":null,"contestant":{"voting_id":"8","name":"Namiska Shrestha"},"vote_count":1,"created_on":"2020-01-23T23:44:46.122623+05:45"},{"idx":"TyXDa2VXG4LnR7qcqwwQVR","contest":"Little Champ International 2020","episode":"Little Champ International 2020","category":null,"contestant":{"voting_id":"10","name":"Smrik Shrestha"},"vote_count":1,"created_on":"2020-01-23T23:41:11.505059+05:45"},{"idx":"huC7sTSXtVb7YDPjLowSmm","contest":"Little Champ International 2020","episode":"Little Champ International 2020","category":null,"contestant":{"voting_id":"21","name":"Dirghayu Prasai"},"vote_count":1,"created_on":"2020-01-23T22:36:07.445065+05:45"},{"idx":"8fS3GTmpHaQgj3sHjYqwx5","contest":"Little Champ International 2020","episode":"Little Champ International 2020","category":null,"contestant":{"voting_id":"7","name":"Siwani Khatri"},"vote_count":1,"created_on":"2020-01-23T21:56:25.581648+05:45"},{"idx":"u8PX7UnxTFSLCkcMLpnHnK","contest":"Little Champ International 2020","episode":"Little Champ International 2020","category":null,"contestant":{"voting_id":"15","name":"Saugat Gahatraj"},"vote_count":1,"created_on":"2020-01-23T21:25:32.157861+05:45"},{"idx":"Pj9aAFMR8DrePXifvT8Sde","contest":"Little Champ International 2020","episode":"Little Champ International 2020","category":null,"contestant":{"voting_id":"12","name":"Aayushree Devkota"},"vote_count":1,"created_on":"2020-01-23T21:24:02.889155+05:45"},{"idx":"v6zXuMLnUSiF9Rj2iP8JCV","contest":"Little Champ International 2020","episode":"Little Champ International 2020","category":null,"contestant":{"voting_id":"8","name":"Namiska Shrestha"},"vote_count":1,"created_on":"2020-01-23T20:59:48.158434+05:45"},{"idx":"ic53ybcuPTwHNVpPL6or9V","contest":"Little Champ International 2020","episode":"Little Champ International 2020","category":null,"contestant":{"voting_id":"2","name":"Nitya Nepal"},"vote_count":1,"created_on":"2020-01-23T20:49:36.577892+05:45"},{"idx":"RnKMF8sG5H2kLXrj8YZYpT","contest":"Little Champ International 2020","episode":"Little Champ International 2020","category":null,"contestant":{"voting_id":"1","name":"Saumya Neupane"},"vote_count":1,"created_on":"2020-01-23T20:36:56.105098+05:45"},{"idx":"CnDE4YNXJq7LnN9Kuxsa4Y","contest":"Little Champ International 2020","episode":"Little Champ International 2020","category":null,"contestant":{"voting_id":"1","name":"Saumya Neupane"},"vote_count":1,"created_on":"2020-01-23T20:29:42.553219+05:45"},{"idx":"qmfMxfCWdfGe6tmRLUBBdZ","contest":"Little Champ International 2020","episode":"Little Champ International 2020","category":null,"contestant":{"voting_id":"12","name":"Aayushree Devkota"},"vote_count":1,"created_on":"2020-01-23T20:29:40.860129+05:45"}]}