{"total_pages":275,"total_records":13717,"next":"https://khalti.com/api/v2/vuservote/?page=42","previous":"https://khalti.com/api/v2/vuservote/?page=40","record_range":[2001,2050],"current_page":41,"records":[{"idx":"muGTUhvLbZifAu5YZvQnkh","contest":"Little Champ International 2020","episode":"Little Champ International 2020","category":null,"contestant":{"voting_id":"1","name":"Saumya Neupane"},"vote_count":1,"created_on":"2020-01-23T17:46:38.861711+05:45"},{"idx":"W8Xr9Dxep5kZBzuYLhbUJ4","contest":"Little Champ International 2020","episode":"Little Champ International 2020","category":null,"contestant":{"voting_id":"10","name":"Smrik Shrestha"},"vote_count":1,"created_on":"2020-01-23T17:37:18.338443+05:45"},{"idx":"6VLG32taG9WR3GA3zChvb2","contest":"Little Champ International 2020","episode":"Little Champ International 2020","category":null,"contestant":{"voting_id":"24","name":"Jasmine Dangol"},"vote_count":1,"created_on":"2020-01-23T15:43:07.194781+05:45"},{"idx":"9rqwKSDGHt8LQ5RWXdEUv8","contest":"Little Champ International 2020","episode":"Little Champ International 2020","category":null,"contestant":{"voting_id":"11","name":"Prince Dangol"},"vote_count":1,"created_on":"2020-01-23T15:25:09.119289+05:45"},{"idx":"ikakbWPTTySAwHTyJo5E3h","contest":"Little Champ International 2020","episode":"Little Champ International 2020","category":null,"contestant":{"voting_id":"21","name":"Dirghayu Prasai"},"vote_count":1,"created_on":"2020-01-23T15:22:12.830910+05:45"},{"idx":"kiz4EeWC5UXc2WXWCrNTZc","contest":"Little Champ International 2020","episode":"Little Champ International 2020","category":null,"contestant":{"voting_id":"17","name":"Jesika Regmi"},"vote_count":1,"created_on":"2020-01-23T15:16:13.225119+05:45"},{"idx":"LfzC68VZY7doaLDePCYz8A","contest":"Little Champ International 2020","episode":"Little Champ International 2020","category":null,"contestant":{"voting_id":"8","name":"Namiska Shrestha"},"vote_count":1,"created_on":"2020-01-23T13:33:17.007698+05:45"},{"idx":"A9LoG2WTknFythjqYqdkiG","contest":"Little Champ International 2020","episode":"Little Champ International 2020","category":null,"contestant":{"voting_id":"1","name":"Saumya Neupane"},"vote_count":1,"created_on":"2020-01-23T13:17:42.576273+05:45"},{"idx":"HimGZVP3wQ2hP9mRvsSXsh","contest":"Little Champ International 2020","episode":"Little Champ International 2020","category":null,"contestant":{"voting_id":"13","name":"Anjali Raut"},"vote_count":1,"created_on":"2020-01-23T08:57:11.521138+05:45"},{"idx":"N5wiCfr2KTwJN6LDHSf6Gg","contest":"Little Champ International 2020","episode":"Little Champ International 2020","category":null,"contestant":{"voting_id":"8","name":"Namiska Shrestha"},"vote_count":1,"created_on":"2020-01-23T08:22:22.703352+05:45"},{"idx":"yFTCedFaSJaM2QEc7xo8tL","contest":"Little Champ International 2020","episode":"Little Champ International 2020","category":null,"contestant":{"voting_id":"9","name":"Aagman Kaspal"},"vote_count":1,"created_on":"2020-01-23T07:42:09.689412+05:45"},{"idx":"5ehAQNSqtaDsGdpptN7bq8","contest":"Little Champ International 2020","episode":"Little Champ International 2020","category":null,"contestant":{"voting_id":"1","name":"Saumya Neupane"},"vote_count":1,"created_on":"2020-01-23T00:02:25.883981+05:45"},{"idx":"atDAQesfkyH7WJDp7noraL","contest":"Little Champ International 2020","episode":"Little Champ International 2020","category":null,"contestant":{"voting_id":"12","name":"Aayushree Devkota"},"vote_count":1,"created_on":"2020-01-22T23:55:04.021680+05:45"},{"idx":"NZPsvjg8Wx9jKvCXgKxAmT","contest":"Little Champ International 2020","episode":"Little Champ International 2020","category":null,"contestant":{"voting_id":"11","name":"Prince Dangol"},"vote_count":1,"created_on":"2020-01-22T23:14:56.956869+05:45"},{"idx":"PvJGu3g2GTTN28oXwcJfhQ","contest":"Little Champ International 2020","episode":"Little Champ International 2020","category":null,"contestant":{"voting_id":"12","name":"Aayushree Devkota"},"vote_count":1,"created_on":"2020-01-22T22:22:35.280286+05:45"},{"idx":"DiRkq3cSaJwpNEQ38swfx7","contest":"Little Champ International 2020","episode":"Little Champ International 2020","category":null,"contestant":{"voting_id":"8","name":"Namiska Shrestha"},"vote_count":1,"created_on":"2020-01-22T22:21:54.283023+05:45"},{"idx":"L6hVCC9AxTcoqK7RfJPaje","contest":"Little Champ International 2020","episode":"Little Champ International 2020","category":null,"contestant":{"voting_id":"24","name":"Jasmine Dangol"},"vote_count":1,"created_on":"2020-01-22T21:47:30.323347+05:45"},{"idx":"k8vnToq9CoiHLyoAfUVGv8","contest":"Little Champ International 2020","episode":"Little Champ International 2020","category":null,"contestant":{"voting_id":"1","name":"Saumya Neupane"},"vote_count":1,"created_on":"2020-01-22T21:35:34.255038+05:45"},{"idx":"dZ3KEEqGGmXiTtTwpszU6J","contest":"Little Champ International 2020","episode":"Little Champ International 2020","category":null,"contestant":{"voting_id":"7","name":"Siwani Khatri"},"vote_count":1,"created_on":"2020-01-22T21:25:14.436649+05:45"},{"idx":"kCEoFkHok85bgEmPvNQC6j","contest":"Little Champ International 2020","episode":"Little Champ International 2020","category":null,"contestant":{"voting_id":"10","name":"Smrik Shrestha"},"vote_count":1,"created_on":"2020-01-22T21:16:36.574571+05:45"},{"idx":"eZPdFwHpX5UdXYw4U9MGtA","contest":"Little Champ International 2020","episode":"Little Champ International 2020","category":null,"contestant":{"voting_id":"3","name":"Prinsha Bati"},"vote_count":1,"created_on":"2020-01-22T20:57:57.229738+05:45"},{"idx":"BFo3dVJdyAaQXu6Aojaoua","contest":"Little Champ International 2020","episode":"Little Champ International 2020","category":null,"contestant":{"voting_id":"12","name":"Aayushree Devkota"},"vote_count":1,"created_on":"2020-01-22T20:52:40.846275+05:45"},{"idx":"uLamQJuvz985nd9PUyo693","contest":"Little Champ International 2020","episode":"Little Champ International 2020","category":null,"contestant":{"voting_id":"24","name":"Jasmine Dangol"},"vote_count":1,"created_on":"2020-01-22T20:29:07.929382+05:45"},{"idx":"fLTirouUbPEDGTKQpG6RTY","contest":"Little Champ International 2020","episode":"Little Champ International 2020","category":null,"contestant":{"voting_id":"9","name":"Aagman Kaspal"},"vote_count":1,"created_on":"2020-01-22T19:48:33.803370+05:45"},{"idx":"y6M86pwcKunR3ztCWqLyk9","contest":"Little Champ International 2020","episode":"Little Champ International 2020","category":null,"contestant":{"voting_id":"10","name":"Smrik Shrestha"},"vote_count":1,"created_on":"2020-01-22T15:56:13.151151+05:45"},{"idx":"XJsPhFRRDW84DffvDGaA7g","contest":"Little Champ International 2020","episode":"Little Champ International 2020","category":null,"contestant":{"voting_id":"24","name":"Jasmine Dangol"},"vote_count":1,"created_on":"2020-01-22T14:42:09.612177+05:45"},{"idx":"qaPdgHZhodxJfMQMkvH4kW","contest":"Little Champ International 2020","episode":"Little Champ International 2020","category":null,"contestant":{"voting_id":"11","name":"Prince Dangol"},"vote_count":1,"created_on":"2020-01-22T14:06:30.967468+05:45"},{"idx":"gWDfaE7YcaG87NuD74575h","contest":"Little Champ International 2020","episode":"Little Champ International 2020","category":null,"contestant":{"voting_id":"23","name":"Resika Khatri"},"vote_count":1,"created_on":"2020-01-22T13:43:21.075871+05:45"},{"idx":"Cqnqj5VYddSZrSTW2ET4An","contest":"Little Champ International 2020","episode":"Little Champ International 2020","category":null,"contestant":{"voting_id":"10","name":"Smrik Shrestha"},"vote_count":1,"created_on":"2020-01-22T13:41:47.607234+05:45"},{"idx":"hyKCnJWMrBKf35e6fztFYa","contest":"Little Champ International 2020","episode":"Little Champ International 2020","category":null,"contestant":{"voting_id":"7","name":"Siwani Khatri"},"vote_count":1,"created_on":"2020-01-22T13:04:39.934165+05:45"},{"idx":"ZpUxEfN8gNkPg9RLnEtvZP","contest":"Little Champ International 2020","episode":"Little Champ International 2020","category":null,"contestant":{"voting_id":"7","name":"Siwani Khatri"},"vote_count":1,"created_on":"2020-01-22T12:52:01.355705+05:45"},{"idx":"wsxwFfyFGBykGtcTn3bNDa","contest":"Little Champ International 2020","episode":"Little Champ International 2020","category":null,"contestant":{"voting_id":"1","name":"Saumya Neupane"},"vote_count":1,"created_on":"2020-01-22T10:55:03.811301+05:45"},{"idx":"DAN4csFy6gnsRTrBBgV2ve","contest":"Little Champ International 2020","episode":"Little Champ International 2020","category":null,"contestant":{"voting_id":"11","name":"Prince Dangol"},"vote_count":1,"created_on":"2020-01-22T10:17:14.117981+05:45"},{"idx":"2EcxzPJ4vXM4wrV9qGeff6","contest":"Little Champ International 2020","episode":"Little Champ International 2020","category":null,"contestant":{"voting_id":"1","name":"Saumya Neupane"},"vote_count":1,"created_on":"2020-01-22T09:43:03.812418+05:45"},{"idx":"fkUdua9Ccs5qz5fuN3mVJo","contest":"Little Champ International 2020","episode":"Little Champ International 2020","category":null,"contestant":{"voting_id":"13","name":"Anjali Raut"},"vote_count":1,"created_on":"2020-01-22T09:38:54.135046+05:45"},{"idx":"dxrPdpkUBQNromsf6DMRyh","contest":"Little Champ International 2020","episode":"Little Champ International 2020","category":null,"contestant":{"voting_id":"12","name":"Aayushree Devkota"},"vote_count":1,"created_on":"2020-01-22T09:30:14.216175+05:45"},{"idx":"UvcpX4tgf9fZzyoSWdrqtP","contest":"Little Champ International 2020","episode":"Little Champ International 2020","category":null,"contestant":{"voting_id":"1","name":"Saumya Neupane"},"vote_count":1,"created_on":"2020-01-22T07:10:42.147215+05:45"},{"idx":"EMJAjW99kAmxzGRRzyi8YN","contest":"Little Champ International 2020","episode":"Little Champ International 2020","category":null,"contestant":{"voting_id":"12","name":"Aayushree Devkota"},"vote_count":1,"created_on":"2020-01-21T21:42:31.315030+05:45"},{"idx":"HPsoYpYSCpkHrCiJerpex2","contest":"Little Champ International 2020","episode":"Little Champ International 2020","category":null,"contestant":{"voting_id":"12","name":"Aayushree Devkota"},"vote_count":1,"created_on":"2020-01-21T21:41:15.796505+05:45"},{"idx":"LkqXBZgZWcfqmsjrKPd4RJ","contest":"Little Champ International 2020","episode":"Little Champ International 2020","category":null,"contestant":{"voting_id":"10","name":"Smrik Shrestha"},"vote_count":1,"created_on":"2020-01-21T21:27:31.495464+05:45"},{"idx":"8ozgUv3PWCrnbAtuHxyDKN","contest":"Little Champ International 2020","episode":"Little Champ International 2020","category":null,"contestant":{"voting_id":"8","name":"Namiska Shrestha"},"vote_count":1,"created_on":"2020-01-21T20:32:08.733429+05:45"},{"idx":"k3gdWwVC8PBXKSGhFfSZ2b","contest":"Little Champ International 2020","episode":"Little Champ International 2020","category":null,"contestant":{"voting_id":"8","name":"Namiska Shrestha"},"vote_count":1,"created_on":"2020-01-21T20:13:55.679198+05:45"},{"idx":"e7LvS5Nw73e5Uz5pBTiZmR","contest":"Little Champ International 2020","episode":"Little Champ International 2020","category":null,"contestant":{"voting_id":"10","name":"Smrik Shrestha"},"vote_count":1,"created_on":"2020-01-21T20:13:08.080030+05:45"},{"idx":"j5ozWqUwBBkGadYtzRdFY5","contest":"Little Champ International 2020","episode":"Little Champ International 2020","category":null,"contestant":{"voting_id":"1","name":"Saumya Neupane"},"vote_count":1,"created_on":"2020-01-21T19:27:19.242117+05:45"},{"idx":"op4rufwRLKCQGcTK5QHeDc","contest":"Little Champ International 2020","episode":"Little Champ International 2020","category":null,"contestant":{"voting_id":"10","name":"Smrik Shrestha"},"vote_count":1,"created_on":"2020-01-21T15:49:21.725610+05:45"},{"idx":"HoQy3oYpvukhcDQem8BkFM","contest":"Little Champ International 2020","episode":"Little Champ International 2020","category":null,"contestant":{"voting_id":"11","name":"Prince Dangol"},"vote_count":1,"created_on":"2020-01-21T15:49:04.160360+05:45"},{"idx":"WVZUxLfT6ZXzwEe7gveTXQ","contest":"Little Champ International 2020","episode":"Little Champ International 2020","category":null,"contestant":{"voting_id":"1","name":"Saumya Neupane"},"vote_count":1,"created_on":"2020-01-21T15:12:29.015608+05:45"},{"idx":"nahRoiuQ96eWG7rXe5NSAa","contest":"Little Champ International 2020","episode":"Little Champ International 2020","category":null,"contestant":{"voting_id":"10","name":"Smrik Shrestha"},"vote_count":1,"created_on":"2020-01-21T15:11:34.153756+05:45"},{"idx":"bsw9XCk8PYR79JhzoQRMfQ","contest":"Little Champ International 2020","episode":"Little Champ International 2020","category":null,"contestant":{"voting_id":"10","name":"Smrik Shrestha"},"vote_count":1,"created_on":"2020-01-21T14:45:38.911939+05:45"},{"idx":"DAGmZ5LRPAVyn88FLg2nug","contest":"Little Champ International 2020","episode":"Little Champ International 2020","category":null,"contestant":{"voting_id":"1","name":"Saumya Neupane"},"vote_count":1,"created_on":"2020-01-21T14:06:22.145308+05:45"}]}