{"total_pages":275,"total_records":13717,"next":"https://khalti.com/api/v2/vuservote/?page=43","previous":"https://khalti.com/api/v2/vuservote/?page=41","record_range":[2051,2100],"current_page":42,"records":[{"idx":"48xjT8WAiqRZLWvwbUycdC","contest":"Little Champ International 2020","episode":"Little Champ International 2020","category":null,"contestant":{"voting_id":"16","name":"Sonu Tukanbanjar"},"vote_count":1,"created_on":"2020-01-21T13:59:32.489915+05:45"},{"idx":"xNd2a5EuNf6k2apJ7oAxkh","contest":"Little Champ International 2020","episode":"Little Champ International 2020","category":null,"contestant":{"voting_id":"10","name":"Smrik Shrestha"},"vote_count":1,"created_on":"2020-01-21T11:32:11.336883+05:45"},{"idx":"rDovwRL5HEkdiWniWJsBGm","contest":"Little Champ International 2020","episode":"Little Champ International 2020","category":null,"contestant":{"voting_id":"10","name":"Smrik Shrestha"},"vote_count":5,"created_on":"2020-01-21T10:06:04.764904+05:45"},{"idx":"MDQJs3beuptoyKZYLtsyZh","contest":"Little Champ International 2020","episode":"Little Champ International 2020","category":null,"contestant":{"voting_id":"10","name":"Smrik Shrestha"},"vote_count":5,"created_on":"2020-01-21T10:05:26.441747+05:45"},{"idx":"gmzQc9jEknwcyQbeVHiVxg","contest":"Little Champ International 2020","episode":"Little Champ International 2020","category":null,"contestant":{"voting_id":"10","name":"Smrik Shrestha"},"vote_count":5,"created_on":"2020-01-21T10:04:48.807070+05:45"},{"idx":"N94hcUyXYE9hyPDZzSGAR6","contest":"Little Champ International 2020","episode":"Little Champ International 2020","category":null,"contestant":{"voting_id":"10","name":"Smrik Shrestha"},"vote_count":1,"created_on":"2020-01-21T10:04:19.466525+05:45"},{"idx":"BRmEFtPifZowUQJohHPoUb","contest":"Little Champ International 2020","episode":"Little Champ International 2020","category":null,"contestant":{"voting_id":"10","name":"Smrik Shrestha"},"vote_count":5,"created_on":"2020-01-21T10:03:26.886956+05:45"},{"idx":"aHZXhWgJzD2zTVu3sL6g3R","contest":"Little Champ International 2020","episode":"Little Champ International 2020","category":null,"contestant":{"voting_id":"24","name":"Jasmine Dangol"},"vote_count":1,"created_on":"2020-01-21T10:00:28.542949+05:45"},{"idx":"pYoQ842cGqgbyWkb9xvE8e","contest":"Little Champ International 2020","episode":"Little Champ International 2020","category":null,"contestant":{"voting_id":"1","name":"Saumya Neupane"},"vote_count":1,"created_on":"2020-01-21T09:18:04.168175+05:45"},{"idx":"XbNi5PMJWHQu2cBUjthjEm","contest":"Little Champ International 2020","episode":"Little Champ International 2020","category":null,"contestant":{"voting_id":"7","name":"Siwani Khatri"},"vote_count":1,"created_on":"2020-01-21T08:19:59.129217+05:45"},{"idx":"SH6KKjbwikS2FNBy7myEGZ","contest":"Little Champ International 2020","episode":"Little Champ International 2020","category":null,"contestant":{"voting_id":"10","name":"Smrik Shrestha"},"vote_count":1,"created_on":"2020-01-21T07:49:42.348727+05:45"},{"idx":"ZPZdJVYksvh5jp5iE5DpcS","contest":"Little Champ International 2020","episode":"Little Champ International 2020","category":null,"contestant":{"voting_id":"10","name":"Smrik Shrestha"},"vote_count":1,"created_on":"2020-01-21T02:00:20.706293+05:45"},{"idx":"zPoqoCffs3ogkXUN8FfnQf","contest":"Little Champ International 2020","episode":"Little Champ International 2020","category":null,"contestant":{"voting_id":"10","name":"Smrik Shrestha"},"vote_count":1,"created_on":"2020-01-21T00:28:34.946361+05:45"},{"idx":"siijTMYN7tZohErd8BUi64","contest":"Little Champ International 2020","episode":"Little Champ International 2020","category":null,"contestant":{"voting_id":"10","name":"Smrik Shrestha"},"vote_count":1,"created_on":"2020-01-20T22:23:59.235380+05:45"},{"idx":"8kBcJUBkUZACEZfTDhrCCe","contest":"Little Champ International 2020","episode":"Little Champ International 2020","category":null,"contestant":{"voting_id":"1","name":"Saumya Neupane"},"vote_count":1,"created_on":"2020-01-20T20:53:18.277865+05:45"},{"idx":"79e5xzWVnNhDogNADT7Kzf","contest":"Little Champ International 2020","episode":"Little Champ International 2020","category":null,"contestant":{"voting_id":"11","name":"Prince Dangol"},"vote_count":1,"created_on":"2020-01-20T20:45:11.529033+05:45"},{"idx":"5dACtdzGpq9EgU3S4cA8mL","contest":"Little Champ International 2020","episode":"Little Champ International 2020","category":null,"contestant":{"voting_id":"1","name":"Saumya Neupane"},"vote_count":1,"created_on":"2020-01-20T19:55:31.071870+05:45"},{"idx":"bRfKxUB95FmSMbG5vXNGjf","contest":"Little Champ International 2020","episode":"Little Champ International 2020","category":null,"contestant":{"voting_id":"11","name":"Prince Dangol"},"vote_count":1,"created_on":"2020-01-20T19:53:10.245249+05:45"},{"idx":"5sSDE6QME5iYWvTj9tnb9h","contest":"Little Champ International 2020","episode":"Little Champ International 2020","category":null,"contestant":{"voting_id":"17","name":"Jesika Regmi"},"vote_count":1,"created_on":"2020-01-20T18:06:08.226033+05:45"},{"idx":"niF3gjNtjBDVAB55U2V7yd","contest":"Little Champ International 2020","episode":"Little Champ International 2020","category":null,"contestant":{"voting_id":"20","name":"Aarjan Kaspal"},"vote_count":1,"created_on":"2020-01-20T17:50:43.790968+05:45"},{"idx":"62iemUngpAcuSwGXNmtYHa","contest":"Little Champ International 2020","episode":"Little Champ International 2020","category":null,"contestant":{"voting_id":"1","name":"Saumya Neupane"},"vote_count":1,"created_on":"2020-01-20T17:24:29.095647+05:45"},{"idx":"xVmXqs7RUypXMHU9iUn9aj","contest":"Little Champ International 2020","episode":"Little Champ International 2020","category":null,"contestant":{"voting_id":"1","name":"Saumya Neupane"},"vote_count":1,"created_on":"2020-01-20T17:00:08.391452+05:45"},{"idx":"v2JivuGLEk9uG3rasGSj6f","contest":"Little Champ International 2020","episode":"Little Champ International 2020","category":null,"contestant":{"voting_id":"9","name":"Aagman Kaspal"},"vote_count":1,"created_on":"2020-01-20T15:55:36.123601+05:45"},{"idx":"ofvWjcKburxBKRbmFrPZVT","contest":"Little Champ International 2020","episode":"Little Champ International 2020","category":null,"contestant":{"voting_id":"13","name":"Anjali Raut"},"vote_count":1,"created_on":"2020-01-20T15:06:08.580024+05:45"},{"idx":"qibyoDixUdmN47QyQKnXUL","contest":"Little Champ International 2020","episode":"Little Champ International 2020","category":null,"contestant":{"voting_id":"23","name":"Resika Khatri"},"vote_count":1,"created_on":"2020-01-20T14:50:03.730912+05:45"},{"idx":"V8bcWE8Y6GjoqwQRqhgVvW","contest":"Little Champ International 2020","episode":"Little Champ International 2020","category":null,"contestant":{"voting_id":"10","name":"Smrik Shrestha"},"vote_count":1,"created_on":"2020-01-20T12:44:59.964503+05:45"},{"idx":"JWXoPWeYvP3myrECqcmEgi","contest":"Little Champ International 2020","episode":"Little Champ International 2020","category":null,"contestant":{"voting_id":"8","name":"Namiska Shrestha"},"vote_count":1,"created_on":"2020-01-20T11:36:22.278149+05:45"},{"idx":"oqykk4yHyMjn8gYDRjb5AB","contest":"Little Champ International 2020","episode":"Little Champ International 2020","category":null,"contestant":{"voting_id":"1","name":"Saumya Neupane"},"vote_count":1,"created_on":"2020-01-20T10:44:57.587848+05:45"},{"idx":"9E88Eao8D3F6AXWZHmBQaR","contest":"Little Champ International 2020","episode":"Little Champ International 2020","category":null,"contestant":{"voting_id":"3","name":"Prinsha Bati"},"vote_count":1,"created_on":"2020-01-20T09:47:58.337085+05:45"},{"idx":"j5iLDZc4vMFfA2eyFnEs38","contest":"Little Champ International 2020","episode":"Little Champ International 2020","category":null,"contestant":{"voting_id":"10","name":"Smrik Shrestha"},"vote_count":1,"created_on":"2020-01-20T07:58:16.204174+05:45"},{"idx":"DSbWoPXFNJm9fR6MDXMTZ9","contest":"Little Champ International 2020","episode":"Little Champ International 2020","category":null,"contestant":{"voting_id":"8","name":"Namiska Shrestha"},"vote_count":1,"created_on":"2020-01-20T07:33:19.389940+05:45"},{"idx":"UyBD8EvCYWomjcvpHvrypd","contest":"Little Champ International 2020","episode":"Little Champ International 2020","category":null,"contestant":{"voting_id":"1","name":"Saumya Neupane"},"vote_count":1,"created_on":"2020-01-19T23:23:57.564428+05:45"},{"idx":"ayu7ZdFfpqxXcNefiPs34Q","contest":"Little Champ International 2020","episode":"Little Champ International 2020","category":null,"contestant":{"voting_id":"11","name":"Prince Dangol"},"vote_count":1,"created_on":"2020-01-19T22:37:18.317294+05:45"},{"idx":"kye8WGrSyiPmwzbnuNdtSS","contest":"Little Champ International 2020","episode":"Little Champ International 2020","category":null,"contestant":{"voting_id":"1","name":"Saumya Neupane"},"vote_count":1,"created_on":"2020-01-19T22:00:13.146031+05:45"},{"idx":"ZDQjz34RonxWKcNv99vcHF","contest":"Little Champ International 2020","episode":"Little Champ International 2020","category":null,"contestant":{"voting_id":"4","name":"Aagraj Kharal"},"vote_count":1,"created_on":"2020-01-19T20:37:32.570680+05:45"},{"idx":"e9V9HfFuDZBsSQEHrDMYcY","contest":"Little Champ International 2020","episode":"Little Champ International 2020","category":null,"contestant":{"voting_id":"3","name":"Prinsha Bati"},"vote_count":1,"created_on":"2020-01-19T20:32:03.539372+05:45"},{"idx":"MCXkVgBgTM6hKAqGpwUN6c","contest":"Little Champ International 2020","episode":"Little Champ International 2020","category":null,"contestant":{"voting_id":"10","name":"Smrik Shrestha"},"vote_count":1,"created_on":"2020-01-19T20:30:42.711927+05:45"},{"idx":"Ejpw9GswbLZg42FPoX7ybi","contest":"Little Champ International 2020","episode":"Little Champ International 2020","category":null,"contestant":{"voting_id":"2","name":"Nitya Nepal"},"vote_count":5,"created_on":"2020-01-19T20:28:53.280804+05:45"},{"idx":"4AMueCGtHVaqU6TG7ngrRS","contest":"Little Champ International 2020","episode":"Little Champ International 2020","category":null,"contestant":{"voting_id":"23","name":"Resika Khatri"},"vote_count":1,"created_on":"2020-01-19T20:27:06.339528+05:45"},{"idx":"xBTUHarV7kW4P2JZZvf2bm","contest":"Little Champ International 2020","episode":"Little Champ International 2020","category":null,"contestant":{"voting_id":"7","name":"Siwani Khatri"},"vote_count":1,"created_on":"2020-01-19T20:12:48.541478+05:45"},{"idx":"Af3JebHcYiZSwhZS6kWapQ","contest":"Little Champ International 2020","episode":"Little Champ International 2020","category":null,"contestant":{"voting_id":"21","name":"Dirghayu Prasai"},"vote_count":1,"created_on":"2020-01-19T19:14:59.823728+05:45"},{"idx":"VzSAMoknQqC3UFDPg6k9T6","contest":"Little Champ International 2020","episode":"Little Champ International 2020","category":null,"contestant":{"voting_id":"1","name":"Saumya Neupane"},"vote_count":1,"created_on":"2020-01-19T16:28:36.345481+05:45"},{"idx":"5UNaep3Sgb2NdYG7hX3Mhi","contest":"Little Champ International 2020","episode":"Little Champ International 2020","category":null,"contestant":{"voting_id":"10","name":"Smrik Shrestha"},"vote_count":1,"created_on":"2020-01-19T15:50:35.921134+05:45"},{"idx":"4QKM6ULNC3FRNY3qZijcq6","contest":"Little Champ International 2020","episode":"Little Champ International 2020","category":null,"contestant":{"voting_id":"23","name":"Resika Khatri"},"vote_count":1,"created_on":"2020-01-19T13:01:40.161414+05:45"},{"idx":"UbH3oEtnJLnc7382HuSPRR","contest":"Little Champ International 2020","episode":"Little Champ International 2020","category":null,"contestant":{"voting_id":"24","name":"Jasmine Dangol"},"vote_count":1,"created_on":"2020-01-19T12:13:44.968741+05:45"},{"idx":"U2VfBPhqb9Xq5eHYViG46d","contest":"Little Champ International 2020","episode":"Little Champ International 2020","category":null,"contestant":{"voting_id":"14","name":"Rikesh Khatri"},"vote_count":1,"created_on":"2020-01-19T12:13:26.041385+05:45"},{"idx":"3NtPvxkLC73ppknshfddeB","contest":"Model Superstar","episode":"Model Superstar","category":null,"contestant":{"voting_id":"04","name":"Sabita Maharjan"},"vote_count":1,"created_on":"2020-01-17T18:53:13.899781+05:45"},{"idx":"7bB8t5wWfH8X5PDVCr8Nz9","contest":"Model Superstar","episode":"Model Superstar","category":null,"contestant":{"voting_id":"04","name":"Sabita Maharjan"},"vote_count":1,"created_on":"2020-01-17T18:53:00.552960+05:45"},{"idx":"g354RgpFsdMMXDgyCaXtAA","contest":"Model Superstar","episode":"Model Superstar","category":null,"contestant":{"voting_id":"04","name":"Sabita Maharjan"},"vote_count":1,"created_on":"2020-01-17T18:52:41.895742+05:45"},{"idx":"kxzEYvDw4ZATYHMekmSAxk","contest":"Model Superstar","episode":"Model Superstar","category":null,"contestant":{"voting_id":"04","name":"Sabita Maharjan"},"vote_count":1,"created_on":"2020-01-17T18:48:26.948534+05:45"}]}