{"total_pages":275,"total_records":13717,"next":"https://khalti.com/api/v2/vuservote/?page=44","previous":"https://khalti.com/api/v2/vuservote/?page=42","record_range":[2101,2150],"current_page":43,"records":[{"idx":"B4LmAW2nxutCuDF5wEBjt6","contest":"Model Superstar","episode":"Model Superstar","category":null,"contestant":{"voting_id":"04","name":"Sabita Maharjan"},"vote_count":1,"created_on":"2020-01-17T18:48:02.415865+05:45"},{"idx":"rGDn6tHvmicjQK9hdjYDKF","contest":"Model Superstar","episode":"Model Superstar","category":null,"contestant":{"voting_id":"04","name":"Sabita Maharjan"},"vote_count":1,"created_on":"2020-01-17T18:46:58.520093+05:45"},{"idx":"Lzpx3jESW5pksprMaW3LHJ","contest":"Model Superstar","episode":"Model Superstar","category":null,"contestant":{"voting_id":"04","name":"Sabita Maharjan"},"vote_count":1,"created_on":"2020-01-17T18:46:43.550549+05:45"},{"idx":"ayfRcUH5hECuUZcBrz2wHS","contest":"Model Superstar","episode":"Model Superstar","category":null,"contestant":{"voting_id":"04","name":"Sabita Maharjan"},"vote_count":1,"created_on":"2020-01-17T18:46:28.659220+05:45"},{"idx":"vuzb9N7ivg6dafu48SLXMb","contest":"Model Superstar","episode":"Model Superstar","category":null,"contestant":{"voting_id":"04","name":"Sabita Maharjan"},"vote_count":1,"created_on":"2020-01-17T18:45:59.512380+05:45"},{"idx":"X4rjmxwM8tYERvR6XA2mka","contest":"Model Superstar","episode":"Model Superstar","category":null,"contestant":{"voting_id":"04","name":"Sabita Maharjan"},"vote_count":1,"created_on":"2020-01-17T18:45:46.060993+05:45"},{"idx":"aEAAbAfBugVvambxS55v29","contest":"Model Superstar","episode":"Model Superstar","category":null,"contestant":{"voting_id":"04","name":"Sabita Maharjan"},"vote_count":1,"created_on":"2020-01-17T18:45:31.537412+05:45"},{"idx":"EQB2grYFXbRV5xQuXoUsQn","contest":"Model Superstar","episode":"Model Superstar","category":null,"contestant":{"voting_id":"04","name":"Sabita Maharjan"},"vote_count":1,"created_on":"2020-01-17T18:44:55.707452+05:45"},{"idx":"ieFggM3b4TsETQY25RAupC","contest":"Model Superstar","episode":"Model Superstar","category":null,"contestant":{"voting_id":"04","name":"Sabita Maharjan"},"vote_count":1,"created_on":"2020-01-17T18:44:41.949618+05:45"},{"idx":"Swi3Bi6bRRmuRf6thT3CML","contest":"Model Superstar","episode":"Model Superstar","category":null,"contestant":{"voting_id":"04","name":"Sabita Maharjan"},"vote_count":1,"created_on":"2020-01-17T18:44:25.247897+05:45"},{"idx":"CPuwsXYFrA88QSLcc7w3wb","contest":"Model Superstar","episode":"Model Superstar","category":null,"contestant":{"voting_id":"04","name":"Sabita Maharjan"},"vote_count":1,"created_on":"2020-01-17T18:43:31.116898+05:45"},{"idx":"EPZQkWBbfeMXRfMJEYvJYo","contest":"Model Superstar","episode":"Model Superstar","category":null,"contestant":{"voting_id":"04","name":"Sabita Maharjan"},"vote_count":1,"created_on":"2020-01-17T18:42:35.884186+05:45"},{"idx":"NkeHpMzbBLaiPDZff7NUGD","contest":"Model Superstar","episode":"Model Superstar","category":null,"contestant":{"voting_id":"04","name":"Sabita Maharjan"},"vote_count":1,"created_on":"2020-01-17T18:26:09.346491+05:45"},{"idx":"uFWGbsGHbQpaXFuzQG93FU","contest":"Model Superstar","episode":"Model Superstar","category":null,"contestant":{"voting_id":"04","name":"Sabita Maharjan"},"vote_count":1,"created_on":"2020-01-17T18:25:46.746297+05:45"},{"idx":"gtZCr57VkNe3u9mwCDYmwk","contest":"Model Superstar","episode":"Model Superstar","category":null,"contestant":{"voting_id":"04","name":"Sabita Maharjan"},"vote_count":1,"created_on":"2020-01-17T18:24:59.604452+05:45"},{"idx":"ANvdfzG8wERQVse3dVFbvX","contest":"Model Superstar","episode":"Model Superstar","category":null,"contestant":{"voting_id":"04","name":"Sabita Maharjan"},"vote_count":1,"created_on":"2020-01-17T18:24:40.675224+05:45"},{"idx":"N4r2NCiYGAuzfFHCeFCcj3","contest":"Model Superstar","episode":"Model Superstar","category":null,"contestant":{"voting_id":"04","name":"Sabita Maharjan"},"vote_count":1,"created_on":"2020-01-17T18:24:19.504800+05:45"},{"idx":"FA9fAYPanyidUaowVoBo84","contest":"Model Superstar","episode":"Model Superstar","category":null,"contestant":{"voting_id":"04","name":"Sabita Maharjan"},"vote_count":1,"created_on":"2020-01-17T18:24:00.129422+05:45"},{"idx":"qBYbMojcTNSPhMUQy7Hr4k","contest":"Model Superstar","episode":"Model Superstar","category":null,"contestant":{"voting_id":"04","name":"Sabita Maharjan"},"vote_count":1,"created_on":"2020-01-17T18:23:35.354817+05:45"},{"idx":"roTKQK4jiy4ujTFnDweFiG","contest":"Model Superstar","episode":"Model Superstar","category":null,"contestant":{"voting_id":"04","name":"Sabita Maharjan"},"vote_count":1,"created_on":"2020-01-17T18:23:17.861372+05:45"},{"idx":"NqMzXvww9JMKEAvoe7V5Cf","contest":"Model Superstar","episode":"Model Superstar","category":null,"contestant":{"voting_id":"04","name":"Sabita Maharjan"},"vote_count":1,"created_on":"2020-01-17T18:23:02.980867+05:45"},{"idx":"MvUdN7vXD6CHwsatuF5cWW","contest":"Model Superstar","episode":"Model Superstar","category":null,"contestant":{"voting_id":"04","name":"Sabita Maharjan"},"vote_count":1,"created_on":"2020-01-17T18:22:34.985310+05:45"},{"idx":"xT5s8TQVYUMcsZxzvA9MLe","contest":"Model Superstar","episode":"Model Superstar","category":null,"contestant":{"voting_id":"04","name":"Sabita Maharjan"},"vote_count":1,"created_on":"2020-01-17T18:22:11.248278+05:45"},{"idx":"M9dYZNLiRJ6Qx5i39hsbyH","contest":"Model Superstar","episode":"Model Superstar","category":null,"contestant":{"voting_id":"04","name":"Sabita Maharjan"},"vote_count":1,"created_on":"2020-01-17T18:21:55.147768+05:45"},{"idx":"YXYLtdbpB4ZA4ZbZZDgwGQ","contest":"Model Superstar","episode":"Model Superstar","category":null,"contestant":{"voting_id":"01","name":"Sajina Subba"},"vote_count":1,"created_on":"2020-01-17T18:21:46.805652+05:45"},{"idx":"wmf2DAL4GJi5uskBsrmKVP","contest":"Model Superstar","episode":"Model Superstar","category":null,"contestant":{"voting_id":"04","name":"Sabita Maharjan"},"vote_count":1,"created_on":"2020-01-17T18:20:46.998281+05:45"},{"idx":"5nZArRuMsDGFfaAPztikkH","contest":"Model Superstar","episode":"Model Superstar","category":null,"contestant":{"voting_id":"04","name":"Sabita Maharjan"},"vote_count":1,"created_on":"2020-01-17T18:20:29.957305+05:45"},{"idx":"oUQ8gJgRPfe7DTbcWqmzha","contest":"Model Superstar","episode":"Model Superstar","category":null,"contestant":{"voting_id":"04","name":"Sabita Maharjan"},"vote_count":1,"created_on":"2020-01-17T18:20:16.177826+05:45"},{"idx":"vySt2uRVFEj3ickTjvyozX","contest":"Model Superstar","episode":"Model Superstar","category":null,"contestant":{"voting_id":"04","name":"Sabita Maharjan"},"vote_count":1,"created_on":"2020-01-17T18:19:57.812592+05:45"},{"idx":"8dXRtFYWBHLXakeBD9agMJ","contest":"Model Superstar","episode":"Model Superstar","category":null,"contestant":{"voting_id":"04","name":"Sabita Maharjan"},"vote_count":1,"created_on":"2020-01-17T18:19:37.838527+05:45"},{"idx":"6yyd4s3sRGr8bk3Fgi89uS","contest":"Model Superstar","episode":"Model Superstar","category":null,"contestant":{"voting_id":"04","name":"Sabita Maharjan"},"vote_count":1,"created_on":"2020-01-17T18:18:36.462545+05:45"},{"idx":"CJFvG2uFgEAqMtK6FmPs5f","contest":"Model Superstar","episode":"Model Superstar","category":null,"contestant":{"voting_id":"04","name":"Sabita Maharjan"},"vote_count":1,"created_on":"2020-01-17T18:18:22.516667+05:45"},{"idx":"6goV3noCeMCXjvCZo6eo3a","contest":"Model Superstar","episode":"Model Superstar","category":null,"contestant":{"voting_id":"04","name":"Sabita Maharjan"},"vote_count":1,"created_on":"2020-01-17T18:17:52.014711+05:45"},{"idx":"6RYWzWEDn5BzaeawxhuhMe","contest":"Model Superstar","episode":"Model Superstar","category":null,"contestant":{"voting_id":"03","name":"Smriti Shah"},"vote_count":1,"created_on":"2020-01-17T18:17:32.742066+05:45"},{"idx":"fbLMWvixotQpSFRvRaMBoJ","contest":"Model Superstar","episode":"Model Superstar","category":null,"contestant":{"voting_id":"04","name":"Sabita Maharjan"},"vote_count":1,"created_on":"2020-01-17T18:17:14.399617+05:45"},{"idx":"BmYfjJti8Hr2q8S7M5pjJ2","contest":"Model Superstar","episode":"Model Superstar","category":null,"contestant":{"voting_id":"04","name":"Sabita Maharjan"},"vote_count":1,"created_on":"2020-01-17T18:17:00.195226+05:45"},{"idx":"yzgUth9ubAVsYycA9Jqmj9","contest":"Model Superstar","episode":"Model Superstar","category":null,"contestant":{"voting_id":"04","name":"Sabita Maharjan"},"vote_count":1,"created_on":"2020-01-17T18:16:43.172395+05:45"},{"idx":"7xamMAJ3AaQr3hMCkoh2uU","contest":"Model Superstar","episode":"Model Superstar","category":null,"contestant":{"voting_id":"04","name":"Sabita Maharjan"},"vote_count":1,"created_on":"2020-01-17T18:16:28.327736+05:45"},{"idx":"UHnJfaA45genAofZrdGQWM","contest":"Model Superstar","episode":"Model Superstar","category":null,"contestant":{"voting_id":"04","name":"Sabita Maharjan"},"vote_count":1,"created_on":"2020-01-17T18:16:04.602985+05:45"},{"idx":"baZ4ajEkHqZCzDpXVaKhzL","contest":"Model Superstar","episode":"Model Superstar","category":null,"contestant":{"voting_id":"04","name":"Sabita Maharjan"},"vote_count":1,"created_on":"2020-01-17T18:15:44.098243+05:45"},{"idx":"3KB45Ny93N588DdgAxDVAo","contest":"Model Superstar","episode":"Model Superstar","category":null,"contestant":{"voting_id":"04","name":"Sabita Maharjan"},"vote_count":1,"created_on":"2020-01-17T18:15:24.288752+05:45"},{"idx":"ZcjeTpwChthgqd5zVTDrii","contest":"Model Superstar","episode":"Model Superstar","category":null,"contestant":{"voting_id":"04","name":"Sabita Maharjan"},"vote_count":1,"created_on":"2020-01-17T18:15:00.940812+05:45"},{"idx":"Sm3tajLVKcryuA4JgL5AfE","contest":"Model Superstar","episode":"Model Superstar","category":null,"contestant":{"voting_id":"04","name":"Sabita Maharjan"},"vote_count":1,"created_on":"2020-01-17T18:14:29.064107+05:45"},{"idx":"si2vkGVJTwSxL8RHjMrXgL","contest":"Model Superstar","episode":"Model Superstar","category":null,"contestant":{"voting_id":"04","name":"Sabita Maharjan"},"vote_count":1,"created_on":"2020-01-17T18:14:13.522098+05:45"},{"idx":"ZpNj3EtX75Wut5rcyzX32g","contest":"Model Superstar","episode":"Model Superstar","category":null,"contestant":{"voting_id":"04","name":"Sabita Maharjan"},"vote_count":1,"created_on":"2020-01-17T18:13:58.569287+05:45"},{"idx":"dyupnSTAFrU5rRrrDEthCf","contest":"Model Superstar","episode":"Model Superstar","category":null,"contestant":{"voting_id":"04","name":"Sabita Maharjan"},"vote_count":1,"created_on":"2020-01-17T18:13:39.339480+05:45"},{"idx":"N7gCYkLTEk5VkwfuNHXXJY","contest":"Model Superstar","episode":"Model Superstar","category":null,"contestant":{"voting_id":"04","name":"Sabita Maharjan"},"vote_count":1,"created_on":"2020-01-17T18:13:18.765483+05:45"},{"idx":"YTzMrSdLE2AJxJabRbpYMY","contest":"Model Superstar","episode":"Model Superstar","category":null,"contestant":{"voting_id":"04","name":"Sabita Maharjan"},"vote_count":1,"created_on":"2020-01-17T18:12:55.654657+05:45"},{"idx":"V8dTB52at7siustq7msYA9","contest":"Model Superstar","episode":"Model Superstar","category":null,"contestant":{"voting_id":"01","name":"Sajina Subba"},"vote_count":1,"created_on":"2020-01-17T18:12:18.275323+05:45"},{"idx":"6LpBksDvACLpvsAxvYwPQb","contest":"Model Superstar","episode":"Model Superstar","category":null,"contestant":{"voting_id":"04","name":"Sabita Maharjan"},"vote_count":1,"created_on":"2020-01-17T18:12:12.373821+05:45"}]}