{"total_pages":275,"total_records":13717,"next":"https://khalti.com/api/v2/vuservote/?page=45","previous":"https://khalti.com/api/v2/vuservote/?page=43","record_range":[2151,2200],"current_page":44,"records":[{"idx":"8TeurhefRcCLETuWegFd4P","contest":"Model Superstar","episode":"Model Superstar","category":null,"contestant":{"voting_id":"04","name":"Sabita Maharjan"},"vote_count":1,"created_on":"2020-01-17T18:09:25.979707+05:45"},{"idx":"yGuQwxXwjEAnDbbc92BSUA","contest":"Model Superstar","episode":"Model Superstar","category":null,"contestant":{"voting_id":"04","name":"Sabita Maharjan"},"vote_count":1,"created_on":"2020-01-17T18:09:01.898295+05:45"},{"idx":"uBn5kDkaWdapmtcS36ZpHB","contest":"Model Superstar","episode":"Model Superstar","category":null,"contestant":{"voting_id":"04","name":"Sabita Maharjan"},"vote_count":1,"created_on":"2020-01-17T18:06:54.922429+05:45"},{"idx":"R6mFbwsA7vFoyma8NPEavA","contest":"Model Superstar","episode":"Model Superstar","category":null,"contestant":{"voting_id":"04","name":"Sabita Maharjan"},"vote_count":1,"created_on":"2020-01-17T18:06:37.840978+05:45"},{"idx":"zxyvzyzg45hLxChqajUv6c","contest":"Model Superstar","episode":"Model Superstar","category":null,"contestant":{"voting_id":"04","name":"Sabita Maharjan"},"vote_count":1,"created_on":"2020-01-17T18:06:21.031915+05:45"},{"idx":"mAJfGUPPUWbhx7vFBEoVXT","contest":"Model Superstar","episode":"Model Superstar","category":null,"contestant":{"voting_id":"04","name":"Sabita Maharjan"},"vote_count":1,"created_on":"2020-01-17T18:06:01.316738+05:45"},{"idx":"tLvLtwyHTshVPeKH2NyiGH","contest":"Model Superstar","episode":"Model Superstar","category":null,"contestant":{"voting_id":"04","name":"Sabita Maharjan"},"vote_count":1,"created_on":"2020-01-17T18:05:45.011328+05:45"},{"idx":"CKqBs5cULHVZV3j7Xd46yR","contest":"Model Superstar","episode":"Model Superstar","category":null,"contestant":{"voting_id":"04","name":"Sabita Maharjan"},"vote_count":1,"created_on":"2020-01-17T18:05:19.200348+05:45"},{"idx":"DUbYTfg6axJgf4yegEpmGX","contest":"Model Superstar","episode":"Model Superstar","category":null,"contestant":{"voting_id":"04","name":"Sabita Maharjan"},"vote_count":1,"created_on":"2020-01-17T18:05:02.679556+05:45"},{"idx":"v3SGANhANNqWh3zvWh33Jo","contest":"Model Superstar","episode":"Model Superstar","category":null,"contestant":{"voting_id":"04","name":"Sabita Maharjan"},"vote_count":1,"created_on":"2020-01-17T18:04:04.162360+05:45"},{"idx":"o37CWY2bm2diek6VrtZYik","contest":"Model Superstar","episode":"Model Superstar","category":null,"contestant":{"voting_id":"04","name":"Sabita Maharjan"},"vote_count":1,"created_on":"2020-01-17T18:03:42.906323+05:45"},{"idx":"SnBx6CRbbbtWXQUgUDXjFo","contest":"Model Superstar","episode":"Model Superstar","category":null,"contestant":{"voting_id":"04","name":"Sabita Maharjan"},"vote_count":1,"created_on":"2020-01-17T18:03:10.487711+05:45"},{"idx":"ebDYvP2KJWczKKa3BybH4J","contest":"Model Superstar","episode":"Model Superstar","category":null,"contestant":{"voting_id":"04","name":"Sabita Maharjan"},"vote_count":1,"created_on":"2020-01-17T18:02:49.856819+05:45"},{"idx":"nVfwxV7GmfnjDHCLitEoeY","contest":"Model Superstar","episode":"Model Superstar","category":null,"contestant":{"voting_id":"04","name":"Sabita Maharjan"},"vote_count":1,"created_on":"2020-01-17T18:02:36.205221+05:45"},{"idx":"9dsyzinXGcbG2HNVALZypP","contest":"Model Superstar","episode":"Model Superstar","category":null,"contestant":{"voting_id":"04","name":"Sabita Maharjan"},"vote_count":1,"created_on":"2020-01-17T18:02:23.201167+05:45"},{"idx":"59yALPQuxDzTMwoMcJpWc3","contest":"Model Superstar","episode":"Model Superstar","category":null,"contestant":{"voting_id":"04","name":"Sabita Maharjan"},"vote_count":1,"created_on":"2020-01-17T18:02:09.085081+05:45"},{"idx":"YPefgYqcuoYQNYzBztQpTf","contest":"Model Superstar","episode":"Model Superstar","category":null,"contestant":{"voting_id":"04","name":"Sabita Maharjan"},"vote_count":1,"created_on":"2020-01-17T18:01:56.164818+05:45"},{"idx":"ynSgXAf7sESTKqfr8U4x45","contest":"Model Superstar","episode":"Model Superstar","category":null,"contestant":{"voting_id":"04","name":"Sabita Maharjan"},"vote_count":1,"created_on":"2020-01-17T18:01:39.839816+05:45"},{"idx":"ZCqwnP6AuVyZ3Va8mEzG5Y","contest":"Model Superstar","episode":"Model Superstar","category":null,"contestant":{"voting_id":"04","name":"Sabita Maharjan"},"vote_count":1,"created_on":"2020-01-17T18:01:22.283654+05:45"},{"idx":"SBQmzi2mz5dyHJFC8vaFuB","contest":"Model Superstar","episode":"Model Superstar","category":null,"contestant":{"voting_id":"04","name":"Sabita Maharjan"},"vote_count":1,"created_on":"2020-01-17T18:01:08.615972+05:45"},{"idx":"k7oFzYQEMXSE8VT8BiJE5c","contest":"Model Superstar","episode":"Model Superstar","category":null,"contestant":{"voting_id":"04","name":"Sabita Maharjan"},"vote_count":1,"created_on":"2020-01-17T18:00:52.035328+05:45"},{"idx":"KsjnnGsQ7vXqVRHWNhxsGU","contest":"Model Superstar","episode":"Model Superstar","category":null,"contestant":{"voting_id":"04","name":"Sabita Maharjan"},"vote_count":1,"created_on":"2020-01-17T18:00:28.827929+05:45"},{"idx":"ffAyBgcThrzvX6D4xFbAe7","contest":"Model Superstar","episode":"Model Superstar","category":null,"contestant":{"voting_id":"04","name":"Sabita Maharjan"},"vote_count":1,"created_on":"2020-01-17T17:59:51.849491+05:45"},{"idx":"WZtQYLYFzHnkQPQDGgx5Me","contest":"Model Superstar","episode":"Model Superstar","category":null,"contestant":{"voting_id":"04","name":"Sabita Maharjan"},"vote_count":1,"created_on":"2020-01-17T17:58:37.604280+05:45"},{"idx":"atC3HCZpySAzyohk9NpxpM","contest":"Model Superstar","episode":"Model Superstar","category":null,"contestant":{"voting_id":"04","name":"Sabita Maharjan"},"vote_count":1,"created_on":"2020-01-17T17:58:20.317053+05:45"},{"idx":"G8D7bk2AEAEFcKYfxfiC8J","contest":"Model Superstar","episode":"Model Superstar","category":null,"contestant":{"voting_id":"04","name":"Sabita Maharjan"},"vote_count":1,"created_on":"2020-01-17T17:58:06.126412+05:45"},{"idx":"xPsHXjdy8SEGfG5VaAo5Tn","contest":"Model Superstar","episode":"Model Superstar","category":null,"contestant":{"voting_id":"04","name":"Sabita Maharjan"},"vote_count":1,"created_on":"2020-01-17T17:57:49.282177+05:45"},{"idx":"3uDKZ5qjTuW2h2yacffxCi","contest":"Model Superstar","episode":"Model Superstar","category":null,"contestant":{"voting_id":"04","name":"Sabita Maharjan"},"vote_count":1,"created_on":"2020-01-17T17:57:00.009516+05:45"},{"idx":"P8SWpU96dyfn9tfysh867Q","contest":"Model Superstar","episode":"Model Superstar","category":null,"contestant":{"voting_id":"01","name":"Sajina Subba"},"vote_count":1,"created_on":"2020-01-17T15:53:43.546205+05:45"},{"idx":"5h48CK986UjHhDwdjp9Qxe","contest":"Model Superstar","episode":"Model Superstar","category":null,"contestant":{"voting_id":"02","name":"Srijana Basnet"},"vote_count":1,"created_on":"2020-01-17T14:27:27.986509+05:45"},{"idx":"4YcC8mqwLUePidjtaVjzLW","contest":"Model Superstar","episode":"Model Superstar","category":null,"contestant":{"voting_id":"07","name":"Narman Malla"},"vote_count":1,"created_on":"2020-01-17T14:19:05.830063+05:45"},{"idx":"yhshuW7o4JKUZW89uUYzpj","contest":"Model Superstar","episode":"Model Superstar","category":null,"contestant":{"voting_id":"07","name":"Narman Malla"},"vote_count":5,"created_on":"2020-01-17T13:47:58.968463+05:45"},{"idx":"F3cYf54EzY9CMwA5TVcTCN","contest":"Model Superstar","episode":"Model Superstar","category":null,"contestant":{"voting_id":"07","name":"Narman Malla"},"vote_count":25,"created_on":"2020-01-17T13:47:39.907323+05:45"},{"idx":"ZE3pLc3u36G7vFmBy97Foi","contest":"Model Superstar","episode":"Model Superstar","category":null,"contestant":{"voting_id":"07","name":"Narman Malla"},"vote_count":5,"created_on":"2020-01-17T13:47:20.792522+05:45"},{"idx":"ERWpLV2mw4WRdMGKydwkGQ","contest":"Model Superstar","episode":"Model Superstar","category":null,"contestant":{"voting_id":"07","name":"Narman Malla"},"vote_count":100,"created_on":"2020-01-17T13:46:49.684467+05:45"},{"idx":"T3KnoFqU3qUhHFCP4SDmkC","contest":"Model Superstar","episode":"Model Superstar","category":null,"contestant":{"voting_id":"02","name":"Srijana Basnet"},"vote_count":1,"created_on":"2020-01-17T13:33:54.434119+05:45"},{"idx":"XVjARHPZxpbXWmTgQyqEUm","contest":"Model Superstar","episode":"Model Superstar","category":null,"contestant":{"voting_id":"02","name":"Srijana Basnet"},"vote_count":1,"created_on":"2020-01-17T11:50:28.451397+05:45"},{"idx":"HUNcZoHZ8A6TvmmA7F4qZK","contest":"Model Superstar","episode":"Model Superstar","category":null,"contestant":{"voting_id":"04","name":"Sabita Maharjan"},"vote_count":1,"created_on":"2020-01-17T11:19:45.331182+05:45"},{"idx":"GaC3MxEEgWjqPQ6fEbEGdj","contest":"Model Superstar","episode":"Model Superstar","category":null,"contestant":{"voting_id":"12","name":"Rabin Ghising"},"vote_count":1,"created_on":"2020-01-17T10:31:37.193449+05:45"},{"idx":"XCvY9N4dxPh9reagc6ACaM","contest":"Model Superstar","episode":"Model Superstar","category":null,"contestant":{"voting_id":"12","name":"Rabin Ghising"},"vote_count":1,"created_on":"2020-01-17T10:28:05.382012+05:45"},{"idx":"LMyDGbJe6r6DqsvVY5HLwQ","contest":"Model Superstar","episode":"Model Superstar","category":null,"contestant":{"voting_id":"02","name":"Srijana Basnet"},"vote_count":1,"created_on":"2020-01-17T10:02:41.818488+05:45"},{"idx":"7HzZ2QWutLc2VpSF2vKfED","contest":"Model Superstar","episode":"Model Superstar","category":null,"contestant":{"voting_id":"04","name":"Sabita Maharjan"},"vote_count":1,"created_on":"2020-01-17T09:45:23.576405+05:45"},{"idx":"KugmvJVDVcPT3BGMENGkdE","contest":"Model Superstar","episode":"Model Superstar","category":null,"contestant":{"voting_id":"11","name":"Rachana Karki"},"vote_count":1,"created_on":"2020-01-17T09:40:23.249576+05:45"},{"idx":"VggyAejxi4WrZvcjsCpsAb","contest":"Model Superstar","episode":"Model Superstar","category":null,"contestant":{"voting_id":"01","name":"Sajina Subba"},"vote_count":1,"created_on":"2020-01-17T09:39:47.584620+05:45"},{"idx":"fwvpbyiH4YYq7YKwJQexMb","contest":"Model Superstar","episode":"Model Superstar","category":null,"contestant":{"voting_id":"31","name":"Aakriti Subedi"},"vote_count":1,"created_on":"2020-01-17T08:31:18.013656+05:45"},{"idx":"tLgxPHTfwQmmdyuNfzWma9","contest":"Model Superstar","episode":"Model Superstar","category":null,"contestant":{"voting_id":"07","name":"Narman Malla"},"vote_count":1,"created_on":"2020-01-17T08:16:50.484593+05:45"},{"idx":"kwctfz5QFWaAtGJNjNN8qG","contest":"Model Superstar","episode":"Model Superstar","category":null,"contestant":{"voting_id":"07","name":"Narman Malla"},"vote_count":1,"created_on":"2020-01-17T08:16:50.436475+05:45"},{"idx":"J5EtKH6z6SMH3gZb8KyJpg","contest":"Model Superstar","episode":"Model Superstar","category":null,"contestant":{"voting_id":"07","name":"Narman Malla"},"vote_count":1,"created_on":"2020-01-17T08:16:42.996993+05:45"},{"idx":"FBAuZaW9qfx43tsAJK5hJk","contest":"Model Superstar","episode":"Model Superstar","category":null,"contestant":{"voting_id":"07","name":"Narman Malla"},"vote_count":1,"created_on":"2020-01-17T08:16:38.871503+05:45"},{"idx":"S3qtKp47oH2of9mMAXf5E2","contest":"Model Superstar","episode":"Model Superstar","category":null,"contestant":{"voting_id":"07","name":"Narman Malla"},"vote_count":1,"created_on":"2020-01-17T08:16:24.459560+05:45"}]}