{"total_pages":275,"total_records":13717,"next":"https://khalti.com/api/v2/vuservote/?page=46","previous":"https://khalti.com/api/v2/vuservote/?page=44","record_range":[2201,2250],"current_page":45,"records":[{"idx":"eeH7PjAjJmFesHRo8utYDL","contest":"Model Superstar","episode":"Model Superstar","category":null,"contestant":{"voting_id":"07","name":"Narman Malla"},"vote_count":1,"created_on":"2020-01-17T08:15:49.516478+05:45"},{"idx":"QdPWKwKQxYgy82JFEsYZdH","contest":"Model Superstar","episode":"Model Superstar","category":null,"contestant":{"voting_id":"07","name":"Narman Malla"},"vote_count":1,"created_on":"2020-01-17T08:15:30.391302+05:45"},{"idx":"QVxGhrWYWLrP2dMRyR4ER4","contest":"Model Superstar","episode":"Model Superstar","category":null,"contestant":{"voting_id":"07","name":"Narman Malla"},"vote_count":5,"created_on":"2020-01-17T08:15:06.588200+05:45"},{"idx":"BVuKAJgJASYmPZQ8mhYJXh","contest":"Model Superstar","episode":"Model Superstar","category":null,"contestant":{"voting_id":"14","name":"Ashish Shakya"},"vote_count":5,"created_on":"2020-01-17T08:10:06.201000+05:45"},{"idx":"SmVKQeMD5BuQHLuRMjwJGW","contest":"Model Superstar","episode":"Model Superstar","category":null,"contestant":{"voting_id":"14","name":"Ashish Shakya"},"vote_count":5,"created_on":"2020-01-17T08:09:19.234098+05:45"},{"idx":"LE6obcBq3gZapBmns5refB","contest":"Model Superstar","episode":"Model Superstar","category":null,"contestant":{"voting_id":"12","name":"Rabin Ghising"},"vote_count":1,"created_on":"2020-01-17T07:55:15.483758+05:45"},{"idx":"2NaY3vW8Fm8TpYoxGFAYES","contest":"Model Superstar","episode":"Model Superstar","category":null,"contestant":{"voting_id":"04","name":"Sabita Maharjan"},"vote_count":1,"created_on":"2020-01-17T06:45:22.702117+05:45"},{"idx":"EU5JqNFVezcsJKu79msS9c","contest":"Model Superstar","episode":"Model Superstar","category":null,"contestant":{"voting_id":"04","name":"Sabita Maharjan"},"vote_count":1,"created_on":"2020-01-17T06:44:36.712373+05:45"},{"idx":"xV2xuqiRbVmh85HMLKukq7","contest":"Model Superstar","episode":"Model Superstar","category":null,"contestant":{"voting_id":"04","name":"Sabita Maharjan"},"vote_count":1,"created_on":"2020-01-17T06:44:05.865386+05:45"},{"idx":"Fyzd8QhjtjFVxTaShfEuuB","contest":"Model Superstar","episode":"Model Superstar","category":null,"contestant":{"voting_id":"04","name":"Sabita Maharjan"},"vote_count":1,"created_on":"2020-01-17T06:43:22.812370+05:45"},{"idx":"kTwbAPjQkxh7vjXSHpfqAo","contest":"Model Superstar","episode":"Model Superstar","category":null,"contestant":{"voting_id":"04","name":"Sabita Maharjan"},"vote_count":1,"created_on":"2020-01-17T06:43:10.514829+05:45"},{"idx":"k5xsnnDdmEmPy5NSP5kbxk","contest":"Model Superstar","episode":"Model Superstar","category":null,"contestant":{"voting_id":"04","name":"Sabita Maharjan"},"vote_count":1,"created_on":"2020-01-17T06:42:47.226087+05:45"},{"idx":"C4FtiSdsNxtv8K87UGkr7L","contest":"Model Superstar","episode":"Model Superstar","category":null,"contestant":{"voting_id":"04","name":"Sabita Maharjan"},"vote_count":1,"created_on":"2020-01-17T06:42:27.696992+05:45"},{"idx":"Hfav2ocfUU5NMytWR6vbji","contest":"Model Superstar","episode":"Model Superstar","category":null,"contestant":{"voting_id":"04","name":"Sabita Maharjan"},"vote_count":1,"created_on":"2020-01-17T06:42:12.604452+05:45"},{"idx":"him6aFGTaVa9WNvdrJRjjc","contest":"Model Superstar","episode":"Model Superstar","category":null,"contestant":{"voting_id":"04","name":"Sabita Maharjan"},"vote_count":1,"created_on":"2020-01-17T06:42:00.770409+05:45"},{"idx":"pUa8VtCLTA4vqnevvG5vpX","contest":"Model Superstar","episode":"Model Superstar","category":null,"contestant":{"voting_id":"04","name":"Sabita Maharjan"},"vote_count":1,"created_on":"2020-01-17T06:41:40.155694+05:45"},{"idx":"76CdbxKH7Ut94ebtJu9zCG","contest":"Model Superstar","episode":"Model Superstar","category":null,"contestant":{"voting_id":"04","name":"Sabita Maharjan"},"vote_count":1,"created_on":"2020-01-17T06:41:28.202583+05:45"},{"idx":"sPzJxjoxr6zH97Gb7i6bbb","contest":"Model Superstar","episode":"Model Superstar","category":null,"contestant":{"voting_id":"04","name":"Sabita Maharjan"},"vote_count":1,"created_on":"2020-01-17T06:41:14.994979+05:45"},{"idx":"Xpvt92GKEXV4KG8v9bLG5T","contest":"Model Superstar","episode":"Model Superstar","category":null,"contestant":{"voting_id":"04","name":"Sabita Maharjan"},"vote_count":1,"created_on":"2020-01-17T06:40:52.703798+05:45"},{"idx":"eFYKENYdqM2d4JbgysqgcX","contest":"Model Superstar","episode":"Model Superstar","category":null,"contestant":{"voting_id":"04","name":"Sabita Maharjan"},"vote_count":1,"created_on":"2020-01-17T06:40:39.956754+05:45"},{"idx":"tBr3RUdrzwydLp6ea8mqMm","contest":"Model Superstar","episode":"Model Superstar","category":null,"contestant":{"voting_id":"04","name":"Sabita Maharjan"},"vote_count":1,"created_on":"2020-01-17T06:40:28.719534+05:45"},{"idx":"tGp8nNETNBxHTPwqiQhEiZ","contest":"Model Superstar","episode":"Model Superstar","category":null,"contestant":{"voting_id":"04","name":"Sabita Maharjan"},"vote_count":1,"created_on":"2020-01-17T06:40:17.572927+05:45"},{"idx":"GtW2rj8UV4iDFcJTcw6PkH","contest":"Model Superstar","episode":"Model Superstar","category":null,"contestant":{"voting_id":"04","name":"Sabita Maharjan"},"vote_count":1,"created_on":"2020-01-17T06:39:37.966133+05:45"},{"idx":"sJSehAHbWbuj4D7GuRotc9","contest":"Model Superstar","episode":"Model Superstar","category":null,"contestant":{"voting_id":"04","name":"Sabita Maharjan"},"vote_count":1,"created_on":"2020-01-17T06:39:24.225897+05:45"},{"idx":"MBV5Aki7UKcTLfvPWXxVbD","contest":"Model Superstar","episode":"Model Superstar","category":null,"contestant":{"voting_id":"04","name":"Sabita Maharjan"},"vote_count":1,"created_on":"2020-01-17T06:39:04.959232+05:45"},{"idx":"XFaNsV4oxDSVgBzSuPfpJT","contest":"Model Superstar","episode":"Model Superstar","category":null,"contestant":{"voting_id":"04","name":"Sabita Maharjan"},"vote_count":1,"created_on":"2020-01-17T06:38:52.101225+05:45"},{"idx":"PvxBAA9hNzJyNW5MUCoKHM","contest":"Model Superstar","episode":"Model Superstar","category":null,"contestant":{"voting_id":"04","name":"Sabita Maharjan"},"vote_count":1,"created_on":"2020-01-17T06:38:07.747921+05:45"},{"idx":"Sy7ZHQAFFcLBQhbseB9MCB","contest":"Model Superstar","episode":"Model Superstar","category":null,"contestant":{"voting_id":"04","name":"Sabita Maharjan"},"vote_count":1,"created_on":"2020-01-17T06:37:55.776795+05:45"},{"idx":"7ogp3q8oakh3kvE4MjNP2T","contest":"Model Superstar","episode":"Model Superstar","category":null,"contestant":{"voting_id":"04","name":"Sabita Maharjan"},"vote_count":1,"created_on":"2020-01-17T06:37:44.210249+05:45"},{"idx":"ZKJwMHJVYF4wPMvqmSqJBL","contest":"Model Superstar","episode":"Model Superstar","category":null,"contestant":{"voting_id":"04","name":"Sabita Maharjan"},"vote_count":1,"created_on":"2020-01-17T06:37:32.642582+05:45"},{"idx":"ziEmrKkNALXo882TM4qA9A","contest":"Model Superstar","episode":"Model Superstar","category":null,"contestant":{"voting_id":"04","name":"Sabita Maharjan"},"vote_count":1,"created_on":"2020-01-17T06:37:20.781615+05:45"},{"idx":"ZjSXsN8wTjnjQFjXW36Afg","contest":"Model Superstar","episode":"Model Superstar","category":null,"contestant":{"voting_id":"04","name":"Sabita Maharjan"},"vote_count":1,"created_on":"2020-01-17T06:37:08.312617+05:45"},{"idx":"HKKupLGGHQyqY8tdn39atF","contest":"Model Superstar","episode":"Model Superstar","category":null,"contestant":{"voting_id":"04","name":"Sabita Maharjan"},"vote_count":1,"created_on":"2020-01-17T06:37:04.816904+05:45"},{"idx":"ob74V2WZsScai8jEo6qQmU","contest":"Model Superstar","episode":"Model Superstar","category":null,"contestant":{"voting_id":"04","name":"Sabita Maharjan"},"vote_count":1,"created_on":"2020-01-17T06:36:56.041462+05:45"},{"idx":"NhWzbCYXmsdRKfrjh42fhE","contest":"Model Superstar","episode":"Model Superstar","category":null,"contestant":{"voting_id":"04","name":"Sabita Maharjan"},"vote_count":1,"created_on":"2020-01-17T06:36:42.114415+05:45"},{"idx":"5MHqZcicyGL7FEZmo6jHmC","contest":"Model Superstar","episode":"Model Superstar","category":null,"contestant":{"voting_id":"04","name":"Sabita Maharjan"},"vote_count":1,"created_on":"2020-01-17T06:36:40.430582+05:45"},{"idx":"k74uw4K6RFWVk4Gc6s7rVG","contest":"Model Superstar","episode":"Model Superstar","category":null,"contestant":{"voting_id":"04","name":"Sabita Maharjan"},"vote_count":1,"created_on":"2020-01-17T06:36:21.525409+05:45"},{"idx":"dDwd8dmL3HcKZQUxJeeikP","contest":"Model Superstar","episode":"Model Superstar","category":null,"contestant":{"voting_id":"04","name":"Sabita Maharjan"},"vote_count":1,"created_on":"2020-01-17T06:36:07.986247+05:45"},{"idx":"CuBN5BKQJQQG8QSDs4ud6e","contest":"Model Superstar","episode":"Model Superstar","category":null,"contestant":{"voting_id":"04","name":"Sabita Maharjan"},"vote_count":1,"created_on":"2020-01-17T06:35:12.603714+05:45"},{"idx":"C4Frc3qSUjzdpfWntuWLed","contest":"Model Superstar","episode":"Model Superstar","category":null,"contestant":{"voting_id":"04","name":"Sabita Maharjan"},"vote_count":1,"created_on":"2020-01-17T06:34:41.809383+05:45"},{"idx":"H68q4wmVZ3QsvkdgykY5SH","contest":"Model Superstar","episode":"Model Superstar","category":null,"contestant":{"voting_id":"04","name":"Sabita Maharjan"},"vote_count":1,"created_on":"2020-01-17T06:34:14.967977+05:45"},{"idx":"kTiobYLUeLkoMxajkhuReW","contest":"Model Superstar","episode":"Model Superstar","category":null,"contestant":{"voting_id":"04","name":"Sabita Maharjan"},"vote_count":1,"created_on":"2020-01-17T06:33:41.970457+05:45"},{"idx":"mPb8CnQNVXQsEwuEHFXSKN","contest":"Model Superstar","episode":"Model Superstar","category":null,"contestant":{"voting_id":"04","name":"Sabita Maharjan"},"vote_count":1,"created_on":"2020-01-17T06:33:29.010910+05:45"},{"idx":"Kqz8oBGdR6j885xfwnznGB","contest":"Model Superstar","episode":"Model Superstar","category":null,"contestant":{"voting_id":"04","name":"Sabita Maharjan"},"vote_count":1,"created_on":"2020-01-17T06:32:51.531412+05:45"},{"idx":"wzu7nWQegZn6td3LCe2foD","contest":"Model Superstar","episode":"Model Superstar","category":null,"contestant":{"voting_id":"04","name":"Sabita Maharjan"},"vote_count":1,"created_on":"2020-01-17T06:32:28.051991+05:45"},{"idx":"tCiKkhTDMUpMrARJKrgE4C","contest":"Model Superstar","episode":"Model Superstar","category":null,"contestant":{"voting_id":"04","name":"Sabita Maharjan"},"vote_count":1,"created_on":"2020-01-17T06:32:15.145935+05:45"},{"idx":"w5p57MQVStrxCw5aqFAZnn","contest":"Model Superstar","episode":"Model Superstar","category":null,"contestant":{"voting_id":"04","name":"Sabita Maharjan"},"vote_count":1,"created_on":"2020-01-17T06:32:03.215808+05:45"},{"idx":"qVt83bEoyhHeETegVG4v3f","contest":"Model Superstar","episode":"Model Superstar","category":null,"contestant":{"voting_id":"04","name":"Sabita Maharjan"},"vote_count":1,"created_on":"2020-01-17T06:31:51.449407+05:45"},{"idx":"nvp3XoazmGZoA5u8b2o2ZT","contest":"Model Superstar","episode":"Model Superstar","category":null,"contestant":{"voting_id":"04","name":"Sabita Maharjan"},"vote_count":1,"created_on":"2020-01-17T06:31:16.135610+05:45"},{"idx":"LLseBRNXjjTUvBmeQk6T7g","contest":"Model Superstar","episode":"Model Superstar","category":null,"contestant":{"voting_id":"04","name":"Sabita Maharjan"},"vote_count":1,"created_on":"2020-01-17T06:31:03.074108+05:45"}]}