{"total_pages":275,"total_records":13717,"next":"https://khalti.com/api/v2/vuservote/?page=47","previous":"https://khalti.com/api/v2/vuservote/?page=45","record_range":[2251,2300],"current_page":46,"records":[{"idx":"KyiDk4e2CbxX9uKoF42D3o","contest":"Model Superstar","episode":"Model Superstar","category":null,"contestant":{"voting_id":"04","name":"Sabita Maharjan"},"vote_count":1,"created_on":"2020-01-17T06:30:35.362432+05:45"},{"idx":"yBq4EVhV66PrPJSAXRXgjj","contest":"Model Superstar","episode":"Model Superstar","category":null,"contestant":{"voting_id":"04","name":"Sabita Maharjan"},"vote_count":1,"created_on":"2020-01-17T06:29:53.148249+05:45"},{"idx":"bRcdSFci79nKazX9DJieHi","contest":"Model Superstar","episode":"Model Superstar","category":null,"contestant":{"voting_id":"04","name":"Sabita Maharjan"},"vote_count":1,"created_on":"2020-01-17T06:29:40.477336+05:45"},{"idx":"Pz5r6KQsvkWyLBGphB5VWF","contest":"Model Superstar","episode":"Model Superstar","category":null,"contestant":{"voting_id":"04","name":"Sabita Maharjan"},"vote_count":1,"created_on":"2020-01-17T06:29:25.067217+05:45"},{"idx":"Go7J7u9PPFdyGc5ZdJWGAh","contest":"Model Superstar","episode":"Model Superstar","category":null,"contestant":{"voting_id":"04","name":"Sabita Maharjan"},"vote_count":1,"created_on":"2020-01-17T06:29:11.998739+05:45"},{"idx":"aKh7ArAgXg8EwDfPQCspeV","contest":"Model Superstar","episode":"Model Superstar","category":null,"contestant":{"voting_id":"04","name":"Sabita Maharjan"},"vote_count":1,"created_on":"2020-01-17T06:28:57.249471+05:45"},{"idx":"Bgq8yhLQvuzrTxJ5dyJ43Q","contest":"Model Superstar","episode":"Model Superstar","category":null,"contestant":{"voting_id":"04","name":"Sabita Maharjan"},"vote_count":1,"created_on":"2020-01-17T06:28:43.878641+05:45"},{"idx":"xUgw7p5sEdmRiZgVEmqcRo","contest":"Model Superstar","episode":"Model Superstar","category":null,"contestant":{"voting_id":"04","name":"Sabita Maharjan"},"vote_count":1,"created_on":"2020-01-17T06:28:25.481038+05:45"},{"idx":"XatrLrjiT9WVspxfRpR857","contest":"Model Superstar","episode":"Model Superstar","category":null,"contestant":{"voting_id":"04","name":"Sabita Maharjan"},"vote_count":1,"created_on":"2020-01-17T06:28:12.317300+05:45"},{"idx":"5R8t4iP2ToThe4BzYyV23b","contest":"Model Superstar","episode":"Model Superstar","category":null,"contestant":{"voting_id":"04","name":"Sabita Maharjan"},"vote_count":1,"created_on":"2020-01-17T06:27:59.371611+05:45"},{"idx":"Lg2S5H5cygD8TUfew9c6vW","contest":"Model Superstar","episode":"Model Superstar","category":null,"contestant":{"voting_id":"04","name":"Sabita Maharjan"},"vote_count":1,"created_on":"2020-01-17T06:27:47.431829+05:45"},{"idx":"WMjJ2iYWobdpiKBiBycfCi","contest":"Model Superstar","episode":"Model Superstar","category":null,"contestant":{"voting_id":"04","name":"Sabita Maharjan"},"vote_count":1,"created_on":"2020-01-17T06:27:26.519394+05:45"},{"idx":"X5WQzCPTCaXw7gxKAbnAKL","contest":"Model Superstar","episode":"Model Superstar","category":null,"contestant":{"voting_id":"04","name":"Sabita Maharjan"},"vote_count":1,"created_on":"2020-01-17T06:26:12.920487+05:45"},{"idx":"LWQTKuuQcY5wu4dgFPRYbg","contest":"Model Superstar","episode":"Model Superstar","category":null,"contestant":{"voting_id":"04","name":"Sabita Maharjan"},"vote_count":1,"created_on":"2020-01-17T06:25:54.132999+05:45"},{"idx":"PZZrVpBYEG8TZW5N7RSYck","contest":"Model Superstar","episode":"Model Superstar","category":null,"contestant":{"voting_id":"04","name":"Sabita Maharjan"},"vote_count":1,"created_on":"2020-01-17T06:25:09.756390+05:45"},{"idx":"wzcV2ZuwCQixvFnDL36MWm","contest":"Model Superstar","episode":"Model Superstar","category":null,"contestant":{"voting_id":"04","name":"Sabita Maharjan"},"vote_count":1,"created_on":"2020-01-17T06:24:55.966479+05:45"},{"idx":"kkLW3hyVGSBoYPffBuFKCn","contest":"Model Superstar","episode":"Model Superstar","category":null,"contestant":{"voting_id":"04","name":"Sabita Maharjan"},"vote_count":1,"created_on":"2020-01-17T06:24:43.308377+05:45"},{"idx":"S4XeszY2iPN2y3gPMHUkqR","contest":"Model Superstar","episode":"Model Superstar","category":null,"contestant":{"voting_id":"04","name":"Sabita Maharjan"},"vote_count":1,"created_on":"2020-01-17T06:23:57.278574+05:45"},{"idx":"6VwioJxMgi4xMjJUKF9MCR","contest":"Model Superstar","episode":"Model Superstar","category":null,"contestant":{"voting_id":"04","name":"Sabita Maharjan"},"vote_count":1,"created_on":"2020-01-17T06:23:36.159400+05:45"},{"idx":"bdaVdAWZU9EQeemCKnBBV5","contest":"Model Superstar","episode":"Model Superstar","category":null,"contestant":{"voting_id":"04","name":"Sabita Maharjan"},"vote_count":1,"created_on":"2020-01-17T06:22:43.854908+05:45"},{"idx":"LBxpUBHJmBAXByhjMgoedB","contest":"Model Superstar","episode":"Model Superstar","category":null,"contestant":{"voting_id":"04","name":"Sabita Maharjan"},"vote_count":1,"created_on":"2020-01-17T06:22:29.495686+05:45"},{"idx":"kiuaxiah82s7JGan98sykA","contest":"Model Superstar","episode":"Model Superstar","category":null,"contestant":{"voting_id":"04","name":"Sabita Maharjan"},"vote_count":1,"created_on":"2020-01-17T06:20:55.687958+05:45"},{"idx":"fm3oUY9WpiDiN5YeZ9yfH8","contest":"Model Superstar","episode":"Model Superstar","category":null,"contestant":{"voting_id":"04","name":"Sabita Maharjan"},"vote_count":1,"created_on":"2020-01-17T06:20:41.262674+05:45"},{"idx":"REoZJTCTt9HchhGg3GTQHd","contest":"Model Superstar","episode":"Model Superstar","category":null,"contestant":{"voting_id":"04","name":"Sabita Maharjan"},"vote_count":1,"created_on":"2020-01-17T06:20:14.515886+05:45"},{"idx":"mpCjxFEmSe4bE9jV6GMmRJ","contest":"Model Superstar","episode":"Model Superstar","category":null,"contestant":{"voting_id":"16","name":"Anil Karki"},"vote_count":5,"created_on":"2020-01-17T06:19:59.684957+05:45"},{"idx":"nNsaNnjonu7rkrmjYSDk5M","contest":"Model Superstar","episode":"Model Superstar","category":null,"contestant":{"voting_id":"16","name":"Anil Karki"},"vote_count":5,"created_on":"2020-01-17T06:19:38.492100+05:45"},{"idx":"73UCgYJ97WrXoc8idsWLfV","contest":"Model Superstar","episode":"Model Superstar","category":null,"contestant":{"voting_id":"16","name":"Anil Karki"},"vote_count":25,"created_on":"2020-01-17T06:17:23.040435+05:45"},{"idx":"VzJaz4dfkijJqKCoHgnWMA","contest":"Model Superstar","episode":"Model Superstar","category":null,"contestant":{"voting_id":"16","name":"Anil Karki"},"vote_count":500,"created_on":"2020-01-17T02:05:15.741008+05:45"},{"idx":"twyFdcpVdQXqsmKHy93PKj","contest":"Little Champ International 2020","episode":"Little Champ International 2020","category":null,"contestant":{"voting_id":"1","name":"Saumya Neupane"},"vote_count":1,"created_on":"2020-01-16T22:17:28.950689+05:45"},{"idx":"nDsnSvUWDoBGDiMDUGJR88","contest":"Model Superstar","episode":"Model Superstar","category":null,"contestant":{"voting_id":"10","name":"Sameep Sharma"},"vote_count":1,"created_on":"2020-01-16T22:17:00.326429+05:45"},{"idx":"36WhNzRvvnrT8NNdkQjW2J","contest":"Model Superstar","episode":"Model Superstar","category":null,"contestant":{"voting_id":"02","name":"Srijana Basnet"},"vote_count":1,"created_on":"2020-01-16T21:52:56.506224+05:45"},{"idx":"ouiKoy9vayMz8v26Liz7jk","contest":"Model Superstar","episode":"Model Superstar","category":null,"contestant":{"voting_id":"16","name":"Anil Karki"},"vote_count":1,"created_on":"2020-01-16T20:48:34.051534+05:45"},{"idx":"24yXTifrrKRT7vCNPmGNaM","contest":"Little Champ International 2020","episode":"Little Champ International 2020","category":null,"contestant":{"voting_id":"17","name":"Jesika Regmi"},"vote_count":1,"created_on":"2020-01-16T19:43:50.966756+05:45"},{"idx":"yttSQrrmwPMXnWCSsKpkXc","contest":"Model Superstar","episode":"Model Superstar","category":null,"contestant":{"voting_id":"02","name":"Srijana Basnet"},"vote_count":1,"created_on":"2020-01-16T19:42:28.230674+05:45"},{"idx":"B8M8S28TJRXbz9X64CJDD7","contest":"Model Superstar","episode":"Model Superstar","category":null,"contestant":{"voting_id":"07","name":"Narman Malla"},"vote_count":5,"created_on":"2020-01-16T19:39:02.463217+05:45"},{"idx":"JaKDPUGeHeoxusiXDAWNR8","contest":"Model Superstar","episode":"Model Superstar","category":null,"contestant":{"voting_id":"07","name":"Narman Malla"},"vote_count":5,"created_on":"2020-01-16T19:38:41.747337+05:45"},{"idx":"G7KK2v3RVpMCtvsngPAfrH","contest":"Model Superstar","episode":"Model Superstar","category":null,"contestant":{"voting_id":"07","name":"Narman Malla"},"vote_count":5,"created_on":"2020-01-16T19:38:24.580427+05:45"},{"idx":"PDz994FWg3iUJJqXtnbkMZ","contest":"Model Superstar","episode":"Model Superstar","category":null,"contestant":{"voting_id":"07","name":"Narman Malla"},"vote_count":5,"created_on":"2020-01-16T19:38:08.678146+05:45"},{"idx":"aJRcVA7nix4GH9x3R52r62","contest":"Little Champ International 2020","episode":"Little Champ International 2020","category":null,"contestant":{"voting_id":"3","name":"Prinsha Bati"},"vote_count":1,"created_on":"2020-01-16T18:57:24.787785+05:45"},{"idx":"E9hhEqiLM2E8EGhwYiEJY9","contest":"Model Superstar","episode":"Model Superstar","category":null,"contestant":{"voting_id":"05","name":"Asmita Thapa Magar"},"vote_count":1,"created_on":"2020-01-16T18:40:54.968602+05:45"},{"idx":"KefUJGohNQ9Rmc7d86stNe","contest":"Model Superstar","episode":"Model Superstar","category":null,"contestant":{"voting_id":"02","name":"Srijana Basnet"},"vote_count":1,"created_on":"2020-01-16T18:15:20.266147+05:45"},{"idx":"eE6quuUvRmmvL4o9qZJ5P6","contest":"Little Champ International 2020","episode":"Little Champ International 2020","category":null,"contestant":{"voting_id":"1","name":"Saumya Neupane"},"vote_count":1,"created_on":"2020-01-16T18:14:29.267110+05:45"},{"idx":"wTPnSTWvSr4dk8ucuQKzBf","contest":"Little Champ International 2020","episode":"Little Champ International 2020","category":null,"contestant":{"voting_id":"11","name":"Prince Dangol"},"vote_count":1,"created_on":"2020-01-16T17:44:12.603246+05:45"},{"idx":"7eQDBkWYnS2rWp5QmC5Xh6","contest":"Model Superstar","episode":"Model Superstar","category":null,"contestant":{"voting_id":"28","name":"Pujan Tamang"},"vote_count":1,"created_on":"2020-01-16T16:54:03.527687+05:45"},{"idx":"KBZqD9GPtUvamtPgHjjsaP","contest":"Model Superstar","episode":"Model Superstar","category":null,"contestant":{"voting_id":"12","name":"Rabin Ghising"},"vote_count":1,"created_on":"2020-01-16T16:04:21.613810+05:45"},{"idx":"oUFdsoWHZb5MM736rexFhC","contest":"Model Superstar","episode":"Model Superstar","category":null,"contestant":{"voting_id":"14","name":"Ashish Shakya"},"vote_count":1,"created_on":"2020-01-16T15:45:21.036828+05:45"},{"idx":"SuZDSoZ6BL8AjAnGWw7B9L","contest":"Model Superstar","episode":"Model Superstar","category":null,"contestant":{"voting_id":"14","name":"Ashish Shakya"},"vote_count":1,"created_on":"2020-01-16T15:45:07.791805+05:45"},{"idx":"Z3N4pHbc5qCRP8HmKYWtn2","contest":"Model Superstar","episode":"Model Superstar","category":null,"contestant":{"voting_id":"04","name":"Sabita Maharjan"},"vote_count":1,"created_on":"2020-01-16T14:54:01.292214+05:45"},{"idx":"ctAz9xEPwKFEkzTwYVSiEC","contest":"Model Superstar","episode":"Model Superstar","category":null,"contestant":{"voting_id":"05","name":"Asmita Thapa Magar"},"vote_count":1,"created_on":"2020-01-16T14:36:41.320416+05:45"},{"idx":"R52mxwUwdkphwPvMy5EWzg","contest":"Model Superstar","episode":"Model Superstar","category":null,"contestant":{"voting_id":"04","name":"Sabita Maharjan"},"vote_count":1,"created_on":"2020-01-16T14:35:09.143724+05:45"}]}