{"total_pages":275,"total_records":13717,"next":"https://khalti.com/api/v2/vuservote/?page=48","previous":"https://khalti.com/api/v2/vuservote/?page=46","record_range":[2301,2350],"current_page":47,"records":[{"idx":"iuKPNcWxevKVRZ5oQzbbz2","contest":"Model Superstar","episode":"Model Superstar","category":null,"contestant":{"voting_id":"05","name":"Asmita Thapa Magar"},"vote_count":1,"created_on":"2020-01-16T13:54:36.407545+05:45"},{"idx":"9vt3P8pVdeNFbU8HgDzH2e","contest":"Little Champ International 2020","episode":"Little Champ International 2020","category":null,"contestant":{"voting_id":"11","name":"Prince Dangol"},"vote_count":1,"created_on":"2020-01-16T13:48:39.111196+05:45"},{"idx":"8nJwiHjpWx2FhXxuKZtFB8","contest":"Model Superstar","episode":"Model Superstar","category":null,"contestant":{"voting_id":"01","name":"Sajina Subba"},"vote_count":1,"created_on":"2020-01-16T13:40:30.290771+05:45"},{"idx":"5PbuoMyd6o3pzS976JmDwJ","contest":"Model Superstar","episode":"Model Superstar","category":null,"contestant":{"voting_id":"03","name":"Smriti Shah"},"vote_count":1,"created_on":"2020-01-16T11:09:34.821760+05:45"},{"idx":"nhyz5ZCfv2SyBsb6rhyWd3","contest":"Model Superstar","episode":"Model Superstar","category":null,"contestant":{"voting_id":"04","name":"Sabita Maharjan"},"vote_count":1,"created_on":"2020-01-16T11:09:20.789004+05:45"},{"idx":"jyKS3CUBNe6Ljygr4hJYfD","contest":"Model Superstar","episode":"Model Superstar","category":null,"contestant":{"voting_id":"04","name":"Sabita Maharjan"},"vote_count":1,"created_on":"2020-01-16T11:09:06.288556+05:45"},{"idx":"zn2TncAR6R3JGA6EScYFKU","contest":"Model Superstar","episode":"Model Superstar","category":null,"contestant":{"voting_id":"04","name":"Sabita Maharjan"},"vote_count":1,"created_on":"2020-01-16T11:08:52.263096+05:45"},{"idx":"4KbyXtbfH6avsNtNVYWTNU","contest":"Model Superstar","episode":"Model Superstar","category":null,"contestant":{"voting_id":"04","name":"Sabita Maharjan"},"vote_count":1,"created_on":"2020-01-16T11:08:37.118630+05:45"},{"idx":"idpjf4Z3xcRAbbqQSEthpK","contest":"Model Superstar","episode":"Model Superstar","category":null,"contestant":{"voting_id":"04","name":"Sabita Maharjan"},"vote_count":1,"created_on":"2020-01-16T11:08:23.725184+05:45"},{"idx":"c3JNoKLhYUwZLYVke8KWsU","contest":"Model Superstar","episode":"Model Superstar","category":null,"contestant":{"voting_id":"04","name":"Sabita Maharjan"},"vote_count":1,"created_on":"2020-01-16T11:08:10.230829+05:45"},{"idx":"HMHBHAnE45A6zaM8yFatxQ","contest":"Model Superstar","episode":"Model Superstar","category":null,"contestant":{"voting_id":"04","name":"Sabita Maharjan"},"vote_count":1,"created_on":"2020-01-16T09:33:27.923801+05:45"},{"idx":"dc7v2JKa5wHr63UmzbR92Q","contest":"Model Superstar","episode":"Model Superstar","category":null,"contestant":{"voting_id":"03","name":"Smriti Shah"},"vote_count":1,"created_on":"2020-01-16T09:32:10.139197+05:45"},{"idx":"WEHxNUL9GgZtTG8oBqcrcZ","contest":"Model Superstar","episode":"Model Superstar","category":null,"contestant":{"voting_id":"17","name":"Sajana Panta"},"vote_count":1,"created_on":"2020-01-16T09:30:31.785927+05:45"},{"idx":"tHTY2EBMY6R6BdMuQaD5QN","contest":"Model Superstar","episode":"Model Superstar","category":null,"contestant":{"voting_id":"03","name":"Smriti Shah"},"vote_count":1,"created_on":"2020-01-16T09:13:31.820164+05:45"},{"idx":"ie75LtcUjsSjUuS4wFyjfE","contest":"Model Superstar","episode":"Model Superstar","category":null,"contestant":{"voting_id":"02","name":"Srijana Basnet"},"vote_count":1,"created_on":"2020-01-16T08:56:27.420071+05:45"},{"idx":"dtKetYdBjM5vqW9HWcMGyZ","contest":"Model Superstar","episode":"Model Superstar","category":null,"contestant":{"voting_id":"01","name":"Sajina Subba"},"vote_count":1,"created_on":"2020-01-16T08:43:25.641846+05:45"},{"idx":"sg2RRgC25cqoY7epjtruBo","contest":"Model Superstar","episode":"Model Superstar","category":null,"contestant":{"voting_id":"01","name":"Sajina Subba"},"vote_count":1,"created_on":"2020-01-16T08:38:29.335143+05:45"},{"idx":"XBMBF5CfpdWu65TAtTELMh","contest":"Model Superstar","episode":"Model Superstar","category":null,"contestant":{"voting_id":"12","name":"Rabin Ghising"},"vote_count":1,"created_on":"2020-01-16T08:21:23.034402+05:45"},{"idx":"zPAzL8WHHXimnvTDs7xyFC","contest":"Model Superstar","episode":"Model Superstar","category":null,"contestant":{"voting_id":"12","name":"Rabin Ghising"},"vote_count":1,"created_on":"2020-01-16T08:20:12.777478+05:45"},{"idx":"txtmQE7eeEJHaeBwfRBUv4","contest":"Model Superstar","episode":"Model Superstar","category":null,"contestant":{"voting_id":"16","name":"Anil Karki"},"vote_count":1,"created_on":"2020-01-16T08:15:30.824119+05:45"},{"idx":"L28RhV2ZstvBGUdrY854YB","contest":"Model Superstar","episode":"Model Superstar","category":null,"contestant":{"voting_id":"01","name":"Sajina Subba"},"vote_count":1,"created_on":"2020-01-16T01:01:12.446789+05:45"},{"idx":"TwbqU3S6Cs29p9x5ibKWiH","contest":"Model Superstar","episode":"Model Superstar","category":null,"contestant":{"voting_id":"02","name":"Srijana Basnet"},"vote_count":1,"created_on":"2020-01-16T00:52:11.869136+05:45"},{"idx":"P5ZA2VnoWwVLs3nHQ5WUn4","contest":"Little Champ International 2020","episode":"Little Champ International 2020","category":null,"contestant":{"voting_id":"1","name":"Saumya Neupane"},"vote_count":1,"created_on":"2020-01-15T23:11:44.484712+05:45"},{"idx":"a7YTYrmsb5roCXAhh9udM7","contest":"Model Superstar","episode":"Model Superstar","category":null,"contestant":{"voting_id":"03","name":"Smriti Shah"},"vote_count":1,"created_on":"2020-01-15T23:07:01.173619+05:45"},{"idx":"6rtvBZQQQmh8e3qAGZetZ3","contest":"Model Superstar","episode":"Model Superstar","category":null,"contestant":{"voting_id":"07","name":"Narman Malla"},"vote_count":5,"created_on":"2020-01-15T22:52:26.285792+05:45"},{"idx":"C4RDttCVLkfaS4gd9v5vJN","contest":"Model Superstar","episode":"Model Superstar","category":null,"contestant":{"voting_id":"07","name":"Narman Malla"},"vote_count":5,"created_on":"2020-01-15T22:51:47.504968+05:45"},{"idx":"5mCH3Bn7DMBaQ6HRhsf4eR","contest":"Model Superstar","episode":"Model Superstar","category":null,"contestant":{"voting_id":"07","name":"Narman Malla"},"vote_count":50,"created_on":"2020-01-15T22:51:32.187916+05:45"},{"idx":"QQMUNaipnhoWqHDrpSzhUJ","contest":"Model Superstar","episode":"Model Superstar","category":null,"contestant":{"voting_id":"02","name":"Srijana Basnet"},"vote_count":1,"created_on":"2020-01-15T22:50:34.456232+05:45"},{"idx":"o9ChNookYMFV4bFKcxqZVA","contest":"Model Superstar","episode":"Model Superstar","category":null,"contestant":{"voting_id":"05","name":"Asmita Thapa Magar"},"vote_count":1,"created_on":"2020-01-15T22:48:30.319180+05:45"},{"idx":"yTJtK7hQx4XUoQt2nCi8E8","contest":"Little Champ International 2020","episode":"Little Champ International 2020","category":null,"contestant":{"voting_id":"7","name":"Siwani Khatri"},"vote_count":1,"created_on":"2020-01-15T22:31:13.980887+05:45"},{"idx":"X5WRBz99G3eWh7fULt6ddm","contest":"Model Superstar","episode":"Model Superstar","category":null,"contestant":{"voting_id":"02","name":"Srijana Basnet"},"vote_count":1,"created_on":"2020-01-15T22:29:42.825132+05:45"},{"idx":"5aTDqNoUw5ugJNE2nk7Qtk","contest":"Model Superstar","episode":"Model Superstar","category":null,"contestant":{"voting_id":"02","name":"Srijana Basnet"},"vote_count":1,"created_on":"2020-01-15T22:28:46.217490+05:45"},{"idx":"LTqhuYK5GLDhuVNnxbqJRG","contest":"Little Champ International 2020","episode":"Little Champ International 2020","category":null,"contestant":{"voting_id":"10","name":"Smrik Shrestha"},"vote_count":1,"created_on":"2020-01-15T21:07:28.236557+05:45"},{"idx":"LqsrctNr8JhDgLwYfs9Xk3","contest":"Little Champ International 2020","episode":"Little Champ International 2020","category":null,"contestant":{"voting_id":"11","name":"Prince Dangol"},"vote_count":1,"created_on":"2020-01-15T19:56:30.323558+05:45"},{"idx":"9y3bLaiADLteY6iBNYqbrX","contest":"Little Champ International 2020","episode":"Little Champ International 2020","category":null,"contestant":{"voting_id":"10","name":"Smrik Shrestha"},"vote_count":1,"created_on":"2020-01-15T19:27:48.971204+05:45"},{"idx":"Ewdxf4CeKVb22NnNFPVPnY","contest":"Model Superstar","episode":"Model Superstar","category":null,"contestant":{"voting_id":"16","name":"Anil Karki"},"vote_count":25,"created_on":"2020-01-15T18:32:16.302458+05:45"},{"idx":"Jfrxz8AJ8ix2ForQEmp6Fa","contest":"Little Champ International 2020","episode":"Little Champ International 2020","category":null,"contestant":{"voting_id":"2","name":"Nitya Nepal"},"vote_count":1,"created_on":"2020-01-15T18:31:42.265419+05:45"},{"idx":"3sXHGBALDTQPWNwNHrWj6h","contest":"Model Superstar","episode":"Model Superstar","category":null,"contestant":{"voting_id":"16","name":"Anil Karki"},"vote_count":1,"created_on":"2020-01-15T18:26:25.488459+05:45"},{"idx":"d2k95LPpXS7dj3T36rWZPR","contest":"Little Champ International 2020","episode":"Little Champ International 2020","category":null,"contestant":{"voting_id":"1","name":"Saumya Neupane"},"vote_count":1,"created_on":"2020-01-15T18:23:23.776948+05:45"},{"idx":"LktrdoG8BH9SNP49ueXXzC","contest":"Model Superstar","episode":"Model Superstar","category":null,"contestant":{"voting_id":"05","name":"Asmita Thapa Magar"},"vote_count":5,"created_on":"2020-01-15T17:30:03.590883+05:45"},{"idx":"9v58gqCSBiaTUadgwnucbL","contest":"Little Champ International 2020","episode":"Little Champ International 2020","category":null,"contestant":{"voting_id":"10","name":"Smrik Shrestha"},"vote_count":1,"created_on":"2020-01-15T16:38:50.915226+05:45"},{"idx":"pjpF857PrWLKtAn5mDwXbJ","contest":"Model Superstar","episode":"Model Superstar","category":null,"contestant":{"voting_id":"05","name":"Asmita Thapa Magar"},"vote_count":1,"created_on":"2020-01-15T16:37:36.592667+05:45"},{"idx":"pcjiALTMR49eYydoJkwPAR","contest":"Model Superstar","episode":"Model Superstar","category":null,"contestant":{"voting_id":"02","name":"Srijana Basnet"},"vote_count":1,"created_on":"2020-01-15T16:37:14.581741+05:45"},{"idx":"R3VpoZzARD5GaLB6svswS5","contest":"Little Champ International 2020","episode":"Little Champ International 2020","category":null,"contestant":{"voting_id":"8","name":"Namiska Shrestha"},"vote_count":1,"created_on":"2020-01-15T16:36:54.789043+05:45"},{"idx":"H7ev5XRtquWEpMToJmZQ38","contest":"Model Superstar","episode":"Model Superstar","category":null,"contestant":{"voting_id":"12","name":"Rabin Ghising"},"vote_count":1,"created_on":"2020-01-15T16:35:28.703405+05:45"},{"idx":"okMUgZ6vfjpCrGZn4cJx7V","contest":"Model Superstar","episode":"Model Superstar","category":null,"contestant":{"voting_id":"16","name":"Anil Karki"},"vote_count":1,"created_on":"2020-01-15T16:09:26.607856+05:45"},{"idx":"4s74Bbv8fPx9Xr9bRJR62Y","contest":"Model Superstar","episode":"Model Superstar","category":null,"contestant":{"voting_id":"01","name":"Sajina Subba"},"vote_count":1,"created_on":"2020-01-15T14:59:39.114276+05:45"},{"idx":"fvysgqUwhiRWHdukrM3HmF","contest":"Model Superstar","episode":"Model Superstar","category":null,"contestant":{"voting_id":"31","name":"Aakriti Subedi"},"vote_count":5,"created_on":"2020-01-15T14:20:35.395110+05:45"},{"idx":"NXAafWQTfrBd86TbYmNbZ9","contest":"Little Champ International 2020","episode":"Little Champ International 2020","category":null,"contestant":{"voting_id":"3","name":"Prinsha Bati"},"vote_count":1,"created_on":"2020-01-15T13:46:57.585289+05:45"},{"idx":"piCrXAVezGyfH6ze68A5S9","contest":"Model Superstar","episode":"Model Superstar","category":null,"contestant":{"voting_id":"30","name":"Nikita Shakya"},"vote_count":1,"created_on":"2020-01-15T13:45:04.506181+05:45"}]}