{"total_pages":275,"total_records":13717,"next":"https://khalti.com/api/v2/vuservote/?page=49","previous":"https://khalti.com/api/v2/vuservote/?page=47","record_range":[2351,2400],"current_page":48,"records":[{"idx":"pB4nt6yCYX6MjChfZFjms6","contest":"Little Champ International 2020","episode":"Little Champ International 2020","category":null,"contestant":{"voting_id":"16","name":"Sonu Tukanbanjar"},"vote_count":1,"created_on":"2020-01-15T13:38:03.800934+05:45"},{"idx":"8aa7dTBGKvgDAQ2ivpu2RH","contest":"Model Superstar","episode":"Model Superstar","category":null,"contestant":{"voting_id":"16","name":"Anil Karki"},"vote_count":5,"created_on":"2020-01-15T12:55:00.272869+05:45"},{"idx":"SMUXjsFqbJcqepgJYnZHsm","contest":"Model Superstar","episode":"Model Superstar","category":null,"contestant":{"voting_id":"16","name":"Anil Karki"},"vote_count":1,"created_on":"2020-01-15T12:54:13.083682+05:45"},{"idx":"gGYuC2Gn9ESBT9tibXvtmL","contest":"Model Superstar","episode":"Model Superstar","category":null,"contestant":{"voting_id":"16","name":"Anil Karki"},"vote_count":1,"created_on":"2020-01-15T12:53:17.917250+05:45"},{"idx":"5EBtrUx4pac2v3UQgJxxLE","contest":"Model Superstar","episode":"Model Superstar","category":null,"contestant":{"voting_id":"02","name":"Srijana Basnet"},"vote_count":1,"created_on":"2020-01-15T12:43:09.021355+05:45"},{"idx":"fSi23y7prZvNFu4GRVooSL","contest":"Model Superstar","episode":"Model Superstar","category":null,"contestant":{"voting_id":"03","name":"Smriti Shah"},"vote_count":1,"created_on":"2020-01-15T12:25:05.050946+05:45"},{"idx":"jEtEqwZ24VYsUMBhHhpW8W","contest":"Little Champ International 2020","episode":"Little Champ International 2020","category":null,"contestant":{"voting_id":"16","name":"Sonu Tukanbanjar"},"vote_count":1,"created_on":"2020-01-15T12:20:20.233893+05:45"},{"idx":"bRiviMKctN9fHdXP5g6N9o","contest":"Model Superstar","episode":"Model Superstar","category":null,"contestant":{"voting_id":"16","name":"Anil Karki"},"vote_count":1,"created_on":"2020-01-15T12:19:52.548891+05:45"},{"idx":"9U9M7RvCvQiDVZyWRst8U3","contest":"Model Superstar","episode":"Model Superstar","category":null,"contestant":{"voting_id":"16","name":"Anil Karki"},"vote_count":1,"created_on":"2020-01-15T11:40:43.025744+05:45"},{"idx":"siwuwtZptg72AQGJRPZxFk","contest":"Model Superstar","episode":"Model Superstar","category":null,"contestant":{"voting_id":"12","name":"Rabin Ghising"},"vote_count":1,"created_on":"2020-01-15T10:46:19.795668+05:45"},{"idx":"Zj5kUoqynkvGckBH4ZdHGU","contest":"Model Superstar","episode":"Model Superstar","category":null,"contestant":{"voting_id":"12","name":"Rabin Ghising"},"vote_count":1,"created_on":"2020-01-15T10:44:31.641326+05:45"},{"idx":"JFHPvJCuSjeWWV4QirqPBL","contest":"Model Superstar","episode":"Model Superstar","category":null,"contestant":{"voting_id":"16","name":"Anil Karki"},"vote_count":1,"created_on":"2020-01-15T10:43:56.902270+05:45"},{"idx":"yS4xWXN4FeZQmvPzf9fUKf","contest":"Little Champ International 2020","episode":"Little Champ International 2020","category":null,"contestant":{"voting_id":"1","name":"Saumya Neupane"},"vote_count":1,"created_on":"2020-01-15T10:34:11.729340+05:45"},{"idx":"GnVsgP9Tn7LMUZBwnTrhrK","contest":"Little Champ International 2020","episode":"Little Champ International 2020","category":null,"contestant":{"voting_id":"1","name":"Saumya Neupane"},"vote_count":1,"created_on":"2020-01-15T09:36:49.692076+05:45"},{"idx":"tt6RCiQB246ayxmAi76LjX","contest":"Model Superstar","episode":"Model Superstar","category":null,"contestant":{"voting_id":"32","name":"Ichhya Adhikari"},"vote_count":1,"created_on":"2020-01-15T09:15:47.104117+05:45"},{"idx":"SBstq6it6XSHx7GnNyRdVf","contest":"Model Superstar","episode":"Model Superstar","category":null,"contestant":{"voting_id":"14","name":"Ashish Shakya"},"vote_count":1,"created_on":"2020-01-15T09:10:47.480414+05:45"},{"idx":"uU58RQiiNTDmUt8aH2FdaP","contest":"Little Champ International 2020","episode":"Little Champ International 2020","category":null,"contestant":{"voting_id":"11","name":"Prince Dangol"},"vote_count":1,"created_on":"2020-01-15T08:08:18.094390+05:45"},{"idx":"7DcmA7HoNSJ2B8oYnCsaT3","contest":"Little Champ International 2020","episode":"Little Champ International 2020","category":null,"contestant":{"voting_id":"11","name":"Prince Dangol"},"vote_count":1,"created_on":"2020-01-15T01:35:05.619461+05:45"},{"idx":"mwNe3FbewdCoLRQyy4uim3","contest":"Model Superstar","episode":"Model Superstar","category":null,"contestant":{"voting_id":"02","name":"Srijana Basnet"},"vote_count":1,"created_on":"2020-01-15T01:34:40.956869+05:45"},{"idx":"c32EJoTar3gpVvRhjN62CY","contest":"Model Superstar","episode":"Model Superstar","category":null,"contestant":{"voting_id":"07","name":"Narman Malla"},"vote_count":5,"created_on":"2020-01-14T23:58:29.340541+05:45"},{"idx":"hQsMTWCofy3zgDtrGgr7x6","contest":"NEPALBHASA STAR MUSIC VIDEO AWARDS-2019","episode":null,"category":"BEST MUSIC DIRECTOR","contestant":{"voting_id":"6C","name":"Purna Man Maharjan "},"vote_count":50,"created_on":"2020-01-14T23:43:47.523477+05:45"},{"idx":"3iUPhQjxJwqVVoCfwYh2xL","contest":"NEPALBHASA STAR MUSIC VIDEO AWARDS-2019","episode":null,"category":"THE RISING STAR SINGER","contestant":{"voting_id":"21E","name":"Purna Man Maharjan"},"vote_count":50,"created_on":"2020-01-14T23:43:16.944808+05:45"},{"idx":"VFxaQTDWzGLoKHSx5kaUU8","contest":"Model Superstar","episode":"Model Superstar","category":null,"contestant":{"voting_id":"02","name":"Srijana Basnet"},"vote_count":1,"created_on":"2020-01-14T23:13:23.816925+05:45"},{"idx":"vcYuskfLWPdhiyZkJiyWEj","contest":"Little Champ International 2020","episode":"Little Champ International 2020","category":null,"contestant":{"voting_id":"18","name":"Supriya Nagarkoti"},"vote_count":1,"created_on":"2020-01-14T23:12:19.951933+05:45"},{"idx":"ux6zWLwWFmuRkEFdbSVLgE","contest":"Model Superstar","episode":"Model Superstar","category":null,"contestant":{"voting_id":"05","name":"Asmita Thapa Magar"},"vote_count":1,"created_on":"2020-01-14T22:44:53.925671+05:45"},{"idx":"Ec5tEc8sgWcQYzYsvKnYaW","contest":"Little Champ International 2020","episode":"Little Champ International 2020","category":null,"contestant":{"voting_id":"9","name":"Aagman Kaspal"},"vote_count":1,"created_on":"2020-01-14T22:35:28.145372+05:45"},{"idx":"9b7GqP9q5KAgrEVeEbmXXJ","contest":"NEPALBHASA STAR MUSIC VIDEO AWARDS-2019","episode":null,"category":"BEST DIRECTOR","contestant":{"voting_id":"20D","name":"Ram Krishna Khadgi"},"vote_count":5,"created_on":"2020-01-14T22:29:44.253567+05:45"},{"idx":"mBtqQySkoTQj2o6bizARcC","contest":"Little Champ International 2020","episode":"Little Champ International 2020","category":null,"contestant":{"voting_id":"1","name":"Saumya Neupane"},"vote_count":1,"created_on":"2020-01-14T22:27:08.876513+05:45"},{"idx":"bsL6FaBng9dd4HSRQMhqRn","contest":"Model Superstar","episode":"Model Superstar","category":null,"contestant":{"voting_id":"16","name":"Anil Karki"},"vote_count":1,"created_on":"2020-01-14T20:47:09.654464+05:45"},{"idx":"rnMqDTegWtTepr6GyyjQkj","contest":"NEPALBHASA STAR MUSIC VIDEO AWARDS-2019","episode":null,"category":"THE RISING STAR SINGER","contestant":{"voting_id":"21A","name":"Macha Raja Maharjan"},"vote_count":1,"created_on":"2020-01-14T20:24:39.592840+05:45"},{"idx":"7oiQNvyPYr84vXKKufVDyR","contest":"NEPALBHASA STAR MUSIC VIDEO AWARDS-2019","episode":null,"category":"BEST RECORDING STUDIO","contestant":{"voting_id":"7D","name":"Strings Recording Studio"},"vote_count":1,"created_on":"2020-01-14T20:11:32.415995+05:45"},{"idx":"NjevvyTvjqFr9vkB6Jr2xj","contest":"NEPALBHASA STAR MUSIC VIDEO AWARDS-2019","episode":null,"category":"BEST RECORDING STUDIO","contestant":{"voting_id":"7D","name":"Strings Recording Studio"},"vote_count":1,"created_on":"2020-01-14T20:10:56.689972+05:45"},{"idx":"dSgf3LJ25HR7xxe8bSSXN8","contest":"NEPALBHASA STAR MUSIC VIDEO AWARDS-2019","episode":null,"category":"BEST MUSIC ARRANGER","contestant":{"voting_id":"5G","name":"Hari Sharan Sayami"},"vote_count":1,"created_on":"2020-01-14T20:10:53.060002+05:45"},{"idx":"xDJF6pkvwnk53fhT3XeXdc","contest":"NEPALBHASA STAR MUSIC VIDEO AWARDS-2019","episode":null,"category":"BEST MUSIC ARRANGER","contestant":{"voting_id":"5G","name":"Hari Sharan Sayami"},"vote_count":1,"created_on":"2020-01-14T20:10:35.779769+05:45"},{"idx":"3YKiY7LDDxqEEivJhijaee","contest":"NEPALBHASA STAR MUSIC VIDEO AWARDS-2019","episode":null,"category":"BEST RECORDING STUDIO","contestant":{"voting_id":"7D","name":"Strings Recording Studio"},"vote_count":100,"created_on":"2020-01-14T20:10:10.181901+05:45"},{"idx":"YSysACggr8rh4qGZk9phDS","contest":"NEPALBHASA STAR MUSIC VIDEO AWARDS-2019","episode":null,"category":"BEST MUSIC ARRANGER","contestant":{"voting_id":"5G","name":"Hari Sharan Sayami"},"vote_count":100,"created_on":"2020-01-14T20:09:27.754324+05:45"},{"idx":"fdRbvL4RiWNcVJoXfxAiYj","contest":"Model Superstar","episode":"Model Superstar","category":null,"contestant":{"voting_id":"01","name":"Sajina Subba"},"vote_count":1,"created_on":"2020-01-14T19:20:16.715166+05:45"},{"idx":"ZdcQV6hBDcHR3s5pia8YkD","contest":"Model Superstar","episode":"Model Superstar","category":null,"contestant":{"voting_id":"16","name":"Anil Karki"},"vote_count":100,"created_on":"2020-01-14T19:17:20.938602+05:45"},{"idx":"7rYhZepbAdJCCaBx9Q3wi4","contest":"Model Superstar","episode":"Model Superstar","category":null,"contestant":{"voting_id":"07","name":"Narman Malla"},"vote_count":5,"created_on":"2020-01-14T19:02:16.820480+05:45"},{"idx":"XaYBxP3sFSYwsSNJLdoErV","contest":"Model Superstar","episode":"Model Superstar","category":null,"contestant":{"voting_id":"07","name":"Narman Malla"},"vote_count":5,"created_on":"2020-01-14T19:01:49.895235+05:45"},{"idx":"eP2x9xycLprPKjHQETdC3B","contest":"Model Superstar","episode":"Model Superstar","category":null,"contestant":{"voting_id":"07","name":"Narman Malla"},"vote_count":5,"created_on":"2020-01-14T19:01:32.900506+05:45"},{"idx":"bw7AnqH2TLhLz6S4wBRL33","contest":"Model Superstar","episode":"Model Superstar","category":null,"contestant":{"voting_id":"07","name":"Narman Malla"},"vote_count":1,"created_on":"2020-01-14T19:01:20.846022+05:45"},{"idx":"q8zgmaFWCvx7fZbRLcTtpi","contest":"Little Champ International 2020","episode":"Little Champ International 2020","category":null,"contestant":{"voting_id":"3","name":"Prinsha Bati"},"vote_count":1,"created_on":"2020-01-14T19:00:38.256468+05:45"},{"idx":"G56Wi7SAS6MpcapVMctHBZ","contest":"Model Superstar","episode":"Model Superstar","category":null,"contestant":{"voting_id":"16","name":"Anil Karki"},"vote_count":1,"created_on":"2020-01-14T18:42:36.398343+05:45"},{"idx":"27TTThY22c7zkyr9JkDw58","contest":"Model Superstar","episode":"Model Superstar","category":null,"contestant":{"voting_id":"16","name":"Anil Karki"},"vote_count":1,"created_on":"2020-01-14T18:40:17.984521+05:45"},{"idx":"vU67GfezxJkfg6ArUCW2SW","contest":"Model Superstar","episode":"Model Superstar","category":null,"contestant":{"voting_id":"16","name":"Anil Karki"},"vote_count":1,"created_on":"2020-01-14T18:29:33.659698+05:45"},{"idx":"yjW7tqVYAhAHi3vRpz3Sym","contest":"NEPALBHASA STAR MUSIC VIDEO AWARDS-2019","episode":null,"category":"BEST DEBUT SINGER, FEMALE","contestant":{"voting_id":"18H","name":"HasanaShakya"},"vote_count":1,"created_on":"2020-01-14T18:18:35.631498+05:45"},{"idx":"sGdWQ7mALGZeGikQ7cJXHm","contest":"Model Superstar","episode":"Model Superstar","category":null,"contestant":{"voting_id":"16","name":"Anil Karki"},"vote_count":1,"created_on":"2020-01-14T18:10:18.084596+05:45"},{"idx":"fGNYJ39CY5WC68fot2uGnQ","contest":"Model Superstar","episode":"Model Superstar","category":null,"contestant":{"voting_id":"16","name":"Anil Karki"},"vote_count":1,"created_on":"2020-01-14T18:08:48.755374+05:45"},{"idx":"RT3UBu7xjNq4GLUxQfUTWD","contest":"Model Superstar","episode":"Model Superstar","category":null,"contestant":{"voting_id":"16","name":"Anil Karki"},"vote_count":1,"created_on":"2020-01-14T18:01:27.170094+05:45"}]}