{"total_pages":275,"total_records":13717,"next":"https://khalti.com/api/v2/vuservote/?page=50","previous":"https://khalti.com/api/v2/vuservote/?page=48","record_range":[2401,2450],"current_page":49,"records":[{"idx":"T9ta2BH6ReSEMDThENHrUj","contest":"Model Superstar","episode":"Model Superstar","category":null,"contestant":{"voting_id":"16","name":"Anil Karki"},"vote_count":1,"created_on":"2020-01-14T18:00:46.729272+05:45"},{"idx":"7cKmft2iaYW6r9SLyuUPZ5","contest":"Model Superstar","episode":"Model Superstar","category":null,"contestant":{"voting_id":"16","name":"Anil Karki"},"vote_count":1,"created_on":"2020-01-14T18:00:05.459875+05:45"},{"idx":"ficPoCJv4PmYPjUNsnbZiG","contest":"Model Superstar","episode":"Model Superstar","category":null,"contestant":{"voting_id":"16","name":"Anil Karki"},"vote_count":1,"created_on":"2020-01-14T17:51:07.838147+05:45"},{"idx":"ZAfavHzY9JMzoRqbx8eWia","contest":"NEPALBHASA STAR MUSIC VIDEO AWARDS-2019","episode":null,"category":"BEST DEBUT MODEL, FEMALE","contestant":{"voting_id":"14H","name":"Sana Shakya"},"vote_count":1,"created_on":"2020-01-14T16:29:44.220184+05:45"},{"idx":"wqPpDiWP5TfWB7gxkS742m","contest":"NEPALBHASA STAR MUSIC VIDEO AWARDS-2019","episode":null,"category":"BEST DEBUT MODEL, FEMALE","contestant":{"voting_id":"14H","name":"Sana Shakya"},"vote_count":1,"created_on":"2020-01-14T16:29:08.859163+05:45"},{"idx":"qyzvfiRyU6jrxCgzawJg3j","contest":"Model Superstar","episode":"Model Superstar","category":null,"contestant":{"voting_id":"32","name":"Ichhya Adhikari"},"vote_count":1,"created_on":"2020-01-14T16:26:22.348797+05:45"},{"idx":"V4bimXbzMHNBDMhbDeQiD4","contest":"Mr. & Miss Teen Sherpa 2020 - S2","episode":"Mr.&Miss Teen Sherpa -S2","category":null,"contestant":{"voting_id":"05","name":"Nima Lhamu sherpa"},"vote_count":1,"created_on":"2020-01-14T16:25:18.008683+05:45"},{"idx":"Lne3ePE7vwnHxwszCsP5WY","contest":"Little Champ International 2020","episode":"Little Champ International 2020","category":null,"contestant":{"voting_id":"10","name":"Smrik Shrestha"},"vote_count":1,"created_on":"2020-01-14T16:03:54.750134+05:45"},{"idx":"M4N4xVCRkqFkndvaiyRWiJ","contest":"Model Superstar","episode":"Model Superstar","category":null,"contestant":{"voting_id":"27","name":"Suweta Shrestha"},"vote_count":1,"created_on":"2020-01-14T16:02:56.301893+05:45"},{"idx":"irgE4PeSXb6jNa2UBetMwf","contest":"NEPALBHASA STAR MUSIC VIDEO AWARDS-2019","episode":null,"category":"BEST MUSIC VIDEO","contestant":{"voting_id":"1I","name":"Raj kumar Manandhar"},"vote_count":1,"created_on":"2020-01-14T15:59:52.069859+05:45"},{"idx":"J2vtXgPPZJUN8uwGV5bsVE","contest":"Mr. & Miss Teen Sherpa 2020 - S2","episode":"Mr.&Miss Teen Sherpa -S2","category":null,"contestant":{"voting_id":"02","name":"Pema Yanji sherpa"},"vote_count":1,"created_on":"2020-01-14T13:58:12.036427+05:45"},{"idx":"amHxxeeHEorWDHRZnn4vwV","contest":"Mr. & Miss Teen Sherpa 2020 - S2","episode":"Mr.&Miss Teen Sherpa -S2","category":null,"contestant":{"voting_id":"24","name":"Mingma Tshering Sherpa"},"vote_count":1,"created_on":"2020-01-14T13:58:03.974320+05:45"},{"idx":"Zo2jEqNwsaudbcGhQgvdTh","contest":"Mr. & Miss Teen Sherpa 2020 - S2","episode":"Mr.&Miss Teen Sherpa -S2","category":null,"contestant":{"voting_id":"02","name":"Pema Yanji sherpa"},"vote_count":1,"created_on":"2020-01-14T13:57:48.581166+05:45"},{"idx":"fo4b2AzHgbnCgNdUE6ochR","contest":"Mr. & Miss Teen Sherpa 2020 - S2","episode":"Mr.&Miss Teen Sherpa -S2","category":null,"contestant":{"voting_id":"02","name":"Pema Yanji sherpa"},"vote_count":1,"created_on":"2020-01-14T13:52:16.207284+05:45"},{"idx":"svFP6Mv8EDATwkjKFHh3xh","contest":"Mr. & Miss Teen Sherpa 2020 - S2","episode":"Mr.&Miss Teen Sherpa -S2","category":null,"contestant":{"voting_id":"02","name":"Pema Yanji sherpa"},"vote_count":1,"created_on":"2020-01-14T13:52:06.113042+05:45"},{"idx":"NnZMgxAEmQtJJfKTaHMVfU","contest":"Mr. & Miss Teen Sherpa 2020 - S2","episode":"Mr.&Miss Teen Sherpa -S2","category":null,"contestant":{"voting_id":"02","name":"Pema Yanji sherpa"},"vote_count":1,"created_on":"2020-01-14T13:51:53.163185+05:45"},{"idx":"DJTpqakLsdAyuiEkGteGzB","contest":"Mr. & Miss Teen Sherpa 2020 - S2","episode":"Mr.&Miss Teen Sherpa -S2","category":null,"contestant":{"voting_id":"02","name":"Pema Yanji sherpa"},"vote_count":1,"created_on":"2020-01-14T13:51:44.395931+05:45"},{"idx":"CoxbsbH6FXnkEirdKEh4rW","contest":"Mr. & Miss Teen Sherpa 2020 - S2","episode":"Mr.&Miss Teen Sherpa -S2","category":null,"contestant":{"voting_id":"02","name":"Pema Yanji sherpa"},"vote_count":1,"created_on":"2020-01-14T13:51:34.533932+05:45"},{"idx":"rmMzpV8GNAw8dc6dqKCToa","contest":"Mr. & Miss Teen Sherpa 2020 - S2","episode":"Mr.&Miss Teen Sherpa -S2","category":null,"contestant":{"voting_id":"02","name":"Pema Yanji sherpa"},"vote_count":1,"created_on":"2020-01-14T13:51:24.326887+05:45"},{"idx":"CfkzdMVMZd92B2KHPxLcra","contest":"Mr. & Miss Teen Sherpa 2020 - S2","episode":"Mr.&Miss Teen Sherpa -S2","category":null,"contestant":{"voting_id":"02","name":"Pema Yanji sherpa"},"vote_count":1,"created_on":"2020-01-14T13:51:14.720099+05:45"},{"idx":"fd88c7CMRSTfXRfJuGzBBj","contest":"Mr. & Miss Teen Sherpa 2020 - S2","episode":"Mr.&Miss Teen Sherpa -S2","category":null,"contestant":{"voting_id":"02","name":"Pema Yanji sherpa"},"vote_count":1,"created_on":"2020-01-14T13:51:05.061948+05:45"},{"idx":"ZYTsKsPCNgnfzs2HupeRF7","contest":"Mr. & Miss Teen Sherpa 2020 - S2","episode":"Mr.&Miss Teen Sherpa -S2","category":null,"contestant":{"voting_id":"02","name":"Pema Yanji sherpa"},"vote_count":1,"created_on":"2020-01-14T13:50:51.534459+05:45"},{"idx":"f6Z5xrbpJfEeiwEHTAXpHG","contest":"Mr. & Miss Teen Sherpa 2020 - S2","episode":"Mr.&Miss Teen Sherpa -S2","category":null,"contestant":{"voting_id":"02","name":"Pema Yanji sherpa"},"vote_count":1,"created_on":"2020-01-14T13:50:37.483925+05:45"},{"idx":"M9EHQtD9WpqkHDKQSqcZ7Y","contest":"Mr. & Miss Teen Sherpa 2020 - S2","episode":"Mr.&Miss Teen Sherpa -S2","category":null,"contestant":{"voting_id":"02","name":"Pema Yanji sherpa"},"vote_count":1,"created_on":"2020-01-14T13:50:24.170176+05:45"},{"idx":"DGRXvCNNhZNb9ME9AFLtS5","contest":"Mr. & Miss Teen Sherpa 2020 - S2","episode":"Mr.&Miss Teen Sherpa -S2","category":null,"contestant":{"voting_id":"02","name":"Pema Yanji sherpa"},"vote_count":1,"created_on":"2020-01-14T13:50:12.342455+05:45"},{"idx":"bH26uNLDhAXHiVWjPfGCRJ","contest":"Little Champ International 2020","episode":"Little Champ International 2020","category":null,"contestant":{"voting_id":"10","name":"Smrik Shrestha"},"vote_count":1,"created_on":"2020-01-14T13:36:46.959562+05:45"},{"idx":"rtPoGaAKJ9UNSD5gdmUB86","contest":"Mr. & Miss Teen Sherpa 2020 - S2","episode":"Mr.&Miss Teen Sherpa -S2","category":null,"contestant":{"voting_id":"01","name":"Lhamu Sherpa"},"vote_count":1,"created_on":"2020-01-14T13:03:14.738894+05:45"},{"idx":"mF2XgqhF2hpVGx56J8KKZJ","contest":"Mr. & Miss Teen Sherpa 2020 - S2","episode":"Mr.&Miss Teen Sherpa -S2","category":null,"contestant":{"voting_id":"02","name":"Pema Yanji sherpa"},"vote_count":1,"created_on":"2020-01-14T12:57:18.548922+05:45"},{"idx":"gJbYr2V57XfYbrryWsCMj9","contest":"Mr. & Miss Teen Sherpa 2020 - S2","episode":"Mr.&Miss Teen Sherpa -S2","category":null,"contestant":{"voting_id":"02","name":"Pema Yanji sherpa"},"vote_count":1,"created_on":"2020-01-14T12:56:39.272952+05:45"},{"idx":"BhcSs2WZ6SfazesRD5RpjK","contest":"Mr. & Miss Teen Sherpa 2020 - S2","episode":"Mr.&Miss Teen Sherpa -S2","category":null,"contestant":{"voting_id":"02","name":"Pema Yanji sherpa"},"vote_count":1,"created_on":"2020-01-14T12:56:30.273570+05:45"},{"idx":"HQGmJs2gjWnuyd8k3Hiv5Y","contest":"Mr. & Miss Teen Sherpa 2020 - S2","episode":"Mr.&Miss Teen Sherpa -S2","category":null,"contestant":{"voting_id":"02","name":"Pema Yanji sherpa"},"vote_count":1,"created_on":"2020-01-14T12:56:23.151617+05:45"},{"idx":"8mxaS7CrqnA3LfVPvUnQx4","contest":"Mr. & Miss Teen Sherpa 2020 - S2","episode":"Mr.&Miss Teen Sherpa -S2","category":null,"contestant":{"voting_id":"02","name":"Pema Yanji sherpa"},"vote_count":1,"created_on":"2020-01-14T12:56:08.565103+05:45"},{"idx":"WMVx7uFxrEVd8BZVmD8VQR","contest":"Mr. & Miss Teen Sherpa 2020 - S2","episode":"Mr.&Miss Teen Sherpa -S2","category":null,"contestant":{"voting_id":"02","name":"Pema Yanji sherpa"},"vote_count":1,"created_on":"2020-01-14T12:55:59.386635+05:45"},{"idx":"NFkqpfUqqVsM9GXYAT8dx5","contest":"Mr. & Miss Teen Sherpa 2020 - S2","episode":"Mr.&Miss Teen Sherpa -S2","category":null,"contestant":{"voting_id":"02","name":"Pema Yanji sherpa"},"vote_count":1,"created_on":"2020-01-14T12:55:50.797802+05:45"},{"idx":"4beuAygkJrsj8UKDyFe3XL","contest":"Mr. & Miss Teen Sherpa 2020 - S2","episode":"Mr.&Miss Teen Sherpa -S2","category":null,"contestant":{"voting_id":"02","name":"Pema Yanji sherpa"},"vote_count":1,"created_on":"2020-01-14T12:55:43.023915+05:45"},{"idx":"Rzy9WTYPEmjSJB5q49sYLd","contest":"Mr. & Miss Teen Sherpa 2020 - S2","episode":"Mr.&Miss Teen Sherpa -S2","category":null,"contestant":{"voting_id":"02","name":"Pema Yanji sherpa"},"vote_count":1,"created_on":"2020-01-14T12:55:35.129793+05:45"},{"idx":"pzcNE7MQFZWQhQBhM9zkXn","contest":"Mr. & Miss Teen Sherpa 2020 - S2","episode":"Mr.&Miss Teen Sherpa -S2","category":null,"contestant":{"voting_id":"02","name":"Pema Yanji sherpa"},"vote_count":1,"created_on":"2020-01-14T12:55:25.568261+05:45"},{"idx":"DRARvqF7YvkUE3TX8yHkUZ","contest":"Mr. & Miss Teen Sherpa 2020 - S2","episode":"Mr.&Miss Teen Sherpa -S2","category":null,"contestant":{"voting_id":"02","name":"Pema Yanji sherpa"},"vote_count":1,"created_on":"2020-01-14T12:55:14.592739+05:45"},{"idx":"MFFYssKgXBp7htYqCFiTtm","contest":"Mr. & Miss Teen Sherpa 2020 - S2","episode":"Mr.&Miss Teen Sherpa -S2","category":null,"contestant":{"voting_id":"02","name":"Pema Yanji sherpa"},"vote_count":1,"created_on":"2020-01-14T12:55:06.324499+05:45"},{"idx":"wUgYwjJYrHpTACkg7Q7seH","contest":"Mr. & Miss Teen Sherpa 2020 - S2","episode":"Mr.&Miss Teen Sherpa -S2","category":null,"contestant":{"voting_id":"02","name":"Pema Yanji sherpa"},"vote_count":1,"created_on":"2020-01-14T12:54:57.874228+05:45"},{"idx":"BjLYgbmre6d4Fea9TSFzjn","contest":"Mr. & Miss Teen Sherpa 2020 - S2","episode":"Mr.&Miss Teen Sherpa -S2","category":null,"contestant":{"voting_id":"02","name":"Pema Yanji sherpa"},"vote_count":1,"created_on":"2020-01-14T12:44:53.703747+05:45"},{"idx":"uNoy3PottrrH7LsLmUMyi4","contest":"Mr. & Miss Teen Sherpa 2020 - S2","episode":"Mr.&Miss Teen Sherpa -S2","category":null,"contestant":{"voting_id":"02","name":"Pema Yanji sherpa"},"vote_count":1,"created_on":"2020-01-14T12:44:44.608542+05:45"},{"idx":"cFH4PBSgVhiL2fbEv9jb4J","contest":"Mr. & Miss Teen Sherpa 2020 - S2","episode":"Mr.&Miss Teen Sherpa -S2","category":null,"contestant":{"voting_id":"02","name":"Pema Yanji sherpa"},"vote_count":1,"created_on":"2020-01-14T12:44:13.297761+05:45"},{"idx":"4zLFGxXm4SgyemFqxFgrvV","contest":"Mr. & Miss Teen Sherpa 2020 - S2","episode":"Mr.&Miss Teen Sherpa -S2","category":null,"contestant":{"voting_id":"02","name":"Pema Yanji sherpa"},"vote_count":1,"created_on":"2020-01-14T12:44:02.730965+05:45"},{"idx":"puznHKBDSKh3WsNu4uFfiC","contest":"Mr. & Miss Teen Sherpa 2020 - S2","episode":"Mr.&Miss Teen Sherpa -S2","category":null,"contestant":{"voting_id":"02","name":"Pema Yanji sherpa"},"vote_count":1,"created_on":"2020-01-14T12:43:51.090191+05:45"},{"idx":"dkJMvDn3AQTc7hC3GkrVdH","contest":"Mr. & Miss Teen Sherpa 2020 - S2","episode":"Mr.&Miss Teen Sherpa -S2","category":null,"contestant":{"voting_id":"02","name":"Pema Yanji sherpa"},"vote_count":1,"created_on":"2020-01-14T12:43:41.498224+05:45"},{"idx":"fJJ48SZcFZBoh4qfrXbxzW","contest":"Mr. & Miss Teen Sherpa 2020 - S2","episode":"Mr.&Miss Teen Sherpa -S2","category":null,"contestant":{"voting_id":"02","name":"Pema Yanji sherpa"},"vote_count":1,"created_on":"2020-01-14T12:43:33.032274+05:45"},{"idx":"7VeQ3WeZqKPfMpM8Cn5wUj","contest":"Mr. & Miss Teen Sherpa 2020 - S2","episode":"Mr.&Miss Teen Sherpa -S2","category":null,"contestant":{"voting_id":"02","name":"Pema Yanji sherpa"},"vote_count":1,"created_on":"2020-01-14T12:43:24.359392+05:45"},{"idx":"kwHYuZN6dNZ84DsyTmub5P","contest":"Mr. & Miss Teen Sherpa 2020 - S2","episode":"Mr.&Miss Teen Sherpa -S2","category":null,"contestant":{"voting_id":"02","name":"Pema Yanji sherpa"},"vote_count":1,"created_on":"2020-01-14T12:43:15.856703+05:45"},{"idx":"Mi8PZcarLH3XSHJnqQkVHU","contest":"Mr. & Miss Teen Sherpa 2020 - S2","episode":"Mr.&Miss Teen Sherpa -S2","category":null,"contestant":{"voting_id":"02","name":"Pema Yanji sherpa"},"vote_count":1,"created_on":"2020-01-14T12:43:07.361839+05:45"}]}