{"total_pages":275,"total_records":13717,"next":"https://khalti.com/api/v2/vuservote/?page=6","previous":"https://khalti.com/api/v2/vuservote/?page=4","record_range":[201,250],"current_page":5,"records":[{"idx":"yYD6VWe9AAy54bhu3PaC7g","contest":"Locus 2020","episode":"Locus 2020","category":null,"contestant":{"voting_id":"46","name":"Project Immune"},"vote_count":1,"created_on":"2020-02-02T22:45:12.572715+05:45"},{"idx":"knZbsgiNMicTnWmf88PRyL","contest":"Locus 2020","episode":"Locus 2020","category":null,"contestant":{"voting_id":"46","name":"Project Immune"},"vote_count":1,"created_on":"2020-02-02T22:32:57.898104+05:45"},{"idx":"ZwMBJr5fKhDzGZgSZzoSXU","contest":"Locus 2020","episode":"Locus 2020","category":null,"contestant":{"voting_id":"46","name":"Project Immune"},"vote_count":1,"created_on":"2020-02-02T22:30:58.483210+05:45"},{"idx":"nPQT2zryFa3oBahwARXoVf","contest":"Locus 2020","episode":"Locus 2020","category":null,"contestant":{"voting_id":"36","name":"Project CNC Router"},"vote_count":1,"created_on":"2020-02-02T22:30:17.009898+05:45"},{"idx":"vYqPWqKwPzXNjZwcpu67HY","contest":"Locus 2020","episode":"Locus 2020","category":null,"contestant":{"voting_id":"75","name":"Project Hand Gesture Control Car"},"vote_count":1,"created_on":"2020-02-02T22:27:46.169812+05:45"},{"idx":"9ffi5pBFg5GSppJaRBRipY","contest":"Locus 2020","episode":"Locus 2020","category":null,"contestant":{"voting_id":"14","name":"Project TeeForges"},"vote_count":1,"created_on":"2020-02-02T22:23:41.003622+05:45"},{"idx":"6waLoFW6j7oFNzCym5aVWR","contest":"Locus 2020","episode":"Locus 2020","category":null,"contestant":{"voting_id":"12","name":"Project Green City"},"vote_count":1,"created_on":"2020-02-02T22:20:28.466633+05:45"},{"idx":"goXG466M2a5GNawZjaVDAe","contest":"Locus 2020","episode":"Locus 2020","category":null,"contestant":{"voting_id":"15","name":"Project Residential Drainage Water Purification System"},"vote_count":1,"created_on":"2020-02-02T22:13:12.177338+05:45"},{"idx":"xWuLUUBANM8uY6zNcSxEzS","contest":"Locus 2020","episode":"Locus 2020","category":null,"contestant":{"voting_id":"38","name":"Project Project -N"},"vote_count":1,"created_on":"2020-02-02T22:11:24.322884+05:45"},{"idx":"JMxuVsFnDyhfSbNaZbAaZU","contest":"Model Superstar","episode":"Model Superstar Finale","category":null,"contestant":{"voting_id":"17","name":"Sajana Panta"},"vote_count":1,"created_on":"2020-02-02T22:10:46.839377+05:45"},{"idx":"qb77UsHfittra8SZrBhK36","contest":"Model Superstar","episode":"Model Superstar Finale","category":null,"contestant":{"voting_id":"32","name":"Ichhya Adhikari"},"vote_count":1,"created_on":"2020-02-02T22:10:09.139490+05:45"},{"idx":"Aw79PTwuqF5awS5qXT5Egd","contest":"Model Superstar","episode":"Model Superstar Finale","category":null,"contestant":{"voting_id":"02","name":"Srijana Basnet"},"vote_count":1,"created_on":"2020-02-02T22:09:49.546763+05:45"},{"idx":"kVCpGCbcqsS7EfcYxorivR","contest":"Model Superstar","episode":"Model Superstar Finale","category":null,"contestant":{"voting_id":"04","name":"Sabita Maharjan"},"vote_count":1,"created_on":"2020-02-02T22:09:25.169617+05:45"},{"idx":"5Lz5bF3PDmkjuQpWMREjXi","contest":"Locus 2020","episode":"Locus 2020","category":null,"contestant":{"voting_id":"23","name":"Project Home Automation"},"vote_count":1,"created_on":"2020-02-02T22:08:58.820279+05:45"},{"idx":"m2osw8reeA79Gxp444i7Mo","contest":"Locus 2020","episode":"Locus 2020","category":null,"contestant":{"voting_id":"32","name":"Project Health and Environment Checker"},"vote_count":1,"created_on":"2020-02-02T22:03:40.856107+05:45"},{"idx":"TFZUBkWXCxoJDNEsg2Zdd5","contest":"Locus 2020","episode":"Locus 2020","category":null,"contestant":{"voting_id":"14","name":"Project TeeForges"},"vote_count":1,"created_on":"2020-02-02T22:03:01.343675+05:45"},{"idx":"WA2NNeLgs5EMevTx9aA3UL","contest":"Locus 2020","episode":"Locus 2020","category":null,"contestant":{"voting_id":"31","name":"Project 3 in 1 Cartesian 3D Printer"},"vote_count":1,"created_on":"2020-02-02T21:54:43.884904+05:45"},{"idx":"nzmacqc55PiNuvwesdjSV7","contest":"Locus 2020","episode":"Locus 2020","category":null,"contestant":{"voting_id":"31","name":"Project 3 in 1 Cartesian 3D Printer"},"vote_count":5,"created_on":"2020-02-02T21:54:27.385182+05:45"},{"idx":"g9qLgoSeeJJHEumZGn2UbP","contest":"Locus 2020","episode":"Locus 2020","category":null,"contestant":{"voting_id":"08","name":"Project A Smart Approach Towards Lifestyle in Nepal"},"vote_count":1,"created_on":"2020-02-02T21:53:44.397002+05:45"},{"idx":"Xf54Rx3AcG7DAMkbpgSJZA","contest":"Locus 2020","episode":"Locus 2020","category":null,"contestant":{"voting_id":"80","name":"Project Hexapod"},"vote_count":1,"created_on":"2020-02-02T21:51:04.752748+05:45"},{"idx":"jKmfm2nruCwBvhnVn6nJMW","contest":"Locus 2020","episode":"Locus 2020","category":null,"contestant":{"voting_id":"24","name":"Project Library App"},"vote_count":1,"created_on":"2020-02-02T21:46:57.257866+05:45"},{"idx":"Gwz4Es5FvS98TD4XQ6Q6MP","contest":"Locus 2020","episode":"Locus 2020","category":null,"contestant":{"voting_id":"66","name":"Project Alexa Pi"},"vote_count":1,"created_on":"2020-02-02T21:45:07.944875+05:45"},{"idx":"25N6v5LS6cZLXMKYFMnQW2","contest":"Locus 2020","episode":"Locus 2020","category":null,"contestant":{"voting_id":"24","name":"Project Library App"},"vote_count":1,"created_on":"2020-02-02T21:43:33.198533+05:45"},{"idx":"ADPqpZvQ7LkiJQhXSiFdmc","contest":"Locus 2020","episode":"Locus 2020","category":null,"contestant":{"voting_id":"08","name":"Project A Smart Approach Towards Lifestyle in Nepal"},"vote_count":1,"created_on":"2020-02-02T21:42:46.186372+05:45"},{"idx":"9MBe9vPFbPkFTYtg58hgCQ","contest":"Locus 2020","episode":"Locus 2020","category":null,"contestant":{"voting_id":"15","name":"Project Residential Drainage Water Purification System"},"vote_count":1,"created_on":"2020-02-02T21:41:34.305035+05:45"},{"idx":"dTUD5mAyqwYMoPzPNLrkZQ","contest":"Locus 2020","episode":"Locus 2020","category":null,"contestant":{"voting_id":"23","name":"Project Home Automation"},"vote_count":1,"created_on":"2020-02-02T21:40:19.057245+05:45"},{"idx":"Rbdgx8w2QeKT3XhVwN7FeK","contest":"Model Superstar","episode":"Model Superstar Finale","category":null,"contestant":{"voting_id":"03","name":"Smriti Shah"},"vote_count":1,"created_on":"2020-02-02T21:34:02.572409+05:45"},{"idx":"oCnAr4MQFKp7sXi8MRwyRK","contest":"Locus 2020","episode":"Locus 2020","category":null,"contestant":{"voting_id":"08","name":"Project A Smart Approach Towards Lifestyle in Nepal"},"vote_count":1,"created_on":"2020-02-02T21:30:19.291255+05:45"},{"idx":"PesUKR3mWjhQRB6mTutBoA","contest":"Locus 2020","episode":"Locus 2020","category":null,"contestant":{"voting_id":"08","name":"Project A Smart Approach Towards Lifestyle in Nepal"},"vote_count":1,"created_on":"2020-02-02T21:23:15.092376+05:45"},{"idx":"H4DLnVvRANL8ityrd3MuFG","contest":"Locus 2020","episode":"Locus 2020","category":null,"contestant":{"voting_id":"59","name":"Project Home Automation"},"vote_count":1,"created_on":"2020-02-02T21:22:26.422825+05:45"},{"idx":"PFtEyn9FtVbvssSgWpejjm","contest":"Locus 2020","episode":"Locus 2020","category":null,"contestant":{"voting_id":"75","name":"Project Hand Gesture Control Car"},"vote_count":1,"created_on":"2020-02-02T21:22:10.767562+05:45"},{"idx":"HTZE9dYF5M7jBx5CxnLxhJ","contest":"Model Superstar","episode":"Model Superstar Finale","category":null,"contestant":{"voting_id":"17","name":"Sajana Panta"},"vote_count":1,"created_on":"2020-02-02T21:10:59.294475+05:45"},{"idx":"PyrHXq4fcqphTJCxJHdeXS","contest":"Locus 2020","episode":"Locus 2020","category":null,"contestant":{"voting_id":"15","name":"Project Residential Drainage Water Purification System"},"vote_count":1,"created_on":"2020-02-02T21:10:21.152520+05:45"},{"idx":"Q6ZdUV8cKFBqfQUeVkDZJL","contest":"Locus 2020","episode":"Locus 2020","category":null,"contestant":{"voting_id":"31","name":"Project 3 in 1 Cartesian 3D Printer"},"vote_count":1,"created_on":"2020-02-02T21:10:11.948959+05:45"},{"idx":"tfGNBBCZDa5knQGhMQ26QH","contest":"Locus 2020","episode":"Locus 2020","category":null,"contestant":{"voting_id":"75","name":"Project Hand Gesture Control Car"},"vote_count":1,"created_on":"2020-02-02T21:01:36.343097+05:45"},{"idx":"BRzLjtP5bRkuPRRphKcMEc","contest":"Locus 2020","episode":"Locus 2020","category":null,"contestant":{"voting_id":"37","name":"Project Medico"},"vote_count":1,"created_on":"2020-02-02T20:53:39.112999+05:45"},{"idx":"dZJwbpLsA3LWAmFojXUcCg","contest":"Locus 2020","episode":"Locus 2020","category":null,"contestant":{"voting_id":"24","name":"Project Library App"},"vote_count":5,"created_on":"2020-02-02T20:51:07.908178+05:45"},{"idx":"7md3YiYMxDph8HhpFTATAC","contest":"Locus 2020","episode":"Locus 2020","category":null,"contestant":{"voting_id":"26","name":"Project Automatic Rechargaeble Stove"},"vote_count":1,"created_on":"2020-02-02T20:46:30.226337+05:45"},{"idx":"e3Ueqk6DYKCReiRHVxpv29","contest":"Model Superstar","episode":"Model Superstar Finale","category":null,"contestant":{"voting_id":"14","name":"Ashish Shakya"},"vote_count":1,"created_on":"2020-02-02T20:46:28.324190+05:45"},{"idx":"kghBNsxA2FuoTH5ViYo99X","contest":"Locus 2020","episode":"Locus 2020","category":null,"contestant":{"voting_id":"43","name":"Project Tesla Coil"},"vote_count":1,"created_on":"2020-02-02T20:46:18.866499+05:45"},{"idx":"REBTpkdbcheJs7YNVoGGbh","contest":"Locus 2020","episode":"Locus 2020","category":null,"contestant":{"voting_id":"08","name":"Project A Smart Approach Towards Lifestyle in Nepal"},"vote_count":1,"created_on":"2020-02-02T20:45:30.809918+05:45"},{"idx":"waucMYTHo7Y9AZxtee7XUX","contest":"Locus 2020","episode":"Locus 2020","category":null,"contestant":{"voting_id":"46","name":"Project Immune"},"vote_count":1,"created_on":"2020-02-02T20:41:44.526334+05:45"},{"idx":"DPQawqauSaVDtR73uw2F8e","contest":"Locus 2020","episode":"Locus 2020","category":null,"contestant":{"voting_id":"34","name":"Project Femicoders"},"vote_count":1,"created_on":"2020-02-02T20:34:59.210150+05:45"},{"idx":"H9sEpnYfw59feXfv4AP9wM","contest":"Locus 2020","episode":"Locus 2020","category":null,"contestant":{"voting_id":"66","name":"Project Alexa Pi"},"vote_count":1,"created_on":"2020-02-02T20:32:06.585324+05:45"},{"idx":"nnSxsnFcukcvw3jBbuWSjC","contest":"Locus 2020","episode":"Locus 2020","category":null,"contestant":{"voting_id":"23","name":"Project Home Automation"},"vote_count":1,"created_on":"2020-02-02T20:28:50.790304+05:45"},{"idx":"wTomgB28tYStPGZte8b5rb","contest":"Locus 2020","episode":"Locus 2020","category":null,"contestant":{"voting_id":"17","name":"Project EN SAT"},"vote_count":1,"created_on":"2020-02-02T20:24:15.124499+05:45"},{"idx":"KAsyDwxFitfgvznjd5oMCm","contest":"Locus 2020","episode":"Locus 2020","category":null,"contestant":{"voting_id":"31","name":"Project 3 in 1 Cartesian 3D Printer"},"vote_count":1,"created_on":"2020-02-02T20:11:59.706440+05:45"},{"idx":"nTxWGXhRGVdJvSXp928KdP","contest":"Locus 2020","episode":"Locus 2020","category":null,"contestant":{"voting_id":"80","name":"Project Hexapod"},"vote_count":1,"created_on":"2020-02-02T20:06:50.523198+05:45"},{"idx":"FwTk47MCXNrMpqohLnuJE7","contest":"Locus 2020","episode":"Locus 2020","category":null,"contestant":{"voting_id":"23","name":"Project Home Automation"},"vote_count":1,"created_on":"2020-02-02T20:04:44.031013+05:45"},{"idx":"Z8wnLHBd4GdAFStUG2tKnU","contest":"Locus 2020","episode":"Locus 2020","category":null,"contestant":{"voting_id":"12","name":"Project Green City"},"vote_count":1,"created_on":"2020-02-02T20:03:56.568602+05:45"}]}