{"total_pages":275,"total_records":13717,"next":"https://khalti.com/api/v2/vuservote/?page=54","previous":"https://khalti.com/api/v2/vuservote/?page=52","record_range":[2601,2650],"current_page":53,"records":[{"idx":"JPycx7LZ2smgGVJNYyZSvF","contest":"Mr. & Miss Teen Sherpa 2020 - S2","episode":"Mr.&Miss Teen Sherpa -S2","category":null,"contestant":{"voting_id":"02","name":"Pema Yanji sherpa"},"vote_count":1,"created_on":"2020-01-14T11:56:18.406307+05:45"},{"idx":"snu2hPwq7e7qYae9NK6NpV","contest":"Mr. & Miss Teen Sherpa 2020 - S2","episode":"Mr.&Miss Teen Sherpa -S2","category":null,"contestant":{"voting_id":"02","name":"Pema Yanji sherpa"},"vote_count":1,"created_on":"2020-01-14T11:56:07.038410+05:45"},{"idx":"hpmsWBaYNTYmzHJAAQzb9a","contest":"Mr. & Miss Teen Sherpa 2020 - S2","episode":"Mr.&Miss Teen Sherpa -S2","category":null,"contestant":{"voting_id":"02","name":"Pema Yanji sherpa"},"vote_count":1,"created_on":"2020-01-14T11:55:55.369742+05:45"},{"idx":"uAf5JwJKud5AhxXQPBjZVJ","contest":"Mr. & Miss Teen Sherpa 2020 - S2","episode":"Mr.&Miss Teen Sherpa -S2","category":null,"contestant":{"voting_id":"02","name":"Pema Yanji sherpa"},"vote_count":1,"created_on":"2020-01-14T11:55:43.448551+05:45"},{"idx":"ff9yroy6zx24XsbF7e3GMM","contest":"Mr. & Miss Teen Sherpa 2020 - S2","episode":"Mr.&Miss Teen Sherpa -S2","category":null,"contestant":{"voting_id":"02","name":"Pema Yanji sherpa"},"vote_count":1,"created_on":"2020-01-14T11:55:31.529693+05:45"},{"idx":"HSdMFnetD7F4eBeoxM9hyj","contest":"Mr. & Miss Teen Sherpa 2020 - S2","episode":"Mr.&Miss Teen Sherpa -S2","category":null,"contestant":{"voting_id":"02","name":"Pema Yanji sherpa"},"vote_count":1,"created_on":"2020-01-14T11:55:19.140399+05:45"},{"idx":"wX7FG9NfyfttC5J4TRksxc","contest":"Mr. & Miss Teen Sherpa 2020 - S2","episode":"Mr.&Miss Teen Sherpa -S2","category":null,"contestant":{"voting_id":"02","name":"Pema Yanji sherpa"},"vote_count":1,"created_on":"2020-01-14T11:55:06.634689+05:45"},{"idx":"Uc2WWbGNnFEVwfcmfMuurk","contest":"Mr. & Miss Teen Sherpa 2020 - S2","episode":"Mr.&Miss Teen Sherpa -S2","category":null,"contestant":{"voting_id":"02","name":"Pema Yanji sherpa"},"vote_count":1,"created_on":"2020-01-14T11:54:56.291081+05:45"},{"idx":"biVS2qVjvjqc9XDUystsgY","contest":"Mr. & Miss Teen Sherpa 2020 - S2","episode":"Mr.&Miss Teen Sherpa -S2","category":null,"contestant":{"voting_id":"02","name":"Pema Yanji sherpa"},"vote_count":1,"created_on":"2020-01-14T11:54:42.178433+05:45"},{"idx":"8TVGixL7USa5KfaahGnP9J","contest":"Mr. & Miss Teen Sherpa 2020 - S2","episode":"Mr.&Miss Teen Sherpa -S2","category":null,"contestant":{"voting_id":"02","name":"Pema Yanji sherpa"},"vote_count":1,"created_on":"2020-01-14T11:54:19.040350+05:45"},{"idx":"H5HyDzhuVHTWuQFkDixPNH","contest":"Mr. & Miss Teen Sherpa 2020 - S2","episode":"Mr.&Miss Teen Sherpa -S2","category":null,"contestant":{"voting_id":"02","name":"Pema Yanji sherpa"},"vote_count":1,"created_on":"2020-01-14T11:54:01.539619+05:45"},{"idx":"QPPRCB8YYdgjQEnutaEHpY","contest":"Mr. & Miss Teen Sherpa 2020 - S2","episode":"Mr.&Miss Teen Sherpa -S2","category":null,"contestant":{"voting_id":"02","name":"Pema Yanji sherpa"},"vote_count":1,"created_on":"2020-01-14T11:53:49.183791+05:45"},{"idx":"K4YymV4dNgXcsSsmHr8eYV","contest":"Mr. & Miss Teen Sherpa 2020 - S2","episode":"Mr.&Miss Teen Sherpa -S2","category":null,"contestant":{"voting_id":"02","name":"Pema Yanji sherpa"},"vote_count":1,"created_on":"2020-01-14T11:53:32.267234+05:45"},{"idx":"AZy9uiwd5KLAw5S32fRNp2","contest":"Mr. & Miss Teen Sherpa 2020 - S2","episode":"Mr.&Miss Teen Sherpa -S2","category":null,"contestant":{"voting_id":"02","name":"Pema Yanji sherpa"},"vote_count":1,"created_on":"2020-01-14T11:53:24.098362+05:45"},{"idx":"LZob4P3eYQvdeVzLpPHEzH","contest":"Mr. & Miss Teen Sherpa 2020 - S2","episode":"Mr.&Miss Teen Sherpa -S2","category":null,"contestant":{"voting_id":"02","name":"Pema Yanji sherpa"},"vote_count":1,"created_on":"2020-01-14T11:53:14.280210+05:45"},{"idx":"a72GP7zWNsqxepCHbn8pL8","contest":"Mr. & Miss Teen Sherpa 2020 - S2","episode":"Mr.&Miss Teen Sherpa -S2","category":null,"contestant":{"voting_id":"02","name":"Pema Yanji sherpa"},"vote_count":1,"created_on":"2020-01-14T11:53:02.829247+05:45"},{"idx":"mW4HgzTKK85DYhFEaYyQVV","contest":"Mr. & Miss Teen Sherpa 2020 - S2","episode":"Mr.&Miss Teen Sherpa -S2","category":null,"contestant":{"voting_id":"02","name":"Pema Yanji sherpa"},"vote_count":1,"created_on":"2020-01-14T11:52:52.427805+05:45"},{"idx":"Ak9rXmYoNsbdKHcNH5H8k2","contest":"Mr. & Miss Teen Sherpa 2020 - S2","episode":"Mr.&Miss Teen Sherpa -S2","category":null,"contestant":{"voting_id":"02","name":"Pema Yanji sherpa"},"vote_count":1,"created_on":"2020-01-14T11:52:43.716944+05:45"},{"idx":"HufEKR8fGsVFeQmYmVXDPS","contest":"Mr. & Miss Teen Sherpa 2020 - S2","episode":"Mr.&Miss Teen Sherpa -S2","category":null,"contestant":{"voting_id":"02","name":"Pema Yanji sherpa"},"vote_count":1,"created_on":"2020-01-14T11:52:25.750989+05:45"},{"idx":"UuL3HFeK4Nnz8aLCbDBNo4","contest":"Mr. & Miss Teen Sherpa 2020 - S2","episode":"Mr.&Miss Teen Sherpa -S2","category":null,"contestant":{"voting_id":"02","name":"Pema Yanji sherpa"},"vote_count":1,"created_on":"2020-01-14T11:52:13.847068+05:45"},{"idx":"qGy7ezSXuFXDuzJ2H66PU9","contest":"Mr. & Miss Teen Sherpa 2020 - S2","episode":"Mr.&Miss Teen Sherpa -S2","category":null,"contestant":{"voting_id":"02","name":"Pema Yanji sherpa"},"vote_count":1,"created_on":"2020-01-14T11:52:01.574848+05:45"},{"idx":"KXxGtC7zgb7j7KtswiayAU","contest":"Mr. & Miss Teen Sherpa 2020 - S2","episode":"Mr.&Miss Teen Sherpa -S2","category":null,"contestant":{"voting_id":"02","name":"Pema Yanji sherpa"},"vote_count":1,"created_on":"2020-01-14T11:51:50.141315+05:45"},{"idx":"b3pp3QsyDZkNncVoJYmDAY","contest":"Mr. & Miss Teen Sherpa 2020 - S2","episode":"Mr.&Miss Teen Sherpa -S2","category":null,"contestant":{"voting_id":"02","name":"Pema Yanji sherpa"},"vote_count":1,"created_on":"2020-01-14T11:51:36.014111+05:45"},{"idx":"VPsmy7wNnGudHJZgiyj8Hg","contest":"Mr. & Miss Teen Sherpa 2020 - S2","episode":"Mr.&Miss Teen Sherpa -S2","category":null,"contestant":{"voting_id":"02","name":"Pema Yanji sherpa"},"vote_count":1,"created_on":"2020-01-14T11:51:26.188285+05:45"},{"idx":"q6JrDChvzjpVhUwc4GoS6N","contest":"Mr. & Miss Teen Sherpa 2020 - S2","episode":"Mr.&Miss Teen Sherpa -S2","category":null,"contestant":{"voting_id":"02","name":"Pema Yanji sherpa"},"vote_count":1,"created_on":"2020-01-14T11:51:13.998470+05:45"},{"idx":"qmzwdCJyxknSPjepQrPyyn","contest":"Mr. & Miss Teen Sherpa 2020 - S2","episode":"Mr.&Miss Teen Sherpa -S2","category":null,"contestant":{"voting_id":"02","name":"Pema Yanji sherpa"},"vote_count":1,"created_on":"2020-01-14T11:51:01.821947+05:45"},{"idx":"5KoxVZobTSTwdoRK7abRB5","contest":"Mr. & Miss Teen Sherpa 2020 - S2","episode":"Mr.&Miss Teen Sherpa -S2","category":null,"contestant":{"voting_id":"02","name":"Pema Yanji sherpa"},"vote_count":1,"created_on":"2020-01-14T11:50:51.169519+05:45"},{"idx":"VtvZrwT5iZqMjZ2j62NAAn","contest":"Mr. & Miss Teen Sherpa 2020 - S2","episode":"Mr.&Miss Teen Sherpa -S2","category":null,"contestant":{"voting_id":"02","name":"Pema Yanji sherpa"},"vote_count":1,"created_on":"2020-01-14T11:50:40.334179+05:45"},{"idx":"XDjJ6tahURSBgg5cWTmWW2","contest":"Mr. & Miss Teen Sherpa 2020 - S2","episode":"Mr.&Miss Teen Sherpa -S2","category":null,"contestant":{"voting_id":"02","name":"Pema Yanji sherpa"},"vote_count":1,"created_on":"2020-01-14T11:50:29.518397+05:45"},{"idx":"kLX8yfYiXgZWtL6sgwisbn","contest":"Mr. & Miss Teen Sherpa 2020 - S2","episode":"Mr.&Miss Teen Sherpa -S2","category":null,"contestant":{"voting_id":"02","name":"Pema Yanji sherpa"},"vote_count":1,"created_on":"2020-01-14T11:50:17.008950+05:45"},{"idx":"aQRcQ9gFiBH2gaECjbLopU","contest":"Mr. & Miss Teen Sherpa 2020 - S2","episode":"Mr.&Miss Teen Sherpa -S2","category":null,"contestant":{"voting_id":"02","name":"Pema Yanji sherpa"},"vote_count":1,"created_on":"2020-01-14T11:50:05.435734+05:45"},{"idx":"ZjWrzUHaZEM66NfKZ5UxJk","contest":"Mr. & Miss Teen Sherpa 2020 - S2","episode":"Mr.&Miss Teen Sherpa -S2","category":null,"contestant":{"voting_id":"02","name":"Pema Yanji sherpa"},"vote_count":1,"created_on":"2020-01-14T11:49:54.237307+05:45"},{"idx":"PpVLNv3rwJ5WK85GZYfXgk","contest":"Mr. & Miss Teen Sherpa 2020 - S2","episode":"Mr.&Miss Teen Sherpa -S2","category":null,"contestant":{"voting_id":"12","name":"Tshering Dolkar Sherpa"},"vote_count":500,"created_on":"2020-01-14T11:48:41.470378+05:45"},{"idx":"LGaAsp2T3jCRNmMCuz5sjh","contest":"Mr. & Miss Teen Sherpa 2020 - S2","episode":"Mr.&Miss Teen Sherpa -S2","category":null,"contestant":{"voting_id":"02","name":"Pema Yanji sherpa"},"vote_count":1,"created_on":"2020-01-14T11:46:26.206196+05:45"},{"idx":"QPpejcH7Wa53NeEqofDp5X","contest":"Mr. & Miss Teen Sherpa 2020 - S2","episode":"Mr.&Miss Teen Sherpa -S2","category":null,"contestant":{"voting_id":"02","name":"Pema Yanji sherpa"},"vote_count":1,"created_on":"2020-01-14T11:45:54.833916+05:45"},{"idx":"YbQ4Sqt2J5YMwZFHZm2v6R","contest":"Mr. & Miss Teen Sherpa 2020 - S2","episode":"Mr.&Miss Teen Sherpa -S2","category":null,"contestant":{"voting_id":"02","name":"Pema Yanji sherpa"},"vote_count":1,"created_on":"2020-01-14T11:45:39.448754+05:45"},{"idx":"gAjoASgE2PEyktjSwg2ZeM","contest":"Mr. & Miss Teen Sherpa 2020 - S2","episode":"Mr.&Miss Teen Sherpa -S2","category":null,"contestant":{"voting_id":"02","name":"Pema Yanji sherpa"},"vote_count":1,"created_on":"2020-01-14T11:45:25.176459+05:45"},{"idx":"CCi7dhRYyBJEYBMEDYvTVS","contest":"Mr. & Miss Teen Sherpa 2020 - S2","episode":"Mr.&Miss Teen Sherpa -S2","category":null,"contestant":{"voting_id":"02","name":"Pema Yanji sherpa"},"vote_count":1,"created_on":"2020-01-14T11:45:09.935377+05:45"},{"idx":"WwhgwvDQ6zsQFPmkUcAg6i","contest":"Mr. & Miss Teen Sherpa 2020 - S2","episode":"Mr.&Miss Teen Sherpa -S2","category":null,"contestant":{"voting_id":"02","name":"Pema Yanji sherpa"},"vote_count":1,"created_on":"2020-01-14T11:44:57.233617+05:45"},{"idx":"fg2TWDzCawV4iAqfgW3tke","contest":"Mr. & Miss Teen Sherpa 2020 - S2","episode":"Mr.&Miss Teen Sherpa -S2","category":null,"contestant":{"voting_id":"02","name":"Pema Yanji sherpa"},"vote_count":1,"created_on":"2020-01-14T11:44:42.343599+05:45"},{"idx":"k7fizWwZSxwYPdDi3b62SZ","contest":"Mr. & Miss Teen Sherpa 2020 - S2","episode":"Mr.&Miss Teen Sherpa -S2","category":null,"contestant":{"voting_id":"02","name":"Pema Yanji sherpa"},"vote_count":1,"created_on":"2020-01-14T11:44:28.136205+05:45"},{"idx":"i83gZmpkgvLSEHt5VjhmQY","contest":"Mr. & Miss Teen Sherpa 2020 - S2","episode":"Mr.&Miss Teen Sherpa -S2","category":null,"contestant":{"voting_id":"02","name":"Pema Yanji sherpa"},"vote_count":1,"created_on":"2020-01-14T11:44:16.730557+05:45"},{"idx":"bF5qYpvSKddoysQbBic6MM","contest":"Mr. & Miss Teen Sherpa 2020 - S2","episode":"Mr.&Miss Teen Sherpa -S2","category":null,"contestant":{"voting_id":"02","name":"Pema Yanji sherpa"},"vote_count":1,"created_on":"2020-01-14T11:44:04.133179+05:45"},{"idx":"ppWL65Yvx6UaV3rmiihq7k","contest":"Mr. & Miss Teen Sherpa 2020 - S2","episode":"Mr.&Miss Teen Sherpa -S2","category":null,"contestant":{"voting_id":"02","name":"Pema Yanji sherpa"},"vote_count":1,"created_on":"2020-01-14T11:43:51.433645+05:45"},{"idx":"PoMRtLyNVcy4KiW5hZL7e6","contest":"Mr. & Miss Teen Sherpa 2020 - S2","episode":"Mr.&Miss Teen Sherpa -S2","category":null,"contestant":{"voting_id":"02","name":"Pema Yanji sherpa"},"vote_count":1,"created_on":"2020-01-14T11:43:27.457343+05:45"},{"idx":"5HMM7zM3Vrf2WLE4WMGaY4","contest":"Model Superstar","episode":"Model Superstar","category":null,"contestant":{"voting_id":"13","name":"Prashant Shah"},"vote_count":1,"created_on":"2020-01-14T11:42:29.804870+05:45"},{"idx":"irho5D7Y72rEiCr7iijBXo","contest":"Mr. & Miss Teen Sherpa 2020 - S2","episode":"Mr.&Miss Teen Sherpa -S2","category":null,"contestant":{"voting_id":"02","name":"Pema Yanji sherpa"},"vote_count":1,"created_on":"2020-01-14T11:42:29.724541+05:45"},{"idx":"oso4Ho2BRFn2aGZ5HRggAZ","contest":"Mr. & Miss Teen Sherpa 2020 - S2","episode":"Mr.&Miss Teen Sherpa -S2","category":null,"contestant":{"voting_id":"02","name":"Pema Yanji sherpa"},"vote_count":1,"created_on":"2020-01-14T11:42:22.825278+05:45"},{"idx":"tWHmwqXZaecc7FcuoSE9tF","contest":"Mr. & Miss Teen Sherpa 2020 - S2","episode":"Mr.&Miss Teen Sherpa -S2","category":null,"contestant":{"voting_id":"02","name":"Pema Yanji sherpa"},"vote_count":1,"created_on":"2020-01-14T11:42:11.258719+05:45"},{"idx":"eeyM546DF7w5YMnsbumpC6","contest":"Mr. & Miss Teen Sherpa 2020 - S2","episode":"Mr.&Miss Teen Sherpa -S2","category":null,"contestant":{"voting_id":"02","name":"Pema Yanji sherpa"},"vote_count":1,"created_on":"2020-01-14T11:42:02.349750+05:45"}]}