{"total_pages":275,"total_records":13717,"next":"https://khalti.com/api/v2/vuservote/?page=58","previous":"https://khalti.com/api/v2/vuservote/?page=56","record_range":[2801,2850],"current_page":57,"records":[{"idx":"SXFiMuGqdM7uzbs2xXbAR4","contest":"Mr. & Miss Teen Sherpa 2020 - S2","episode":"Mr.&Miss Teen Sherpa -S2","category":null,"contestant":{"voting_id":"02","name":"Pema Yanji sherpa"},"vote_count":1,"created_on":"2020-01-14T08:59:08.995588+05:45"},{"idx":"HEMNy5Pwy6nPwizqYyRYWS","contest":"Mr. & Miss Teen Sherpa 2020 - S2","episode":"Mr.&Miss Teen Sherpa -S2","category":null,"contestant":{"voting_id":"02","name":"Pema Yanji sherpa"},"vote_count":1,"created_on":"2020-01-14T08:59:01.303430+05:45"},{"idx":"qKzQ9cNQJdgUUu38scWwqA","contest":"Mr. & Miss Teen Sherpa 2020 - S2","episode":"Mr.&Miss Teen Sherpa -S2","category":null,"contestant":{"voting_id":"02","name":"Pema Yanji sherpa"},"vote_count":1,"created_on":"2020-01-14T08:58:53.563367+05:45"},{"idx":"GTcBPf7SQgNQNS8o6Ryf2U","contest":"Mr. & Miss Teen Sherpa 2020 - S2","episode":"Mr.&Miss Teen Sherpa -S2","category":null,"contestant":{"voting_id":"02","name":"Pema Yanji sherpa"},"vote_count":1,"created_on":"2020-01-14T08:58:45.358904+05:45"},{"idx":"ZoqdzoB4CDy8UhJjyaZcRb","contest":"Mr. & Miss Teen Sherpa 2020 - S2","episode":"Mr.&Miss Teen Sherpa -S2","category":null,"contestant":{"voting_id":"02","name":"Pema Yanji sherpa"},"vote_count":1,"created_on":"2020-01-14T08:58:37.921872+05:45"},{"idx":"YLBk2BnSMUoVGpFeJBqzh3","contest":"Mr. & Miss Teen Sherpa 2020 - S2","episode":"Mr.&Miss Teen Sherpa -S2","category":null,"contestant":{"voting_id":"02","name":"Pema Yanji sherpa"},"vote_count":1,"created_on":"2020-01-14T08:58:30.689806+05:45"},{"idx":"cfgPgPKSDhmnVwAjhnFp4M","contest":"Mr. & Miss Teen Sherpa 2020 - S2","episode":"Mr.&Miss Teen Sherpa -S2","category":null,"contestant":{"voting_id":"02","name":"Pema Yanji sherpa"},"vote_count":1,"created_on":"2020-01-14T08:58:20.251575+05:45"},{"idx":"T6sZminBvvevo4RaUPVsrP","contest":"Mr. & Miss Teen Sherpa 2020 - S2","episode":"Mr.&Miss Teen Sherpa -S2","category":null,"contestant":{"voting_id":"02","name":"Pema Yanji sherpa"},"vote_count":1,"created_on":"2020-01-14T08:58:10.765470+05:45"},{"idx":"TjpzgUzPUdHp8wLBa3bLP5","contest":"Mr. & Miss Teen Sherpa 2020 - S2","episode":"Mr.&Miss Teen Sherpa -S2","category":null,"contestant":{"voting_id":"02","name":"Pema Yanji sherpa"},"vote_count":1,"created_on":"2020-01-14T08:58:03.801424+05:45"},{"idx":"YeE23Ay4pEGfmWdGhphXef","contest":"Mr. & Miss Teen Sherpa 2020 - S2","episode":"Mr.&Miss Teen Sherpa -S2","category":null,"contestant":{"voting_id":"02","name":"Pema Yanji sherpa"},"vote_count":1,"created_on":"2020-01-14T08:57:55.404189+05:45"},{"idx":"4PSJSpTdpus9c8Rgiidxjj","contest":"Mr. & Miss Teen Sherpa 2020 - S2","episode":"Mr.&Miss Teen Sherpa -S2","category":null,"contestant":{"voting_id":"02","name":"Pema Yanji sherpa"},"vote_count":1,"created_on":"2020-01-14T08:57:47.829553+05:45"},{"idx":"PqQZ88qYzr3NWyMByHxVaH","contest":"Mr. & Miss Teen Sherpa 2020 - S2","episode":"Mr.&Miss Teen Sherpa -S2","category":null,"contestant":{"voting_id":"02","name":"Pema Yanji sherpa"},"vote_count":1,"created_on":"2020-01-14T08:57:40.001403+05:45"},{"idx":"EjZACMU8fK2xghJbo3EiZe","contest":"Mr. & Miss Teen Sherpa 2020 - S2","episode":"Mr.&Miss Teen Sherpa -S2","category":null,"contestant":{"voting_id":"02","name":"Pema Yanji sherpa"},"vote_count":1,"created_on":"2020-01-14T08:57:30.122403+05:45"},{"idx":"T4Z5V3Yt32Utn2d9Tsx2CQ","contest":"Mr. & Miss Teen Sherpa 2020 - S2","episode":"Mr.&Miss Teen Sherpa -S2","category":null,"contestant":{"voting_id":"02","name":"Pema Yanji sherpa"},"vote_count":1,"created_on":"2020-01-14T08:57:22.076466+05:45"},{"idx":"sW9XLpmEobzkYi35EyZ8aS","contest":"NEPALBHASA STAR MUSIC VIDEO AWARDS-2019","episode":null,"category":"BEST DEBUT SINGER, MALE","contestant":{"voting_id":"16B","name":"Raj Kumar Manandhar"},"vote_count":500,"created_on":"2020-01-14T08:51:56.496806+05:45"},{"idx":"MXJDn5V3SpRuzkX29bjr8P","contest":"Mr. & Miss Teen Sherpa 2020 - S2","episode":"Mr.&Miss Teen Sherpa -S2","category":null,"contestant":{"voting_id":"22","name":"Lhakpa Sange Sherpa"},"vote_count":1,"created_on":"2020-01-14T08:47:58.745573+05:45"},{"idx":"LzSCj5rQUUuvGQMVTpXVw6","contest":"Mr. & Miss Teen Sherpa 2020 - S2","episode":"Mr.&Miss Teen Sherpa -S2","category":null,"contestant":{"voting_id":"22","name":"Lhakpa Sange Sherpa"},"vote_count":1,"created_on":"2020-01-14T08:46:50.050883+05:45"},{"idx":"qr79CMeBTweKR5aa55wjFT","contest":"Mr. & Miss Teen Sherpa 2020 - S2","episode":"Mr.&Miss Teen Sherpa -S2","category":null,"contestant":{"voting_id":"22","name":"Lhakpa Sange Sherpa"},"vote_count":1,"created_on":"2020-01-14T08:46:10.696294+05:45"},{"idx":"dPoWYtzacDdHU7tavQe5pV","contest":"NEPALBHASA STAR MUSIC VIDEO AWARDS-2019","episode":null,"category":"BEST DEBUT SINGER, MALE","contestant":{"voting_id":"16B","name":"Raj Kumar Manandhar"},"vote_count":200,"created_on":"2020-01-14T08:45:04.495178+05:45"},{"idx":"VysqJq6NA9fqdqTBfYBQLD","contest":"Model Superstar","episode":"Model Superstar","category":null,"contestant":{"voting_id":"07","name":"Narman Malla"},"vote_count":5,"created_on":"2020-01-14T07:44:32.891970+05:45"},{"idx":"iMLSNBg7Kh6KXkm4KLRedd","contest":"Model Superstar","episode":"Model Superstar","category":null,"contestant":{"voting_id":"07","name":"Narman Malla"},"vote_count":5,"created_on":"2020-01-14T07:44:07.609514+05:45"},{"idx":"FLbF83r2zLjgAKfDAXAvEg","contest":"Model Superstar","episode":"Model Superstar","category":null,"contestant":{"voting_id":"07","name":"Narman Malla"},"vote_count":1,"created_on":"2020-01-14T07:43:55.186771+05:45"},{"idx":"HbHAWz6cfaGFn8aS8dNsFe","contest":"Model Superstar","episode":"Model Superstar","category":null,"contestant":{"voting_id":"07","name":"Narman Malla"},"vote_count":25,"created_on":"2020-01-14T07:43:40.798400+05:45"},{"idx":"2F2eVkcqF5oBiSrKgTe7t2","contest":"Model Superstar","episode":"Model Superstar","category":null,"contestant":{"voting_id":"07","name":"Narman Malla"},"vote_count":5,"created_on":"2020-01-14T07:43:25.556053+05:45"},{"idx":"RoYdxa3dSQMuFKYiNQGPie","contest":"NEPALBHASA STAR MUSIC VIDEO AWARDS-2019","episode":null,"category":"THE RISING STAR SINGER","contestant":{"voting_id":"21A","name":"Macha Raja Maharjan"},"vote_count":1,"created_on":"2020-01-14T07:30:04.542035+05:45"},{"idx":"MSBauxD7NPSZn7PXAL9Df5","contest":"Model Superstar","episode":"Model Superstar","category":null,"contestant":{"voting_id":"04","name":"Sabita Maharjan"},"vote_count":1,"created_on":"2020-01-14T06:43:19.327967+05:45"},{"idx":"KQMQSifBJpVuYuoGDadXPT","contest":"Model Superstar","episode":"Model Superstar","category":null,"contestant":{"voting_id":"04","name":"Sabita Maharjan"},"vote_count":1,"created_on":"2020-01-14T06:42:50.802454+05:45"},{"idx":"vkTk7hb38qsG9yq2MQ3GaQ","contest":"Model Superstar","episode":"Model Superstar","category":null,"contestant":{"voting_id":"04","name":"Sabita Maharjan"},"vote_count":1,"created_on":"2020-01-14T06:42:17.976406+05:45"},{"idx":"MvKQda6tEZetJvh8UAqRMJ","contest":"Model Superstar","episode":"Model Superstar","category":null,"contestant":{"voting_id":"04","name":"Sabita Maharjan"},"vote_count":1,"created_on":"2020-01-14T06:41:50.533994+05:45"},{"idx":"KKfkyuTCYP7qjjzBuaWwFo","contest":"Mr. & Miss Teen Sherpa 2020 - S2","episode":"Mr.&Miss Teen Sherpa -S2","category":null,"contestant":{"voting_id":"02","name":"Pema Yanji sherpa"},"vote_count":1,"created_on":"2020-01-14T03:31:26.035458+05:45"},{"idx":"9864snPrmSLBEDEif5Bv7F","contest":"Mr. & Miss Teen Sherpa 2020 - S2","episode":"Mr.&Miss Teen Sherpa -S2","category":null,"contestant":{"voting_id":"02","name":"Pema Yanji sherpa"},"vote_count":1,"created_on":"2020-01-14T01:16:06.723665+05:45"},{"idx":"TNVXVZvrMWmSPFycTz42aM","contest":"Mr. & Miss Teen Sherpa 2020 - S2","episode":"Mr.&Miss Teen Sherpa -S2","category":null,"contestant":{"voting_id":"01","name":"Lhamu Sherpa"},"vote_count":1,"created_on":"2020-01-14T01:15:58.489594+05:45"},{"idx":"CS72NNGjp4DSjRXks5q3P5","contest":"Mr. & Miss Teen Sherpa 2020 - S2","episode":"Mr.&Miss Teen Sherpa -S2","category":null,"contestant":{"voting_id":"02","name":"Pema Yanji sherpa"},"vote_count":1,"created_on":"2020-01-14T01:15:47.425402+05:45"},{"idx":"YsVgY26sPJnNX3jeNN8yAN","contest":"Mr. & Miss Teen Sherpa 2020 - S2","episode":"Mr.&Miss Teen Sherpa -S2","category":null,"contestant":{"voting_id":"02","name":"Pema Yanji sherpa"},"vote_count":1,"created_on":"2020-01-14T01:15:38.710919+05:45"},{"idx":"x6EvMaKhAK9Pn5fa3zx36M","contest":"Mr. & Miss Teen Sherpa 2020 - S2","episode":"Mr.&Miss Teen Sherpa -S2","category":null,"contestant":{"voting_id":"02","name":"Pema Yanji sherpa"},"vote_count":1,"created_on":"2020-01-14T01:15:29.784912+05:45"},{"idx":"ArsAmbUDT4ZBPH9HHnoRBZ","contest":"Mr. & Miss Teen Sherpa 2020 - S2","episode":"Mr.&Miss Teen Sherpa -S2","category":null,"contestant":{"voting_id":"08","name":"Angdali Sherpa"},"vote_count":1,"created_on":"2020-01-14T00:38:37.076176+05:45"},{"idx":"BPHEPiwPGbguP7CsHePpm4","contest":"Mr. & Miss Teen Sherpa 2020 - S2","episode":"Mr.&Miss Teen Sherpa -S2","category":null,"contestant":{"voting_id":"08","name":"Angdali Sherpa"},"vote_count":1,"created_on":"2020-01-14T00:38:23.976847+05:45"},{"idx":"HX6KwVmxVA8Du5cDkymCcH","contest":"Mr. & Miss Teen Sherpa 2020 - S2","episode":"Mr.&Miss Teen Sherpa -S2","category":null,"contestant":{"voting_id":"08","name":"Angdali Sherpa"},"vote_count":1,"created_on":"2020-01-14T00:38:10.974525+05:45"},{"idx":"ti2mzUEPu5YRKYnwQC7Dea","contest":"Mr. & Miss Teen Sherpa 2020 - S2","episode":"Mr.&Miss Teen Sherpa -S2","category":null,"contestant":{"voting_id":"08","name":"Angdali Sherpa"},"vote_count":1,"created_on":"2020-01-14T00:37:58.440731+05:45"},{"idx":"nCpUsxwUj4wokhzJXe3Pdc","contest":"Mr. & Miss Teen Sherpa 2020 - S2","episode":"Mr.&Miss Teen Sherpa -S2","category":null,"contestant":{"voting_id":"08","name":"Angdali Sherpa"},"vote_count":1,"created_on":"2020-01-14T00:37:46.212824+05:45"},{"idx":"AShWNMcLucjbrJdCdg5svK","contest":"Mr. & Miss Teen Sherpa 2020 - S2","episode":"Mr.&Miss Teen Sherpa -S2","category":null,"contestant":{"voting_id":"08","name":"Angdali Sherpa"},"vote_count":1,"created_on":"2020-01-14T00:32:17.774487+05:45"},{"idx":"D7uLVAaMkEm6butLz3sBFF","contest":"Mr. & Miss Teen Sherpa 2020 - S2","episode":"Mr.&Miss Teen Sherpa -S2","category":null,"contestant":{"voting_id":"08","name":"Angdali Sherpa"},"vote_count":1,"created_on":"2020-01-14T00:32:03.717619+05:45"},{"idx":"QCHzzwyT7vt5GKjdNstwHf","contest":"Mr. & Miss Teen Sherpa 2020 - S2","episode":"Mr.&Miss Teen Sherpa -S2","category":null,"contestant":{"voting_id":"08","name":"Angdali Sherpa"},"vote_count":1,"created_on":"2020-01-14T00:32:03.533738+05:45"},{"idx":"WPZqwDcyQnJUKA6ZGLbP4N","contest":"Mr. & Miss Teen Sherpa 2020 - S2","episode":"Mr.&Miss Teen Sherpa -S2","category":null,"contestant":{"voting_id":"08","name":"Angdali Sherpa"},"vote_count":1,"created_on":"2020-01-14T00:31:47.346223+05:45"},{"idx":"Urpmt2QMG7Hvayt3oPzv4P","contest":"Mr. & Miss Teen Sherpa 2020 - S2","episode":"Mr.&Miss Teen Sherpa -S2","category":null,"contestant":{"voting_id":"08","name":"Angdali Sherpa"},"vote_count":1,"created_on":"2020-01-14T00:31:21.211213+05:45"},{"idx":"Ju2wRp8KgxK3WRN7PQeCNo","contest":"Mr. & Miss Teen Sherpa 2020 - S2","episode":"Mr.&Miss Teen Sherpa -S2","category":null,"contestant":{"voting_id":"08","name":"Angdali Sherpa"},"vote_count":1,"created_on":"2020-01-14T00:31:07.264989+05:45"},{"idx":"ys7DyUhQwQ76VPzJ9SPc6J","contest":"Mr. & Miss Teen Sherpa 2020 - S2","episode":"Mr.&Miss Teen Sherpa -S2","category":null,"contestant":{"voting_id":"08","name":"Angdali Sherpa"},"vote_count":1,"created_on":"2020-01-14T00:30:06.240412+05:45"},{"idx":"5dZS9xeEwxuLkAumthZiPW","contest":"Mr. & Miss Teen Sherpa 2020 - S2","episode":"Mr.&Miss Teen Sherpa -S2","category":null,"contestant":{"voting_id":"08","name":"Angdali Sherpa"},"vote_count":1,"created_on":"2020-01-14T00:29:48.312315+05:45"},{"idx":"ZvjJmf4j4VUQT4Z3zKSNtJ","contest":"Mr. & Miss Teen Sherpa 2020 - S2","episode":"Mr.&Miss Teen Sherpa -S2","category":null,"contestant":{"voting_id":"08","name":"Angdali Sherpa"},"vote_count":1,"created_on":"2020-01-14T00:29:03.082352+05:45"},{"idx":"Tpgox6ZjEMH4SepCneLxok","contest":"Mr. & Miss Teen Sherpa 2020 - S2","episode":"Mr.&Miss Teen Sherpa -S2","category":null,"contestant":{"voting_id":"08","name":"Angdali Sherpa"},"vote_count":1,"created_on":"2020-01-14T00:28:39.502966+05:45"}]}