{"total_pages":275,"total_records":13717,"next":"https://khalti.com/api/v2/vuservote/?page=7","previous":"https://khalti.com/api/v2/vuservote/?page=5","record_range":[251,300],"current_page":6,"records":[{"idx":"8LhkvYFBKBGzbjrVULJRMk","contest":"Locus 2020","episode":"Locus 2020","category":null,"contestant":{"voting_id":"01","name":"Project Fire Robo"},"vote_count":1,"created_on":"2020-02-02T19:59:43.287376+05:45"},{"idx":"ebUZ3yTg7xduihJJPmxrzT","contest":"Locus 2020","episode":"Locus 2020","category":null,"contestant":{"voting_id":"29","name":"Project Accident Alert System"},"vote_count":1,"created_on":"2020-02-02T19:46:21.360979+05:45"},{"idx":"uF7sjHEtdaFLtksdtrK3A4","contest":"Locus 2020","episode":"Locus 2020","category":null,"contestant":{"voting_id":"46","name":"Project Immune"},"vote_count":1,"created_on":"2020-02-02T19:41:56.777741+05:45"},{"idx":"FfCjuTgrFjUUsFbfL5kJMJ","contest":"Model Superstar","episode":"Model Superstar Finale","category":null,"contestant":{"voting_id":"01","name":"Sajina Subba"},"vote_count":1,"created_on":"2020-02-02T19:38:17.710764+05:45"},{"idx":"EqJwcgzKt57g7rPEVyxz4C","contest":"Locus 2020","episode":"Locus 2020","category":null,"contestant":{"voting_id":"31","name":"Project 3 in 1 Cartesian 3D Printer"},"vote_count":1,"created_on":"2020-02-02T19:37:50.967880+05:45"},{"idx":"DhAKeWuQdayM62gy8yUvKH","contest":"Locus 2020","episode":"Locus 2020","category":null,"contestant":{"voting_id":"01","name":"Project Fire Robo"},"vote_count":1,"created_on":"2020-02-02T19:33:35.455648+05:45"},{"idx":"scLMvB7ErBhLyZnLoVFnjg","contest":"Locus 2020","episode":"Locus 2020","category":null,"contestant":{"voting_id":"15","name":"Project Residential Drainage Water Purification System"},"vote_count":1,"created_on":"2020-02-02T19:26:18.283262+05:45"},{"idx":"KH5mMvsaELg4EcyT82Ee3d","contest":"Model Superstar","episode":"Model Superstar Finale","category":null,"contestant":{"voting_id":"04","name":"Sabita Maharjan"},"vote_count":1,"created_on":"2020-02-02T19:25:31.126297+05:45"},{"idx":"sRycSXRyL4BsWshKggeDeJ","contest":"Locus 2020","episode":"Locus 2020","category":null,"contestant":{"voting_id":"08","name":"Project A Smart Approach Towards Lifestyle in Nepal"},"vote_count":1,"created_on":"2020-02-02T19:25:24.503588+05:45"},{"idx":"3jJtN2xTKTuUvQdiH6oTY8","contest":"Model Superstar","episode":"Model Superstar Finale","category":null,"contestant":{"voting_id":"01","name":"Sajina Subba"},"vote_count":1,"created_on":"2020-02-02T19:24:51.797455+05:45"},{"idx":"kb5b5mSxCDxXEwZvT5g6F7","contest":"Locus 2020","episode":"Locus 2020","category":null,"contestant":{"voting_id":"34","name":"Project Femicoders"},"vote_count":1,"created_on":"2020-02-02T19:21:25.425356+05:45"},{"idx":"LnrtWFdrUJ7XSjXArfgJ2c","contest":"Locus 2020","episode":"Locus 2020","category":null,"contestant":{"voting_id":"66","name":"Project Alexa Pi"},"vote_count":1,"created_on":"2020-02-02T19:20:47.841454+05:45"},{"idx":"25GSbD75XLkRcZGQXmTPR4","contest":"Locus 2020","episode":"Locus 2020","category":null,"contestant":{"voting_id":"66","name":"Project Alexa Pi"},"vote_count":1,"created_on":"2020-02-02T19:19:29.128249+05:45"},{"idx":"5XyrdpkwYWiDDXcPxyiDah","contest":"Locus 2020","episode":"Locus 2020","category":null,"contestant":{"voting_id":"92","name":"Project Bhakari Shopping Nepal"},"vote_count":1,"created_on":"2020-02-02T19:18:30.359938+05:45"},{"idx":"5eTG939CEHzS82snyieD7P","contest":"Locus 2020","episode":"Locus 2020","category":null,"contestant":{"voting_id":"32","name":"Project Health and Environment Checker"},"vote_count":1,"created_on":"2020-02-02T19:17:38.307070+05:45"},{"idx":"KkXgZjF9tXZq89XUAZuBsi","contest":"Locus 2020","episode":"Locus 2020","category":null,"contestant":{"voting_id":"66","name":"Project Alexa Pi"},"vote_count":1,"created_on":"2020-02-02T19:17:10.404670+05:45"},{"idx":"ZZixgzkWHxs6Ro4pUm4WQN","contest":"Model Superstar","episode":"Model Superstar Finale","category":null,"contestant":{"voting_id":"03","name":"Smriti Shah"},"vote_count":1,"created_on":"2020-02-02T19:16:58.258150+05:45"},{"idx":"aNHnhDWFZfcB9H8TA9ojDB","contest":"Model Superstar","episode":"Model Superstar Finale","category":null,"contestant":{"voting_id":"02","name":"Srijana Basnet"},"vote_count":1,"created_on":"2020-02-02T19:16:41.256191+05:45"},{"idx":"SBuCAgsygokhDmWq7s8Ga8","contest":"Locus 2020","episode":"Locus 2020","category":null,"contestant":{"voting_id":"66","name":"Project Alexa Pi"},"vote_count":1,"created_on":"2020-02-02T19:15:29.045297+05:45"},{"idx":"HCej9CdfpkMvZ682wZNCDf","contest":"Locus 2020","episode":"Locus 2020","category":null,"contestant":{"voting_id":"34","name":"Project Femicoders"},"vote_count":1,"created_on":"2020-02-02T19:15:25.620361+05:45"},{"idx":"gbSdmVPSG8kCpfsMdJBjbU","contest":"Locus 2020","episode":"Locus 2020","category":null,"contestant":{"voting_id":"66","name":"Project Alexa Pi"},"vote_count":1,"created_on":"2020-02-02T19:14:28.164282+05:45"},{"idx":"XhFKxSASLL9ZcDwZfmmsea","contest":"Locus 2020","episode":"Locus 2020","category":null,"contestant":{"voting_id":"66","name":"Project Alexa Pi"},"vote_count":1,"created_on":"2020-02-02T19:13:44.533279+05:45"},{"idx":"8B2Tpa6Hp2C7hmeU73JKBQ","contest":"Locus 2020","episode":"Locus 2020","category":null,"contestant":{"voting_id":"46","name":"Project Immune"},"vote_count":1,"created_on":"2020-02-02T19:13:00.215870+05:45"},{"idx":"96nBZj6YVZ4Wm8bzo6ZLTa","contest":"Locus 2020","episode":"Locus 2020","category":null,"contestant":{"voting_id":"15","name":"Project Residential Drainage Water Purification System"},"vote_count":1,"created_on":"2020-02-02T19:11:45.508690+05:45"},{"idx":"Ln29NiuSJTBiKaKCJ2oeX8","contest":"Locus 2020","episode":"Locus 2020","category":null,"contestant":{"voting_id":"31","name":"Project 3 in 1 Cartesian 3D Printer"},"vote_count":1,"created_on":"2020-02-02T19:06:47.293841+05:45"},{"idx":"fCwPmMq7ao7KDeNNovrMGJ","contest":"Locus 2020","episode":"Locus 2020","category":null,"contestant":{"voting_id":"66","name":"Project Alexa Pi"},"vote_count":1,"created_on":"2020-02-02T19:04:26.833945+05:45"},{"idx":"KbYyTmEnpKXXSBasff9zxc","contest":"Locus 2020","episode":"Locus 2020","category":null,"contestant":{"voting_id":"04","name":"Project IRB -Robo Arm"},"vote_count":1,"created_on":"2020-02-02T19:02:53.443884+05:45"},{"idx":"FQHBVAaqHRxLKvkCcBtFRk","contest":"Locus 2020","episode":"Locus 2020","category":null,"contestant":{"voting_id":"37","name":"Project Medico"},"vote_count":1,"created_on":"2020-02-02T18:52:33.865938+05:45"},{"idx":"wb2McFroEmwX2W5CqvwLGW","contest":"Locus 2020","episode":"Locus 2020","category":null,"contestant":{"voting_id":"01","name":"Project Fire Robo"},"vote_count":1,"created_on":"2020-02-02T18:47:14.017649+05:45"},{"idx":"EBpsPjukHFgRSnppFeEY5R","contest":"Model Superstar","episode":"Model Superstar Finale","category":null,"contestant":{"voting_id":"11","name":"Rachana Karki"},"vote_count":1,"created_on":"2020-02-02T18:47:11.348451+05:45"},{"idx":"2yzqEHjSQr9M7VTpRrywXR","contest":"Locus 2020","episode":"Locus 2020","category":null,"contestant":{"voting_id":"42","name":"Project P.I.M.P."},"vote_count":1,"created_on":"2020-02-02T18:46:45.472054+05:45"},{"idx":"nrnxEQ39rymALVGg3pVA76","contest":"Locus 2020","episode":"Locus 2020","category":null,"contestant":{"voting_id":"46","name":"Project Immune"},"vote_count":1,"created_on":"2020-02-02T18:45:52.672016+05:45"},{"idx":"b7mxVyPtYmyxtDN6Qdk4fG","contest":"Locus 2020","episode":"Locus 2020","category":null,"contestant":{"voting_id":"01","name":"Project Fire Robo"},"vote_count":1,"created_on":"2020-02-02T18:45:22.373813+05:45"},{"idx":"J7g8pBdhaVrq9hZ2vmmkoJ","contest":"Locus 2020","episode":"Locus 2020","category":null,"contestant":{"voting_id":"42","name":"Project P.I.M.P."},"vote_count":1,"created_on":"2020-02-02T18:44:34.247223+05:45"},{"idx":"7JYBjEvjtBxg9humkqtK9a","contest":"Locus 2020","episode":"Locus 2020","category":null,"contestant":{"voting_id":"92","name":"Project Bhakari Shopping Nepal"},"vote_count":500,"created_on":"2020-02-02T18:40:31.479532+05:45"},{"idx":"Lvx6529sCDHUvgWpkkwa7h","contest":"Locus 2020","episode":"Locus 2020","category":null,"contestant":{"voting_id":"92","name":"Project Bhakari Shopping Nepal"},"vote_count":500,"created_on":"2020-02-02T18:40:09.793538+05:45"},{"idx":"TckyeRrnGgKB4JU79VcYSB","contest":"Locus 2020","episode":"Locus 2020","category":null,"contestant":{"voting_id":"92","name":"Project Bhakari Shopping Nepal"},"vote_count":500,"created_on":"2020-02-02T18:39:45.381948+05:45"},{"idx":"sB4nLbigVCctjGzZ82foad","contest":"Locus 2020","episode":"Locus 2020","category":null,"contestant":{"voting_id":"92","name":"Project Bhakari Shopping Nepal"},"vote_count":500,"created_on":"2020-02-02T18:39:16.990507+05:45"},{"idx":"seGZHynkJt8cYtCSFt2NiW","contest":"Locus 2020","episode":"Locus 2020","category":null,"contestant":{"voting_id":"92","name":"Project Bhakari Shopping Nepal"},"vote_count":500,"created_on":"2020-02-02T18:38:51.154820+05:45"},{"idx":"XcLXSbEVdsS5Fh4NivLAFj","contest":"Locus 2020","episode":"Locus 2020","category":null,"contestant":{"voting_id":"93","name":"Earthquake Instance Information"},"vote_count":1,"created_on":"2020-02-02T18:34:35.346656+05:45"},{"idx":"wEEdsmBjc62xcR6ji7tJQ3","contest":"Locus 2020","episode":"Locus 2020","category":null,"contestant":{"voting_id":"01","name":"Project Fire Robo"},"vote_count":1,"created_on":"2020-02-02T18:32:02.567172+05:45"},{"idx":"nDagj4i6HU8hTEWgY8VyjG","contest":"Locus 2020","episode":"Locus 2020","category":null,"contestant":{"voting_id":"15","name":"Project Residential Drainage Water Purification System"},"vote_count":1,"created_on":"2020-02-02T18:31:59.789512+05:45"},{"idx":"jmUCB2aSGmn6CKee3HhzDV","contest":"Model Superstar","episode":"Model Superstar Finale","category":null,"contestant":{"voting_id":"07","name":"Narman Malla"},"vote_count":1,"created_on":"2020-02-02T18:30:49.877879+05:45"},{"idx":"Hu2SB2NFygGtJUeKerWhyP","contest":"Model Superstar","episode":"Model Superstar Finale","category":null,"contestant":{"voting_id":"04","name":"Sabita Maharjan"},"vote_count":1,"created_on":"2020-02-02T18:29:33.264152+05:45"},{"idx":"GPXV5DDLHs7xQB8AicFFQH","contest":"Model Superstar","episode":"Model Superstar Finale","category":null,"contestant":{"voting_id":"02","name":"Srijana Basnet"},"vote_count":1,"created_on":"2020-02-02T18:29:20.093675+05:45"},{"idx":"yC6HrGt2GKtAvdUrrgUu2i","contest":"Model Superstar","episode":"Model Superstar Finale","category":null,"contestant":{"voting_id":"01","name":"Sajina Subba"},"vote_count":1,"created_on":"2020-02-02T18:29:05.894127+05:45"},{"idx":"7v24rBsf9LZmf3x5o3DJV8","contest":"Model Superstar","episode":"Model Superstar Finale","category":null,"contestant":{"voting_id":"07","name":"Narman Malla"},"vote_count":1,"created_on":"2020-02-02T18:28:52.193295+05:45"},{"idx":"dNJdR64K5JVe5NPVc3BrZU","contest":"Model Superstar","episode":"Model Superstar Finale","category":null,"contestant":{"voting_id":"07","name":"Narman Malla"},"vote_count":1,"created_on":"2020-02-02T18:28:09.813931+05:45"},{"idx":"ZoaiN3zeC2iobwB4CuZCL3","contest":"Model Superstar","episode":"Model Superstar Finale","category":null,"contestant":{"voting_id":"07","name":"Narman Malla"},"vote_count":1,"created_on":"2020-02-02T18:27:54.076810+05:45"},{"idx":"FAq3L7p6aUXgxwNa2NWhV8","contest":"Model Superstar","episode":"Model Superstar Finale","category":null,"contestant":{"voting_id":"07","name":"Narman Malla"},"vote_count":1,"created_on":"2020-02-02T18:27:38.422159+05:45"}]}