{"total_pages":275,"total_records":13717,"next":"https://khalti.com/api/v2/vuservote/?page=61","previous":"https://khalti.com/api/v2/vuservote/?page=59","record_range":[2951,3000],"current_page":60,"records":[{"idx":"Q2LnkDUzH4dv8LH79PqJ3P","contest":"Mr. & Miss Teen Sherpa 2020 - S2","episode":"Mr.&Miss Teen Sherpa -S2","category":null,"contestant":{"voting_id":"02","name":"Pema Yanji sherpa"},"vote_count":1,"created_on":"2020-01-13T23:34:37.753387+05:45"},{"idx":"Qi8kTtsnisqmqLEQ8Wk2P9","contest":"Mr. & Miss Teen Sherpa 2020 - S2","episode":"Mr.&Miss Teen Sherpa -S2","category":null,"contestant":{"voting_id":"02","name":"Pema Yanji sherpa"},"vote_count":1,"created_on":"2020-01-13T23:34:29.117847+05:45"},{"idx":"Ug8GgjrSfs4eJUNs2zXPDd","contest":"Mr. & Miss Teen Sherpa 2020 - S2","episode":"Mr.&Miss Teen Sherpa -S2","category":null,"contestant":{"voting_id":"02","name":"Pema Yanji sherpa"},"vote_count":1,"created_on":"2020-01-13T23:34:21.802573+05:45"},{"idx":"MmDam3fmQyReevZthKPn5F","contest":"Mr. & Miss Teen Sherpa 2020 - S2","episode":"Mr.&Miss Teen Sherpa -S2","category":null,"contestant":{"voting_id":"02","name":"Pema Yanji sherpa"},"vote_count":1,"created_on":"2020-01-13T23:34:12.494868+05:45"},{"idx":"r7ic37LDJn7fuvmfx9ULyi","contest":"Mr. & Miss Teen Sherpa 2020 - S2","episode":"Mr.&Miss Teen Sherpa -S2","category":null,"contestant":{"voting_id":"02","name":"Pema Yanji sherpa"},"vote_count":1,"created_on":"2020-01-13T23:33:45.231781+05:45"},{"idx":"QRjk88PZdbzDMnHfKUvNUJ","contest":"Mr. & Miss Teen Sherpa 2020 - S2","episode":"Mr.&Miss Teen Sherpa -S2","category":null,"contestant":{"voting_id":"02","name":"Pema Yanji sherpa"},"vote_count":1,"created_on":"2020-01-13T23:33:34.116504+05:45"},{"idx":"eAkoumPXxv4qDQRfoBggZk","contest":"Mr. & Miss Teen Sherpa 2020 - S2","episode":"Mr.&Miss Teen Sherpa -S2","category":null,"contestant":{"voting_id":"02","name":"Pema Yanji sherpa"},"vote_count":1,"created_on":"2020-01-13T23:33:26.255522+05:45"},{"idx":"62UNzFQ4bxL8zvpnjrsvpH","contest":"Mr. & Miss Teen Sherpa 2020 - S2","episode":"Mr.&Miss Teen Sherpa -S2","category":null,"contestant":{"voting_id":"02","name":"Pema Yanji sherpa"},"vote_count":1,"created_on":"2020-01-13T23:33:09.952977+05:45"},{"idx":"KFPTTcHq3PzTTau6DdHewN","contest":"Mr. & Miss Teen Sherpa 2020 - S2","episode":"Mr.&Miss Teen Sherpa -S2","category":null,"contestant":{"voting_id":"02","name":"Pema Yanji sherpa"},"vote_count":1,"created_on":"2020-01-13T23:33:01.649254+05:45"},{"idx":"ipXnyhoz4QftoVoqAXicGA","contest":"Mr. & Miss Teen Sherpa 2020 - S2","episode":"Mr.&Miss Teen Sherpa -S2","category":null,"contestant":{"voting_id":"02","name":"Pema Yanji sherpa"},"vote_count":1,"created_on":"2020-01-13T23:32:39.640554+05:45"},{"idx":"Hv5TpTJeAhXFVVFzaPYW37","contest":"Mr. & Miss Teen Sherpa 2020 - S2","episode":"Mr.&Miss Teen Sherpa -S2","category":null,"contestant":{"voting_id":"02","name":"Pema Yanji sherpa"},"vote_count":1,"created_on":"2020-01-13T23:32:28.130516+05:45"},{"idx":"MCNWSxwJzztwdNYH9ik5Mj","contest":"Mr. & Miss Teen Sherpa 2020 - S2","episode":"Mr.&Miss Teen Sherpa -S2","category":null,"contestant":{"voting_id":"02","name":"Pema Yanji sherpa"},"vote_count":1,"created_on":"2020-01-13T23:32:18.875859+05:45"},{"idx":"eK24HXArDLhZbDnGbcNAh3","contest":"Mr. & Miss Teen Sherpa 2020 - S2","episode":"Mr.&Miss Teen Sherpa -S2","category":null,"contestant":{"voting_id":"02","name":"Pema Yanji sherpa"},"vote_count":1,"created_on":"2020-01-13T23:30:47.164295+05:45"},{"idx":"PYfuJJ5onMNJMgwQhEZRXf","contest":"Mr. & Miss Teen Sherpa 2020 - S2","episode":"Mr.&Miss Teen Sherpa -S2","category":null,"contestant":{"voting_id":"02","name":"Pema Yanji sherpa"},"vote_count":1,"created_on":"2020-01-13T23:30:08.265157+05:45"},{"idx":"fXG6Zg8engkD9pjndNndTd","contest":"Mr. & Miss Teen Sherpa 2020 - S2","episode":"Mr.&Miss Teen Sherpa -S2","category":null,"contestant":{"voting_id":"02","name":"Pema Yanji sherpa"},"vote_count":1,"created_on":"2020-01-13T23:29:54.325229+05:45"},{"idx":"53WjiJ7eFbDSBUJhEZQXDh","contest":"Mr. & Miss Teen Sherpa 2020 - S2","episode":"Mr.&Miss Teen Sherpa -S2","category":null,"contestant":{"voting_id":"02","name":"Pema Yanji sherpa"},"vote_count":1,"created_on":"2020-01-13T23:29:37.937094+05:45"},{"idx":"wrKfu3B4FCbKNn3njEpPj5","contest":"Mr. & Miss Teen Sherpa 2020 - S2","episode":"Mr.&Miss Teen Sherpa -S2","category":null,"contestant":{"voting_id":"02","name":"Pema Yanji sherpa"},"vote_count":1,"created_on":"2020-01-13T23:27:38.633047+05:45"},{"idx":"j428sCazu6ehy6yDwZvMBS","contest":"Mr. & Miss Teen Sherpa 2020 - S2","episode":"Mr.&Miss Teen Sherpa -S2","category":null,"contestant":{"voting_id":"02","name":"Pema Yanji sherpa"},"vote_count":1,"created_on":"2020-01-13T23:27:24.714155+05:45"},{"idx":"SaHXLRptWoUqjcC3q9Ai4n","contest":"Mr. & Miss Teen Sherpa 2020 - S2","episode":"Mr.&Miss Teen Sherpa -S2","category":null,"contestant":{"voting_id":"02","name":"Pema Yanji sherpa"},"vote_count":1,"created_on":"2020-01-13T23:27:11.320669+05:45"},{"idx":"R5H5CKgVbiB2HLZCSA2TkY","contest":"Mr. & Miss Teen Sherpa 2020 - S2","episode":"Mr.&Miss Teen Sherpa -S2","category":null,"contestant":{"voting_id":"02","name":"Pema Yanji sherpa"},"vote_count":1,"created_on":"2020-01-13T23:26:55.286666+05:45"},{"idx":"F5fGkKsWxDYKo9azpT5ffL","contest":"Mr. & Miss Teen Sherpa 2020 - S2","episode":"Mr.&Miss Teen Sherpa -S2","category":null,"contestant":{"voting_id":"02","name":"Pema Yanji sherpa"},"vote_count":1,"created_on":"2020-01-13T23:26:45.408629+05:45"},{"idx":"rwcnftGuTqKAKHC6Y9QuGe","contest":"Mr. & Miss Teen Sherpa 2020 - S2","episode":"Mr.&Miss Teen Sherpa -S2","category":null,"contestant":{"voting_id":"02","name":"Pema Yanji sherpa"},"vote_count":1,"created_on":"2020-01-13T23:26:42.824134+05:45"},{"idx":"VYU2G5A9NEk4tm5tLQe653","contest":"Mr. & Miss Teen Sherpa 2020 - S2","episode":"Mr.&Miss Teen Sherpa -S2","category":null,"contestant":{"voting_id":"02","name":"Pema Yanji sherpa"},"vote_count":1,"created_on":"2020-01-13T23:26:31.238650+05:45"},{"idx":"bdbxngHMqPFUjFaohoh2HK","contest":"Mr. & Miss Teen Sherpa 2020 - S2","episode":"Mr.&Miss Teen Sherpa -S2","category":null,"contestant":{"voting_id":"02","name":"Pema Yanji sherpa"},"vote_count":1,"created_on":"2020-01-13T23:26:20.662356+05:45"},{"idx":"4VJ3Ywa7TSfuwY6yhQstQQ","contest":"Mr. & Miss Teen Sherpa 2020 - S2","episode":"Mr.&Miss Teen Sherpa -S2","category":null,"contestant":{"voting_id":"02","name":"Pema Yanji sherpa"},"vote_count":1,"created_on":"2020-01-13T23:26:12.046891+05:45"},{"idx":"c3ifKMnAuVMMVPg3HFr85a","contest":"Mr. & Miss Teen Sherpa 2020 - S2","episode":"Mr.&Miss Teen Sherpa -S2","category":null,"contestant":{"voting_id":"02","name":"Pema Yanji sherpa"},"vote_count":1,"created_on":"2020-01-13T23:26:11.906820+05:45"},{"idx":"Q78hVpcvvxrEbjd5YDx2LW","contest":"Mr. & Miss Teen Sherpa 2020 - S2","episode":"Mr.&Miss Teen Sherpa -S2","category":null,"contestant":{"voting_id":"02","name":"Pema Yanji sherpa"},"vote_count":1,"created_on":"2020-01-13T23:26:03.877709+05:45"},{"idx":"QnFC6tzaA9nc7r8z9B64qk","contest":"Mr. & Miss Teen Sherpa 2020 - S2","episode":"Mr.&Miss Teen Sherpa -S2","category":null,"contestant":{"voting_id":"02","name":"Pema Yanji sherpa"},"vote_count":1,"created_on":"2020-01-13T23:26:03.165990+05:45"},{"idx":"PbY3fitu5G2BcFqtknF2YG","contest":"Mr. & Miss Teen Sherpa 2020 - S2","episode":"Mr.&Miss Teen Sherpa -S2","category":null,"contestant":{"voting_id":"02","name":"Pema Yanji sherpa"},"vote_count":1,"created_on":"2020-01-13T23:25:55.087528+05:45"},{"idx":"4KomSgJxgnMuvUf34MJ9LL","contest":"Mr. & Miss Teen Sherpa 2020 - S2","episode":"Mr.&Miss Teen Sherpa -S2","category":null,"contestant":{"voting_id":"02","name":"Pema Yanji sherpa"},"vote_count":1,"created_on":"2020-01-13T23:25:53.075665+05:45"},{"idx":"qDp6skKqMSx8nmPHNZCFJ5","contest":"Mr. & Miss Teen Sherpa 2020 - S2","episode":"Mr.&Miss Teen Sherpa -S2","category":null,"contestant":{"voting_id":"02","name":"Pema Yanji sherpa"},"vote_count":1,"created_on":"2020-01-13T23:25:42.848569+05:45"},{"idx":"jd2NscHi7ZHbLktFXTrGSG","contest":"Mr. & Miss Teen Sherpa 2020 - S2","episode":"Mr.&Miss Teen Sherpa -S2","category":null,"contestant":{"voting_id":"02","name":"Pema Yanji sherpa"},"vote_count":1,"created_on":"2020-01-13T23:25:31.385719+05:45"},{"idx":"HaKqpFnuDWsPPR3poRqJCX","contest":"Mr. & Miss Teen Sherpa 2020 - S2","episode":"Mr.&Miss Teen Sherpa -S2","category":null,"contestant":{"voting_id":"02","name":"Pema Yanji sherpa"},"vote_count":1,"created_on":"2020-01-13T23:25:26.521029+05:45"},{"idx":"3dvPspTMhnrv9xUtxahA94","contest":"Mr. & Miss Teen Sherpa 2020 - S2","episode":"Mr.&Miss Teen Sherpa -S2","category":null,"contestant":{"voting_id":"02","name":"Pema Yanji sherpa"},"vote_count":1,"created_on":"2020-01-13T23:25:18.043273+05:45"},{"idx":"bix9Xabn27EXsf6x5wBRkS","contest":"Mr. & Miss Teen Sherpa 2020 - S2","episode":"Mr.&Miss Teen Sherpa -S2","category":null,"contestant":{"voting_id":"02","name":"Pema Yanji sherpa"},"vote_count":1,"created_on":"2020-01-13T23:25:14.133697+05:45"},{"idx":"SMBQPRRHx9eYLSeLXZXhEN","contest":"Mr. & Miss Teen Sherpa 2020 - S2","episode":"Mr.&Miss Teen Sherpa -S2","category":null,"contestant":{"voting_id":"02","name":"Pema Yanji sherpa"},"vote_count":1,"created_on":"2020-01-13T23:25:04.359838+05:45"},{"idx":"6yu7uXt2YqWTMrV5uS8kcJ","contest":"Mr. & Miss Teen Sherpa 2020 - S2","episode":"Mr.&Miss Teen Sherpa -S2","category":null,"contestant":{"voting_id":"02","name":"Pema Yanji sherpa"},"vote_count":1,"created_on":"2020-01-13T23:24:59.326441+05:45"},{"idx":"qaCYE6qbmEfcZaXRZhfpsJ","contest":"Mr. & Miss Teen Sherpa 2020 - S2","episode":"Mr.&Miss Teen Sherpa -S2","category":null,"contestant":{"voting_id":"02","name":"Pema Yanji sherpa"},"vote_count":1,"created_on":"2020-01-13T23:24:51.678787+05:45"},{"idx":"osWh2bVXxhRmhocC6F2ccc","contest":"Mr. & Miss Teen Sherpa 2020 - S2","episode":"Mr.&Miss Teen Sherpa -S2","category":null,"contestant":{"voting_id":"02","name":"Pema Yanji sherpa"},"vote_count":1,"created_on":"2020-01-13T23:24:40.016581+05:45"},{"idx":"Q8xv3H55Rpi3XLF4i7JFej","contest":"Mr. & Miss Teen Sherpa 2020 - S2","episode":"Mr.&Miss Teen Sherpa -S2","category":null,"contestant":{"voting_id":"02","name":"Pema Yanji sherpa"},"vote_count":1,"created_on":"2020-01-13T23:24:21.473879+05:45"},{"idx":"4k24W7hncmyHfVmcYE7pok","contest":"Mr. & Miss Teen Sherpa 2020 - S2","episode":"Mr.&Miss Teen Sherpa -S2","category":null,"contestant":{"voting_id":"02","name":"Pema Yanji sherpa"},"vote_count":1,"created_on":"2020-01-13T23:24:21.318761+05:45"},{"idx":"dueREHrEaj5LJWi97ERDxn","contest":"Mr. & Miss Teen Sherpa 2020 - S2","episode":"Mr.&Miss Teen Sherpa -S2","category":null,"contestant":{"voting_id":"02","name":"Pema Yanji sherpa"},"vote_count":1,"created_on":"2020-01-13T23:24:02.401566+05:45"},{"idx":"fHPxFHv2sBhJP6Nr89jxMk","contest":"Mr. & Miss Teen Sherpa 2020 - S2","episode":"Mr.&Miss Teen Sherpa -S2","category":null,"contestant":{"voting_id":"02","name":"Pema Yanji sherpa"},"vote_count":1,"created_on":"2020-01-13T23:23:30.797214+05:45"},{"idx":"4uVqwHpvAKDyZ7WMvX8UM9","contest":"Mr. & Miss Teen Sherpa 2020 - S2","episode":"Mr.&Miss Teen Sherpa -S2","category":null,"contestant":{"voting_id":"02","name":"Pema Yanji sherpa"},"vote_count":1,"created_on":"2020-01-13T23:23:17.966658+05:45"},{"idx":"XgpZUsZ3d3W5W523fuMDzP","contest":"Mr. & Miss Teen Sherpa 2020 - S2","episode":"Mr.&Miss Teen Sherpa -S2","category":null,"contestant":{"voting_id":"02","name":"Pema Yanji sherpa"},"vote_count":1,"created_on":"2020-01-13T23:23:09.627558+05:45"},{"idx":"xoyTwvnpPjUATed5SgmpkV","contest":"Mr. & Miss Teen Sherpa 2020 - S2","episode":"Mr.&Miss Teen Sherpa -S2","category":null,"contestant":{"voting_id":"02","name":"Pema Yanji sherpa"},"vote_count":1,"created_on":"2020-01-13T23:23:00.778342+05:45"},{"idx":"LEStbSFTBYMmiwc9crddyE","contest":"Mr. & Miss Teen Sherpa 2020 - S2","episode":"Mr.&Miss Teen Sherpa -S2","category":null,"contestant":{"voting_id":"02","name":"Pema Yanji sherpa"},"vote_count":1,"created_on":"2020-01-13T23:22:51.736106+05:45"},{"idx":"97oeGq4FwPMGTHBEQs74vW","contest":"Mr. & Miss Teen Sherpa 2020 - S2","episode":"Mr.&Miss Teen Sherpa -S2","category":null,"contestant":{"voting_id":"02","name":"Pema Yanji sherpa"},"vote_count":1,"created_on":"2020-01-13T23:22:42.724342+05:45"},{"idx":"heHsrgDkJYNqcVVzVgDQ4C","contest":"Mr. & Miss Teen Sherpa 2020 - S2","episode":"Mr.&Miss Teen Sherpa -S2","category":null,"contestant":{"voting_id":"02","name":"Pema Yanji sherpa"},"vote_count":1,"created_on":"2020-01-13T23:22:27.965571+05:45"},{"idx":"HgL92d3Mrf3Yui7vfxmzVf","contest":"Model Superstar","episode":"Model Superstar","category":null,"contestant":{"voting_id":"14","name":"Ashish Shakya"},"vote_count":5,"created_on":"2020-01-13T23:22:05.751190+05:45"}]}