{"total_pages":275,"total_records":13717,"next":"https://khalti.com/api/v2/vuservote/?page=8","previous":"https://khalti.com/api/v2/vuservote/?page=6","record_range":[301,350],"current_page":7,"records":[{"idx":"snyKnasYh9EfLuYicT2qce","contest":"Model Superstar","episode":"Model Superstar Finale","category":null,"contestant":{"voting_id":"07","name":"Narman Malla"},"vote_count":1,"created_on":"2020-02-02T18:27:18.376209+05:45"},{"idx":"8rtRHYhECj5MpkKSg64Sf5","contest":"Model Superstar","episode":"Model Superstar Finale","category":null,"contestant":{"voting_id":"07","name":"Narman Malla"},"vote_count":1,"created_on":"2020-02-02T18:26:44.531420+05:45"},{"idx":"sVPQJTNtFJAb3o2dbRqT2g","contest":"Model Superstar","episode":"Model Superstar Finale","category":null,"contestant":{"voting_id":"03","name":"Smriti Shah"},"vote_count":1,"created_on":"2020-02-02T18:24:17.043984+05:45"},{"idx":"wdbmNYWYJ7kstdxSo8MzQ9","contest":"Locus 2020","episode":"Locus 2020","category":null,"contestant":{"voting_id":"92","name":"Project Bhakari Shopping Nepal"},"vote_count":1,"created_on":"2020-02-02T18:21:23.230610+05:45"},{"idx":"Ev4KU89C2pBreYaetfX3uV","contest":"Locus 2020","episode":"Locus 2020","category":null,"contestant":{"voting_id":"23","name":"Project Home Automation"},"vote_count":1,"created_on":"2020-02-02T18:18:23.490858+05:45"},{"idx":"ghhZUkGhDXzyVxbdP3rdtX","contest":"Locus 2020","episode":"Locus 2020","category":null,"contestant":{"voting_id":"23","name":"Project Home Automation"},"vote_count":1,"created_on":"2020-02-02T18:16:20.572575+05:45"},{"idx":"jt2FCog4kpayuiq7D4i4T3","contest":"Model Superstar","episode":"Model Superstar Finale","category":null,"contestant":{"voting_id":"03","name":"Smriti Shah"},"vote_count":1,"created_on":"2020-02-02T18:11:20.767355+05:45"},{"idx":"vwRHF2gW2djjxQMVTK7h3d","contest":"Locus 2020","episode":"Locus 2020","category":null,"contestant":{"voting_id":"42","name":"Project P.I.M.P."},"vote_count":5,"created_on":"2020-02-02T18:10:45.821498+05:45"},{"idx":"NL4oyhFRoVGzYwwCp35TQD","contest":"Locus 2020","episode":"Locus 2020","category":null,"contestant":{"voting_id":"14","name":"Project TeeForges"},"vote_count":1,"created_on":"2020-02-02T18:09:34.464206+05:45"},{"idx":"CxATLvrk8FjCzLn4YpZzEn","contest":"Locus 2020","episode":"Locus 2020","category":null,"contestant":{"voting_id":"59","name":"Project Home Automation"},"vote_count":1,"created_on":"2020-02-02T18:06:21.155700+05:45"},{"idx":"ecoyEnQvMdYAFgeHwQm37K","contest":"Locus 2020","episode":"Locus 2020","category":null,"contestant":{"voting_id":"19","name":"Project CNC Drawing Machine"},"vote_count":1,"created_on":"2020-02-02T18:03:20.035275+05:45"},{"idx":"xJf5jjumwQbFRgHwNn6LCn","contest":"Locus 2020","episode":"Locus 2020","category":null,"contestant":{"voting_id":"07","name":"Project Automatic Irrigation System"},"vote_count":5,"created_on":"2020-02-02T17:53:30.587252+05:45"},{"idx":"jwKFyPWmBvPKvvc62gvTZd","contest":"Locus 2020","episode":"Locus 2020","category":null,"contestant":{"voting_id":"31","name":"Project 3 in 1 Cartesian 3D Printer"},"vote_count":1,"created_on":"2020-02-02T17:46:36.747407+05:45"},{"idx":"x8mFRYVhsyLYfgUCouwbx6","contest":"Locus 2020","episode":"Locus 2020","category":null,"contestant":{"voting_id":"92","name":"Project Bhakari Shopping Nepal"},"vote_count":1,"created_on":"2020-02-02T17:41:42.641813+05:45"},{"idx":"nLaZSbfVDp5MLKCfXe2MdL","contest":"Locus 2020","episode":"Locus 2020","category":null,"contestant":{"voting_id":"31","name":"Project 3 in 1 Cartesian 3D Printer"},"vote_count":1,"created_on":"2020-02-02T17:36:41.577069+05:45"},{"idx":"ahX7xq3ojDCSSTmnrSoLnE","contest":"Locus 2020","episode":"Locus 2020","category":null,"contestant":{"voting_id":"31","name":"Project 3 in 1 Cartesian 3D Printer"},"vote_count":1,"created_on":"2020-02-02T17:33:58.210778+05:45"},{"idx":"NWUTrAy2CKndWXSZCFJ9bA","contest":"Locus 2020","episode":"Locus 2020","category":null,"contestant":{"voting_id":"60","name":"Project EMG Contolled Prosthetic Arm"},"vote_count":1,"created_on":"2020-02-02T17:33:46.491293+05:45"},{"idx":"NFQoKhmLrCKwqfDCt4oTtP","contest":"Locus 2020","episode":"Locus 2020","category":null,"contestant":{"voting_id":"31","name":"Project 3 in 1 Cartesian 3D Printer"},"vote_count":50,"created_on":"2020-02-02T17:29:18.050165+05:45"},{"idx":"Mqaxewi8rE6eWR9uEzp9HE","contest":"Locus 2020","episode":"Locus 2020","category":null,"contestant":{"voting_id":"52","name":"Project Trivram"},"vote_count":1,"created_on":"2020-02-02T17:24:56.617219+05:45"},{"idx":"h52yUVQgcMGFJutKNMn2zW","contest":"Locus 2020","episode":"Locus 2020","category":null,"contestant":{"voting_id":"31","name":"Project 3 in 1 Cartesian 3D Printer"},"vote_count":500,"created_on":"2020-02-02T17:24:43.571318+05:45"},{"idx":"AiTByJgW5tTzg3frCF5vXK","contest":"Locus 2020","episode":"Locus 2020","category":null,"contestant":{"voting_id":"31","name":"Project 3 in 1 Cartesian 3D Printer"},"vote_count":500,"created_on":"2020-02-02T17:24:21.546364+05:45"},{"idx":"UgqeTdbSDorjDATBrqCwHM","contest":"Locus 2020","episode":"Locus 2020","category":null,"contestant":{"voting_id":"62","name":"Project 2D CNC Plotter"},"vote_count":1,"created_on":"2020-02-02T17:22:24.032198+05:45"},{"idx":"MCGdLPYotcnNRfh9ce29DC","contest":"Locus 2020","episode":"Locus 2020","category":null,"contestant":{"voting_id":"20","name":"Project Cable Fault Distance Finder"},"vote_count":1,"created_on":"2020-02-02T17:21:37.727590+05:45"},{"idx":"4XNfXmdYMBx5twywX3tt4C","contest":"Locus 2020","episode":"Locus 2020","category":null,"contestant":{"voting_id":"31","name":"Project 3 in 1 Cartesian 3D Printer"},"vote_count":1,"created_on":"2020-02-02T17:21:31.306099+05:45"},{"idx":"ssdYTBajjCpUyXXQRmkgGF","contest":"Locus 2020","episode":"Locus 2020","category":null,"contestant":{"voting_id":"15","name":"Project Residential Drainage Water Purification System"},"vote_count":1,"created_on":"2020-02-02T17:19:32.026698+05:45"},{"idx":"sYrv8pn962TaSaZnjfkbmZ","contest":"Model Superstar","episode":"Model Superstar Finale","category":null,"contestant":{"voting_id":"30","name":"Nikita Shakya"},"vote_count":1,"created_on":"2020-02-02T17:18:35.066122+05:45"},{"idx":"Zcnsp2nHRt8yvSquQVJmbV","contest":"Locus 2020","episode":"Locus 2020","category":null,"contestant":{"voting_id":"34","name":"Project Femicoders"},"vote_count":1,"created_on":"2020-02-02T16:53:47.391255+05:45"},{"idx":"uF8Tp8TbNq9YDgQbrisGoe","contest":"Locus 2020","episode":"Locus 2020","category":null,"contestant":{"voting_id":"42","name":"Project P.I.M.P."},"vote_count":1,"created_on":"2020-02-02T16:44:11.458587+05:45"},{"idx":"RAXyFmJj7b2YvJtHViC5ki","contest":"Locus 2020","episode":"Locus 2020","category":null,"contestant":{"voting_id":"13","name":"Project Smart Fire Detector"},"vote_count":1,"created_on":"2020-02-02T16:41:27.744364+05:45"},{"idx":"2k8vW6GZbRGMmaea7cUPRR","contest":"Locus 2020","episode":"Locus 2020","category":null,"contestant":{"voting_id":"31","name":"Project 3 in 1 Cartesian 3D Printer"},"vote_count":1,"created_on":"2020-02-02T16:37:05.202649+05:45"},{"idx":"iaagLC7NMvAWY9oKfT4ZPX","contest":"Locus 2020","episode":"Locus 2020","category":null,"contestant":{"voting_id":"66","name":"Project Alexa Pi"},"vote_count":1,"created_on":"2020-02-02T16:37:01.098453+05:45"},{"idx":"4rmdyxZnTJVs4xmnsEu5sZ","contest":"Locus 2020","episode":"Locus 2020","category":null,"contestant":{"voting_id":"31","name":"Project 3 in 1 Cartesian 3D Printer"},"vote_count":1,"created_on":"2020-02-02T16:33:35.952263+05:45"},{"idx":"U4kHoX4ChqcbbQbpYtq6k5","contest":"Locus 2020","episode":"Locus 2020","category":null,"contestant":{"voting_id":"46","name":"Project Immune"},"vote_count":1,"created_on":"2020-02-02T16:33:21.008086+05:45"},{"idx":"Va2SvjZtodjvSQLDqcaSuJ","contest":"Locus 2020","episode":"Locus 2020","category":null,"contestant":{"voting_id":"92","name":"Project Bhakari Shopping Nepal"},"vote_count":1,"created_on":"2020-02-02T16:30:37.951739+05:45"},{"idx":"fPk6csmRuFgb8oS9FU6q9n","contest":"Locus 2020","episode":"Locus 2020","category":null,"contestant":{"voting_id":"83","name":"Project Ghadi"},"vote_count":5,"created_on":"2020-02-02T16:25:44.761912+05:45"},{"idx":"MmQRogXiD22n8umDSF9yVY","contest":"Locus 2020","episode":"Locus 2020","category":null,"contestant":{"voting_id":"29","name":"Project Accident Alert System"},"vote_count":5,"created_on":"2020-02-02T16:25:20.894220+05:45"},{"idx":"T7GJh84AdNJSwqqRtmRETd","contest":"Locus 2020","episode":"Locus 2020","category":null,"contestant":{"voting_id":"12","name":"Project Green City"},"vote_count":1,"created_on":"2020-02-02T16:24:20.512618+05:45"},{"idx":"D9ZusnnnYNN5aM4q339p6h","contest":"Locus 2020","episode":"Locus 2020","category":null,"contestant":{"voting_id":"44","name":"Project Structural Dote"},"vote_count":1,"created_on":"2020-02-02T16:23:34.404549+05:45"},{"idx":"jA23AsDHVf8GN2ESjZDiB5","contest":"Locus 2020","episode":"Locus 2020","category":null,"contestant":{"voting_id":"14","name":"Project TeeForges"},"vote_count":1,"created_on":"2020-02-02T16:21:06.225334+05:45"},{"idx":"eS7jyzeqUMBsb8SYAwi8SP","contest":"Locus 2020","episode":"Locus 2020","category":null,"contestant":{"voting_id":"24","name":"Project Library App"},"vote_count":1,"created_on":"2020-02-02T16:09:01.296104+05:45"},{"idx":"ZLErXN6TaYWXowFmxbrqTa","contest":"Locus 2020","episode":"Locus 2020","category":null,"contestant":{"voting_id":"24","name":"Project Library App"},"vote_count":1,"created_on":"2020-02-02T16:07:25.624918+05:45"},{"idx":"F84Rro2yricaJfDiPBVQ2S","contest":"Model Superstar","episode":"Model Superstar Finale","category":null,"contestant":{"voting_id":"01","name":"Sajina Subba"},"vote_count":1,"created_on":"2020-02-02T16:06:17.476816+05:45"},{"idx":"MHMDe54ai2B6QRrFwqHo9B","contest":"Locus 2020","episode":"Locus 2020","category":null,"contestant":{"voting_id":"12","name":"Project Green City"},"vote_count":5,"created_on":"2020-02-02T15:47:58.860314+05:45"},{"idx":"36LTCfSPkY8FuAndKbhpdk","contest":"Locus 2020","episode":"Locus 2020","category":null,"contestant":{"voting_id":"46","name":"Project Immune"},"vote_count":1,"created_on":"2020-02-02T15:47:42.182712+05:45"},{"idx":"oixRVQhzuysL2RMBXdkL7L","contest":"Locus 2020","episode":"Locus 2020","category":null,"contestant":{"voting_id":"08","name":"Project A Smart Approach Towards Lifestyle in Nepal"},"vote_count":1,"created_on":"2020-02-02T15:45:18.670358+05:45"},{"idx":"7NVLPX4sT5XieA5DvATCLP","contest":"Locus 2020","episode":"Locus 2020","category":null,"contestant":{"voting_id":"26","name":"Project Automatic Rechargaeble Stove"},"vote_count":1,"created_on":"2020-02-02T15:21:05.551164+05:45"},{"idx":"uKcPcPKpD7rKfYk8dJkFNg","contest":"Model Superstar","episode":"Model Superstar Finale","category":null,"contestant":{"voting_id":"02","name":"Srijana Basnet"},"vote_count":1,"created_on":"2020-02-02T15:17:19.977777+05:45"},{"idx":"L4BexmXvdwo7h4qtQiooR3","contest":"Model Superstar","episode":"Model Superstar Finale","category":null,"contestant":{"voting_id":"02","name":"Srijana Basnet"},"vote_count":1,"created_on":"2020-02-02T15:17:07.456990+05:45"},{"idx":"ekGGctMNasTrgnK2gAQktj","contest":"Locus 2020","episode":"Locus 2020","category":null,"contestant":{"voting_id":"20","name":"Project Cable Fault Distance Finder"},"vote_count":1,"created_on":"2020-02-02T15:06:59.208018+05:45"},{"idx":"c5W9CLqF67RzDG5RLhbD63","contest":"Locus 2020","episode":"Locus 2020","category":null,"contestant":{"voting_id":"66","name":"Project Alexa Pi"},"vote_count":1,"created_on":"2020-02-02T15:02:30.264598+05:45"}]}