{"total_pages":275,"total_records":13717,"next":"https://khalti.com/api/v2/vuservote/?page=76","previous":"https://khalti.com/api/v2/vuservote/?page=74","record_range":[3701,3750],"current_page":75,"records":[{"idx":"U7kDeFPwFmC8G2ZMMCaeUh","contest":"Mr. & Miss Teen Sherpa 2020 - S2","episode":"Mr.&Miss Teen Sherpa -S2","category":null,"contestant":{"voting_id":"02","name":"Pema Yanji sherpa"},"vote_count":1,"created_on":"2020-01-13T19:42:01.904493+05:45"},{"idx":"aSWsub4UjDmvPViN79Y7U9","contest":"Mr. & Miss Teen Sherpa 2020 - S2","episode":"Mr.&Miss Teen Sherpa -S2","category":null,"contestant":{"voting_id":"02","name":"Pema Yanji sherpa"},"vote_count":1,"created_on":"2020-01-13T19:41:23.608378+05:45"},{"idx":"h3YaKVF7AoKyjseNJ2srH4","contest":"Mr. & Miss Teen Sherpa 2020 - S2","episode":"Mr.&Miss Teen Sherpa -S2","category":null,"contestant":{"voting_id":"02","name":"Pema Yanji sherpa"},"vote_count":1,"created_on":"2020-01-13T19:41:18.203620+05:45"},{"idx":"cteGi7WviXt7VaeBkgssjb","contest":"Mr. & Miss Teen Sherpa 2020 - S2","episode":"Mr.&Miss Teen Sherpa -S2","category":null,"contestant":{"voting_id":"02","name":"Pema Yanji sherpa"},"vote_count":1,"created_on":"2020-01-13T19:41:01.953008+05:45"},{"idx":"rjq7ABvSR9juzVoDnVtPw3","contest":"Mr. & Miss Teen Sherpa 2020 - S2","episode":"Mr.&Miss Teen Sherpa -S2","category":null,"contestant":{"voting_id":"02","name":"Pema Yanji sherpa"},"vote_count":1,"created_on":"2020-01-13T19:40:39.700567+05:45"},{"idx":"yuRcZJSmtUF9DgZAspdP3M","contest":"Mr. & Miss Teen Sherpa 2020 - S2","episode":"Mr.&Miss Teen Sherpa -S2","category":null,"contestant":{"voting_id":"02","name":"Pema Yanji sherpa"},"vote_count":1,"created_on":"2020-01-13T19:40:20.294866+05:45"},{"idx":"xXsqb8n4vNhbgbnv7RzXU7","contest":"Mr. & Miss Teen Sherpa 2020 - S2","episode":"Mr.&Miss Teen Sherpa -S2","category":null,"contestant":{"voting_id":"02","name":"Pema Yanji sherpa"},"vote_count":1,"created_on":"2020-01-13T19:40:20.252061+05:45"},{"idx":"zFaNsfa3aPn9fawYPkBauD","contest":"Model Superstar","episode":"Model Superstar","category":null,"contestant":{"voting_id":"07","name":"Narman Malla"},"vote_count":1,"created_on":"2020-01-13T19:40:06.587247+05:45"},{"idx":"DjjmAgNqSEZw7dExYxG9Hd","contest":"Mr. & Miss Teen Sherpa 2020 - S2","episode":"Mr.&Miss Teen Sherpa -S2","category":null,"contestant":{"voting_id":"02","name":"Pema Yanji sherpa"},"vote_count":1,"created_on":"2020-01-13T19:39:57.029927+05:45"},{"idx":"itVf8GAMHPQtiTR35pfiLE","contest":"Mr. & Miss Teen Sherpa 2020 - S2","episode":"Mr.&Miss Teen Sherpa -S2","category":null,"contestant":{"voting_id":"02","name":"Pema Yanji sherpa"},"vote_count":1,"created_on":"2020-01-13T19:39:56.514775+05:45"},{"idx":"vbDS9qSZU7fhr2ufTaUdjK","contest":"Model Superstar","episode":"Model Superstar","category":null,"contestant":{"voting_id":"07","name":"Narman Malla"},"vote_count":1,"created_on":"2020-01-13T19:39:55.600125+05:45"},{"idx":"f3FhNNnMMYigz3S6R3fZsE","contest":"Model Superstar","episode":"Model Superstar","category":null,"contestant":{"voting_id":"07","name":"Narman Malla"},"vote_count":1,"created_on":"2020-01-13T19:39:43.410345+05:45"},{"idx":"a3wYakrtYrxD2NZWPfqevf","contest":"Mr. & Miss Teen Sherpa 2020 - S2","episode":"Mr.&Miss Teen Sherpa -S2","category":null,"contestant":{"voting_id":"02","name":"Pema Yanji sherpa"},"vote_count":1,"created_on":"2020-01-13T19:39:36.311829+05:45"},{"idx":"Zmr5yEudR2GTqmvs4uQppk","contest":"Mr. & Miss Teen Sherpa 2020 - S2","episode":"Mr.&Miss Teen Sherpa -S2","category":null,"contestant":{"voting_id":"02","name":"Pema Yanji sherpa"},"vote_count":1,"created_on":"2020-01-13T19:39:36.052635+05:45"},{"idx":"fzK3zqGcacA6U4rGj2MiKP","contest":"Model Superstar","episode":"Model Superstar","category":null,"contestant":{"voting_id":"07","name":"Narman Malla"},"vote_count":1,"created_on":"2020-01-13T19:39:30.955136+05:45"},{"idx":"UivUkKKGKPUf3LtScHkRBG","contest":"Model Superstar","episode":"Model Superstar","category":null,"contestant":{"voting_id":"07","name":"Narman Malla"},"vote_count":1,"created_on":"2020-01-13T19:39:18.159544+05:45"},{"idx":"tsDkGKp3LEayUSw4ebwjs5","contest":"Mr. & Miss Teen Sherpa 2020 - S2","episode":"Mr.&Miss Teen Sherpa -S2","category":null,"contestant":{"voting_id":"02","name":"Pema Yanji sherpa"},"vote_count":1,"created_on":"2020-01-13T19:39:10.923890+05:45"},{"idx":"rRFaE5LEXLLawY8bWicStL","contest":"Mr. & Miss Teen Sherpa 2020 - S2","episode":"Mr.&Miss Teen Sherpa -S2","category":null,"contestant":{"voting_id":"02","name":"Pema Yanji sherpa"},"vote_count":1,"created_on":"2020-01-13T19:39:10.880373+05:45"},{"idx":"tp6wWLnJt252MJYuhczQw6","contest":"Model Superstar","episode":"Model Superstar","category":null,"contestant":{"voting_id":"07","name":"Narman Malla"},"vote_count":1,"created_on":"2020-01-13T19:38:57.566033+05:45"},{"idx":"YGKbNhHjAdZSGm92dRzssZ","contest":"Mr. & Miss Teen Sherpa 2020 - S2","episode":"Mr.&Miss Teen Sherpa -S2","category":null,"contestant":{"voting_id":"02","name":"Pema Yanji sherpa"},"vote_count":1,"created_on":"2020-01-13T19:38:56.533072+05:45"},{"idx":"QeKjymfcLkVbTfoe9RvC7F","contest":"Mr. & Miss Teen Sherpa 2020 - S2","episode":"Mr.&Miss Teen Sherpa -S2","category":null,"contestant":{"voting_id":"02","name":"Pema Yanji sherpa"},"vote_count":1,"created_on":"2020-01-13T19:38:48.655301+05:45"},{"idx":"ML2Rk8z5ZoCL4GXUzAsxx3","contest":"Model Superstar","episode":"Model Superstar","category":null,"contestant":{"voting_id":"07","name":"Narman Malla"},"vote_count":1,"created_on":"2020-01-13T19:38:43.993524+05:45"},{"idx":"Ey9iPZ7RkYQYDfBYzWj2Qf","contest":"Mr. & Miss Teen Sherpa 2020 - S2","episode":"Mr.&Miss Teen Sherpa -S2","category":null,"contestant":{"voting_id":"02","name":"Pema Yanji sherpa"},"vote_count":1,"created_on":"2020-01-13T19:38:35.138356+05:45"},{"idx":"jD3ow9GhcGKp3VgnLmwDiZ","contest":"Model Superstar","episode":"Model Superstar","category":null,"contestant":{"voting_id":"07","name":"Narman Malla"},"vote_count":1,"created_on":"2020-01-13T19:38:26.953798+05:45"},{"idx":"4gc8ZhvwYXyUgk7CikoHsS","contest":"Mr. & Miss Teen Sherpa 2020 - S2","episode":"Mr.&Miss Teen Sherpa -S2","category":null,"contestant":{"voting_id":"02","name":"Pema Yanji sherpa"},"vote_count":1,"created_on":"2020-01-13T19:38:23.706464+05:45"},{"idx":"ZXaKevcEAntegEZMnm6tAY","contest":"Model Superstar","episode":"Model Superstar","category":null,"contestant":{"voting_id":"07","name":"Narman Malla"},"vote_count":1,"created_on":"2020-01-13T19:38:11.932202+05:45"},{"idx":"YzoLdQBTYeLPfMhog9SeRj","contest":"Mr. & Miss Teen Sherpa 2020 - S2","episode":"Mr.&Miss Teen Sherpa -S2","category":null,"contestant":{"voting_id":"02","name":"Pema Yanji sherpa"},"vote_count":1,"created_on":"2020-01-13T19:38:10.326789+05:45"},{"idx":"KMZYzsbffFSSkxXHJu3mPK","contest":"Mr. & Miss Teen Sherpa 2020 - S2","episode":"Mr.&Miss Teen Sherpa -S2","category":null,"contestant":{"voting_id":"02","name":"Pema Yanji sherpa"},"vote_count":1,"created_on":"2020-01-13T19:38:01.786360+05:45"},{"idx":"mMQg7vN2xGJe7mT5n7pqD9","contest":"Mr. & Miss Teen Sherpa 2020 - S2","episode":"Mr.&Miss Teen Sherpa -S2","category":null,"contestant":{"voting_id":"02","name":"Pema Yanji sherpa"},"vote_count":1,"created_on":"2020-01-13T19:37:40.056821+05:45"},{"idx":"ivtBT92QZwKpdPQKdLLmZk","contest":"Mr. & Miss Teen Sherpa 2020 - S2","episode":"Mr.&Miss Teen Sherpa -S2","category":null,"contestant":{"voting_id":"02","name":"Pema Yanji sherpa"},"vote_count":1,"created_on":"2020-01-13T19:37:11.342088+05:45"},{"idx":"VwRbKhtqXFkgNzZ65dUZva","contest":"Mr. & Miss Teen Sherpa 2020 - S2","episode":"Mr.&Miss Teen Sherpa -S2","category":null,"contestant":{"voting_id":"02","name":"Pema Yanji sherpa"},"vote_count":1,"created_on":"2020-01-13T19:36:56.789015+05:45"},{"idx":"wAZ3sdPMaUUTuPzQGQyxMG","contest":"Mr. & Miss Teen Sherpa 2020 - S2","episode":"Mr.&Miss Teen Sherpa -S2","category":null,"contestant":{"voting_id":"02","name":"Pema Yanji sherpa"},"vote_count":1,"created_on":"2020-01-13T19:36:02.953435+05:45"},{"idx":"QrouQGZhwWh2SUsWqzyVSB","contest":"Mr. & Miss Teen Sherpa 2020 - S2","episode":"Mr.&Miss Teen Sherpa -S2","category":null,"contestant":{"voting_id":"02","name":"Pema Yanji sherpa"},"vote_count":1,"created_on":"2020-01-13T19:35:42.429324+05:45"},{"idx":"x5dAM4z9JiuM5eSqfYHDLQ","contest":"Mr. & Miss Teen Sherpa 2020 - S2","episode":"Mr.&Miss Teen Sherpa -S2","category":null,"contestant":{"voting_id":"02","name":"Pema Yanji sherpa"},"vote_count":1,"created_on":"2020-01-13T19:35:24.628808+05:45"},{"idx":"fUS5Uum8Wrb8PGweUY2hgA","contest":"Mr. & Miss Teen Sherpa 2020 - S2","episode":"Mr.&Miss Teen Sherpa -S2","category":null,"contestant":{"voting_id":"02","name":"Pema Yanji sherpa"},"vote_count":1,"created_on":"2020-01-13T19:35:12.692748+05:45"},{"idx":"Ph5ZskjdwyNQEjBbiezKzS","contest":"Mr. & Miss Teen Sherpa 2020 - S2","episode":"Mr.&Miss Teen Sherpa -S2","category":null,"contestant":{"voting_id":"02","name":"Pema Yanji sherpa"},"vote_count":1,"created_on":"2020-01-13T19:35:03.389757+05:45"},{"idx":"KRectk4FYLoYJeTaAPTygH","contest":"Mr. & Miss Teen Sherpa 2020 - S2","episode":"Mr.&Miss Teen Sherpa -S2","category":null,"contestant":{"voting_id":"02","name":"Pema Yanji sherpa"},"vote_count":1,"created_on":"2020-01-13T19:34:54.398985+05:45"},{"idx":"AZguyjxuju7yXuKxpAzDPd","contest":"Mr. & Miss Teen Sherpa 2020 - S2","episode":"Mr.&Miss Teen Sherpa -S2","category":null,"contestant":{"voting_id":"02","name":"Pema Yanji sherpa"},"vote_count":1,"created_on":"2020-01-13T19:34:37.064965+05:45"},{"idx":"gjERbJCg4HFayqRoFTUxCn","contest":"Mr. & Miss Teen Sherpa 2020 - S2","episode":"Mr.&Miss Teen Sherpa -S2","category":null,"contestant":{"voting_id":"02","name":"Pema Yanji sherpa"},"vote_count":1,"created_on":"2020-01-13T19:34:09.958849+05:45"},{"idx":"qtNkyXqJVXr88D3NApooUY","contest":"Mr. & Miss Teen Sherpa 2020 - S2","episode":"Mr.&Miss Teen Sherpa -S2","category":null,"contestant":{"voting_id":"02","name":"Pema Yanji sherpa"},"vote_count":1,"created_on":"2020-01-13T19:33:59.915570+05:45"},{"idx":"4XuyjHQB3Up8PfyLbNywZC","contest":"Mr. & Miss Teen Sherpa 2020 - S2","episode":"Mr.&Miss Teen Sherpa -S2","category":null,"contestant":{"voting_id":"02","name":"Pema Yanji sherpa"},"vote_count":1,"created_on":"2020-01-13T19:33:51.292028+05:45"},{"idx":"F3xskGpdfgUASaTFHjMz9h","contest":"Mr. & Miss Teen Sherpa 2020 - S2","episode":"Mr.&Miss Teen Sherpa -S2","category":null,"contestant":{"voting_id":"02","name":"Pema Yanji sherpa"},"vote_count":1,"created_on":"2020-01-13T19:33:41.838532+05:45"},{"idx":"JG5FZLxpZoDkbPGfTtpio6","contest":"Mr. & Miss Teen Sherpa 2020 - S2","episode":"Mr.&Miss Teen Sherpa -S2","category":null,"contestant":{"voting_id":"02","name":"Pema Yanji sherpa"},"vote_count":1,"created_on":"2020-01-13T19:33:28.785755+05:45"},{"idx":"FSFRDev8yifTNRjHpnpuC9","contest":"Mr. & Miss Teen Sherpa 2020 - S2","episode":"Mr.&Miss Teen Sherpa -S2","category":null,"contestant":{"voting_id":"02","name":"Pema Yanji sherpa"},"vote_count":1,"created_on":"2020-01-13T19:33:16.721084+05:45"},{"idx":"GGzotEuxgk7Vtrp4APKfZC","contest":"Mr. & Miss Teen Sherpa 2020 - S2","episode":"Mr.&Miss Teen Sherpa -S2","category":null,"contestant":{"voting_id":"02","name":"Pema Yanji sherpa"},"vote_count":1,"created_on":"2020-01-13T19:33:04.600677+05:45"},{"idx":"tKygStyaZGgnqPSFB8JHED","contest":"Model Superstar","episode":"Model Superstar","category":null,"contestant":{"voting_id":"04","name":"Sabita Maharjan"},"vote_count":1,"created_on":"2020-01-13T18:52:43.914202+05:45"},{"idx":"hkSXVn4MXetbNXyTQJpyB5","contest":"Model Superstar","episode":"Model Superstar","category":null,"contestant":{"voting_id":"04","name":"Sabita Maharjan"},"vote_count":1,"created_on":"2020-01-13T18:52:20.677110+05:45"},{"idx":"JhkqVgwYrJSBgMmiwgvFKH","contest":"Model Superstar","episode":"Model Superstar","category":null,"contestant":{"voting_id":"04","name":"Sabita Maharjan"},"vote_count":1,"created_on":"2020-01-13T18:51:58.775188+05:45"},{"idx":"PjPpjBdz3ebGpFhnUkLGsR","contest":"Model Superstar","episode":"Model Superstar","category":null,"contestant":{"voting_id":"04","name":"Sabita Maharjan"},"vote_count":1,"created_on":"2020-01-13T18:50:41.281154+05:45"},{"idx":"ft2jVG2RiRF2ctMRVcwruA","contest":"Model Superstar","episode":"Model Superstar","category":null,"contestant":{"voting_id":"04","name":"Sabita Maharjan"},"vote_count":1,"created_on":"2020-01-13T18:50:27.870268+05:45"}]}