{"total_pages":275,"total_records":13717,"next":"https://khalti.com/api/v2/vuservote/?page=77","previous":"https://khalti.com/api/v2/vuservote/?page=75","record_range":[3751,3800],"current_page":76,"records":[{"idx":"gbQjamdJuZNcnVc6A2WQkV","contest":"Model Superstar","episode":"Model Superstar","category":null,"contestant":{"voting_id":"04","name":"Sabita Maharjan"},"vote_count":1,"created_on":"2020-01-13T18:50:12.431490+05:45"},{"idx":"4wfqTheiZNCGKS6pQ2MRPN","contest":"Model Superstar","episode":"Model Superstar","category":null,"contestant":{"voting_id":"16","name":"Anil Karki"},"vote_count":1,"created_on":"2020-01-13T18:40:51.707740+05:45"},{"idx":"CSJn7KgWNcycc2YT7H2yJT","contest":"Model Superstar","episode":"Model Superstar","category":null,"contestant":{"voting_id":"16","name":"Anil Karki"},"vote_count":5,"created_on":"2020-01-13T18:40:10.034205+05:45"},{"idx":"gLydAB58eFpAoufChXN449","contest":"Mr. & Miss Teen Sherpa 2020 - S2","episode":"Mr.&Miss Teen Sherpa -S2","category":null,"contestant":{"voting_id":"01","name":"Lhamu Sherpa"},"vote_count":50,"created_on":"2020-01-13T18:39:00.200856+05:45"},{"idx":"qVAapckoXjZotntfboMmSA","contest":"Model Superstar","episode":"Model Superstar","category":null,"contestant":{"voting_id":"16","name":"Anil Karki"},"vote_count":5,"created_on":"2020-01-13T18:37:29.449801+05:45"},{"idx":"jNzdhCU9u5anqECjz95MbG","contest":"Mr. & Miss Teen Sherpa 2020 - S2","episode":"Mr.&Miss Teen Sherpa -S2","category":null,"contestant":{"voting_id":"01","name":"Lhamu Sherpa"},"vote_count":1,"created_on":"2020-01-13T18:36:55.210407+05:45"},{"idx":"kwPw5xgwqLsxWxv3nrUi64","contest":"Model Superstar","episode":"Model Superstar","category":null,"contestant":{"voting_id":"16","name":"Anil Karki"},"vote_count":5,"created_on":"2020-01-13T18:34:55.649983+05:45"},{"idx":"ipEuMNiG8As76kwR4PijX5","contest":"Mr. & Miss Teen Sherpa 2020 - S2","episode":"Mr.&Miss Teen Sherpa -S2","category":null,"contestant":{"voting_id":"02","name":"Pema Yanji sherpa"},"vote_count":1,"created_on":"2020-01-13T16:02:00.418155+05:45"},{"idx":"vHX6dzEadayHUk7AeTAJWd","contest":"Mr. & Miss Teen Sherpa 2020 - S2","episode":"Mr.&Miss Teen Sherpa -S2","category":null,"contestant":{"voting_id":"02","name":"Pema Yanji sherpa"},"vote_count":1,"created_on":"2020-01-13T16:01:51.508544+05:45"},{"idx":"HEfTCDAHKrDXrRAvDBnMYG","contest":"Mr. & Miss Teen Sherpa 2020 - S2","episode":"Mr.&Miss Teen Sherpa -S2","category":null,"contestant":{"voting_id":"02","name":"Pema Yanji sherpa"},"vote_count":1,"created_on":"2020-01-13T16:01:43.465868+05:45"},{"idx":"vzvFK8p3Me8uGx9PuLLNeK","contest":"Mr. & Miss Teen Sherpa 2020 - S2","episode":"Mr.&Miss Teen Sherpa -S2","category":null,"contestant":{"voting_id":"02","name":"Pema Yanji sherpa"},"vote_count":1,"created_on":"2020-01-13T16:01:35.248010+05:45"},{"idx":"iGgzzPx44ebBymMNkYBYsH","contest":"Mr. & Miss Teen Sherpa 2020 - S2","episode":"Mr.&Miss Teen Sherpa -S2","category":null,"contestant":{"voting_id":"02","name":"Pema Yanji sherpa"},"vote_count":1,"created_on":"2020-01-13T16:01:26.743691+05:45"},{"idx":"9vz88eBF2zxc3bqXUTG8Gn","contest":"Mr. & Miss Teen Sherpa 2020 - S2","episode":"Mr.&Miss Teen Sherpa -S2","category":null,"contestant":{"voting_id":"02","name":"Pema Yanji sherpa"},"vote_count":1,"created_on":"2020-01-13T16:01:18.004295+05:45"},{"idx":"Qhwwrm5Mqoeqin3kFKYP4d","contest":"Mr. & Miss Teen Sherpa 2020 - S2","episode":"Mr.&Miss Teen Sherpa -S2","category":null,"contestant":{"voting_id":"02","name":"Pema Yanji sherpa"},"vote_count":1,"created_on":"2020-01-13T16:01:12.175600+05:45"},{"idx":"CMaZhUqBwFdrkaPqjaHs5f","contest":"Mr. & Miss Teen Sherpa 2020 - S2","episode":"Mr.&Miss Teen Sherpa -S2","category":null,"contestant":{"voting_id":"02","name":"Pema Yanji sherpa"},"vote_count":1,"created_on":"2020-01-13T15:59:18.115103+05:45"},{"idx":"Dq9BJhHgPQuxHvTJPWZzgD","contest":"Mr. & Miss Teen Sherpa 2020 - S2","episode":"Mr.&Miss Teen Sherpa -S2","category":null,"contestant":{"voting_id":"02","name":"Pema Yanji sherpa"},"vote_count":1,"created_on":"2020-01-13T15:57:26.127129+05:45"},{"idx":"jUbcyfPmNcPKmTBT2nskfQ","contest":"Mr. & Miss Teen Sherpa 2020 - S2","episode":"Mr.&Miss Teen Sherpa -S2","category":null,"contestant":{"voting_id":"02","name":"Pema Yanji sherpa"},"vote_count":1,"created_on":"2020-01-13T15:57:23.934003+05:45"},{"idx":"vYo7ujQ8uY7mkWwsdMRxtH","contest":"Mr. & Miss Teen Sherpa 2020 - S2","episode":"Mr.&Miss Teen Sherpa -S2","category":null,"contestant":{"voting_id":"02","name":"Pema Yanji sherpa"},"vote_count":1,"created_on":"2020-01-13T15:57:10.746809+05:45"},{"idx":"j7UYGy7yGYWk6LbV8nzoe2","contest":"Mr. & Miss Teen Sherpa 2020 - S2","episode":"Mr.&Miss Teen Sherpa -S2","category":null,"contestant":{"voting_id":"02","name":"Pema Yanji sherpa"},"vote_count":1,"created_on":"2020-01-13T15:57:04.249872+05:45"},{"idx":"25VJvcnRSWWQdHydmLfGvV","contest":"Mr. & Miss Teen Sherpa 2020 - S2","episode":"Mr.&Miss Teen Sherpa -S2","category":null,"contestant":{"voting_id":"02","name":"Pema Yanji sherpa"},"vote_count":1,"created_on":"2020-01-13T15:56:58.234633+05:45"},{"idx":"zrvwSEtopfYz4FnH3JTGYk","contest":"Mr. & Miss Teen Sherpa 2020 - S2","episode":"Mr.&Miss Teen Sherpa -S2","category":null,"contestant":{"voting_id":"02","name":"Pema Yanji sherpa"},"vote_count":1,"created_on":"2020-01-13T15:56:49.258076+05:45"},{"idx":"Tonvqpimp3oySQHqiNoXuN","contest":"Mr. & Miss Teen Sherpa 2020 - S2","episode":"Mr.&Miss Teen Sherpa -S2","category":null,"contestant":{"voting_id":"02","name":"Pema Yanji sherpa"},"vote_count":1,"created_on":"2020-01-13T15:56:37.077224+05:45"},{"idx":"yfj5K5TUZaHQJjiiN3gEwX","contest":"Mr. & Miss Teen Sherpa 2020 - S2","episode":"Mr.&Miss Teen Sherpa -S2","category":null,"contestant":{"voting_id":"02","name":"Pema Yanji sherpa"},"vote_count":1,"created_on":"2020-01-13T15:56:25.977083+05:45"},{"idx":"C9WmFnhmFtLHSxsu4bnkkX","contest":"Mr. & Miss Teen Sherpa 2020 - S2","episode":"Mr.&Miss Teen Sherpa -S2","category":null,"contestant":{"voting_id":"02","name":"Pema Yanji sherpa"},"vote_count":1,"created_on":"2020-01-13T15:56:24.073813+05:45"},{"idx":"ri3du5Whf9fC9HofHFvw7T","contest":"Mr. & Miss Teen Sherpa 2020 - S2","episode":"Mr.&Miss Teen Sherpa -S2","category":null,"contestant":{"voting_id":"02","name":"Pema Yanji sherpa"},"vote_count":1,"created_on":"2020-01-13T15:56:11.479584+05:45"},{"idx":"ZfMb7cYiAZwLYoVfDvuzu3","contest":"Mr. & Miss Teen Sherpa 2020 - S2","episode":"Mr.&Miss Teen Sherpa -S2","category":null,"contestant":{"voting_id":"02","name":"Pema Yanji sherpa"},"vote_count":1,"created_on":"2020-01-13T15:56:00.845919+05:45"},{"idx":"a6LZuXeZpeSkTbhyaAFoJZ","contest":"Mr. & Miss Teen Sherpa 2020 - S2","episode":"Mr.&Miss Teen Sherpa -S2","category":null,"contestant":{"voting_id":"02","name":"Pema Yanji sherpa"},"vote_count":1,"created_on":"2020-01-13T15:55:48.138912+05:45"},{"idx":"w2J7pFfEzXbAVDTywNJwTh","contest":"Mr. & Miss Teen Sherpa 2020 - S2","episode":"Mr.&Miss Teen Sherpa -S2","category":null,"contestant":{"voting_id":"02","name":"Pema Yanji sherpa"},"vote_count":1,"created_on":"2020-01-13T15:55:36.497190+05:45"},{"idx":"53xx9DpsdbiYctEgdHKVuN","contest":"Mr. & Miss Teen Sherpa 2020 - S2","episode":"Mr.&Miss Teen Sherpa -S2","category":null,"contestant":{"voting_id":"02","name":"Pema Yanji sherpa"},"vote_count":1,"created_on":"2020-01-13T15:55:26.145667+05:45"},{"idx":"BEwzhcvWg8Esijg4X4qtM6","contest":"Mr. & Miss Teen Sherpa 2020 - S2","episode":"Mr.&Miss Teen Sherpa -S2","category":null,"contestant":{"voting_id":"02","name":"Pema Yanji sherpa"},"vote_count":1,"created_on":"2020-01-13T15:55:14.070233+05:45"},{"idx":"Cg7NzXLGXzfu8BfLGXUdbm","contest":"Mr. & Miss Teen Sherpa 2020 - S2","episode":"Mr.&Miss Teen Sherpa -S2","category":null,"contestant":{"voting_id":"02","name":"Pema Yanji sherpa"},"vote_count":1,"created_on":"2020-01-13T15:55:01.781067+05:45"},{"idx":"gjSF5qL6Z8cPFgnxwu4VUF","contest":"Mr. & Miss Teen Sherpa 2020 - S2","episode":"Mr.&Miss Teen Sherpa -S2","category":null,"contestant":{"voting_id":"24","name":"Mingma Tshering Sherpa"},"vote_count":1,"created_on":"2020-01-13T15:54:38.561556+05:45"},{"idx":"5aHMCpHLmgHwXkWmoPWoMU","contest":"Mr. & Miss Teen Sherpa 2020 - S2","episode":"Mr.&Miss Teen Sherpa -S2","category":null,"contestant":{"voting_id":"02","name":"Pema Yanji sherpa"},"vote_count":1,"created_on":"2020-01-13T15:54:34.091425+05:45"},{"idx":"qWeGhvUCJusvtBUouqiCtL","contest":"Mr. & Miss Teen Sherpa 2020 - S2","episode":"Mr.&Miss Teen Sherpa -S2","category":null,"contestant":{"voting_id":"02","name":"Pema Yanji sherpa"},"vote_count":1,"created_on":"2020-01-13T15:54:16.495624+05:45"},{"idx":"X5PCPpJEWPH8uFz5H7NJpL","contest":"Mr. & Miss Teen Sherpa 2020 - S2","episode":"Mr.&Miss Teen Sherpa -S2","category":null,"contestant":{"voting_id":"02","name":"Pema Yanji sherpa"},"vote_count":1,"created_on":"2020-01-13T15:54:03.756313+05:45"},{"idx":"s9NqDsntgvoCoEN6cbXiQQ","contest":"Mr. & Miss Teen Sherpa 2020 - S2","episode":"Mr.&Miss Teen Sherpa -S2","category":null,"contestant":{"voting_id":"02","name":"Pema Yanji sherpa"},"vote_count":1,"created_on":"2020-01-13T15:53:52.646137+05:45"},{"idx":"3Qg4DG4imZPhVReEBWqL7k","contest":"Mr. & Miss Teen Sherpa 2020 - S2","episode":"Mr.&Miss Teen Sherpa -S2","category":null,"contestant":{"voting_id":"02","name":"Pema Yanji sherpa"},"vote_count":1,"created_on":"2020-01-13T15:53:40.552626+05:45"},{"idx":"6yVVitU9ShTJVmpudDWGBP","contest":"Mr. & Miss Teen Sherpa 2020 - S2","episode":"Mr.&Miss Teen Sherpa -S2","category":null,"contestant":{"voting_id":"24","name":"Mingma Tshering Sherpa"},"vote_count":1,"created_on":"2020-01-13T15:53:27.650998+05:45"},{"idx":"c4HLYCYZ7o88F6juboSjpY","contest":"Mr. & Miss Teen Sherpa 2020 - S2","episode":"Mr.&Miss Teen Sherpa -S2","category":null,"contestant":{"voting_id":"02","name":"Pema Yanji sherpa"},"vote_count":1,"created_on":"2020-01-13T15:53:27.182393+05:45"},{"idx":"7bwubE7oUfNtyxJC2mpPnF","contest":"Mr. & Miss Teen Sherpa 2020 - S2","episode":"Mr.&Miss Teen Sherpa -S2","category":null,"contestant":{"voting_id":"02","name":"Pema Yanji sherpa"},"vote_count":1,"created_on":"2020-01-13T15:53:17.810837+05:45"},{"idx":"HATZKs9669B359RJ8ov5kU","contest":"Mr. & Miss Teen Sherpa 2020 - S2","episode":"Mr.&Miss Teen Sherpa -S2","category":null,"contestant":{"voting_id":"02","name":"Pema Yanji sherpa"},"vote_count":1,"created_on":"2020-01-13T15:53:16.363675+05:45"},{"idx":"hZjuzntrDTp3yvdFMCw48U","contest":"Mr. & Miss Teen Sherpa 2020 - S2","episode":"Mr.&Miss Teen Sherpa -S2","category":null,"contestant":{"voting_id":"02","name":"Pema Yanji sherpa"},"vote_count":1,"created_on":"2020-01-13T15:52:59.445475+05:45"},{"idx":"2L5JiiBnoiNYwHSUrzWAXY","contest":"Mr. & Miss Teen Sherpa 2020 - S2","episode":"Mr.&Miss Teen Sherpa -S2","category":null,"contestant":{"voting_id":"02","name":"Pema Yanji sherpa"},"vote_count":1,"created_on":"2020-01-13T15:52:41.320508+05:45"},{"idx":"fNYF5ivQRGPWD2aP4RRJFA","contest":"Mr. & Miss Teen Sherpa 2020 - S2","episode":"Mr.&Miss Teen Sherpa -S2","category":null,"contestant":{"voting_id":"24","name":"Mingma Tshering Sherpa"},"vote_count":1,"created_on":"2020-01-13T15:52:36.489698+05:45"},{"idx":"gr2epY8yqvbxfB5PBJGS7j","contest":"Mr. & Miss Teen Sherpa 2020 - S2","episode":"Mr.&Miss Teen Sherpa -S2","category":null,"contestant":{"voting_id":"24","name":"Mingma Tshering Sherpa"},"vote_count":1,"created_on":"2020-01-13T15:52:19.635600+05:45"},{"idx":"cE9bH3gxaCEirYXnRsEanH","contest":"Mr. & Miss Teen Sherpa 2020 - S2","episode":"Mr.&Miss Teen Sherpa -S2","category":null,"contestant":{"voting_id":"24","name":"Mingma Tshering Sherpa"},"vote_count":1,"created_on":"2020-01-13T15:52:02.839475+05:45"},{"idx":"FUVagin5AAggkZ6fQEX9YE","contest":"NEPALBHASA STAR MUSIC VIDEO AWARDS-2019","episode":null,"category":"BEST DIRECTOR","contestant":{"voting_id":"20A","name":"Bhuwan Shrestha"},"vote_count":1,"created_on":"2020-01-13T15:48:24.526055+05:45"},{"idx":"6QZrUuCSrqVbZux4WiAyob","contest":"Mr. & Miss Teen Sherpa 2020 - S2","episode":"Mr.&Miss Teen Sherpa -S2","category":null,"contestant":{"voting_id":"02","name":"Pema Yanji sherpa"},"vote_count":1,"created_on":"2020-01-13T15:17:35.381806+05:45"},{"idx":"DJfpJU4rVr8N56bz6Wyw5T","contest":"Mr. & Miss Teen Sherpa 2020 - S2","episode":"Mr.&Miss Teen Sherpa -S2","category":null,"contestant":{"voting_id":"02","name":"Pema Yanji sherpa"},"vote_count":1,"created_on":"2020-01-13T15:17:27.850554+05:45"},{"idx":"vrAu3G4RTBW5c4EEYczfSW","contest":"Mr. & Miss Teen Sherpa 2020 - S2","episode":"Mr.&Miss Teen Sherpa -S2","category":null,"contestant":{"voting_id":"02","name":"Pema Yanji sherpa"},"vote_count":1,"created_on":"2020-01-13T15:17:20.818329+05:45"}]}