{"total_pages":275,"total_records":13717,"next":"https://khalti.com/api/v2/vuservote/?page=9","previous":"https://khalti.com/api/v2/vuservote/?page=7","record_range":[351,400],"current_page":8,"records":[{"idx":"z4YocpAsC6wMHBQm7Ppg67","contest":"Locus 2020","episode":"Locus 2020","category":null,"contestant":{"voting_id":"60","name":"Project EMG Contolled Prosthetic Arm"},"vote_count":1,"created_on":"2020-02-02T15:00:13.659801+05:45"},{"idx":"Y2dSnvw3NXSXBwxhYZbLWh","contest":"Locus 2020","episode":"Locus 2020","category":null,"contestant":{"voting_id":"12","name":"Project Green City"},"vote_count":1,"created_on":"2020-02-02T14:57:17.185764+05:45"},{"idx":"J8cz63zxgz3eUSGfHDzAXJ","contest":"Locus 2020","episode":"Locus 2020","category":null,"contestant":{"voting_id":"46","name":"Project Immune"},"vote_count":1,"created_on":"2020-02-02T14:52:10.964662+05:45"},{"idx":"hYzAQUxEkGMCAFPcuzezEk","contest":"Locus 2020","episode":"Locus 2020","category":null,"contestant":{"voting_id":"08","name":"Project A Smart Approach Towards Lifestyle in Nepal"},"vote_count":1,"created_on":"2020-02-02T14:42:03.377477+05:45"},{"idx":"YFncodAMNMZEr2XqKEFADC","contest":"Locus 2020","episode":"Locus 2020","category":null,"contestant":{"voting_id":"31","name":"Project 3 in 1 Cartesian 3D Printer"},"vote_count":1,"created_on":"2020-02-02T14:40:57.398608+05:45"},{"idx":"LGVBN5NkfF4TGjDxXgtFLn","contest":"Locus 2020","episode":"Locus 2020","category":null,"contestant":{"voting_id":"31","name":"Project 3 in 1 Cartesian 3D Printer"},"vote_count":1,"created_on":"2020-02-02T14:39:44.417598+05:45"},{"idx":"nRYgHJcqmzw7fBx7b5D4pC","contest":"Locus 2020","episode":"Locus 2020","category":null,"contestant":{"voting_id":"31","name":"Project 3 in 1 Cartesian 3D Printer"},"vote_count":1,"created_on":"2020-02-02T14:37:18.864098+05:45"},{"idx":"Xz9a4Rz3TSN9bUaNU3b7YS","contest":"Locus 2020","episode":"Locus 2020","category":null,"contestant":{"voting_id":"01","name":"Project Fire Robo"},"vote_count":1,"created_on":"2020-02-02T14:36:18.995138+05:45"},{"idx":"BjuiQqfZKBQyUWWV3DQQVJ","contest":"Locus 2020","episode":"Locus 2020","category":null,"contestant":{"voting_id":"43","name":"Project Tesla Coil"},"vote_count":1,"created_on":"2020-02-02T14:28:59.993283+05:45"},{"idx":"miQozPB3tHZQKhyKMv5sBE","contest":"Locus 2020","episode":"Locus 2020","category":null,"contestant":{"voting_id":"09","name":"Project Solar Powered Water Surface Garbage Collecting Boat"},"vote_count":5,"created_on":"2020-02-02T14:21:27.907893+05:45"},{"idx":"TzrkXaoVnugnAnYfiPJ7c5","contest":"Locus 2020","episode":"Locus 2020","category":null,"contestant":{"voting_id":"09","name":"Project Solar Powered Water Surface Garbage Collecting Boat"},"vote_count":1,"created_on":"2020-02-02T14:20:56.071392+05:45"},{"idx":"zjPhx6CmTMcMugbWytKMxT","contest":"Locus 2020","episode":"Locus 2020","category":null,"contestant":{"voting_id":"17","name":"Project EN SAT"},"vote_count":1,"created_on":"2020-02-02T14:20:46.740372+05:45"},{"idx":"GoMNHrsvMT4koUvaCkhia5","contest":"Locus 2020","episode":"Locus 2020","category":null,"contestant":{"voting_id":"31","name":"Project 3 in 1 Cartesian 3D Printer"},"vote_count":5,"created_on":"2020-02-02T14:16:10.106877+05:45"},{"idx":"EQ8bQfjrwWBcoiH8ret9pg","contest":"Locus 2020","episode":"Locus 2020","category":null,"contestant":{"voting_id":"31","name":"Project 3 in 1 Cartesian 3D Printer"},"vote_count":25,"created_on":"2020-02-02T14:15:31.283825+05:45"},{"idx":"2qxPs7wKtagfECvHovs4jm","contest":"Locus 2020","episode":"Locus 2020","category":null,"contestant":{"voting_id":"46","name":"Project Immune"},"vote_count":1,"created_on":"2020-02-02T14:13:18.611778+05:45"},{"idx":"ufYxckzzB2ebRxFkow7ewc","contest":"Locus 2020","episode":"Locus 2020","category":null,"contestant":{"voting_id":"29","name":"Project Accident Alert System"},"vote_count":1,"created_on":"2020-02-02T14:13:11.523461+05:45"},{"idx":"GCdyKRKS7UuYa2t42pdtV5","contest":"Locus 2020","episode":"Locus 2020","category":null,"contestant":{"voting_id":"66","name":"Project Alexa Pi"},"vote_count":1,"created_on":"2020-02-02T14:08:46.557293+05:45"},{"idx":"mmLaN6CQL8YuGjiU59KUHK","contest":"Locus 2020","episode":"Locus 2020","category":null,"contestant":{"voting_id":"66","name":"Project Alexa Pi"},"vote_count":1,"created_on":"2020-02-02T14:06:32.117719+05:45"},{"idx":"7p7fdVACLyt5ASnHxfbTt5","contest":"Model Superstar","episode":"Model Superstar Finale","category":null,"contestant":{"voting_id":"17","name":"Sajana Panta"},"vote_count":1,"created_on":"2020-02-02T13:56:10.834855+05:45"},{"idx":"Vdiqggg2inYGgpi54e2pC6","contest":"Locus 2020","episode":"Locus 2020","category":null,"contestant":{"voting_id":"26","name":"Project Automatic Rechargaeble Stove"},"vote_count":1,"created_on":"2020-02-02T13:54:59.055448+05:45"},{"idx":"qBQZDT3pGrjdid9VMgWLRU","contest":"Locus 2020","episode":"Locus 2020","category":null,"contestant":{"voting_id":"66","name":"Project Alexa Pi"},"vote_count":1,"created_on":"2020-02-02T13:49:28.980295+05:45"},{"idx":"mNM52r47Bh8SiJuU8EowxQ","contest":"Locus 2020","episode":"Locus 2020","category":null,"contestant":{"voting_id":"66","name":"Project Alexa Pi"},"vote_count":1,"created_on":"2020-02-02T13:47:11.292574+05:45"},{"idx":"bnxr7rLixqm2w77HULhqiS","contest":"Locus 2020","episode":"Locus 2020","category":null,"contestant":{"voting_id":"27","name":"Project Online Entrance System ( IOE Entrance)"},"vote_count":1,"created_on":"2020-02-02T13:45:53.428317+05:45"},{"idx":"BVZk4VohNxSZhneDG3DZyU","contest":"Locus 2020","episode":"Locus 2020","category":null,"contestant":{"voting_id":"66","name":"Project Alexa Pi"},"vote_count":1,"created_on":"2020-02-02T13:45:47.060730+05:45"},{"idx":"F45zazPBGvcTSsbhDQTde5","contest":"Locus 2020","episode":"Locus 2020","category":null,"contestant":{"voting_id":"26","name":"Project Automatic Rechargaeble Stove"},"vote_count":1,"created_on":"2020-02-02T13:42:29.210703+05:45"},{"idx":"CMzJpi3mJtvQ2AHkTN8QrN","contest":"Locus 2020","episode":"Locus 2020","category":null,"contestant":{"voting_id":"92","name":"Project Bhakari Shopping Nepal"},"vote_count":1,"created_on":"2020-02-02T13:37:03.275279+05:45"},{"idx":"evGCDuAqHnn5cwpo8R2Ns4","contest":"Locus 2020","episode":"Locus 2020","category":null,"contestant":{"voting_id":"17","name":"Project EN SAT"},"vote_count":1,"created_on":"2020-02-02T13:37:01.563424+05:45"},{"idx":"gUWtrogyMPpRuFsjrV7cEo","contest":"Locus 2020","episode":"Locus 2020","category":null,"contestant":{"voting_id":"92","name":"Project Bhakari Shopping Nepal"},"vote_count":1,"created_on":"2020-02-02T13:32:50.134068+05:45"},{"idx":"cFM6DPoGLxbHPgKsgeL2w2","contest":"Locus 2020","episode":"Locus 2020","category":null,"contestant":{"voting_id":"46","name":"Project Immune"},"vote_count":1,"created_on":"2020-02-02T13:30:36.556387+05:45"},{"idx":"KQRwJr2aPKqxFh2TJgYZjD","contest":"Locus 2020","episode":"Locus 2020","category":null,"contestant":{"voting_id":"42","name":"Project P.I.M.P."},"vote_count":1,"created_on":"2020-02-02T13:27:38.937791+05:45"},{"idx":"vr8rdfJmPo82eQrNzUeFZR","contest":"Locus 2020","episode":"Locus 2020","category":null,"contestant":{"voting_id":"12","name":"Project Green City"},"vote_count":1,"created_on":"2020-02-02T13:24:39.430187+05:45"},{"idx":"ALghX2f5nLbeoRoGXn3Tt8","contest":"Locus 2020","episode":"Locus 2020","category":null,"contestant":{"voting_id":"31","name":"Project 3 in 1 Cartesian 3D Printer"},"vote_count":1,"created_on":"2020-02-02T13:18:07.941058+05:45"},{"idx":"i7Dwon3ECZrydAoiLFNyqZ","contest":"Locus 2020","episode":"Locus 2020","category":null,"contestant":{"voting_id":"66","name":"Project Alexa Pi"},"vote_count":1,"created_on":"2020-02-02T13:17:47.388700+05:45"},{"idx":"j5mtx6DCvvnL6okq9djczL","contest":"Locus 2020","episode":"Locus 2020","category":null,"contestant":{"voting_id":"92","name":"Project Bhakari Shopping Nepal"},"vote_count":500,"created_on":"2020-02-02T13:17:18.545372+05:45"},{"idx":"3BxhCQUC9JG785qSpnmeTN","contest":"Locus 2020","episode":"Locus 2020","category":null,"contestant":{"voting_id":"31","name":"Project 3 in 1 Cartesian 3D Printer"},"vote_count":1,"created_on":"2020-02-02T13:11:23.510359+05:45"},{"idx":"NfdQwvaPUktkEvwAEm7Npg","contest":"Locus 2020","episode":"Locus 2020","category":null,"contestant":{"voting_id":"31","name":"Project 3 in 1 Cartesian 3D Printer"},"vote_count":1,"created_on":"2020-02-02T13:08:37.802456+05:45"},{"idx":"NJzMwxjvSdBKaoWjz2jbnA","contest":"Locus 2020","episode":"Locus 2020","category":null,"contestant":{"voting_id":"92","name":"Project Bhakari Shopping Nepal"},"vote_count":500,"created_on":"2020-02-02T13:05:25.865980+05:45"},{"idx":"7N4Tkdek7yTnwH3GyJ8Sq6","contest":"Locus 2020","episode":"Locus 2020","category":null,"contestant":{"voting_id":"36","name":"Project CNC Router"},"vote_count":1,"created_on":"2020-02-02T13:03:55.829728+05:45"},{"idx":"qVR9qErMTAzyGANsWCghyk","contest":"Locus 2020","episode":"Locus 2020","category":null,"contestant":{"voting_id":"09","name":"Project Solar Powered Water Surface Garbage Collecting Boat"},"vote_count":1,"created_on":"2020-02-02T12:58:04.368166+05:45"},{"idx":"cS7ym2njgbseFyV7UprZeE","contest":"Locus 2020","episode":"Locus 2020","category":null,"contestant":{"voting_id":"46","name":"Project Immune"},"vote_count":1,"created_on":"2020-02-02T12:53:55.516785+05:45"},{"idx":"U2FxMJULAwVVWaRstNwUcX","contest":"Locus 2020","episode":"Locus 2020","category":null,"contestant":{"voting_id":"46","name":"Project Immune"},"vote_count":1,"created_on":"2020-02-02T12:50:42.378538+05:45"},{"idx":"8bJmvXMWrNN8k9FcmZK4N3","contest":"Model Superstar","episode":"Model Superstar Finale","category":null,"contestant":{"voting_id":"31","name":"Aakriti Subedi"},"vote_count":1,"created_on":"2020-02-02T12:38:51.273796+05:45"},{"idx":"8V8brtqX8vcZuEPDfD8GFT","contest":"Model Superstar","episode":"Model Superstar Finale","category":null,"contestant":{"voting_id":"31","name":"Aakriti Subedi"},"vote_count":1,"created_on":"2020-02-02T12:38:33.734324+05:45"},{"idx":"EUirTqdKiBATgSckKiLv6L","contest":"Model Superstar","episode":"Model Superstar Finale","category":null,"contestant":{"voting_id":"31","name":"Aakriti Subedi"},"vote_count":1,"created_on":"2020-02-02T12:38:23.184292+05:45"},{"idx":"9GCAdAuHP6jbqyLSX5nnwM","contest":"Model Superstar","episode":"Model Superstar Finale","category":null,"contestant":{"voting_id":"31","name":"Aakriti Subedi"},"vote_count":1,"created_on":"2020-02-02T12:37:49.990150+05:45"},{"idx":"2fris2AArE7chGa5G6jdyX","contest":"Model Superstar","episode":"Model Superstar Finale","category":null,"contestant":{"voting_id":"31","name":"Aakriti Subedi"},"vote_count":1,"created_on":"2020-02-02T12:37:33.302480+05:45"},{"idx":"wtSRhXU64SJ59sjfZUb36B","contest":"Locus 2020","episode":"Locus 2020","category":null,"contestant":{"voting_id":"42","name":"Project P.I.M.P."},"vote_count":1,"created_on":"2020-02-02T12:34:58.434025+05:45"},{"idx":"MdKVMq3aTED3sQwipQpP3P","contest":"Model Superstar","episode":"Model Superstar Finale","category":null,"contestant":{"voting_id":"02","name":"Srijana Basnet"},"vote_count":1,"created_on":"2020-02-02T12:34:30.293008+05:45"},{"idx":"CLKzSsywanP8zntg7uenc8","contest":"Locus 2020","episode":"Locus 2020","category":null,"contestant":{"voting_id":"03","name":"Project Street Light Automation"},"vote_count":1,"created_on":"2020-02-02T12:33:57.308817+05:45"},{"idx":"7raViynrLqmHBCj6LiFkx5","contest":"Model Superstar","episode":"Model Superstar Finale","category":null,"contestant":{"voting_id":"02","name":"Srijana Basnet"},"vote_count":1,"created_on":"2020-02-02T12:33:00.304824+05:45"}]}