{"total_pages":275,"total_records":13717,"next":"https://khalti.com/api/v2/vuservote/?page=10","previous":"https://khalti.com/api/v2/vuservote/?page=8","record_range":[401,450],"current_page":9,"records":[{"idx":"WL9n9e4EUM8tNsx85aVumh","contest":"Locus 2020","episode":"Locus 2020","category":null,"contestant":{"voting_id":"46","name":"Project Immune"},"vote_count":1,"created_on":"2020-02-02T12:28:07.522569+05:45"},{"idx":"tXsexXVRJiKf8SPnrfA392","contest":"Locus 2020","episode":"Locus 2020","category":null,"contestant":{"voting_id":"31","name":"Project 3 in 1 Cartesian 3D Printer"},"vote_count":1,"created_on":"2020-02-02T12:28:00.533517+05:45"},{"idx":"ScdRudV4frBYLwPg73oaoL","contest":"Locus 2020","episode":"Locus 2020","category":null,"contestant":{"voting_id":"22","name":"Project Under Ground Fault Detector"},"vote_count":1,"created_on":"2020-02-02T12:27:48.135123+05:45"},{"idx":"n3NUBNN2kx4uPDxMrMJLx3","contest":"Locus 2020","episode":"Locus 2020","category":null,"contestant":{"voting_id":"31","name":"Project 3 in 1 Cartesian 3D Printer"},"vote_count":1,"created_on":"2020-02-02T12:23:48.682516+05:45"},{"idx":"6hEzn7JxJs24cVBjhfUHyk","contest":"Locus 2020","episode":"Locus 2020","category":null,"contestant":{"voting_id":"92","name":"Project Bhakari Shopping Nepal"},"vote_count":1,"created_on":"2020-02-02T12:21:34.272070+05:45"},{"idx":"hYZy6ZCchyzq82WN3EobGW","contest":"Locus 2020","episode":"Locus 2020","category":null,"contestant":{"voting_id":"66","name":"Project Alexa Pi"},"vote_count":1,"created_on":"2020-02-02T12:12:55.382095+05:45"},{"idx":"tZB6RJMArggrrKABgmcqV9","contest":"Locus 2020","episode":"Locus 2020","category":null,"contestant":{"voting_id":"66","name":"Project Alexa Pi"},"vote_count":1,"created_on":"2020-02-02T12:10:39.446808+05:45"},{"idx":"m9wxKXf9EErrPvh8YCg9ob","contest":"Locus 2020","episode":"Locus 2020","category":null,"contestant":{"voting_id":"66","name":"Project Alexa Pi"},"vote_count":1,"created_on":"2020-02-02T12:08:51.054691+05:45"},{"idx":"Xenazpmyz7J2UG8YQSKvGV","contest":"Locus 2020","episode":"Locus 2020","category":null,"contestant":{"voting_id":"11","name":"Project Kissan"},"vote_count":1,"created_on":"2020-02-02T12:04:10.485842+05:45"},{"idx":"XB9EHBs9qDyZaMFUayhvkj","contest":"Locus 2020","episode":"Locus 2020","category":null,"contestant":{"voting_id":"46","name":"Project Immune"},"vote_count":25,"created_on":"2020-02-02T12:01:08.731701+05:45"},{"idx":"ZgXrrMNFXacbpxP2nrUUnh","contest":"Locus 2020","episode":"Locus 2020","category":null,"contestant":{"voting_id":"46","name":"Project Immune"},"vote_count":1,"created_on":"2020-02-02T12:00:44.315866+05:45"},{"idx":"mFL4DSNrWzwhSuBrCHzR7a","contest":"Locus 2020","episode":"Locus 2020","category":null,"contestant":{"voting_id":"92","name":"Project Bhakari Shopping Nepal"},"vote_count":1,"created_on":"2020-02-02T12:00:12.675370+05:45"},{"idx":"GpSLN8Q6q32XwitUaejVLE","contest":"Locus 2020","episode":"Locus 2020","category":null,"contestant":{"voting_id":"92","name":"Project Bhakari Shopping Nepal"},"vote_count":1,"created_on":"2020-02-02T11:59:56.231722+05:45"},{"idx":"GQF9Nou9mTGcS3PnCscV99","contest":"Locus 2020","episode":"Locus 2020","category":null,"contestant":{"voting_id":"92","name":"Project Bhakari Shopping Nepal"},"vote_count":1,"created_on":"2020-02-02T11:50:04.275080+05:45"},{"idx":"B5saMPzsPt7khygWW8tM8a","contest":"Locus 2020","episode":"Locus 2020","category":null,"contestant":{"voting_id":"13","name":"Project Smart Fire Detector"},"vote_count":1,"created_on":"2020-02-02T11:49:19.790982+05:45"},{"idx":"BmJCVs3UBMB4h3bVXRChAL","contest":"Locus 2020","episode":"Locus 2020","category":null,"contestant":{"voting_id":"66","name":"Project Alexa Pi"},"vote_count":1,"created_on":"2020-02-02T11:48:12.921933+05:45"},{"idx":"VHUB3y8WvQdmcHHHw4NkMe","contest":"Locus 2020","episode":"Locus 2020","category":null,"contestant":{"voting_id":"24","name":"Project Library App"},"vote_count":1,"created_on":"2020-02-02T11:48:09.236989+05:45"},{"idx":"mu9WuaVgiYFT3mvWzCnbhc","contest":"Model Superstar","episode":"Model Superstar Finale","category":null,"contestant":{"voting_id":"01","name":"Sajina Subba"},"vote_count":1,"created_on":"2020-02-02T11:45:12.880155+05:45"},{"idx":"KpJZNFEXvDRKnR6DJfkVne","contest":"Locus 2020","episode":"Locus 2020","category":null,"contestant":{"voting_id":"92","name":"Project Bhakari Shopping Nepal"},"vote_count":1,"created_on":"2020-02-02T11:44:26.333971+05:45"},{"idx":"7P2yWvVsBB3j9oPSjpVTFU","contest":"Locus 2020","episode":"Locus 2020","category":null,"contestant":{"voting_id":"92","name":"Project Bhakari Shopping Nepal"},"vote_count":1,"created_on":"2020-02-02T11:41:36.018227+05:45"},{"idx":"JDK8CzxGKis4nekqCuCd4g","contest":"Locus 2020","episode":"Locus 2020","category":null,"contestant":{"voting_id":"31","name":"Project 3 in 1 Cartesian 3D Printer"},"vote_count":1,"created_on":"2020-02-02T11:40:31.573175+05:45"},{"idx":"W8z5kdtkc49Ftq3p9ixa4X","contest":"Locus 2020","episode":"Locus 2020","category":null,"contestant":{"voting_id":"66","name":"Project Alexa Pi"},"vote_count":1,"created_on":"2020-02-02T11:34:30.597761+05:45"},{"idx":"H9rb235c2em4EbqcwgLuEN","contest":"Music Eve 2020","episode":"Music Eve 2020 IOE","category":null,"contestant":{"voting_id":"06","name":"Bishal shakya"},"vote_count":1,"created_on":"2020-02-02T11:28:32.442078+05:45"},{"idx":"EBUqxhMjJzLgwpAmbTRA2P","contest":"Locus 2020","episode":"Locus 2020","category":null,"contestant":{"voting_id":"92","name":"Project Bhakari Shopping Nepal"},"vote_count":1,"created_on":"2020-02-02T11:24:46.302992+05:45"},{"idx":"D5yxNP4NuvhLJ78WzcEpui","contest":"Locus 2020","episode":"Locus 2020","category":null,"contestant":{"voting_id":"08","name":"Project A Smart Approach Towards Lifestyle in Nepal"},"vote_count":5,"created_on":"2020-02-02T11:15:25.477965+05:45"},{"idx":"Kdh9hCqHewnQTjYDtPWADH","contest":"Locus 2020","episode":"Locus 2020","category":null,"contestant":{"voting_id":"08","name":"Project A Smart Approach Towards Lifestyle in Nepal"},"vote_count":1,"created_on":"2020-02-02T11:14:04.607555+05:45"},{"idx":"E6M4VhxPM2M6qvEL2hC7hZ","contest":"Locus 2020","episode":"Locus 2020","category":null,"contestant":{"voting_id":"31","name":"Project 3 in 1 Cartesian 3D Printer"},"vote_count":1,"created_on":"2020-02-02T11:00:07.163700+05:45"},{"idx":"kDdXNKz5GBNJjqnuFydWi7","contest":"Locus 2020","episode":"Locus 2020","category":null,"contestant":{"voting_id":"31","name":"Project 3 in 1 Cartesian 3D Printer"},"vote_count":1,"created_on":"2020-02-02T10:58:46.924571+05:45"},{"idx":"NrR5NQYuTJWYPe75RyAAUX","contest":"Locus 2020","episode":"Locus 2020","category":null,"contestant":{"voting_id":"12","name":"Project Green City"},"vote_count":1,"created_on":"2020-02-02T10:53:59.129570+05:45"},{"idx":"LBjAxeN3AVeyZzPFQ3M3Qd","contest":"Locus 2020","episode":"Locus 2020","category":null,"contestant":{"voting_id":"31","name":"Project 3 in 1 Cartesian 3D Printer"},"vote_count":1,"created_on":"2020-02-02T10:50:44.805838+05:45"},{"idx":"8jmWHNi6K2ZScYTtNmKkT2","contest":"Locus 2020","episode":"Locus 2020","category":null,"contestant":{"voting_id":"92","name":"Project Bhakari Shopping Nepal"},"vote_count":1,"created_on":"2020-02-02T10:50:32.312157+05:45"},{"idx":"dx7FR6rpTqoPRqPkq8VvRG","contest":"Locus 2020","episode":"Locus 2020","category":null,"contestant":{"voting_id":"12","name":"Project Green City"},"vote_count":1,"created_on":"2020-02-02T10:48:25.404543+05:45"},{"idx":"UNyAFeNebdpb7sbEXZA8wd","contest":"Locus 2020","episode":"Locus 2020","category":null,"contestant":{"voting_id":"22","name":"Project Under Ground Fault Detector"},"vote_count":1,"created_on":"2020-02-02T10:46:32.291362+05:45"},{"idx":"mXjSthfgD4rj8hAC9CBY3g","contest":"Locus 2020","episode":"Locus 2020","category":null,"contestant":{"voting_id":"13","name":"Project Smart Fire Detector"},"vote_count":1,"created_on":"2020-02-02T10:46:26.974467+05:45"},{"idx":"rNxKwBFwAr3iWcrtEqVgMQ","contest":"Locus 2020","episode":"Locus 2020","category":null,"contestant":{"voting_id":"31","name":"Project 3 in 1 Cartesian 3D Printer"},"vote_count":1,"created_on":"2020-02-02T10:44:12.112462+05:45"},{"idx":"XNs3rGyBwPCxUKChRsVciY","contest":"Locus 2020","episode":"Locus 2020","category":null,"contestant":{"voting_id":"27","name":"Project Online Entrance System ( IOE Entrance)"},"vote_count":1,"created_on":"2020-02-02T10:42:14.721726+05:45"},{"idx":"p4S5SMrDJ5YGqXbJuJRSiR","contest":"Locus 2020","episode":"Locus 2020","category":null,"contestant":{"voting_id":"80","name":"Project Hexapod"},"vote_count":1,"created_on":"2020-02-02T10:41:07.577817+05:45"},{"idx":"zni5Z2vgy8XLZqXi3qwyHR","contest":"Locus 2020","episode":"Locus 2020","category":null,"contestant":{"voting_id":"27","name":"Project Online Entrance System ( IOE Entrance)"},"vote_count":1,"created_on":"2020-02-02T10:41:05.182014+05:45"},{"idx":"f59tx3erZhLYYQ5JW33mZ8","contest":"Locus 2020","episode":"Locus 2020","category":null,"contestant":{"voting_id":"66","name":"Project Alexa Pi"},"vote_count":1,"created_on":"2020-02-02T10:36:42.275914+05:45"},{"idx":"AunndQp8MeASYJcrHnNM8i","contest":"Locus 2020","episode":"Locus 2020","category":null,"contestant":{"voting_id":"27","name":"Project Online Entrance System ( IOE Entrance)"},"vote_count":1,"created_on":"2020-02-02T10:36:18.709338+05:45"},{"idx":"9UpNNBdFXMC5z7dpQFZzgN","contest":"Locus 2020","episode":"Locus 2020","category":null,"contestant":{"voting_id":"80","name":"Project Hexapod"},"vote_count":1,"created_on":"2020-02-02T10:35:09.908908+05:45"},{"idx":"uXDvEkh4Xbud6ph9QXkqLP","contest":"Locus 2020","episode":"Locus 2020","category":null,"contestant":{"voting_id":"34","name":"Project Femicoders"},"vote_count":1,"created_on":"2020-02-02T10:33:34.436933+05:45"},{"idx":"khJjTAqebMqqioBD3JbXDV","contest":"Locus 2020","episode":"Locus 2020","category":null,"contestant":{"voting_id":"05","name":"Project Food Detection"},"vote_count":1,"created_on":"2020-02-02T10:30:32.695473+05:45"},{"idx":"jWuvJquVaZ95cuYvCLnR6P","contest":"Locus 2020","episode":"Locus 2020","category":null,"contestant":{"voting_id":"15","name":"Project Residential Drainage Water Purification System"},"vote_count":1,"created_on":"2020-02-02T10:30:25.976858+05:45"},{"idx":"BbrWot2rvJ7haqa6xhr3mP","contest":"Locus 2020","episode":"Locus 2020","category":null,"contestant":{"voting_id":"32","name":"Project Health and Environment Checker"},"vote_count":1,"created_on":"2020-02-02T10:30:07.031024+05:45"},{"idx":"wdrvxUGpSSaoV7hGDXDMNE","contest":"Model Superstar","episode":"Model Superstar Finale","category":null,"contestant":{"voting_id":"02","name":"Srijana Basnet"},"vote_count":1,"created_on":"2020-02-02T10:29:21.677574+05:45"},{"idx":"3S2sMQAFhXmPTbwts46c9A","contest":"Locus 2020","episode":"Locus 2020","category":null,"contestant":{"voting_id":"34","name":"Project Femicoders"},"vote_count":1,"created_on":"2020-02-02T10:25:10.719609+05:45"},{"idx":"pE36sEhBKG3jCV6sk8NiZ2","contest":"Locus 2020","episode":"Locus 2020","category":null,"contestant":{"voting_id":"73","name":"Project Arduino Based Natural Gas Detector"},"vote_count":1,"created_on":"2020-02-02T10:17:49.679575+05:45"},{"idx":"WeaMeEWNiyrfZvkjT7QGYC","contest":"Model Superstar","episode":"Model Superstar Finale","category":null,"contestant":{"voting_id":"17","name":"Sajana Panta"},"vote_count":1,"created_on":"2020-02-02T10:14:27.782029+05:45"},{"idx":"UHohfYknu68ZXaJn4GJCdf","contest":"Locus 2020","episode":"Locus 2020","category":null,"contestant":{"voting_id":"12","name":"Project Green City"},"vote_count":1,"created_on":"2020-02-02T10:13:35.812477+05:45"}]}