{"total_pages":275,"total_records":13717,"next":"https://khalti.com/api/v2/vuservote/?page=95","previous":"https://khalti.com/api/v2/vuservote/?page=93","record_range":[4651,4700],"current_page":94,"records":[{"idx":"MGMHc7FbiXfwG4nYis4nk6","contest":"NEPALBHASA STAR MUSIC VIDEO AWARDS-2019","episode":null,"category":"THE RISING STAR SINGER","contestant":{"voting_id":"21A","name":"Macha Raja Maharjan"},"vote_count":1,"created_on":"2020-01-13T00:02:40.107196+05:45"},{"idx":"HVXHfHeAAz2k2thWAEa4F6","contest":"Mr. & Miss Teen Sherpa 2020 - S2","episode":"Mr.&Miss Teen Sherpa -S2","category":null,"contestant":{"voting_id":"02","name":"Pema Yanji sherpa"},"vote_count":1,"created_on":"2020-01-13T00:02:27.336880+05:45"},{"idx":"uR63QP9r6KxU3woHGoFGyQ","contest":"Mr. & Miss Teen Sherpa 2020 - S2","episode":"Mr.&Miss Teen Sherpa -S2","category":null,"contestant":{"voting_id":"02","name":"Pema Yanji sherpa"},"vote_count":1,"created_on":"2020-01-13T00:02:18.401112+05:45"},{"idx":"TtMgm8vouMAwGCYzim7qdB","contest":"NEPALBHASA STAR MUSIC VIDEO AWARDS-2019","episode":null,"category":"BEST DANCE DIRECTOR","contestant":{"voting_id":"19A","name":"Gautam Tandukar"},"vote_count":1,"created_on":"2020-01-13T00:02:17.156553+05:45"},{"idx":"49f4LHzezyqSpYCSqyddYR","contest":"Mr. & Miss Teen Sherpa 2020 - S2","episode":"Mr.&Miss Teen Sherpa -S2","category":null,"contestant":{"voting_id":"02","name":"Pema Yanji sherpa"},"vote_count":1,"created_on":"2020-01-13T00:02:07.119398+05:45"},{"idx":"tYxeHefbHReEtLXfZ9R4M3","contest":"NEPALBHASA STAR MUSIC VIDEO AWARDS-2019","episode":null,"category":"BEST Singer,FEMALE","contestant":{"voting_id":"17B","name":"Ratna Shova Maharjan"},"vote_count":1,"created_on":"2020-01-13T00:01:52.857567+05:45"},{"idx":"SxsQvqSiiT4wDqNZHUj8BN","contest":"Mr. & Miss Teen Sherpa 2020 - S2","episode":"Mr.&Miss Teen Sherpa -S2","category":null,"contestant":{"voting_id":"02","name":"Pema Yanji sherpa"},"vote_count":1,"created_on":"2020-01-13T00:01:30.828090+05:45"},{"idx":"zEZ4GunEtrjTncWsXUKaym","contest":"Mr. & Miss Teen Sherpa 2020 - S2","episode":"Mr.&Miss Teen Sherpa -S2","category":null,"contestant":{"voting_id":"02","name":"Pema Yanji sherpa"},"vote_count":1,"created_on":"2020-01-13T00:01:17.517516+05:45"},{"idx":"NzBv8tESYNnoDhQezqrAQa","contest":"Mr. & Miss Teen Sherpa 2020 - S2","episode":"Mr.&Miss Teen Sherpa -S2","category":null,"contestant":{"voting_id":"02","name":"Pema Yanji sherpa"},"vote_count":1,"created_on":"2020-01-13T00:00:51.747546+05:45"},{"idx":"B9UWBJEuSz9wiC86d6ePcT","contest":"Mr. & Miss Teen Sherpa 2020 - S2","episode":"Mr.&Miss Teen Sherpa -S2","category":null,"contestant":{"voting_id":"02","name":"Pema Yanji sherpa"},"vote_count":1,"created_on":"2020-01-12T23:59:54.421438+05:45"},{"idx":"rr36nPQJcvEQoLLbCJdWnF","contest":"Mr. & Miss Teen Sherpa 2020 - S2","episode":"Mr.&Miss Teen Sherpa -S2","category":null,"contestant":{"voting_id":"02","name":"Pema Yanji sherpa"},"vote_count":1,"created_on":"2020-01-12T23:59:44.008169+05:45"},{"idx":"X4xiE4Nz6pzzVDRdnQR2oC","contest":"Mr. & Miss Teen Sherpa 2020 - S2","episode":"Mr.&Miss Teen Sherpa -S2","category":null,"contestant":{"voting_id":"02","name":"Pema Yanji sherpa"},"vote_count":1,"created_on":"2020-01-12T23:59:34.571569+05:45"},{"idx":"5x6bHmAxJdzsmB7FBWJRRH","contest":"Mr. & Miss Teen Sherpa 2020 - S2","episode":"Mr.&Miss Teen Sherpa -S2","category":null,"contestant":{"voting_id":"02","name":"Pema Yanji sherpa"},"vote_count":1,"created_on":"2020-01-12T23:59:24.231116+05:45"},{"idx":"qmiRv63Xg77dVPJTgsZNi2","contest":"Mr. & Miss Teen Sherpa 2020 - S2","episode":"Mr.&Miss Teen Sherpa -S2","category":null,"contestant":{"voting_id":"02","name":"Pema Yanji sherpa"},"vote_count":1,"created_on":"2020-01-12T23:59:12.190248+05:45"},{"idx":"75hEpUb33AT87aPFf7mXXi","contest":"Mr. & Miss Teen Sherpa 2020 - S2","episode":"Mr.&Miss Teen Sherpa -S2","category":null,"contestant":{"voting_id":"02","name":"Pema Yanji sherpa"},"vote_count":1,"created_on":"2020-01-12T23:57:49.637949+05:45"},{"idx":"dZiPjNJLsNB5hhTNrsiN2N","contest":"Mr. & Miss Teen Sherpa 2020 - S2","episode":"Mr.&Miss Teen Sherpa -S2","category":null,"contestant":{"voting_id":"02","name":"Pema Yanji sherpa"},"vote_count":1,"created_on":"2020-01-12T23:57:39.691793+05:45"},{"idx":"NrDuXe9thVn6ZCivn8nzn3","contest":"Mr. & Miss Teen Sherpa 2020 - S2","episode":"Mr.&Miss Teen Sherpa -S2","category":null,"contestant":{"voting_id":"02","name":"Pema Yanji sherpa"},"vote_count":1,"created_on":"2020-01-12T23:57:29.351316+05:45"},{"idx":"7taUVFpjMgjJHRxFZAuqQ3","contest":"Mr. & Miss Teen Sherpa 2020 - S2","episode":"Mr.&Miss Teen Sherpa -S2","category":null,"contestant":{"voting_id":"02","name":"Pema Yanji sherpa"},"vote_count":1,"created_on":"2020-01-12T23:57:18.367014+05:45"},{"idx":"zNCWuwMErs8D3SCGJ78aW2","contest":"Mr. & Miss Teen Sherpa 2020 - S2","episode":"Mr.&Miss Teen Sherpa -S2","category":null,"contestant":{"voting_id":"02","name":"Pema Yanji sherpa"},"vote_count":1,"created_on":"2020-01-12T23:57:07.621836+05:45"},{"idx":"KKPxNUM4TSrKfiBNrED2Kd","contest":"Mr. & Miss Teen Sherpa 2020 - S2","episode":"Mr.&Miss Teen Sherpa -S2","category":null,"contestant":{"voting_id":"02","name":"Pema Yanji sherpa"},"vote_count":1,"created_on":"2020-01-12T23:56:56.713014+05:45"},{"idx":"tgxyc7jLp28Cf6CXpkjmLh","contest":"Mr. & Miss Teen Sherpa 2020 - S2","episode":"Mr.&Miss Teen Sherpa -S2","category":null,"contestant":{"voting_id":"02","name":"Pema Yanji sherpa"},"vote_count":1,"created_on":"2020-01-12T23:56:54.920707+05:45"},{"idx":"cQpkRhpKfHsNhSrGC3pyDB","contest":"Mr. & Miss Teen Sherpa 2020 - S2","episode":"Mr.&Miss Teen Sherpa -S2","category":null,"contestant":{"voting_id":"02","name":"Pema Yanji sherpa"},"vote_count":1,"created_on":"2020-01-12T23:56:43.647770+05:45"},{"idx":"grUEYBxNnC733E2YzMutHh","contest":"Mr. & Miss Teen Sherpa 2020 - S2","episode":"Mr.&Miss Teen Sherpa -S2","category":null,"contestant":{"voting_id":"02","name":"Pema Yanji sherpa"},"vote_count":1,"created_on":"2020-01-12T23:56:39.469671+05:45"},{"idx":"Rch9NJ5rBJAgfmmrRC5JSK","contest":"Mr. & Miss Teen Sherpa 2020 - S2","episode":"Mr.&Miss Teen Sherpa -S2","category":null,"contestant":{"voting_id":"02","name":"Pema Yanji sherpa"},"vote_count":1,"created_on":"2020-01-12T23:56:33.003937+05:45"},{"idx":"6ZoX9dSnmMrCNBmxWVTyfh","contest":"Mr. & Miss Teen Sherpa 2020 - S2","episode":"Mr.&Miss Teen Sherpa -S2","category":null,"contestant":{"voting_id":"02","name":"Pema Yanji sherpa"},"vote_count":1,"created_on":"2020-01-12T23:56:25.401879+05:45"},{"idx":"8YVQtJQftnb733Yd2Dy2wQ","contest":"Mr. & Miss Teen Sherpa 2020 - S2","episode":"Mr.&Miss Teen Sherpa -S2","category":null,"contestant":{"voting_id":"02","name":"Pema Yanji sherpa"},"vote_count":1,"created_on":"2020-01-12T23:56:16.417761+05:45"},{"idx":"xKvAsXA53QE3f769kVampC","contest":"Mr. & Miss Teen Sherpa 2020 - S2","episode":"Mr.&Miss Teen Sherpa -S2","category":null,"contestant":{"voting_id":"02","name":"Pema Yanji sherpa"},"vote_count":1,"created_on":"2020-01-12T23:56:14.218261+05:45"},{"idx":"YAMNEvYvKyojqTPFnkZCFU","contest":"Mr. & Miss Teen Sherpa 2020 - S2","episode":"Mr.&Miss Teen Sherpa -S2","category":null,"contestant":{"voting_id":"02","name":"Pema Yanji sherpa"},"vote_count":1,"created_on":"2020-01-12T23:56:05.851470+05:45"},{"idx":"rdiCG8c7UN2CAwvwdHx3F5","contest":"Mr. & Miss Teen Sherpa 2020 - S2","episode":"Mr.&Miss Teen Sherpa -S2","category":null,"contestant":{"voting_id":"02","name":"Pema Yanji sherpa"},"vote_count":1,"created_on":"2020-01-12T23:55:52.838259+05:45"},{"idx":"YkGH9iLHZoApPU2eCS63xL","contest":"Mr. & Miss Teen Sherpa 2020 - S2","episode":"Mr.&Miss Teen Sherpa -S2","category":null,"contestant":{"voting_id":"02","name":"Pema Yanji sherpa"},"vote_count":1,"created_on":"2020-01-12T23:55:49.230002+05:45"},{"idx":"5pXYg63boe9MPQ2fheYKxN","contest":"Mr. & Miss Teen Sherpa 2020 - S2","episode":"Mr.&Miss Teen Sherpa -S2","category":null,"contestant":{"voting_id":"02","name":"Pema Yanji sherpa"},"vote_count":1,"created_on":"2020-01-12T23:55:43.304310+05:45"},{"idx":"6XSz8Fs5RXuRZCGw8LPBE9","contest":"Mr. & Miss Teen Sherpa 2020 - S2","episode":"Mr.&Miss Teen Sherpa -S2","category":null,"contestant":{"voting_id":"02","name":"Pema Yanji sherpa"},"vote_count":1,"created_on":"2020-01-12T23:55:37.419608+05:45"},{"idx":"JxRkPuQXQsmo3RQLEXbEwU","contest":"Mr. & Miss Teen Sherpa 2020 - S2","episode":"Mr.&Miss Teen Sherpa -S2","category":null,"contestant":{"voting_id":"02","name":"Pema Yanji sherpa"},"vote_count":1,"created_on":"2020-01-12T23:55:33.395233+05:45"},{"idx":"YHEUyBtZxbtXPs3UybF38P","contest":"Mr. & Miss Teen Sherpa 2020 - S2","episode":"Mr.&Miss Teen Sherpa -S2","category":null,"contestant":{"voting_id":"02","name":"Pema Yanji sherpa"},"vote_count":1,"created_on":"2020-01-12T23:55:22.217982+05:45"},{"idx":"3fR6MKzix2z75MvMztGMPM","contest":"Mr. & Miss Teen Sherpa 2020 - S2","episode":"Mr.&Miss Teen Sherpa -S2","category":null,"contestant":{"voting_id":"02","name":"Pema Yanji sherpa"},"vote_count":1,"created_on":"2020-01-12T23:55:20.060034+05:45"},{"idx":"2EYW3rNHUPfgrMdJqjde3D","contest":"Mr. & Miss Teen Sherpa 2020 - S2","episode":"Mr.&Miss Teen Sherpa -S2","category":null,"contestant":{"voting_id":"02","name":"Pema Yanji sherpa"},"vote_count":1,"created_on":"2020-01-12T23:55:12.102598+05:45"},{"idx":"LuCh76kJQ3etzExnwJAkmE","contest":"Mr. & Miss Teen Sherpa 2020 - S2","episode":"Mr.&Miss Teen Sherpa -S2","category":null,"contestant":{"voting_id":"02","name":"Pema Yanji sherpa"},"vote_count":1,"created_on":"2020-01-12T23:55:02.160930+05:45"},{"idx":"VjmVDogYxgYEk6sWrB7n34","contest":"Mr. & Miss Teen Sherpa 2020 - S2","episode":"Mr.&Miss Teen Sherpa -S2","category":null,"contestant":{"voting_id":"02","name":"Pema Yanji sherpa"},"vote_count":1,"created_on":"2020-01-12T23:54:58.318461+05:45"},{"idx":"fue3Uqb4NArUpoHBeEnRyh","contest":"Mr. & Miss Teen Sherpa 2020 - S2","episode":"Mr.&Miss Teen Sherpa -S2","category":null,"contestant":{"voting_id":"02","name":"Pema Yanji sherpa"},"vote_count":1,"created_on":"2020-01-12T23:54:46.413357+05:45"},{"idx":"AZDvGuH4xxnbSGYx9cTRuk","contest":"Mr. & Miss Teen Sherpa 2020 - S2","episode":"Mr.&Miss Teen Sherpa -S2","category":null,"contestant":{"voting_id":"02","name":"Pema Yanji sherpa"},"vote_count":1,"created_on":"2020-01-12T23:54:46.362506+05:45"},{"idx":"nxbej85ZcCW8P2edZkUe8e","contest":"Mr. & Miss Teen Sherpa 2020 - S2","episode":"Mr.&Miss Teen Sherpa -S2","category":null,"contestant":{"voting_id":"02","name":"Pema Yanji sherpa"},"vote_count":1,"created_on":"2020-01-12T23:54:36.171350+05:45"},{"idx":"8uYXwQQthMEmdSruNevkF6","contest":"Mr. & Miss Teen Sherpa 2020 - S2","episode":"Mr.&Miss Teen Sherpa -S2","category":null,"contestant":{"voting_id":"02","name":"Pema Yanji sherpa"},"vote_count":1,"created_on":"2020-01-12T23:54:34.196350+05:45"},{"idx":"EHWB77PCNFEXmTMmgh8nP9","contest":"Mr. & Miss Teen Sherpa 2020 - S2","episode":"Mr.&Miss Teen Sherpa -S2","category":null,"contestant":{"voting_id":"02","name":"Pema Yanji sherpa"},"vote_count":1,"created_on":"2020-01-12T23:54:24.712901+05:45"},{"idx":"eWf5cfJhz8JwjpfEFLspke","contest":"Mr. & Miss Teen Sherpa 2020 - S2","episode":"Mr.&Miss Teen Sherpa -S2","category":null,"contestant":{"voting_id":"02","name":"Pema Yanji sherpa"},"vote_count":1,"created_on":"2020-01-12T23:54:13.817610+05:45"},{"idx":"2R2vHGBrSDzcwv9txfy8LN","contest":"Mr. & Miss Teen Sherpa 2020 - S2","episode":"Mr.&Miss Teen Sherpa -S2","category":null,"contestant":{"voting_id":"02","name":"Pema Yanji sherpa"},"vote_count":1,"created_on":"2020-01-12T23:54:01.357478+05:45"},{"idx":"Av7p5DxuBt5XDM3EoBwR45","contest":"Mr. & Miss Teen Sherpa 2020 - S2","episode":"Mr.&Miss Teen Sherpa -S2","category":null,"contestant":{"voting_id":"02","name":"Pema Yanji sherpa"},"vote_count":1,"created_on":"2020-01-12T23:53:49.942194+05:45"},{"idx":"3rJvuEUUtiybppKee8SK2S","contest":"Mr. & Miss Teen Sherpa 2020 - S2","episode":"Mr.&Miss Teen Sherpa -S2","category":null,"contestant":{"voting_id":"02","name":"Pema Yanji sherpa"},"vote_count":1,"created_on":"2020-01-12T23:53:17.226818+05:45"},{"idx":"stRZATLFwUP4yXFiVTqhZj","contest":"Mr. & Miss Teen Sherpa 2020 - S2","episode":"Mr.&Miss Teen Sherpa -S2","category":null,"contestant":{"voting_id":"02","name":"Pema Yanji sherpa"},"vote_count":1,"created_on":"2020-01-12T23:53:06.829938+05:45"},{"idx":"ywYcaJkWP54AqBuApmnAyM","contest":"Mr. & Miss Teen Sherpa 2020 - S2","episode":"Mr.&Miss Teen Sherpa -S2","category":null,"contestant":{"voting_id":"02","name":"Pema Yanji sherpa"},"vote_count":1,"created_on":"2020-01-12T23:52:56.602131+05:45"},{"idx":"PKERWiJBTomSA75RyAX88T","contest":"Mr. & Miss Teen Sherpa 2020 - S2","episode":"Mr.&Miss Teen Sherpa -S2","category":null,"contestant":{"voting_id":"02","name":"Pema Yanji sherpa"},"vote_count":1,"created_on":"2020-01-12T23:52:40.795116+05:45"}]}