{"total_pages":275,"total_records":13717,"next":"https://khalti.com/api/v2/vuservote/?page=99","previous":"https://khalti.com/api/v2/vuservote/?page=97","record_range":[4851,4900],"current_page":98,"records":[{"idx":"6ozAGH3Wfu8noRJ5zxTTpc","contest":"Mr. & Miss Teen Sherpa 2020 - S2","episode":"Mr.&Miss Teen Sherpa -S2","category":null,"contestant":{"voting_id":"02","name":"Pema Yanji sherpa"},"vote_count":1,"created_on":"2020-01-12T23:34:25.738520+05:45"},{"idx":"ku4Y4vUt3mpaYiqtCKPNvd","contest":"Mr. & Miss Teen Sherpa 2020 - S2","episode":"Mr.&Miss Teen Sherpa -S2","category":null,"contestant":{"voting_id":"02","name":"Pema Yanji sherpa"},"vote_count":1,"created_on":"2020-01-12T23:34:20.687709+05:45"},{"idx":"FHmjj44KySyz9hnt7qxEjL","contest":"Mr. & Miss Teen Sherpa 2020 - S2","episode":"Mr.&Miss Teen Sherpa -S2","category":null,"contestant":{"voting_id":"02","name":"Pema Yanji sherpa"},"vote_count":1,"created_on":"2020-01-12T23:34:16.017504+05:45"},{"idx":"dQXrrCxNthaZY5xrHs4RUj","contest":"Mr. & Miss Teen Sherpa 2020 - S2","episode":"Mr.&Miss Teen Sherpa -S2","category":null,"contestant":{"voting_id":"02","name":"Pema Yanji sherpa"},"vote_count":1,"created_on":"2020-01-12T23:34:11.558534+05:45"},{"idx":"aMR34GUGexRa5Hs3tpzHuj","contest":"Mr. & Miss Teen Sherpa 2020 - S2","episode":"Mr.&Miss Teen Sherpa -S2","category":null,"contestant":{"voting_id":"02","name":"Pema Yanji sherpa"},"vote_count":1,"created_on":"2020-01-12T23:34:02.560703+05:45"},{"idx":"nwvzanoPGxXonoTxic3fhJ","contest":"Mr. & Miss Teen Sherpa 2020 - S2","episode":"Mr.&Miss Teen Sherpa -S2","category":null,"contestant":{"voting_id":"02","name":"Pema Yanji sherpa"},"vote_count":1,"created_on":"2020-01-12T23:34:02.207634+05:45"},{"idx":"xtLdUMXzqhehn8TLDzn7c8","contest":"Mr. & Miss Teen Sherpa 2020 - S2","episode":"Mr.&Miss Teen Sherpa -S2","category":null,"contestant":{"voting_id":"02","name":"Pema Yanji sherpa"},"vote_count":1,"created_on":"2020-01-12T23:34:01.882137+05:45"},{"idx":"femSconLhoLJHD6b25Vc8d","contest":"Mr. & Miss Teen Sherpa 2020 - S2","episode":"Mr.&Miss Teen Sherpa -S2","category":null,"contestant":{"voting_id":"02","name":"Pema Yanji sherpa"},"vote_count":1,"created_on":"2020-01-12T23:33:50.829235+05:45"},{"idx":"7Vdb8gycqRKX8ra5YsdyYH","contest":"Mr. & Miss Teen Sherpa 2020 - S2","episode":"Mr.&Miss Teen Sherpa -S2","category":null,"contestant":{"voting_id":"02","name":"Pema Yanji sherpa"},"vote_count":1,"created_on":"2020-01-12T23:33:46.836059+05:45"},{"idx":"Du2egFnhpe42kZC28CTn3f","contest":"Mr. & Miss Teen Sherpa 2020 - S2","episode":"Mr.&Miss Teen Sherpa -S2","category":null,"contestant":{"voting_id":"02","name":"Pema Yanji sherpa"},"vote_count":1,"created_on":"2020-01-12T23:33:40.177393+05:45"},{"idx":"ePwZqWUXRR26jiCB4CtzbQ","contest":"Mr. & Miss Teen Sherpa 2020 - S2","episode":"Mr.&Miss Teen Sherpa -S2","category":null,"contestant":{"voting_id":"02","name":"Pema Yanji sherpa"},"vote_count":1,"created_on":"2020-01-12T23:33:34.484694+05:45"},{"idx":"HBocS6CRDogJjaWsWZwAPT","contest":"Mr. & Miss Teen Sherpa 2020 - S2","episode":"Mr.&Miss Teen Sherpa -S2","category":null,"contestant":{"voting_id":"02","name":"Pema Yanji sherpa"},"vote_count":1,"created_on":"2020-01-12T23:33:27.672517+05:45"},{"idx":"F84fxYdXra4vrPuXprPFRb","contest":"Mr. & Miss Teen Sherpa 2020 - S2","episode":"Mr.&Miss Teen Sherpa -S2","category":null,"contestant":{"voting_id":"02","name":"Pema Yanji sherpa"},"vote_count":1,"created_on":"2020-01-12T23:33:27.166903+05:45"},{"idx":"64gS9Q2c6RrsqtZUHPQaBT","contest":"Mr. & Miss Teen Sherpa 2020 - S2","episode":"Mr.&Miss Teen Sherpa -S2","category":null,"contestant":{"voting_id":"02","name":"Pema Yanji sherpa"},"vote_count":1,"created_on":"2020-01-12T23:33:23.861173+05:45"},{"idx":"EuED3Ra9Ent3Ab9UodpkG3","contest":"Mr. & Miss Teen Sherpa 2020 - S2","episode":"Mr.&Miss Teen Sherpa -S2","category":null,"contestant":{"voting_id":"02","name":"Pema Yanji sherpa"},"vote_count":1,"created_on":"2020-01-12T23:33:17.547482+05:45"},{"idx":"dTGMMbzuGtmgZDLxSKb4aj","contest":"Mr. & Miss Teen Sherpa 2020 - S2","episode":"Mr.&Miss Teen Sherpa -S2","category":null,"contestant":{"voting_id":"02","name":"Pema Yanji sherpa"},"vote_count":1,"created_on":"2020-01-12T23:33:16.961904+05:45"},{"idx":"nLW7fxUT4zNaHtayArbzqS","contest":"Mr. & Miss Teen Sherpa 2020 - S2","episode":"Mr.&Miss Teen Sherpa -S2","category":null,"contestant":{"voting_id":"02","name":"Pema Yanji sherpa"},"vote_count":1,"created_on":"2020-01-12T23:33:09.332672+05:45"},{"idx":"ceg3QmW9SMsQ35HiBVQnES","contest":"Mr. & Miss Teen Sherpa 2020 - S2","episode":"Mr.&Miss Teen Sherpa -S2","category":null,"contestant":{"voting_id":"02","name":"Pema Yanji sherpa"},"vote_count":1,"created_on":"2020-01-12T23:33:07.969526+05:45"},{"idx":"SUc58F2zFGhd5W4hKiE5YD","contest":"Mr. & Miss Teen Sherpa 2020 - S2","episode":"Mr.&Miss Teen Sherpa -S2","category":null,"contestant":{"voting_id":"02","name":"Pema Yanji sherpa"},"vote_count":1,"created_on":"2020-01-12T23:33:02.026076+05:45"},{"idx":"fdUdt6nvij6BjeXBcapJdk","contest":"Mr. & Miss Teen Sherpa 2020 - S2","episode":"Mr.&Miss Teen Sherpa -S2","category":null,"contestant":{"voting_id":"02","name":"Pema Yanji sherpa"},"vote_count":1,"created_on":"2020-01-12T23:32:54.749214+05:45"},{"idx":"rj3TP5LxuU2YFo4DE425Wm","contest":"Mr. & Miss Teen Sherpa 2020 - S2","episode":"Mr.&Miss Teen Sherpa -S2","category":null,"contestant":{"voting_id":"02","name":"Pema Yanji sherpa"},"vote_count":1,"created_on":"2020-01-12T23:32:53.471688+05:45"},{"idx":"iaqCtNgbv88hc9xNJp26UN","contest":"Mr. & Miss Teen Sherpa 2020 - S2","episode":"Mr.&Miss Teen Sherpa -S2","category":null,"contestant":{"voting_id":"02","name":"Pema Yanji sherpa"},"vote_count":1,"created_on":"2020-01-12T23:32:52.929516+05:45"},{"idx":"pYkHdiF4qzspfNnFq3ubYa","contest":"Mr. & Miss Teen Sherpa 2020 - S2","episode":"Mr.&Miss Teen Sherpa -S2","category":null,"contestant":{"voting_id":"02","name":"Pema Yanji sherpa"},"vote_count":1,"created_on":"2020-01-12T23:32:46.699417+05:45"},{"idx":"tyXX8Xu7f5zseMwqxt43z4","contest":"Mr. & Miss Teen Sherpa 2020 - S2","episode":"Mr.&Miss Teen Sherpa -S2","category":null,"contestant":{"voting_id":"02","name":"Pema Yanji sherpa"},"vote_count":1,"created_on":"2020-01-12T23:32:41.691478+05:45"},{"idx":"H3MR4QsUvs86a8xerrkb8g","contest":"Mr. & Miss Teen Sherpa 2020 - S2","episode":"Mr.&Miss Teen Sherpa -S2","category":null,"contestant":{"voting_id":"02","name":"Pema Yanji sherpa"},"vote_count":1,"created_on":"2020-01-12T23:32:40.107922+05:45"},{"idx":"J2nomuKJVqHpJvvJHMSvbc","contest":"Mr. & Miss Teen Sherpa 2020 - S2","episode":"Mr.&Miss Teen Sherpa -S2","category":null,"contestant":{"voting_id":"02","name":"Pema Yanji sherpa"},"vote_count":1,"created_on":"2020-01-12T23:32:39.066414+05:45"},{"idx":"3BgYGkLsectBrjawYw62nR","contest":"Mr. & Miss Teen Sherpa 2020 - S2","episode":"Mr.&Miss Teen Sherpa -S2","category":null,"contestant":{"voting_id":"02","name":"Pema Yanji sherpa"},"vote_count":1,"created_on":"2020-01-12T23:32:31.705402+05:45"},{"idx":"ZrNcvZeyhQD66XAKRiEVn5","contest":"Mr. & Miss Teen Sherpa 2020 - S2","episode":"Mr.&Miss Teen Sherpa -S2","category":null,"contestant":{"voting_id":"02","name":"Pema Yanji sherpa"},"vote_count":1,"created_on":"2020-01-12T23:32:25.657040+05:45"},{"idx":"gV6NyByiuHarR9NeojjXdh","contest":"Mr. & Miss Teen Sherpa 2020 - S2","episode":"Mr.&Miss Teen Sherpa -S2","category":null,"contestant":{"voting_id":"02","name":"Pema Yanji sherpa"},"vote_count":1,"created_on":"2020-01-12T23:32:24.679320+05:45"},{"idx":"XxThdYig3Xpny4qJQRmQP6","contest":"Mr. & Miss Teen Sherpa 2020 - S2","episode":"Mr.&Miss Teen Sherpa -S2","category":null,"contestant":{"voting_id":"02","name":"Pema Yanji sherpa"},"vote_count":1,"created_on":"2020-01-12T23:32:18.812473+05:45"},{"idx":"sv2cNs8eNwzHiA4kcE25ZT","contest":"Mr. & Miss Teen Sherpa 2020 - S2","episode":"Mr.&Miss Teen Sherpa -S2","category":null,"contestant":{"voting_id":"02","name":"Pema Yanji sherpa"},"vote_count":1,"created_on":"2020-01-12T23:32:15.869763+05:45"},{"idx":"vykLkn2y8QzR26n3KTmPuH","contest":"Mr. & Miss Teen Sherpa 2020 - S2","episode":"Mr.&Miss Teen Sherpa -S2","category":null,"contestant":{"voting_id":"02","name":"Pema Yanji sherpa"},"vote_count":1,"created_on":"2020-01-12T23:32:13.319469+05:45"},{"idx":"52QnKRp838EdKCZiFbS27G","contest":"Mr. & Miss Teen Sherpa 2020 - S2","episode":"Mr.&Miss Teen Sherpa -S2","category":null,"contestant":{"voting_id":"02","name":"Pema Yanji sherpa"},"vote_count":1,"created_on":"2020-01-12T23:32:08.318981+05:45"},{"idx":"MeRkq23WJEJdUS39eYMWDk","contest":"Mr. & Miss Teen Sherpa 2020 - S2","episode":"Mr.&Miss Teen Sherpa -S2","category":null,"contestant":{"voting_id":"02","name":"Pema Yanji sherpa"},"vote_count":1,"created_on":"2020-01-12T23:32:06.014706+05:45"},{"idx":"EBRBQY6H9cjAvi4mvVyrRP","contest":"Mr. & Miss Teen Sherpa 2020 - S2","episode":"Mr.&Miss Teen Sherpa -S2","category":null,"contestant":{"voting_id":"02","name":"Pema Yanji sherpa"},"vote_count":1,"created_on":"2020-01-12T23:32:01.171623+05:45"},{"idx":"X77FxqR4jPA945L9g5Znmi","contest":"Mr. & Miss Teen Sherpa 2020 - S2","episode":"Mr.&Miss Teen Sherpa -S2","category":null,"contestant":{"voting_id":"02","name":"Pema Yanji sherpa"},"vote_count":1,"created_on":"2020-01-12T23:31:59.074023+05:45"},{"idx":"XFkxuCuPx2uqhRF6d4muYR","contest":"Mr. & Miss Teen Sherpa 2020 - S2","episode":"Mr.&Miss Teen Sherpa -S2","category":null,"contestant":{"voting_id":"02","name":"Pema Yanji sherpa"},"vote_count":1,"created_on":"2020-01-12T23:31:54.928099+05:45"},{"idx":"4rfCuzvr5YvtsZpButqxbG","contest":"Mr. & Miss Teen Sherpa 2020 - S2","episode":"Mr.&Miss Teen Sherpa -S2","category":null,"contestant":{"voting_id":"02","name":"Pema Yanji sherpa"},"vote_count":1,"created_on":"2020-01-12T23:31:51.675679+05:45"},{"idx":"KHR6P3vDgUZ7EVwXo2HxMc","contest":"Mr. & Miss Teen Sherpa 2020 - S2","episode":"Mr.&Miss Teen Sherpa -S2","category":null,"contestant":{"voting_id":"02","name":"Pema Yanji sherpa"},"vote_count":1,"created_on":"2020-01-12T23:31:47.707987+05:45"},{"idx":"DcnXTBX9VUWZcjLCyDiHfc","contest":"Mr. & Miss Teen Sherpa 2020 - S2","episode":"Mr.&Miss Teen Sherpa -S2","category":null,"contestant":{"voting_id":"02","name":"Pema Yanji sherpa"},"vote_count":1,"created_on":"2020-01-12T23:31:44.118164+05:45"},{"idx":"TC2JaCGd9HiVgqYQRF9VvY","contest":"Mr. & Miss Teen Sherpa 2020 - S2","episode":"Mr.&Miss Teen Sherpa -S2","category":null,"contestant":{"voting_id":"02","name":"Pema Yanji sherpa"},"vote_count":1,"created_on":"2020-01-12T23:31:42.077778+05:45"},{"idx":"KR4uozPizLxb32gJvhP9X6","contest":"Mr. & Miss Teen Sherpa 2020 - S2","episode":"Mr.&Miss Teen Sherpa -S2","category":null,"contestant":{"voting_id":"02","name":"Pema Yanji sherpa"},"vote_count":1,"created_on":"2020-01-12T23:31:33.978416+05:45"},{"idx":"2sZgbiFn59gAQ7JNWFjW3D","contest":"Mr. & Miss Teen Sherpa 2020 - S2","episode":"Mr.&Miss Teen Sherpa -S2","category":null,"contestant":{"voting_id":"02","name":"Pema Yanji sherpa"},"vote_count":1,"created_on":"2020-01-12T23:31:33.190278+05:45"},{"idx":"9QaXdXMSnPh525CDFohqxN","contest":"Mr. & Miss Teen Sherpa 2020 - S2","episode":"Mr.&Miss Teen Sherpa -S2","category":null,"contestant":{"voting_id":"02","name":"Pema Yanji sherpa"},"vote_count":1,"created_on":"2020-01-12T23:31:32.719604+05:45"},{"idx":"tXK3QcxUfbzxGE9whJvALA","contest":"Mr. & Miss Teen Sherpa 2020 - S2","episode":"Mr.&Miss Teen Sherpa -S2","category":null,"contestant":{"voting_id":"02","name":"Pema Yanji sherpa"},"vote_count":1,"created_on":"2020-01-12T23:31:25.062235+05:45"},{"idx":"QHDeQGgxmvjNr49Np9zu3j","contest":"Mr. & Miss Teen Sherpa 2020 - S2","episode":"Mr.&Miss Teen Sherpa -S2","category":null,"contestant":{"voting_id":"02","name":"Pema Yanji sherpa"},"vote_count":1,"created_on":"2020-01-12T23:31:24.275833+05:45"},{"idx":"FW4FpDBa4EUWYFRUKbhCqd","contest":"Mr. & Miss Teen Sherpa 2020 - S2","episode":"Mr.&Miss Teen Sherpa -S2","category":null,"contestant":{"voting_id":"02","name":"Pema Yanji sherpa"},"vote_count":1,"created_on":"2020-01-12T23:31:17.435640+05:45"},{"idx":"WxqTwEPhDb4sMHCuTmGpKY","contest":"Mr. & Miss Teen Sherpa 2020 - S2","episode":"Mr.&Miss Teen Sherpa -S2","category":null,"contestant":{"voting_id":"02","name":"Pema Yanji sherpa"},"vote_count":1,"created_on":"2020-01-12T23:31:15.562276+05:45"},{"idx":"WyrFjK3C234A7MZHfrAoU8","contest":"Mr. & Miss Teen Sherpa 2020 - S2","episode":"Mr.&Miss Teen Sherpa -S2","category":null,"contestant":{"voting_id":"02","name":"Pema Yanji sherpa"},"vote_count":1,"created_on":"2020-01-12T23:31:14.328265+05:45"},{"idx":"GuDriq5Z5ZXFYKq8TMMFS6","contest":"Mr. & Miss Teen Sherpa 2020 - S2","episode":"Mr.&Miss Teen Sherpa -S2","category":null,"contestant":{"voting_id":"02","name":"Pema Yanji sherpa"},"vote_count":1,"created_on":"2020-01-12T23:31:03.038395+05:45"}]}